fixDuration,resp.keys,resp.corr,pracLoop.thisRepN,pracLoop.thisTrialN,pracLoop.thisN,pracLoop.thisIndex,pracLoop.ran,cue,tar,corrAns,targOrientation,Please enter your Participant ID,date,expName,psychopyVersion,OS,frameRate,resp.rt,instResp.keys,instResp.rt,mainLoop.thisRepN,mainLoop.thisTrialN,mainLoop.thisN,mainLoop.thisIndex,mainLoop.ran,blockLoop.thisRepN,blockLoop.thisTrialN,blockLoop.thisN,blockLoop.thisIndex,blockLoop.ran,key_resp.keys,key_resp.rt,probe_response3.keys,probe_response3.rt,getready_resp.keys,getready_resp.rt,response.keys,response.corr,response.rt,trials.thisRepN,trials.thisTrialN,trials.thisN,trials.thisIndex,trials.ran,letter,probe_response.keys,probe_response.rt,trials_2.thisRepN,trials_2.thisTrialN,trials_2.thisN,trials_2.thisIndex,trials_2.ran,trials_3.thisRepN,trials_3.thisTrialN,trials_3.thisN,trials_3.thisIndex,trials_3.ran,trials_4.thisRepN,trials_4.thisTrialN,trials_4.thisN,trials_4.thisIndex,trials_4.ran,trials_5.thisRepN,trials_5.thisTrialN,trials_5.thisN,trials_5.thisIndex,trials_5.ran
1.4,,0,0,0,0,5,1,stim/both.png,stim/congLeft.png,right,180,2062,2020-05-26_15h30.30.240,ANTCPTp,2020.1.2,Win32,60,,,,,,,,,,,,,,,,,,,,,,,,,,,,,,,,,,,,,,,,,,,,,,,,,,
1.35,left,1,0,1,1,15,1,stim/blank.png,stim/congRight.png,left,180,2062,2020-05-26_15h30.30.240,ANTCPTp,2020.1.2,Win32,60,1.012195,,,,,,,,,,,,,,,,,,,,,,,,,,,,,,,,,,,,,,,,,,,,,,,,,
1.2,left,1,0,2,2,3,1,stim/blank.png,stim/congLeft.png,left,0,2062,2020-05-26_15h30.30.240,ANTCPTp,2020.1.2,Win32,60,0.82032,,,,,,,,,,,,,,,,,,,,,,,,,,,,,,,,,,,,,,,,,,,,,,,,,
0.7,right,1,0,3,3,7,1,stim/blank.png,stim/congLeft.png,right,180,2062,2020-05-26_15h30.30.240,ANTCPTp,2020.1.2,Win32,60,0.54329,,,,,,,,,,,,,,,,,,,,,,,,,,,,,,,,,,,,,,,,,,,,,,,,,
1.25,left,0,0,4,4,21,1,stim/both.png,stim/incongLeft.png,right,180,2062,2020-05-26_15h30.30.240,ANTCPTp,2020.1.2,Win32,60,0.623965,,,,,,,,,,,,,,,,,,,,,,,,,,,,,,,,,,,,,,,,,,,,,,,,,
0.6,left,1,0,5,5,12,1,stim/lower.png,stim/congRight.png,left,180,2062,2020-05-26_15h30.30.240,ANTCPTp,2020.1.2,Win32,60,0.792175,,,,,,,,,,,,,,,,,,,,,,,,,,,,,,,,,,,,,,,,,,,,,,,,,
1.05,left,1,0,6,6,0,1,stim/upper.png,stim/congLeft.png,left,0,2062,2020-05-26_15h30.30.240,ANTCPTp,2020.1.2,Win32,60,1.20016,,,,,,,,,,,,,,,,,,,,,,,,,,,,,,,,,,,,,,,,,,,,,,,,,
0.6,,0,0,7,7,17,1,stim/both.png,stim/incongLeft.png,left,0,2062,2020-05-26_15h30.30.240,ANTCPTp,2020.1.2,Win32,60,,,,,,,,,,,,,,,,,,,,,,,,,,,,,,,,,,,,,,,,,,,,,,,,,,
1.35,left,0,0,8,8,23,1,stim/blank.png,stim/incongLeft.png,right,180,2062,2020-05-26_15h30.30.240,ANTCPTp,2020.1.2,Win32,60,1.1083,,,,,,,,,,,,,,,,,,,,,,,,,,,,,,,,,,,,,,,,,,,,,,,,,
1.45,right,1,0,9,9,6,1,stim/centre.png,stim/congLeft.png,right,180,2062,2020-05-26_15h30.30.240,ANTCPTp,2020.1.2,Win32,60,0.98457,,,,,,,,,,,,,,,,,,,,,,,,,,,,,,,,,,,,,,,,,,,,,,,,,
0.65,left,1,0,10,10,19,1,stim/blank.png,stim/incongLeft.png,left,0,2062,2020-05-26_15h30.30.240,ANTCPTp,2020.1.2,Win32,60,1.19631,,,,,,,,,,,,,,,,,,,,,,,,,,,,,,,,,,,,,,,,,,,,,,,,,
1.35,left,0,0,11,11,20,1,stim/lower.png,stim/incongLeft.png,right,180,2062,2020-05-26_15h30.30.240,ANTCPTp,2020.1.2,Win32,60,1.20116,,,,,,,,,,,,,,,,,,,,,,,,,,,,,,,,,,,,,,,,,,,,,,,,,
0.75,right,0,0,12,12,18,1,stim/centre.png,stim/incongLeft.png,left,0,2062,2020-05-26_15h30.30.240,ANTCPTp,2020.1.2,Win32,60,1.48882,,,,,,,,,,,,,,,,,,,,,,,,,,,,,,,,,,,,,,,,,,,,,,,,,
1.45,left,1,0,13,13,2,1,stim/centre.png,stim/congLeft.png,left,0,2062,2020-05-26_15h30.30.240,ANTCPTp,2020.1.2,Win32,60,0.825805,,,,,,,,,,,,,,,,,,,,,,,,,,,,,,,,,,,,,,,,,,,,,,,,,
0.7,right,1,0,14,14,10,1,stim/centre.png,stim/congRight.png,right,0,2062,2020-05-26_15h30.30.240,ANTCPTp,2020.1.2,Win32,60,1.077325,,,,,,,,,,,,,,,,,,,,,,,,,,,,,,,,,,,,,,,,,,,,,,,,,
1,left,1,0,15,15,14,1,stim/centre.png,stim/congRight.png,left,180,2062,2020-05-26_15h30.30.240,ANTCPTp,2020.1.2,Win32,60,1.21055,,,,,,,,,,,,,,,,,,,,,,,,,,,,,,,,,,,,,,,,,,,,,,,,,
0.9,right,1,0,16,16,9,1,stim/both.png,stim/congRight.png,right,0,2062,2020-05-26_15h30.30.240,ANTCPTp,2020.1.2,Win32,60,0.941705,,,,,,,,,,,,,,,,,,,,,,,,,,,,,,,,,,,,,,,,,,,,,,,,,
1.1,right,1,0,17,17,22,1,stim/centre.png,stim/incongLeft.png,right,180,2062,2020-05-26_15h30.30.240,ANTCPTp,2020.1.2,Win32,60,1.12435,,,,,,,,,,,,,,,,,,,,,,,,,,,,,,,,,,,,,,,,,,,,,,,,,
1.35,left,1,0,18,18,16,1,stim/upper.png,stim/incongLeft.png,left,0,2062,2020-05-26_15h30.30.240,ANTCPTp,2020.1.2,Win32,60,1.234505,,,,,,,,,,,,,,,,,,,,,,,,,,,,,,,,,,,,,,,,,,,,,,,,,
1.3,right,1,0,19,19,8,1,stim/upper.png,stim/congRight.png,right,0,2062,2020-05-26_15h30.30.240,ANTCPTp,2020.1.2,Win32,60,0.7072,,,,,,,,,,,,,,,,,,,,,,,,,,,,,,,,,,,,,,,,,,,,,,,,,
0.65,right,1,0,20,20,4,1,stim/lower.png,stim/congLeft.png,right,180,2062,2020-05-26_15h30.30.240,ANTCPTp,2020.1.2,Win32,60,0.81348,,,,,,,,,,,,,,,,,,,,,,,,,,,,,,,,,,,,,,,,,,,,,,,,,
0.6,right,1,0,21,21,11,1,stim/blank.png,stim/congRight.png,right,0,2062,2020-05-26_15h30.30.240,ANTCPTp,2020.1.2,Win32,60,0.676995,,,,,,,,,,,,,,,,,,,,,,,,,,,,,,,,,,,,,,,,,,,,,,,,,
0.5,left,1,0,22,22,1,1,stim/both.png,stim/congLeft.png,left,0,2062,2020-05-26_15h30.30.240,ANTCPTp,2020.1.2,Win32,60,0.760525,,,,,,,,,,,,,,,,,,,,,,,,,,,,,,,,,,,,,,,,,,,,,,,,,
0.65,left,1,0,23,23,13,1,stim/both.png,stim/congRight.png,left,180,2062,2020-05-26_15h30.30.240,ANTCPTp,2020.1.2,Win32,60,0.84902,,,,,,,,,,,,,,,,,,,,,,,,,,,,,,,,,,,,,,,,,,,,,,,,,
1.55,left,1,,,,,,stim/centre.png,stim/neutralLeft.png,left,0,2062,2020-05-26_15h30.30.240,ANTCPTp,2020.1.2,Win32,60,1.13487,space,8.780055,0,0,0,34,1,,,,,,,,,,,,,,,,,,,,,,,,,,,,,,,,,,,,,,,,,,
1,left,1,,,,,,stim/blank.png,stim/incongRight.png,left,180,2062,2020-05-26_15h30.30.240,ANTCPTp,2020.1.2,Win32,60,1.201495,,,0,1,1,31,1,,,,,,,,,,,,,,,,,,,,,,,,,,,,,,,,,,,,,,,,,,
0.5,left,1,,,,,,stim/centre.png,stim/congRight.png,left,180,2062,2020-05-26_15h30.30.240,ANTCPTp,2020.1.2,Win32,60,0.743355,,,0,2,2,14,1,,,,,,,,,,,,,,,,,,,,,,,,,,,,,,,,,,,,,,,,,,
0.8,right,1,,,,,,stim/upper.png,stim/incongRight.png,right,0,2062,2020-05-26_15h30.30.240,ANTCPTp,2020.1.2,Win32,60,0.90715,,,0,3,3,24,1,,,,,,,,,,,,,,,,,,,,,,,,,,,,,,,,,,,,,,,,,,
1.05,left,1,,,,,,stim/upper.png,stim/neutralLeft.png,left,0,2062,2020-05-26_15h30.30.240,ANTCPTp,2020.1.2,Win32,60,0.74186,,,0,4,4,32,1,,,,,,,,,,,,,,,,,,,,,,,,,,,,,,,,,,,,,,,,,,
1.3,right,1,,,,,,stim/centre.png,stim/congRight.png,right,0,2062,2020-05-26_15h30.30.240,ANTCPTp,2020.1.2,Win32,60,0.812895,,,0,5,5,10,1,,,,,,,,,,,,,,,,,,,,,,,,,,,,,,,,,,,,,,,,,,
0.95,right,1,,,,,,stim/blank.png,stim/neutralRight.png,right,0,2062,2020-05-26_15h30.30.240,ANTCPTp,2020.1.2,Win32,60,0.743745,,,0,6,6,43,1,,,,,,,,,,,,,,,,,,,,,,,,,,,,,,,,,,,,,,,,,,
1.05,right,1,,,,,,stim/lower.png,stim/congLeft.png,right,180,2062,2020-05-26_15h30.30.240,ANTCPTp,2020.1.2,Win32,60,0.905595,,,0,7,7,4,1,,,,,,,,,,,,,,,,,,,,,,,,,,,,,,,,,,,,,,,,,,
0.4,right,1,,,,,,stim/centre.png,stim/neutralLeft.png,right,180,2062,2020-05-26_15h30.30.240,ANTCPTp,2020.1.2,Win32,60,0.7185,,,0,8,8,38,1,,,,,,,,,,,,,,,,,,,,,,,,,,,,,,,,,,,,,,,,,,
0.9,right,1,,,,,,stim/both.png,stim/neutralLeft.png,right,180,2062,2020-05-26_15h30.30.240,ANTCPTp,2020.1.2,Win32,60,0.67082,,,0,9,9,37,1,,,,,,,,,,,,,,,,,,,,,,,,,,,,,,,,,,,,,,,,,,
1.35,right,1,,,,,,stim/lower.png,stim/neutralLeft.png,right,180,2062,2020-05-26_15h30.30.240,ANTCPTp,2020.1.2,Win32,60,0.53494,,,0,10,10,36,1,,,,,,,,,,,,,,,,,,,,,,,,,,,,,,,,,,,,,,,,,,
0.75,left,1,,,,,,stim/centre.png,stim/incongLeft.png,left,0,2062,2020-05-26_15h30.30.240,ANTCPTp,2020.1.2,Win32,60,1.021455,,,0,11,11,18,1,,,,,,,,,,,,,,,,,,,,,,,,,,,,,,,,,,,,,,,,,,
0.8,right,1,,,,,,stim/blank.png,stim/incongRight.png,right,0,2062,2020-05-26_15h30.30.240,ANTCPTp,2020.1.2,Win32,60,0.934585,,,0,12,12,27,1,,,,,,,,,,,,,,,,,,,,,,,,,,,,,,,,,,,,,,,,,,
1.05,right,1,,,,,,stim/both.png,stim/incongRight.png,right,0,2062,2020-05-26_15h30.30.240,ANTCPTp,2020.1.2,Win32,60,0.79094,,,0,13,13,25,1,,,,,,,,,,,,,,,,,,,,,,,,,,,,,,,,,,,,,,,,,,
0.8,right,1,,,,,,stim/lower.png,stim/incongLeft.png,right,180,2062,2020-05-26_15h30.30.240,ANTCPTp,2020.1.2,Win32,60,0.968635,,,0,14,14,20,1,,,,,,,,,,,,,,,,,,,,,,,,,,,,,,,,,,,,,,,,,,
0.4,left,1,,,,,,stim/blank.png,stim/neutralLeft.png,left,0,2062,2020-05-26_15h30.30.240,ANTCPTp,2020.1.2,Win32,60,0.90695,,,0,15,15,35,1,,,,,,,,,,,,,,,,,,,,,,,,,,,,,,,,,,,,,,,,,,
1.2,right,1,,,,,,stim/blank.png,stim/congLeft.png,right,180,2062,2020-05-26_15h30.30.240,ANTCPTp,2020.1.2,Win32,60,0.72714,,,0,16,16,7,1,,,,,,,,,,,,,,,,,,,,,,,,,,,,,,,,,,,,,,,,,,
1.2,right,1,,,,,,stim/upper.png,stim/congRight.png,right,0,2062,2020-05-26_15h30.30.240,ANTCPTp,2020.1.2,Win32,60,0.717725,,,0,17,17,8,1,,,,,,,,,,,,,,,,,,,,,,,,,,,,,,,,,,,,,,,,,,
0.5,right,1,,,,,,stim/centre.png,stim/incongLeft.png,right,180,2062,2020-05-26_15h30.30.240,ANTCPTp,2020.1.2,Win32,60,0.996315,,,0,18,18,22,1,,,,,,,,,,,,,,,,,,,,,,,,,,,,,,,,,,,,,,,,,,
1.55,right,1,,,,,,stim/centre.png,stim/incongRight.png,right,0,2062,2020-05-26_15h30.30.240,ANTCPTp,2020.1.2,Win32,60,0.85577,,,0,19,19,26,1,,,,,,,,,,,,,,,,,,,,,,,,,,,,,,,,,,,,,,,,,,
0.8,left,1,,,,,,stim/both.png,stim/neutralLeft.png,left,0,2062,2020-05-26_15h30.30.240,ANTCPTp,2020.1.2,Win32,60,0.94062,,,0,20,20,33,1,,,,,,,,,,,,,,,,,,,,,,,,,,,,,,,,,,,,,,,,,,
0.7,right,1,,,,,,stim/upper.png,stim/neutralRight.png,right,0,2062,2020-05-26_15h30.30.240,ANTCPTp,2020.1.2,Win32,60,0.86375,,,0,21,21,40,1,,,,,,,,,,,,,,,,,,,,,,,,,,,,,,,,,,,,,,,,,,
1.45,right,1,,,,,,stim/blank.png,stim/congRight.png,right,0,2062,2020-05-26_15h30.30.240,ANTCPTp,2020.1.2,Win32,60,0.82031,,,0,22,22,11,1,,,,,,,,,,,,,,,,,,,,,,,,,,,,,,,,,,,,,,,,,,
1.35,left,1,,,,,,stim/both.png,stim/incongRight.png,left,180,2062,2020-05-26_15h30.30.240,ANTCPTp,2020.1.2,Win32,60,0.974025,,,0,23,23,29,1,,,,,,,,,,,,,,,,,,,,,,,,,,,,,,,,,,,,,,,,,,
0.45,left,1,,,,,,stim/upper.png,stim/congLeft.png,left,0,2062,2020-05-26_15h30.30.240,ANTCPTp,2020.1.2,Win32,60,0.895075,,,0,24,24,0,1,,,,,,,,,,,,,,,,,,,,,,,,,,,,,,,,,,,,,,,,,,
1.15,left,1,,,,,,stim/blank.png,stim/neutralRight.png,left,180,2062,2020-05-26_15h30.30.240,ANTCPTp,2020.1.2,Win32,60,0.800745,,,0,25,25,47,1,,,,,,,,,,,,,,,,,,,,,,,,,,,,,,,,,,,,,,,,,,
0.45,right,1,,,,,,stim/centre.png,stim/congLeft.png,right,180,2062,2020-05-26_15h30.30.240,ANTCPTp,2020.1.2,Win32,60,0.661645,,,0,26,26,6,1,,,,,,,,,,,,,,,,,,,,,,,,,,,,,,,,,,,,,,,,,,
0.75,left,1,,,,,,stim/both.png,stim/congRight.png,left,180,2062,2020-05-26_15h30.30.240,ANTCPTp,2020.1.2,Win32,60,0.66301,,,0,27,27,13,1,,,,,,,,,,,,,,,,,,,,,,,,,,,,,,,,,,,,,,,,,,
1,left,1,,,,,,stim/both.png,stim/neutralRight.png,left,180,2062,2020-05-26_15h30.30.240,ANTCPTp,2020.1.2,Win32,60,0.622195,,,0,28,28,45,1,,,,,,,,,,,,,,,,,,,,,,,,,,,,,,,,,,,,,,,,,,
1.2,left,1,,,,,,stim/lower.png,stim/incongRight.png,left,180,2062,2020-05-26_15h30.30.240,ANTCPTp,2020.1.2,Win32,60,0.720045,,,0,29,29,28,1,,,,,,,,,,,,,,,,,,,,,,,,,,,,,,,,,,,,,,,,,,
1.55,left,1,,,,,,stim/both.png,stim/incongLeft.png,left,0,2062,2020-05-26_15h30.30.240,ANTCPTp,2020.1.2,Win32,60,1.0043,,,0,30,30,17,1,,,,,,,,,,,,,,,,,,,,,,,,,,,,,,,,,,,,,,,,,,
0.8,right,1,,,,,,stim/blank.png,stim/incongLeft.png,right,180,2062,2020-05-26_15h30.30.240,ANTCPTp,2020.1.2,Win32,60,0.7894,,,0,31,31,23,1,,,,,,,,,,,,,,,,,,,,,,,,,,,,,,,,,,,,,,,,,,
1.35,right,1,,,,,,stim/both.png,stim/congLeft.png,right,180,2062,2020-05-26_15h30.30.240,ANTCPTp,2020.1.2,Win32,60,0.769535,,,0,32,32,5,1,,,,,,,,,,,,,,,,,,,,,,,,,,,,,,,,,,,,,,,,,,
0.5,left,1,,,,,,stim/centre.png,stim/neutralRight.png,left,180,2062,2020-05-26_15h30.30.240,ANTCPTp,2020.1.2,Win32,60,0.655675,,,0,33,33,46,1,,,,,,,,,,,,,,,,,,,,,,,,,,,,,,,,,,,,,,,,,,
1.2,left,0,,,,,,stim/blank.png,stim/neutralLeft.png,right,180,2062,2020-05-26_15h30.30.240,ANTCPTp,2020.1.2,Win32,60,0.67901,,,0,34,34,39,1,,,,,,,,,,,,,,,,,,,,,,,,,,,,,,,,,,,,,,,,,,
1.3,left,1,,,,,,stim/lower.png,stim/neutralRight.png,left,180,2062,2020-05-26_15h30.30.240,ANTCPTp,2020.1.2,Win32,60,0.68105,,,0,35,35,44,1,,,,,,,,,,,,,,,,,,,,,,,,,,,,,,,,,,,,,,,,,,
0.6,left,1,,,,,,stim/centre.png,stim/congLeft.png,left,0,2062,2020-05-26_15h30.30.240,ANTCPTp,2020.1.2,Win32,60,0.807785,,,0,36,36,2,1,,,,,,,,,,,,,,,,,,,,,,,,,,,,,,,,,,,,,,,,,,
0.7,right,1,,,,,,stim/both.png,stim/congRight.png,right,0,2062,2020-05-26_15h30.30.240,ANTCPTp,2020.1.2,Win32,60,0.644425,,,0,37,37,9,1,,,,,,,,,,,,,,,,,,,,,,,,,,,,,,,,,,,,,,,,,,
1.3,right,1,,,,,,stim/both.png,stim/neutralRight.png,right,0,2062,2020-05-26_15h30.30.240,ANTCPTp,2020.1.2,Win32,60,0.64026,,,0,38,38,41,1,,,,,,,,,,,,,,,,,,,,,,,,,,,,,,,,,,,,,,,,,,
1.4,left,1,,,,,,stim/both.png,stim/congLeft.png,left,0,2062,2020-05-26_15h30.30.240,ANTCPTp,2020.1.2,Win32,60,0.672315,,,0,39,39,1,1,,,,,,,,,,,,,,,,,,,,,,,,,,,,,,,,,,,,,,,,,,
0.7,left,1,,,,,,stim/blank.png,stim/incongLeft.png,left,0,2062,2020-05-26_15h30.30.240,ANTCPTp,2020.1.2,Win32,60,0.875145,,,0,40,40,19,1,,,,,,,,,,,,,,,,,,,,,,,,,,,,,,,,,,,,,,,,,,
1.5,left,1,,,,,,stim/blank.png,stim/congLeft.png,left,0,2062,2020-05-26_15h30.30.240,ANTCPTp,2020.1.2,Win32,60,0.61254,,,0,41,41,3,1,,,,,,,,,,,,,,,,,,,,,,,,,,,,,,,,,,,,,,,,,,
1,right,1,,,,,,stim/both.png,stim/incongLeft.png,right,180,2062,2020-05-26_15h30.30.240,ANTCPTp,2020.1.2,Win32,60,0.813705,,,0,42,42,21,1,,,,,,,,,,,,,,,,,,,,,,,,,,,,,,,,,,,,,,,,,,
0.9,left,1,,,,,,stim/upper.png,stim/incongLeft.png,left,0,2062,2020-05-26_15h30.30.240,ANTCPTp,2020.1.2,Win32,60,0.93083,,,0,43,43,16,1,,,,,,,,,,,,,,,,,,,,,,,,,,,,,,,,,,,,,,,,,,
0.4,left,1,,,,,,stim/blank.png,stim/congRight.png,left,180,2062,2020-05-26_15h30.30.240,ANTCPTp,2020.1.2,Win32,60,0.800735,,,0,44,44,15,1,,,,,,,,,,,,,,,,,,,,,,,,,,,,,,,,,,,,,,,,,,
0.95,left,1,,,,,,stim/lower.png,stim/congRight.png,left,180,2062,2020-05-26_15h30.30.240,ANTCPTp,2020.1.2,Win32,60,0.57083,,,0,45,45,12,1,,,,,,,,,,,,,,,,,,,,,,,,,,,,,,,,,,,,,,,,,,
1.1,right,1,,,,,,stim/centre.png,stim/neutralRight.png,right,0,2062,2020-05-26_15h30.30.240,ANTCPTp,2020.1.2,Win32,60,0.720915,,,0,46,46,42,1,,,,,,,,,,,,,,,,,,,,,,,,,,,,,,,,,,,,,,,,,,
0.7,left,1,,,,,,stim/centre.png,stim/incongRight.png,left,180,2062,2020-05-26_15h30.30.240,ANTCPTp,2020.1.2,Win32,60,0.86691,,,0,47,47,30,1,,,,,,,,,,,,,,,,,,,,,,,,,,,,,,,,,,,,,,,,,,
0.8,left,1,,,,,,stim/lower.png,stim/incongRight.png,left,180,2062,2020-05-26_15h30.30.240,ANTCPTp,2020.1.2,Win32,60,0.7932,,,1,0,48,28,1,,,,,,,,,,,,,,,,,,,,,,,,,,,,,,,,,,,,,,,,,,
1.45,right,1,,,,,,stim/blank.png,stim/incongLeft.png,right,180,2062,2020-05-26_15h30.30.240,ANTCPTp,2020.1.2,Win32,60,0.86458,,,1,1,49,23,1,,,,,,,,,,,,,,,,,,,,,,,,,,,,,,,,,,,,,,,,,,
0.4,left,1,,,,,,stim/blank.png,stim/incongRight.png,left,180,2062,2020-05-26_15h30.30.240,ANTCPTp,2020.1.2,Win32,60,0.800785,,,1,2,50,31,1,,,,,,,,,,,,,,,,,,,,,,,,,,,,,,,,,,,,,,,,,,
1.1,right,1,,,,,,stim/lower.png,stim/congLeft.png,right,180,2062,2020-05-26_15h30.30.240,ANTCPTp,2020.1.2,Win32,60,0.708635,,,1,3,51,4,1,,,,,,,,,,,,,,,,,,,,,,,,,,,,,,,,,,,,,,,,,,
0.55,left,1,,,,,,stim/blank.png,stim/neutralRight.png,left,180,2062,2020-05-26_15h30.30.240,ANTCPTp,2020.1.2,Win32,60,0.74043,,,1,4,52,47,1,,,,,,,,,,,,,,,,,,,,,,,,,,,,,,,,,,,,,,,,,,
1.1,right,1,,,,,,stim/centre.png,stim/neutralRight.png,right,0,2062,2020-05-26_15h30.30.240,ANTCPTp,2020.1.2,Win32,60,0.734425,,,1,5,53,42,1,,,,,,,,,,,,,,,,,,,,,,,,,,,,,,,,,,,,,,,,,,
0.65,left,1,,,,,,stim/centre.png,stim/incongRight.png,left,180,2062,2020-05-26_15h30.30.240,ANTCPTp,2020.1.2,Win32,60,1.021935,,,1,6,54,30,1,,,,,,,,,,,,,,,,,,,,,,,,,,,,,,,,,,,,,,,,,,
0.75,right,1,,,,,,stim/centre.png,stim/incongRight.png,right,0,2062,2020-05-26_15h30.30.240,ANTCPTp,2020.1.2,Win32,60,0.9199,,,1,7,55,26,1,,,,,,,,,,,,,,,,,,,,,,,,,,,,,,,,,,,,,,,,,,
0.5,right,1,,,,,,stim/blank.png,stim/congLeft.png,right,180,2062,2020-05-26_15h30.30.240,ANTCPTp,2020.1.2,Win32,60,0.89687,,,1,8,56,7,1,,,,,,,,,,,,,,,,,,,,,,,,,,,,,,,,,,,,,,,,,,
0.45,left,1,,,,,,stim/upper.png,stim/neutralLeft.png,left,0,2062,2020-05-26_15h30.30.240,ANTCPTp,2020.1.2,Win32,60,0.78889,,,1,9,57,32,1,,,,,,,,,,,,,,,,,,,,,,,,,,,,,,,,,,,,,,,,,,
1.35,left,1,,,,,,stim/both.png,stim/neutralLeft.png,left,0,2062,2020-05-26_15h30.30.240,ANTCPTp,2020.1.2,Win32,60,0.75257,,,1,10,58,33,1,,,,,,,,,,,,,,,,,,,,,,,,,,,,,,,,,,,,,,,,,,
0.85,left,1,,,,,,stim/lower.png,stim/congRight.png,left,180,2062,2020-05-26_15h30.30.240,ANTCPTp,2020.1.2,Win32,60,0.657755,,,1,11,59,12,1,,,,,,,,,,,,,,,,,,,,,,,,,,,,,,,,,,,,,,,,,,
0.45,left,1,,,,,,stim/blank.png,stim/congRight.png,left,180,2062,2020-05-26_15h30.30.240,ANTCPTp,2020.1.2,Win32,60,0.679305,,,1,12,60,15,1,,,,,,,,,,,,,,,,,,,,,,,,,,,,,,,,,,,,,,,,,,
1.05,right,1,,,,,,stim/blank.png,stim/neutralRight.png,right,0,2062,2020-05-26_15h30.30.240,ANTCPTp,2020.1.2,Win32,60,0.61158,,,1,13,61,43,1,,,,,,,,,,,,,,,,,,,,,,,,,,,,,,,,,,,,,,,,,,
1.35,right,0,,,,,,stim/blank.png,stim/neutralLeft.png,left,0,2062,2020-05-26_15h30.30.240,ANTCPTp,2020.1.2,Win32,60,0.90347,,,1,14,62,35,1,,,,,,,,,,,,,,,,,,,,,,,,,,,,,,,,,,,,,,,,,,
0.7,right,1,,,,,,stim/both.png,stim/congLeft.png,right,180,2062,2020-05-26_15h30.30.240,ANTCPTp,2020.1.2,Win32,60,0.727645,,,1,15,63,5,1,,,,,,,,,,,,,,,,,,,,,,,,,,,,,,,,,,,,,,,,,,
1,left,1,,,,,,stim/blank.png,stim/incongLeft.png,left,0,2062,2020-05-26_15h30.30.240,ANTCPTp,2020.1.2,Win32,60,0.780625,,,1,16,64,19,1,,,,,,,,,,,,,,,,,,,,,,,,,,,,,,,,,,,,,,,,,,
1,left,1,,,,,,stim/upper.png,stim/congLeft.png,left,0,2062,2020-05-26_15h30.30.240,ANTCPTp,2020.1.2,Win32,60,0.646635,,,1,17,65,0,1,,,,,,,,,,,,,,,,,,,,,,,,,,,,,,,,,,,,,,,,,,
0.4,right,1,,,,,,stim/both.png,stim/incongLeft.png,right,180,2062,2020-05-26_15h30.30.240,ANTCPTp,2020.1.2,Win32,60,0.76738,,,1,18,66,21,1,,,,,,,,,,,,,,,,,,,,,,,,,,,,,,,,,,,,,,,,,,
0.95,left,1,,,,,,stim/both.png,stim/congRight.png,left,180,2062,2020-05-26_15h30.30.240,ANTCPTp,2020.1.2,Win32,60,0.811345,,,1,19,67,13,1,,,,,,,,,,,,,,,,,,,,,,,,,,,,,,,,,,,,,,,,,,
0.5,right,1,,,,,,stim/upper.png,stim/incongRight.png,right,0,2062,2020-05-26_15h30.30.240,ANTCPTp,2020.1.2,Win32,60,0.761235,,,1,20,68,24,1,,,,,,,,,,,,,,,,,,,,,,,,,,,,,,,,,,,,,,,,,,
1,right,1,,,,,,stim/blank.png,stim/neutralLeft.png,right,180,2062,2020-05-26_15h30.30.240,ANTCPTp,2020.1.2,Win32,60,0.603995,,,1,21,69,39,1,,,,,,,,,,,,,,,,,,,,,,,,,,,,,,,,,,,,,,,,,,
0.95,right,1,,,,,,stim/both.png,stim/neutralRight.png,right,0,2062,2020-05-26_15h30.30.240,ANTCPTp,2020.1.2,Win32,60,0.584205,,,1,22,70,41,1,,,,,,,,,,,,,,,,,,,,,,,,,,,,,,,,,,,,,,,,,,
0.7,right,1,,,,,,stim/lower.png,stim/incongLeft.png,right,180,2062,2020-05-26_15h30.30.240,ANTCPTp,2020.1.2,Win32,60,0.773435,,,1,23,71,20,1,,,,,,,,,,,,,,,,,,,,,,,,,,,,,,,,,,,,,,,,,,
1.45,left,1,,,,,,stim/centre.png,stim/congRight.png,left,180,2062,2020-05-26_15h30.30.240,ANTCPTp,2020.1.2,Win32,60,1.045345,,,1,24,72,14,1,,,,,,,,,,,,,,,,,,,,,,,,,,,,,,,,,,,,,,,,,,
1.2,left,1,,,,,,stim/centre.png,stim/incongLeft.png,left,0,2062,2020-05-26_15h30.30.240,ANTCPTp,2020.1.2,Win32,60,1.028515,,,1,25,73,18,1,,,,,,,,,,,,,,,,,,,,,,,,,,,,,,,,,,,,,,,,,,
0.8,left,1,,,,,,stim/upper.png,stim/incongLeft.png,left,0,2062,2020-05-26_15h30.30.240,ANTCPTp,2020.1.2,Win32,60,0.79698,,,1,26,74,16,1,,,,,,,,,,,,,,,,,,,,,,,,,,,,,,,,,,,,,,,,,,
0.65,left,1,,,,,,stim/blank.png,stim/congLeft.png,left,0,2062,2020-05-26_15h30.30.240,ANTCPTp,2020.1.2,Win32,60,0.62948,,,1,27,75,3,1,,,,,,,,,,,,,,,,,,,,,,,,,,,,,,,,,,,,,,,,,,
1.4,right,1,,,,,,stim/both.png,stim/congRight.png,right,0,2062,2020-05-26_15h30.30.240,ANTCPTp,2020.1.2,Win32,60,0.637705,,,1,28,76,9,1,,,,,,,,,,,,,,,,,,,,,,,,,,,,,,,,,,,,,,,,,,
1.4,right,1,,,,,,stim/blank.png,stim/incongRight.png,right,0,2062,2020-05-26_15h30.30.240,ANTCPTp,2020.1.2,Win32,60,0.87659,,,1,29,77,27,1,,,,,,,,,,,,,,,,,,,,,,,,,,,,,,,,,,,,,,,,,,
0.65,right,1,,,,,,stim/centre.png,stim/neutralLeft.png,right,180,2062,2020-05-26_15h30.30.240,ANTCPTp,2020.1.2,Win32,60,0.793455,,,1,30,78,38,1,,,,,,,,,,,,,,,,,,,,,,,,,,,,,,,,,,,,,,,,,,
0.55,right,1,,,,,,stim/both.png,stim/neutralLeft.png,right,180,2062,2020-05-26_15h30.30.240,ANTCPTp,2020.1.2,Win32,60,0.750575,,,1,31,79,37,1,,,,,,,,,,,,,,,,,,,,,,,,,,,,,,,,,,,,,,,,,,
1.15,right,1,,,,,,stim/centre.png,stim/incongLeft.png,right,180,2062,2020-05-26_15h30.30.240,ANTCPTp,2020.1.2,Win32,60,0.851035,,,1,32,80,22,1,,,,,,,,,,,,,,,,,,,,,,,,,,,,,,,,,,,,,,,,,,
1.5,left,1,,,,,,stim/lower.png,stim/neutralRight.png,left,180,2062,2020-05-26_15h30.30.240,ANTCPTp,2020.1.2,Win32,60,0.7175,,,1,33,81,44,1,,,,,,,,,,,,,,,,,,,,,,,,,,,,,,,,,,,,,,,,,,
0.7,right,1,,,,,,stim/upper.png,stim/neutralRight.png,right,0,2062,2020-05-26_15h30.30.240,ANTCPTp,2020.1.2,Win32,60,0.72561,,,1,34,82,40,1,,,,,,,,,,,,,,,,,,,,,,,,,,,,,,,,,,,,,,,,,,
0.45,left,1,,,,,,stim/both.png,stim/incongLeft.png,left,0,2062,2020-05-26_15h30.30.240,ANTCPTp,2020.1.2,Win32,60,0.88841,,,1,35,83,17,1,,,,,,,,,,,,,,,,,,,,,,,,,,,,,,,,,,,,,,,,,,
1,left,1,,,,,,stim/both.png,stim/incongRight.png,left,180,2062,2020-05-26_15h30.30.240,ANTCPTp,2020.1.2,Win32,60,0.877745,,,1,36,84,29,1,,,,,,,,,,,,,,,,,,,,,,,,,,,,,,,,,,,,,,,,,,
1,right,1,,,,,,stim/upper.png,stim/congRight.png,right,0,2062,2020-05-26_15h30.30.240,ANTCPTp,2020.1.2,Win32,60,0.676875,,,1,37,85,8,1,,,,,,,,,,,,,,,,,,,,,,,,,,,,,,,,,,,,,,,,,,
0.65,right,1,,,,,,stim/both.png,stim/incongRight.png,right,0,2062,2020-05-26_15h30.30.240,ANTCPTp,2020.1.2,Win32,60,0.650645,,,1,38,86,25,1,,,,,,,,,,,,,,,,,,,,,,,,,,,,,,,,,,,,,,,,,,
1.45,left,1,,,,,,stim/centre.png,stim/neutralRight.png,left,180,2062,2020-05-26_15h30.30.240,ANTCPTp,2020.1.2,Win32,60,0.734155,,,1,39,87,46,1,,,,,,,,,,,,,,,,,,,,,,,,,,,,,,,,,,,,,,,,,,
0.55,right,1,,,,,,stim/centre.png,stim/congRight.png,right,0,2062,2020-05-26_15h30.30.240,ANTCPTp,2020.1.2,Win32,60,0.828265,,,1,40,88,10,1,,,,,,,,,,,,,,,,,,,,,,,,,,,,,,,,,,,,,,,,,,
1.45,left,1,,,,,,stim/both.png,stim/neutralRight.png,left,180,2062,2020-05-26_15h30.30.240,ANTCPTp,2020.1.2,Win32,60,0.74596,,,1,41,89,45,1,,,,,,,,,,,,,,,,,,,,,,,,,,,,,,,,,,,,,,,,,,
0.55,left,1,,,,,,stim/centre.png,stim/congLeft.png,left,0,2062,2020-05-26_15h30.30.240,ANTCPTp,2020.1.2,Win32,60,0.784805,,,1,42,90,2,1,,,,,,,,,,,,,,,,,,,,,,,,,,,,,,,,,,,,,,,,,,
1.3,left,1,,,,,,stim/centre.png,stim/neutralLeft.png,left,0,2062,2020-05-26_15h30.30.240,ANTCPTp,2020.1.2,Win32,60,0.653505,,,1,43,91,34,1,,,,,,,,,,,,,,,,,,,,,,,,,,,,,,,,,,,,,,,,,,
1.5,right,1,,,,,,stim/lower.png,stim/neutralLeft.png,right,180,2062,2020-05-26_15h30.30.240,ANTCPTp,2020.1.2,Win32,60,0.70426,,,1,44,92,36,1,,,,,,,,,,,,,,,,,,,,,,,,,,,,,,,,,,,,,,,,,,
1.35,right,1,,,,,,stim/centre.png,stim/congLeft.png,right,180,2062,2020-05-26_15h30.30.240,ANTCPTp,2020.1.2,Win32,60,0.550845,,,1,45,93,6,1,,,,,,,,,,,,,,,,,,,,,,,,,,,,,,,,,,,,,,,,,,
0.8,right,1,,,,,,stim/blank.png,stim/congRight.png,right,0,2062,2020-05-26_15h30.30.240,ANTCPTp,2020.1.2,Win32,60,0.98673,,,1,46,94,11,1,,,,,,,,,,,,,,,,,,,,,,,,,,,,,,,,,,,,,,,,,,
0.65,left,1,,,,,,stim/both.png,stim/congLeft.png,left,0,2062,2020-05-26_15h30.30.240,ANTCPTp,2020.1.2,Win32,60,0.690555,,,1,47,95,1,1,,,,,,,,,,,,,,,,,,,,,,,,,,,,,,,,,,,,,,,,,,
,,,,,,,,,,,,2062,2020-05-26_15h30.30.240,ANTCPTp,2020.1.2,Win32,60,,,,,,,,,0,0,0,0,1,,,,,,,,,,,,,,,,,,,,,,,,,,,,,,,,,,,,,
0.65,right,1,,,,,,stim/blank.png,stim/congRight.png,right,0,2062,2020-05-26_15h30.30.240,ANTCPTp,2020.1.2,Win32,60,0.74944,,,0,0,0,11,1,,,,,,,,,,,,,,,,,,,,,,,,,,,,,,,,,,,,,,,,,,
1.15,left,1,,,,,,stim/upper.png,stim/congLeft.png,left,0,2062,2020-05-26_15h30.30.240,ANTCPTp,2020.1.2,Win32,60,0.842305,,,0,1,1,0,1,,,,,,,,,,,,,,,,,,,,,,,,,,,,,,,,,,,,,,,,,,
0.5,right,1,,,,,,stim/both.png,stim/incongRight.png,right,0,2062,2020-05-26_15h30.30.240,ANTCPTp,2020.1.2,Win32,60,0.854135,,,0,2,2,25,1,,,,,,,,,,,,,,,,,,,,,,,,,,,,,,,,,,,,,,,,,,
1.1,right,1,,,,,,stim/centre.png,stim/neutralRight.png,right,0,2062,2020-05-26_15h30.30.240,ANTCPTp,2020.1.2,Win32,60,0.585455,,,0,3,3,42,1,,,,,,,,,,,,,,,,,,,,,,,,,,,,,,,,,,,,,,,,,,
1.25,left,1,,,,,,stim/both.png,stim/incongLeft.png,left,0,2062,2020-05-26_15h30.30.240,ANTCPTp,2020.1.2,Win32,60,1.04082,,,0,4,4,17,1,,,,,,,,,,,,,,,,,,,,,,,,,,,,,,,,,,,,,,,,,,
1.15,right,1,,,,,,stim/centre.png,stim/neutralLeft.png,right,180,2062,2020-05-26_15h30.30.240,ANTCPTp,2020.1.2,Win32,60,0.897795,,,0,5,5,38,1,,,,,,,,,,,,,,,,,,,,,,,,,,,,,,,,,,,,,,,,,,
0.4,left,1,,,,,,stim/blank.png,stim/incongLeft.png,left,0,2062,2020-05-26_15h30.30.240,ANTCPTp,2020.1.2,Win32,60,0.87183,,,0,6,6,19,1,,,,,,,,,,,,,,,,,,,,,,,,,,,,,,,,,,,,,,,,,,
1.2,left,1,,,,,,stim/centre.png,stim/incongRight.png,left,180,2062,2020-05-26_15h30.30.240,ANTCPTp,2020.1.2,Win32,60,1.270385,,,0,7,7,30,1,,,,,,,,,,,,,,,,,,,,,,,,,,,,,,,,,,,,,,,,,,
0.75,left,1,,,,,,stim/both.png,stim/congRight.png,left,180,2062,2020-05-26_15h30.30.240,ANTCPTp,2020.1.2,Win32,60,0.71748,,,0,8,8,13,1,,,,,,,,,,,,,,,,,,,,,,,,,,,,,,,,,,,,,,,,,,
1.1,left,1,,,,,,stim/centre.png,stim/neutralLeft.png,left,0,2062,2020-05-26_15h30.30.240,ANTCPTp,2020.1.2,Win32,60,0.654835,,,0,9,9,34,1,,,,,,,,,,,,,,,,,,,,,,,,,,,,,,,,,,,,,,,,,,
0.6,right,1,,,,,,stim/both.png,stim/neutralLeft.png,right,180,2062,2020-05-26_15h30.30.240,ANTCPTp,2020.1.2,Win32,60,0.734245,,,0,10,10,37,1,,,,,,,,,,,,,,,,,,,,,,,,,,,,,,,,,,,,,,,,,,
1.55,right,1,,,,,,stim/blank.png,stim/neutralRight.png,right,0,2062,2020-05-26_15h30.30.240,ANTCPTp,2020.1.2,Win32,60,0.53376,,,0,11,11,43,1,,,,,,,,,,,,,,,,,,,,,,,,,,,,,,,,,,,,,,,,,,
0.65,right,1,,,,,,stim/blank.png,stim/incongRight.png,right,0,2062,2020-05-26_15h30.30.240,ANTCPTp,2020.1.2,Win32,60,0.90953,,,0,12,12,27,1,,,,,,,,,,,,,,,,,,,,,,,,,,,,,,,,,,,,,,,,,,
1.25,right,1,,,,,,stim/both.png,stim/incongLeft.png,right,180,2062,2020-05-26_15h30.30.240,ANTCPTp,2020.1.2,Win32,60,0.953175,,,0,13,13,21,1,,,,,,,,,,,,,,,,,,,,,,,,,,,,,,,,,,,,,,,,,,
1.2,right,1,,,,,,stim/upper.png,stim/neutralRight.png,right,0,2062,2020-05-26_15h30.30.240,ANTCPTp,2020.1.2,Win32,60,0.6433,,,0,14,14,40,1,,,,,,,,,,,,,,,,,,,,,,,,,,,,,,,,,,,,,,,,,,
0.7,left,1,,,,,,stim/blank.png,stim/neutralRight.png,left,180,2062,2020-05-26_15h30.30.240,ANTCPTp,2020.1.2,Win32,60,0.83112,,,0,15,15,47,1,,,,,,,,,,,,,,,,,,,,,,,,,,,,,,,,,,,,,,,,,,
0.65,right,1,,,,,,stim/centre.png,stim/incongLeft.png,right,180,2062,2020-05-26_15h30.30.240,ANTCPTp,2020.1.2,Win32,60,0.784195,,,0,16,16,22,1,,,,,,,,,,,,,,,,,,,,,,,,,,,,,,,,,,,,,,,,,,
0.8,right,1,,,,,,stim/centre.png,stim/incongRight.png,right,0,2062,2020-05-26_15h30.30.240,ANTCPTp,2020.1.2,Win32,60,0.736565,,,0,17,17,26,1,,,,,,,,,,,,,,,,,,,,,,,,,,,,,,,,,,,,,,,,,,
0.85,right,1,,,,,,stim/both.png,stim/congLeft.png,right,180,2062,2020-05-26_15h30.30.240,ANTCPTp,2020.1.2,Win32,60,0.695805,,,0,18,18,5,1,,,,,,,,,,,,,,,,,,,,,,,,,,,,,,,,,,,,,,,,,,
1.1,right,1,,,,,,stim/blank.png,stim/congLeft.png,right,180,2062,2020-05-26_15h30.30.240,ANTCPTp,2020.1.2,Win32,60,0.528955,,,0,19,19,7,1,,,,,,,,,,,,,,,,,,,,,,,,,,,,,,,,,,,,,,,,,,
1.5,left,1,,,,,,stim/both.png,stim/congLeft.png,left,0,2062,2020-05-26_15h30.30.240,ANTCPTp,2020.1.2,Win32,60,0.617415,,,0,20,20,1,1,,,,,,,,,,,,,,,,,,,,,,,,,,,,,,,,,,,,,,,,,,
0.75,right,1,,,,,,stim/blank.png,stim/incongLeft.png,right,180,2062,2020-05-26_15h30.30.240,ANTCPTp,2020.1.2,Win32,60,0.827755,,,0,21,21,23,1,,,,,,,,,,,,,,,,,,,,,,,,,,,,,,,,,,,,,,,,,,
0.95,right,1,,,,,,stim/blank.png,stim/neutralLeft.png,right,180,2062,2020-05-26_15h30.30.240,ANTCPTp,2020.1.2,Win32,60,0.638085,,,0,22,22,39,1,,,,,,,,,,,,,,,,,,,,,,,,,,,,,,,,,,,,,,,,,,
0.75,left,1,,,,,,stim/blank.png,stim/incongRight.png,left,180,2062,2020-05-26_15h30.30.240,ANTCPTp,2020.1.2,Win32,60,0.872265,,,0,23,23,31,1,,,,,,,,,,,,,,,,,,,,,,,,,,,,,,,,,,,,,,,,,,
0.5,right,1,,,,,,stim/both.png,stim/congRight.png,right,0,2062,2020-05-26_15h30.30.240,ANTCPTp,2020.1.2,Win32,60,0.81898,,,0,24,24,9,1,,,,,,,,,,,,,,,,,,,,,,,,,,,,,,,,,,,,,,,,,,
1.15,right,1,,,,,,stim/upper.png,stim/congRight.png,right,0,2062,2020-05-26_15h30.30.240,ANTCPTp,2020.1.2,Win32,60,0.59752,,,0,25,25,8,1,,,,,,,,,,,,,,,,,,,,,,,,,,,,,,,,,,,,,,,,,,
1.55,left,1,,,,,,stim/blank.png,stim/congLeft.png,left,0,2062,2020-05-26_15h30.30.240,ANTCPTp,2020.1.2,Win32,60,0.67178,,,0,26,26,3,1,,,,,,,,,,,,,,,,,,,,,,,,,,,,,,,,,,,,,,,,,,
1.2,left,1,,,,,,stim/lower.png,stim/congRight.png,left,180,2062,2020-05-26_15h30.30.240,ANTCPTp,2020.1.2,Win32,60,0.73416,,,0,27,27,12,1,,,,,,,,,,,,,,,,,,,,,,,,,,,,,,,,,,,,,,,,,,
1,left,1,,,,,,stim/upper.png,stim/incongLeft.png,left,0,2062,2020-05-26_15h30.30.240,ANTCPTp,2020.1.2,Win32,60,0.761125,,,0,28,28,16,1,,,,,,,,,,,,,,,,,,,,,,,,,,,,,,,,,,,,,,,,,,
1.5,left,1,,,,,,stim/both.png,stim/neutralRight.png,left,180,2062,2020-05-26_15h30.30.240,ANTCPTp,2020.1.2,Win32,60,0.66727,,,0,29,29,45,1,,,,,,,,,,,,,,,,,,,,,,,,,,,,,,,,,,,,,,,,,,
1.35,right,1,,,,,,stim/lower.png,stim/neutralLeft.png,right,180,2062,2020-05-26_15h30.30.240,ANTCPTp,2020.1.2,Win32,60,0.71942,,,0,30,30,36,1,,,,,,,,,,,,,,,,,,,,,,,,,,,,,,,,,,,,,,,,,,
0.6,left,1,,,,,,stim/centre.png,stim/congLeft.png,left,0,2062,2020-05-26_15h30.30.240,ANTCPTp,2020.1.2,Win32,60,0.652295,,,0,31,31,2,1,,,,,,,,,,,,,,,,,,,,,,,,,,,,,,,,,,,,,,,,,,
0.75,right,1,,,,,,stim/centre.png,stim/congRight.png,right,0,2062,2020-05-26_15h30.30.240,ANTCPTp,2020.1.2,Win32,60,0.64536,,,0,32,32,10,1,,,,,,,,,,,,,,,,,,,,,,,,,,,,,,,,,,,,,,,,,,
1.5,left,1,,,,,,stim/blank.png,stim/congRight.png,left,180,2062,2020-05-26_15h30.30.240,ANTCPTp,2020.1.2,Win32,60,0.55279,,,0,33,33,15,1,,,,,,,,,,,,,,,,,,,,,,,,,,,,,,,,,,,,,,,,,,
0.55,left,1,,,,,,stim/centre.png,stim/incongLeft.png,left,0,2062,2020-05-26_15h30.30.240,ANTCPTp,2020.1.2,Win32,60,0.784155,,,0,34,34,18,1,,,,,,,,,,,,,,,,,,,,,,,,,,,,,,,,,,,,,,,,,,
1.45,right,1,,,,,,stim/both.png,stim/neutralRight.png,right,0,2062,2020-05-26_15h30.30.240,ANTCPTp,2020.1.2,Win32,60,0.630005,,,0,35,35,41,1,,,,,,,,,,,,,,,,,,,,,,,,,,,,,,,,,,,,,,,,,,
1.05,right,1,,,,,,stim/upper.png,stim/incongRight.png,right,0,2062,2020-05-26_15h30.30.240,ANTCPTp,2020.1.2,Win32,60,0.734125,,,0,36,36,24,1,,,,,,,,,,,,,,,,,,,,,,,,,,,,,,,,,,,,,,,,,,
0.65,left,1,,,,,,stim/both.png,stim/incongRight.png,left,180,2062,2020-05-26_15h30.30.240,ANTCPTp,2020.1.2,Win32,60,1.26242,,,0,37,37,29,1,,,,,,,,,,,,,,,,,,,,,,,,,,,,,,,,,,,,,,,,,,
1.25,right,1,,,,,,stim/lower.png,stim/congLeft.png,right,180,2062,2020-05-26_15h30.30.240,ANTCPTp,2020.1.2,Win32,60,0.701215,,,0,38,38,4,1,,,,,,,,,,,,,,,,,,,,,,,,,,,,,,,,,,,,,,,,,,
1,left,1,,,,,,stim/centre.png,stim/neutralRight.png,left,180,2062,2020-05-26_15h30.30.240,ANTCPTp,2020.1.2,Win32,60,0.735205,,,0,39,39,46,1,,,,,,,,,,,,,,,,,,,,,,,,,,,,,,,,,,,,,,,,,,
0.9,left,1,,,,,,stim/blank.png,stim/neutralLeft.png,left,0,2062,2020-05-26_15h30.30.240,ANTCPTp,2020.1.2,Win32,60,0.583965,,,0,40,40,35,1,,,,,,,,,,,,,,,,,,,,,,,,,,,,,,,,,,,,,,,,,,
1.4,left,1,,,,,,stim/lower.png,stim/neutralRight.png,left,180,2062,2020-05-26_15h30.30.240,ANTCPTp,2020.1.2,Win32,60,0.66764,,,0,41,41,44,1,,,,,,,,,,,,,,,,,,,,,,,,,,,,,,,,,,,,,,,,,,
0.75,left,1,,,,,,stim/centre.png,stim/congRight.png,left,180,2062,2020-05-26_15h30.30.240,ANTCPTp,2020.1.2,Win32,60,0.64118,,,0,42,42,14,1,,,,,,,,,,,,,,,,,,,,,,,,,,,,,,,,,,,,,,,,,,
0.65,right,1,,,,,,stim/centre.png,stim/congLeft.png,right,180,2062,2020-05-26_15h30.30.240,ANTCPTp,2020.1.2,Win32,60,0.74268,,,0,43,43,6,1,,,,,,,,,,,,,,,,,,,,,,,,,,,,,,,,,,,,,,,,,,
0.4,left,1,,,,,,stim/upper.png,stim/neutralLeft.png,left,0,2062,2020-05-26_15h30.30.240,ANTCPTp,2020.1.2,Win32,60,0.65882,,,0,44,44,32,1,,,,,,,,,,,,,,,,,,,,,,,,,,,,,,,,,,,,,,,,,,
1.45,left,1,,,,,,stim/both.png,stim/neutralLeft.png,left,0,2062,2020-05-26_15h30.30.240,ANTCPTp,2020.1.2,Win32,60,0.576315,,,0,45,45,33,1,,,,,,,,,,,,,,,,,,,,,,,,,,,,,,,,,,,,,,,,,,
1,left,1,,,,,,stim/lower.png,stim/incongRight.png,left,180,2062,2020-05-26_15h30.30.240,ANTCPTp,2020.1.2,Win32,60,0.9543,,,0,46,46,28,1,,,,,,,,,,,,,,,,,,,,,,,,,,,,,,,,,,,,,,,,,,
0.4,right,1,,,,,,stim/lower.png,stim/incongLeft.png,right,180,2062,2020-05-26_15h30.30.240,ANTCPTp,2020.1.2,Win32,60,0.85381,,,0,47,47,20,1,,,,,,,,,,,,,,,,,,,,,,,,,,,,,,,,,,,,,,,,,,
0.6,right,1,,,,,,stim/both.png,stim/neutralRight.png,right,0,2062,2020-05-26_15h30.30.240,ANTCPTp,2020.1.2,Win32,60,0.55723,,,1,0,48,41,1,,,,,,,,,,,,,,,,,,,,,,,,,,,,,,,,,,,,,,,,,,
0.85,left,1,,,,,,stim/centre.png,stim/neutralRight.png,left,180,2062,2020-05-26_15h30.30.240,ANTCPTp,2020.1.2,Win32,60,0.654295,,,1,1,49,46,1,,,,,,,,,,,,,,,,,,,,,,,,,,,,,,,,,,,,,,,,,,
0.65,right,1,,,,,,stim/blank.png,stim/neutralLeft.png,right,180,2062,2020-05-26_15h30.30.240,ANTCPTp,2020.1.2,Win32,60,0.717195,,,1,2,50,39,1,,,,,,,,,,,,,,,,,,,,,,,,,,,,,,,,,,,,,,,,,,
1.35,left,1,,,,,,stim/upper.png,stim/incongLeft.png,left,0,2062,2020-05-26_15h30.30.240,ANTCPTp,2020.1.2,Win32,60,0.77056,,,1,3,51,16,1,,,,,,,,,,,,,,,,,,,,,,,,,,,,,,,,,,,,,,,,,,
0.45,right,1,,,,,,stim/lower.png,stim/incongLeft.png,right,180,2062,2020-05-26_15h30.30.240,ANTCPTp,2020.1.2,Win32,60,0.95058,,,1,4,52,20,1,,,,,,,,,,,,,,,,,,,,,,,,,,,,,,,,,,,,,,,,,,
1.55,left,1,,,,,,stim/centre.png,stim/congLeft.png,left,0,2062,2020-05-26_15h30.30.240,ANTCPTp,2020.1.2,Win32,60,0.650675,,,1,5,53,2,1,,,,,,,,,,,,,,,,,,,,,,,,,,,,,,,,,,,,,,,,,,
0.65,right,1,,,,,,stim/lower.png,stim/neutralLeft.png,right,180,2062,2020-05-26_15h30.30.240,ANTCPTp,2020.1.2,Win32,60,0.67757,,,1,6,54,36,1,,,,,,,,,,,,,,,,,,,,,,,,,,,,,,,,,,,,,,,,,,
0.55,left,1,,,,,,stim/centre.png,stim/incongRight.png,left,180,2062,2020-05-26_15h30.30.240,ANTCPTp,2020.1.2,Win32,60,0.798175,,,1,7,55,30,1,,,,,,,,,,,,,,,,,,,,,,,,,,,,,,,,,,,,,,,,,,
0.85,right,1,,,,,,stim/both.png,stim/incongRight.png,right,0,2062,2020-05-26_15h30.30.240,ANTCPTp,2020.1.2,Win32,60,0.71911,,,1,8,56,25,1,,,,,,,,,,,,,,,,,,,,,,,,,,,,,,,,,,,,,,,,,,
0.75,right,1,,,,,,stim/centre.png,stim/congRight.png,right,0,2062,2020-05-26_15h30.30.240,ANTCPTp,2020.1.2,Win32,60,0.676125,,,1,9,57,10,1,,,,,,,,,,,,,,,,,,,,,,,,,,,,,,,,,,,,,,,,,,
1.55,left,1,,,,,,stim/lower.png,stim/incongRight.png,left,180,2062,2020-05-26_15h30.30.240,ANTCPTp,2020.1.2,Win32,60,0.836465,,,1,10,58,28,1,,,,,,,,,,,,,,,,,,,,,,,,,,,,,,,,,,,,,,,,,,
0.7,left,1,,,,,,stim/both.png,stim/incongRight.png,left,180,2062,2020-05-26_15h30.30.240,ANTCPTp,2020.1.2,Win32,60,0.767915,,,1,11,59,29,1,,,,,,,,,,,,,,,,,,,,,,,,,,,,,,,,,,,,,,,,,,
1.45,right,1,,,,,,stim/blank.png,stim/congLeft.png,right,180,2062,2020-05-26_15h30.30.240,ANTCPTp,2020.1.2,Win32,60,0.67165,,,1,12,60,7,1,,,,,,,,,,,,,,,,,,,,,,,,,,,,,,,,,,,,,,,,,,
0.95,right,1,,,,,,stim/blank.png,stim/incongLeft.png,right,180,2062,2020-05-26_15h30.30.240,ANTCPTp,2020.1.2,Win32,60,0.904755,,,1,13,61,23,1,,,,,,,,,,,,,,,,,,,,,,,,,,,,,,,,,,,,,,,,,,
1.35,right,1,,,,,,stim/upper.png,stim/incongRight.png,right,0,2062,2020-05-26_15h30.30.240,ANTCPTp,2020.1.2,Win32,60,0.678855,,,1,14,62,24,1,,,,,,,,,,,,,,,,,,,,,,,,,,,,,,,,,,,,,,,,,,
1.4,right,1,,,,,,stim/both.png,stim/neutralLeft.png,right,180,2062,2020-05-26_15h30.30.240,ANTCPTp,2020.1.2,Win32,60,0.637105,,,1,15,63,37,1,,,,,,,,,,,,,,,,,,,,,,,,,,,,,,,,,,,,,,,,,,
1.15,right,1,,,,,,stim/both.png,stim/congLeft.png,right,180,2062,2020-05-26_15h30.30.240,ANTCPTp,2020.1.2,Win32,60,0.59074,,,1,16,64,5,1,,,,,,,,,,,,,,,,,,,,,,,,,,,,,,,,,,,,,,,,,,
0.9,right,1,,,,,,stim/centre.png,stim/neutralRight.png,right,0,2062,2020-05-26_15h30.30.240,ANTCPTp,2020.1.2,Win32,60,0.669755,,,1,17,65,42,1,,,,,,,,,,,,,,,,,,,,,,,,,,,,,,,,,,,,,,,,,,
1.35,right,1,,,,,,stim/blank.png,stim/congRight.png,right,0,2062,2020-05-26_15h30.30.240,ANTCPTp,2020.1.2,Win32,60,0.53379,,,1,18,66,11,1,,,,,,,,,,,,,,,,,,,,,,,,,,,,,,,,,,,,,,,,,,
0.95,left,1,,,,,,stim/blank.png,stim/neutralRight.png,left,180,2062,2020-05-26_15h30.30.240,ANTCPTp,2020.1.2,Win32,60,0.64289,,,1,19,67,47,1,,,,,,,,,,,,,,,,,,,,,,,,,,,,,,,,,,,,,,,,,,
1.3,left,1,,,,,,stim/upper.png,stim/neutralLeft.png,left,0,2062,2020-05-26_15h30.30.240,ANTCPTp,2020.1.2,Win32,60,0.46244,,,1,20,68,32,1,,,,,,,,,,,,,,,,,,,,,,,,,,,,,,,,,,,,,,,,,,
0.7,right,1,,,,,,stim/centre.png,stim/neutralLeft.png,right,180,2062,2020-05-26_15h30.30.240,ANTCPTp,2020.1.2,Win32,60,0.674145,,,1,21,69,38,1,,,,,,,,,,,,,,,,,,,,,,,,,,,,,,,,,,,,,,,,,,
0.45,left,1,,,,,,stim/upper.png,stim/congLeft.png,left,0,2062,2020-05-26_15h30.30.240,ANTCPTp,2020.1.2,Win32,60,0.766955,,,1,22,70,0,1,,,,,,,,,,,,,,,,,,,,,,,,,,,,,,,,,,,,,,,,,,
0.6,left,1,,,,,,stim/both.png,stim/neutralLeft.png,left,0,2062,2020-05-26_15h30.30.240,ANTCPTp,2020.1.2,Win32,60,0.50053,,,1,23,71,33,1,,,,,,,,,,,,,,,,,,,,,,,,,,,,,,,,,,,,,,,,,,
1.05,left,1,,,,,,stim/both.png,stim/congRight.png,left,180,2062,2020-05-26_15h30.30.240,ANTCPTp,2020.1.2,Win32,60,0.597715,,,1,24,72,13,1,,,,,,,,,,,,,,,,,,,,,,,,,,,,,,,,,,,,,,,,,,
1.5,right,1,,,,,,stim/lower.png,stim/congLeft.png,right,180,2062,2020-05-26_15h30.30.240,ANTCPTp,2020.1.2,Win32,60,0.68389,,,1,25,73,4,1,,,,,,,,,,,,,,,,,,,,,,,,,,,,,,,,,,,,,,,,,,
0.4,right,1,,,,,,stim/upper.png,stim/neutralRight.png,right,0,2062,2020-05-26_15h30.30.240,ANTCPTp,2020.1.2,Win32,60,0.624265,,,1,26,74,40,1,,,,,,,,,,,,,,,,,,,,,,,,,,,,,,,,,,,,,,,,,,
0.65,left,1,,,,,,stim/centre.png,stim/incongLeft.png,left,0,2062,2020-05-26_15h30.30.240,ANTCPTp,2020.1.2,Win32,60,0.71173,,,1,27,75,18,1,,,,,,,,,,,,,,,,,,,,,,,,,,,,,,,,,,,,,,,,,,
1.4,left,1,,,,,,stim/blank.png,stim/congRight.png,left,180,2062,2020-05-26_15h30.30.240,ANTCPTp,2020.1.2,Win32,60,0.62869,,,1,28,76,15,1,,,,,,,,,,,,,,,,,,,,,,,,,,,,,,,,,,,,,,,,,,
1.5,left,1,,,,,,stim/both.png,stim/neutralRight.png,left,180,2062,2020-05-26_15h30.30.240,ANTCPTp,2020.1.2,Win32,60,0.59274,,,1,29,77,45,1,,,,,,,,,,,,,,,,,,,,,,,,,,,,,,,,,,,,,,,,,,
0.7,left,1,,,,,,stim/lower.png,stim/congRight.png,left,180,2062,2020-05-26_15h30.30.240,ANTCPTp,2020.1.2,Win32,60,0.510615,,,1,30,78,12,1,,,,,,,,,,,,,,,,,,,,,,,,,,,,,,,,,,,,,,,,,,
1.55,left,1,,,,,,stim/blank.png,stim/incongRight.png,left,180,2062,2020-05-26_15h30.30.240,ANTCPTp,2020.1.2,Win32,60,0.734055,,,1,31,79,31,1,,,,,,,,,,,,,,,,,,,,,,,,,,,,,,,,,,,,,,,,,,
0.75,left,1,,,,,,stim/blank.png,stim/incongLeft.png,left,0,2062,2020-05-26_15h30.30.240,ANTCPTp,2020.1.2,Win32,60,0.68417,,,1,32,80,19,1,,,,,,,,,,,,,,,,,,,,,,,,,,,,,,,,,,,,,,,,,,
0.4,right,1,,,,,,stim/blank.png,stim/neutralRight.png,right,0,2062,2020-05-26_15h30.30.240,ANTCPTp,2020.1.2,Win32,60,0.64167,,,1,33,81,43,1,,,,,,,,,,,,,,,,,,,,,,,,,,,,,,,,,,,,,,,,,,
1.35,right,1,,,,,,stim/centre.png,stim/incongRight.png,right,0,2062,2020-05-26_15h30.30.240,ANTCPTp,2020.1.2,Win32,60,0.653395,,,1,34,82,26,1,,,,,,,,,,,,,,,,,,,,,,,,,,,,,,,,,,,,,,,,,,
0.85,right,1,,,,,,stim/centre.png,stim/congLeft.png,right,180,2062,2020-05-26_15h30.30.240,ANTCPTp,2020.1.2,Win32,60,0.79283,,,1,35,83,6,1,,,,,,,,,,,,,,,,,,,,,,,,,,,,,,,,,,,,,,,,,,
0.8,left,0,,,,,,stim/centre.png,stim/incongLeft.png,right,180,2062,2020-05-26_15h30.30.240,ANTCPTp,2020.1.2,Win32,60,0.55452,,,1,36,84,22,1,,,,,,,,,,,,,,,,,,,,,,,,,,,,,,,,,,,,,,,,,,
0.4,left,1,,,,,,stim/centre.png,stim/neutralLeft.png,left,0,2062,2020-05-26_15h30.30.240,ANTCPTp,2020.1.2,Win32,60,0.74215,,,1,37,85,34,1,,,,,,,,,,,,,,,,,,,,,,,,,,,,,,,,,,,,,,,,,,
0.65,left,1,,,,,,stim/both.png,stim/incongLeft.png,left,0,2062,2020-05-26_15h30.30.240,ANTCPTp,2020.1.2,Win32,60,0.59222,,,1,38,86,17,1,,,,,,,,,,,,,,,,,,,,,,,,,,,,,,,,,,,,,,,,,,
1.1,left,1,,,,,,stim/lower.png,stim/neutralRight.png,left,180,2062,2020-05-26_15h30.30.240,ANTCPTp,2020.1.2,Win32,60,0.694065,,,1,39,87,44,1,,,,,,,,,,,,,,,,,,,,,,,,,,,,,,,,,,,,,,,,,,
0.8,left,1,,,,,,stim/blank.png,stim/congLeft.png,left,0,2062,2020-05-26_15h30.30.240,ANTCPTp,2020.1.2,Win32,60,0.684475,,,1,40,88,3,1,,,,,,,,,,,,,,,,,,,,,,,,,,,,,,,,,,,,,,,,,,
1,left,1,,,,,,stim/centre.png,stim/congRight.png,left,180,2062,2020-05-26_15h30.30.240,ANTCPTp,2020.1.2,Win32,60,0.698145,,,1,41,89,14,1,,,,,,,,,,,,,,,,,,,,,,,,,,,,,,,,,,,,,,,,,,
1.55,right,1,,,,,,stim/both.png,stim/incongLeft.png,right,180,2062,2020-05-26_15h30.30.240,ANTCPTp,2020.1.2,Win32,60,0.77704,,,1,42,90,21,1,,,,,,,,,,,,,,,,,,,,,,,,,,,,,,,,,,,,,,,,,,
1,right,1,,,,,,stim/both.png,stim/congRight.png,right,0,2062,2020-05-26_15h30.30.240,ANTCPTp,2020.1.2,Win32,60,0.6912,,,1,43,91,9,1,,,,,,,,,,,,,,,,,,,,,,,,,,,,,,,,,,,,,,,,,,
0.95,left,1,,,,,,stim/blank.png,stim/neutralLeft.png,left,0,2062,2020-05-26_15h30.30.240,ANTCPTp,2020.1.2,Win32,60,0.64299,,,1,44,92,35,1,,,,,,,,,,,,,,,,,,,,,,,,,,,,,,,,,,,,,,,,,,
1.45,right,1,,,,,,stim/blank.png,stim/incongRight.png,right,0,2062,2020-05-26_15h30.30.240,ANTCPTp,2020.1.2,Win32,60,0.76158,,,1,45,93,27,1,,,,,,,,,,,,,,,,,,,,,,,,,,,,,,,,,,,,,,,,,,
1.55,right,1,,,,,,stim/upper.png,stim/congRight.png,right,0,2062,2020-05-26_15h30.30.240,ANTCPTp,2020.1.2,Win32,60,0.58947,,,1,46,94,8,1,,,,,,,,,,,,,,,,,,,,,,,,,,,,,,,,,,,,,,,,,,
0.75,left,1,,,,,,stim/both.png,stim/congLeft.png,left,0,2062,2020-05-26_15h30.30.240,ANTCPTp,2020.1.2,Win32,60,0.69706,,,1,47,95,1,1,,,,,,,,,,,,,,,,,,,,,,,,,,,,,,,,,,,,,,,,,,
,,,,,,,,,,,,2062,2020-05-26_15h30.30.240,ANTCPTp,2020.1.2,Win32,60,,,,,,,,,1,0,1,0,1,,,,,,,,,,,,,,,,,,,,,,,,,,,,,,,,,,,,,
0.9,right,1,,,,,,stim/lower.png,stim/neutralLeft.png,right,180,2062,2020-05-26_15h30.30.240,ANTCPTp,2020.1.2,Win32,60,0.717235,,,0,0,0,36,1,,,,,,,,,,,,,,,,,,,,,,,,,,,,,,,,,,,,,,,,,,
1.5,right,1,,,,,,stim/upper.png,stim/neutralRight.png,right,0,2062,2020-05-26_15h30.30.240,ANTCPTp,2020.1.2,Win32,60,0.54049,,,0,1,1,40,1,,,,,,,,,,,,,,,,,,,,,,,,,,,,,,,,,,,,,,,,,,
0.8,right,1,,,,,,stim/both.png,stim/congRight.png,right,0,2062,2020-05-26_15h30.30.240,ANTCPTp,2020.1.2,Win32,60,0.48375,,,0,2,2,9,1,,,,,,,,,,,,,,,,,,,,,,,,,,,,,,,,,,,,,,,,,,
1.25,right,1,,,,,,stim/upper.png,stim/congRight.png,right,0,2062,2020-05-26_15h30.30.240,ANTCPTp,2020.1.2,Win32,60,0.452875,,,0,3,3,8,1,,,,,,,,,,,,,,,,,,,,,,,,,,,,,,,,,,,,,,,,,,
0.8,right,1,,,,,,stim/both.png,stim/congLeft.png,right,180,2062,2020-05-26_15h30.30.240,ANTCPTp,2020.1.2,Win32,60,0.526425,,,0,4,4,5,1,,,,,,,,,,,,,,,,,,,,,,,,,,,,,,,,,,,,,,,,,,
1.05,right,1,,,,,,stim/lower.png,stim/incongLeft.png,right,180,2062,2020-05-26_15h30.30.240,ANTCPTp,2020.1.2,Win32,60,0.879225,,,0,5,5,20,1,,,,,,,,,,,,,,,,,,,,,,,,,,,,,,,,,,,,,,,,,,
0.8,left,1,,,,,,stim/upper.png,stim/neutralLeft.png,left,0,2062,2020-05-26_15h30.30.240,ANTCPTp,2020.1.2,Win32,60,0.525715,,,0,6,6,32,1,,,,,,,,,,,,,,,,,,,,,,,,,,,,,,,,,,,,,,,,,,
0.45,left,1,,,,,,stim/upper.png,stim/incongLeft.png,left,0,2062,2020-05-26_15h30.30.240,ANTCPTp,2020.1.2,Win32,60,0.650785,,,0,7,7,16,1,,,,,,,,,,,,,,,,,,,,,,,,,,,,,,,,,,,,,,,,,,
1,left,1,,,,,,stim/centre.png,stim/incongRight.png,left,180,2062,2020-05-26_15h30.30.240,ANTCPTp,2020.1.2,Win32,60,0.80757,,,0,8,8,30,1,,,,,,,,,,,,,,,,,,,,,,,,,,,,,,,,,,,,,,,,,,
1.55,left,1,,,,,,stim/both.png,stim/neutralRight.png,left,180,2062,2020-05-26_15h30.30.240,ANTCPTp,2020.1.2,Win32,60,0.586795,,,0,9,9,45,1,,,,,,,,,,,,,,,,,,,,,,,,,,,,,,,,,,,,,,,,,,
1.45,left,1,,,,,,stim/blank.png,stim/congLeft.png,left,0,2062,2020-05-26_15h30.30.240,ANTCPTp,2020.1.2,Win32,60,0.53739,,,0,10,10,3,1,,,,,,,,,,,,,,,,,,,,,,,,,,,,,,,,,,,,,,,,,,
0.7,right,0,,,,,,stim/lower.png,stim/incongRight.png,left,180,2062,2020-05-26_15h30.30.240,ANTCPTp,2020.1.2,Win32,60,0.87392,,,0,11,11,28,1,,,,,,,,,,,,,,,,,,,,,,,,,,,,,,,,,,,,,,,,,,
1.4,left,1,,,,,,stim/both.png,stim/congRight.png,left,180,2062,2020-05-26_15h30.30.240,ANTCPTp,2020.1.2,Win32,60,0.703495,,,0,12,12,13,1,,,,,,,,,,,,,,,,,,,,,,,,,,,,,,,,,,,,,,,,,,
0.75,right,1,,,,,,stim/centre.png,stim/congRight.png,right,0,2062,2020-05-26_15h30.30.240,ANTCPTp,2020.1.2,Win32,60,0.65486,,,0,13,13,10,1,,,,,,,,,,,,,,,,,,,,,,,,,,,,,,,,,,,,,,,,,,
0.65,left,1,,,,,,stim/centre.png,stim/neutralLeft.png,left,0,2062,2020-05-26_15h30.30.240,ANTCPTp,2020.1.2,Win32,60,0.69291,,,0,14,14,34,1,,,,,,,,,,,,,,,,,,,,,,,,,,,,,,,,,,,,,,,,,,
0.55,left,1,,,,,,stim/both.png,stim/incongRight.png,left,180,2062,2020-05-26_15h30.30.240,ANTCPTp,2020.1.2,Win32,60,0.908515,,,0,15,15,29,1,,,,,,,,,,,,,,,,,,,,,,,,,,,,,,,,,,,,,,,,,,
1.55,right,1,,,,,,stim/blank.png,stim/incongLeft.png,right,180,2062,2020-05-26_15h30.30.240,ANTCPTp,2020.1.2,Win32,60,0.81115,,,0,16,16,23,1,,,,,,,,,,,,,,,,,,,,,,,,,,,,,,,,,,,,,,,,,,
1,right,1,,,,,,stim/lower.png,stim/congLeft.png,right,180,2062,2020-05-26_15h30.30.240,ANTCPTp,2020.1.2,Win32,60,0.644175,,,0,17,17,4,1,,,,,,,,,,,,,,,,,,,,,,,,,,,,,,,,,,,,,,,,,,
1.1,right,1,,,,,,stim/centre.png,stim/incongRight.png,right,0,2062,2020-05-26_15h30.30.240,ANTCPTp,2020.1.2,Win32,60,0.736365,,,0,18,18,26,1,,,,,,,,,,,,,,,,,,,,,,,,,,,,,,,,,,,,,,,,,,
1.15,right,1,,,,,,stim/centre.png,stim/neutralLeft.png,right,180,2062,2020-05-26_15h30.30.240,ANTCPTp,2020.1.2,Win32,60,0.693795,,,0,19,19,38,1,,,,,,,,,,,,,,,,,,,,,,,,,,,,,,,,,,,,,,,,,,
1.2,right,1,,,,,,stim/both.png,stim/incongRight.png,right,0,2062,2020-05-26_15h30.30.240,ANTCPTp,2020.1.2,Win32,60,0.739425,,,0,20,20,25,1,,,,,,,,,,,,,,,,,,,,,,,,,,,,,,,,,,,,,,,,,,
0.5,left,1,,,,,,stim/centre.png,stim/neutralRight.png,left,180,2062,2020-05-26_15h30.30.240,ANTCPTp,2020.1.2,Win32,60,0.79559,,,0,21,21,46,1,,,,,,,,,,,,,,,,,,,,,,,,,,,,,,,,,,,,,,,,,,
1.3,right,1,,,,,,stim/blank.png,stim/neutralRight.png,right,0,2062,2020-05-26_15h30.30.240,ANTCPTp,2020.1.2,Win32,60,0.667415,,,0,22,22,43,1,,,,,,,,,,,,,,,,,,,,,,,,,,,,,,,,,,,,,,,,,,
1.5,left,1,,,,,,stim/centre.png,stim/congLeft.png,left,0,2062,2020-05-26_15h30.30.240,ANTCPTp,2020.1.2,Win32,60,0.65872,,,0,23,23,2,1,,,,,,,,,,,,,,,,,,,,,,,,,,,,,,,,,,,,,,,,,,
0.75,right,1,,,,,,stim/upper.png,stim/incongRight.png,right,0,2062,2020-05-26_15h30.30.240,ANTCPTp,2020.1.2,Win32,60,0.724465,,,0,24,24,24,1,,,,,,,,,,,,,,,,,,,,,,,,,,,,,,,,,,,,,,,,,,
0.4,left,1,,,,,,stim/blank.png,stim/neutralLeft.png,left,0,2062,2020-05-26_15h30.30.240,ANTCPTp,2020.1.2,Win32,60,0.753055,,,0,25,25,35,1,,,,,,,,,,,,,,,,,,,,,,,,,,,,,,,,,,,,,,,,,,
1,right,1,,,,,,stim/centre.png,stim/incongLeft.png,right,180,2062,2020-05-26_15h30.30.240,ANTCPTp,2020.1.2,Win32,60,0.86797,,,0,26,26,22,1,,,,,,,,,,,,,,,,,,,,,,,,,,,,,,,,,,,,,,,,,,
1.1,left,1,,,,,,stim/centre.png,stim/congRight.png,left,180,2062,2020-05-26_15h30.30.240,ANTCPTp,2020.1.2,Win32,60,0.75082,,,0,27,27,14,1,,,,,,,,,,,,,,,,,,,,,,,,,,,,,,,,,,,,,,,,,,
0.85,left,1,,,,,,stim/both.png,stim/neutralLeft.png,left,0,2062,2020-05-26_15h30.30.240,ANTCPTp,2020.1.2,Win32,60,0.775605,,,0,28,28,33,1,,,,,,,,,,,,,,,,,,,,,,,,,,,,,,,,,,,,,,,,,,
1.25,right,1,,,,,,stim/blank.png,stim/incongRight.png,right,0,2062,2020-05-26_15h30.30.240,ANTCPTp,2020.1.2,Win32,60,0.96829,,,0,29,29,27,1,,,,,,,,,,,,,,,,,,,,,,,,,,,,,,,,,,,,,,,,,,
1.1,right,1,,,,,,stim/both.png,stim/incongLeft.png,right,180,2062,2020-05-26_15h30.30.240,ANTCPTp,2020.1.2,Win32,60,0.95782,,,0,30,30,21,1,,,,,,,,,,,,,,,,,,,,,,,,,,,,,,,,,,,,,,,,,,
1.5,right,1,,,,,,stim/centre.png,stim/congLeft.png,right,180,2062,2020-05-26_15h30.30.240,ANTCPTp,2020.1.2,Win32,60,0.684735,,,0,31,31,6,1,,,,,,,,,,,,,,,,,,,,,,,,,,,,,,,,,,,,,,,,,,
1.55,left,1,,,,,,stim/blank.png,stim/neutralRight.png,left,180,2062,2020-05-26_15h30.30.240,ANTCPTp,2020.1.2,Win32,60,0.771765,,,0,32,32,47,1,,,,,,,,,,,,,,,,,,,,,,,,,,,,,,,,,,,,,,,,,,
1.55,right,1,,,,,,stim/blank.png,stim/congRight.png,right,0,2062,2020-05-26_15h30.30.240,ANTCPTp,2020.1.2,Win32,60,0.90398,,,0,33,33,11,1,,,,,,,,,,,,,,,,,,,,,,,,,,,,,,,,,,,,,,,,,,
0.85,left,1,,,,,,stim/both.png,stim/incongLeft.png,left,0,2062,2020-05-26_15h30.30.240,ANTCPTp,2020.1.2,Win32,60,0.69055,,,0,34,34,17,1,,,,,,,,,,,,,,,,,,,,,,,,,,,,,,,,,,,,,,,,,,
1.55,left,1,,,,,,stim/centre.png,stim/incongLeft.png,left,0,2062,2020-05-26_15h30.30.240,ANTCPTp,2020.1.2,Win32,60,0.95353,,,0,35,35,18,1,,,,,,,,,,,,,,,,,,,,,,,,,,,,,,,,,,,,,,,,,,
1.45,right,1,,,,,,stim/both.png,stim/neutralLeft.png,right,180,2062,2020-05-26_15h30.30.240,ANTCPTp,2020.1.2,Win32,60,0.842085,,,0,36,36,37,1,,,,,,,,,,,,,,,,,,,,,,,,,,,,,,,,,,,,,,,,,,
1.45,left,1,,,,,,stim/lower.png,stim/congRight.png,left,180,2062,2020-05-26_15h30.30.240,ANTCPTp,2020.1.2,Win32,60,0.903615,,,0,37,37,12,1,,,,,,,,,,,,,,,,,,,,,,,,,,,,,,,,,,,,,,,,,,
0.6,left,1,,,,,,stim/upper.png,stim/congLeft.png,left,0,2062,2020-05-26_15h30.30.240,ANTCPTp,2020.1.2,Win32,60,0.75109,,,0,38,38,0,1,,,,,,,,,,,,,,,,,,,,,,,,,,,,,,,,,,,,,,,,,,
1.15,right,1,,,,,,stim/both.png,stim/neutralRight.png,right,0,2062,2020-05-26_15h30.30.240,ANTCPTp,2020.1.2,Win32,60,0.63387,,,0,39,39,41,1,,,,,,,,,,,,,,,,,,,,,,,,,,,,,,,,,,,,,,,,,,
0.4,right,1,,,,,,stim/centre.png,stim/neutralRight.png,right,0,2062,2020-05-26_15h30.30.240,ANTCPTp,2020.1.2,Win32,60,0.625925,,,0,40,40,42,1,,,,,,,,,,,,,,,,,,,,,,,,,,,,,,,,,,,,,,,,,,
1.15,right,1,,,,,,stim/blank.png,stim/neutralLeft.png,right,180,2062,2020-05-26_15h30.30.240,ANTCPTp,2020.1.2,Win32,60,0.612315,,,0,41,41,39,1,,,,,,,,,,,,,,,,,,,,,,,,,,,,,,,,,,,,,,,,,,
0.65,right,1,,,,,,stim/blank.png,stim/congLeft.png,right,180,2062,2020-05-26_15h30.30.240,ANTCPTp,2020.1.2,Win32,60,0.563925,,,0,42,42,7,1,,,,,,,,,,,,,,,,,,,,,,,,,,,,,,,,,,,,,,,,,,
0.55,left,1,,,,,,stim/blank.png,stim/incongRight.png,left,180,2062,2020-05-26_15h30.30.240,ANTCPTp,2020.1.2,Win32,60,1.161845,,,0,43,43,31,1,,,,,,,,,,,,,,,,,,,,,,,,,,,,,,,,,,,,,,,,,,
1.3,left,1,,,,,,stim/both.png,stim/congLeft.png,left,0,2062,2020-05-26_15h30.30.240,ANTCPTp,2020.1.2,Win32,60,0.656085,,,0,44,44,1,1,,,,,,,,,,,,,,,,,,,,,,,,,,,,,,,,,,,,,,,,,,
0.65,left,1,,,,,,stim/blank.png,stim/incongLeft.png,left,0,2062,2020-05-26_15h30.30.240,ANTCPTp,2020.1.2,Win32,60,0.973175,,,0,45,45,19,1,,,,,,,,,,,,,,,,,,,,,,,,,,,,,,,,,,,,,,,,,,
1.25,left,1,,,,,,stim/lower.png,stim/neutralRight.png,left,180,2062,2020-05-26_15h30.30.240,ANTCPTp,2020.1.2,Win32,60,0.6295,,,0,46,46,44,1,,,,,,,,,,,,,,,,,,,,,,,,,,,,,,,,,,,,,,,,,,
1.2,left,1,,,,,,stim/blank.png,stim/congRight.png,left,180,2062,2020-05-26_15h30.30.240,ANTCPTp,2020.1.2,Win32,60,0.58962,,,0,47,47,15,1,,,,,,,,,,,,,,,,,,,,,,,,,,,,,,,,,,,,,,,,,,
0.85,left,1,,,,,,stim/centre.png,stim/neutralRight.png,left,180,2062,2020-05-26_15h30.30.240,ANTCPTp,2020.1.2,Win32,60,0.75084,,,1,0,48,46,1,,,,,,,,,,,,,,,,,,,,,,,,,,,,,,,,,,,,,,,,,,
0.8,right,1,,,,,,stim/blank.png,stim/incongLeft.png,right,180,2062,2020-05-26_15h30.30.240,ANTCPTp,2020.1.2,Win32,60,0.84101,,,1,1,49,23,1,,,,,,,,,,,,,,,,,,,,,,,,,,,,,,,,,,,,,,,,,,
1.25,right,1,,,,,,stim/centre.png,stim/incongRight.png,right,0,2062,2020-05-26_15h30.30.240,ANTCPTp,2020.1.2,Win32,60,1.05437,,,1,2,50,26,1,,,,,,,,,,,,,,,,,,,,,,,,,,,,,,,,,,,,,,,,,,
1.15,right,1,,,,,,stim/both.png,stim/congLeft.png,right,180,2062,2020-05-26_15h30.30.240,ANTCPTp,2020.1.2,Win32,60,0.69505,,,1,3,51,5,1,,,,,,,,,,,,,,,,,,,,,,,,,,,,,,,,,,,,,,,,,,
1.55,right,1,,,,,,stim/blank.png,stim/neutralLeft.png,right,180,2062,2020-05-26_15h30.30.240,ANTCPTp,2020.1.2,Win32,60,0.719645,,,1,4,52,39,1,,,,,,,,,,,,,,,,,,,,,,,,,,,,,,,,,,,,,,,,,,
0.85,right,1,,,,,,stim/both.png,stim/neutralLeft.png,right,180,2062,2020-05-26_15h30.30.240,ANTCPTp,2020.1.2,Win32,60,0.55301,,,1,5,53,37,1,,,,,,,,,,,,,,,,,,,,,,,,,,,,,,,,,,,,,,,,,,
0.4,left,1,,,,,,stim/blank.png,stim/incongRight.png,left,180,2062,2020-05-26_15h30.30.240,ANTCPTp,2020.1.2,Win32,60,0.796765,,,1,6,54,31,1,,,,,,,,,,,,,,,,,,,,,,,,,,,,,,,,,,,,,,,,,,
1.45,right,1,,,,,,stim/lower.png,stim/neutralLeft.png,right,180,2062,2020-05-26_15h30.30.240,ANTCPTp,2020.1.2,Win32,60,0.70762,,,1,7,55,36,1,,,,,,,,,,,,,,,,,,,,,,,,,,,,,,,,,,,,,,,,,,
1.5,left,1,,,,,,stim/blank.png,stim/congRight.png,left,180,2062,2020-05-26_15h30.30.240,ANTCPTp,2020.1.2,Win32,60,0.773075,,,1,8,56,15,1,,,,,,,,,,,,,,,,,,,,,,,,,,,,,,,,,,,,,,,,,,
0.65,left,1,,,,,,stim/blank.png,stim/neutralLeft.png,left,0,2062,2020-05-26_15h30.30.240,ANTCPTp,2020.1.2,Win32,60,0.710675,,,1,9,57,35,1,,,,,,,,,,,,,,,,,,,,,,,,,,,,,,,,,,,,,,,,,,
1.35,left,1,,,,,,stim/both.png,stim/neutralRight.png,left,180,2062,2020-05-26_15h30.30.240,ANTCPTp,2020.1.2,Win32,60,0.70854,,,1,10,58,45,1,,,,,,,,,,,,,,,,,,,,,,,,,,,,,,,,,,,,,,,,,,
1.2,right,1,,,,,,stim/lower.png,stim/congLeft.png,right,180,2062,2020-05-26_15h30.30.240,ANTCPTp,2020.1.2,Win32,60,0.689615,,,1,11,59,4,1,,,,,,,,,,,,,,,,,,,,,,,,,,,,,,,,,,,,,,,,,,
1.3,left,1,,,,,,stim/blank.png,stim/congLeft.png,left,0,2062,2020-05-26_15h30.30.240,ANTCPTp,2020.1.2,Win32,60,0.747055,,,1,12,60,3,1,,,,,,,,,,,,,,,,,,,,,,,,,,,,,,,,,,,,,,,,,,
1.45,left,1,,,,,,stim/both.png,stim/incongLeft.png,left,0,2062,2020-05-26_15h30.30.240,ANTCPTp,2020.1.2,Win32,60,0.764595,,,1,13,61,17,1,,,,,,,,,,,,,,,,,,,,,,,,,,,,,,,,,,,,,,,,,,
0.4,left,1,,,,,,stim/lower.png,stim/congRight.png,left,180,2062,2020-05-26_15h30.30.240,ANTCPTp,2020.1.2,Win32,60,0.79161,,,1,14,62,12,1,,,,,,,,,,,,,,,,,,,,,,,,,,,,,,,,,,,,,,,,,,
0.8,left,1,,,,,,stim/upper.png,stim/congLeft.png,left,0,2062,2020-05-26_15h30.30.240,ANTCPTp,2020.1.2,Win32,60,0.601235,,,1,15,63,0,1,,,,,,,,,,,,,,,,,,,,,,,,,,,,,,,,,,,,,,,,,,
0.85,left,1,,,,,,stim/both.png,stim/neutralLeft.png,left,0,2062,2020-05-26_15h30.30.240,ANTCPTp,2020.1.2,Win32,60,0.520865,,,1,16,64,33,1,,,,,,,,,,,,,,,,,,,,,,,,,,,,,,,,,,,,,,,,,,
1,right,1,,,,,,stim/centre.png,stim/neutralRight.png,right,0,2062,2020-05-26_15h30.30.240,ANTCPTp,2020.1.2,Win32,60,0.584145,,,1,17,65,42,1,,,,,,,,,,,,,,,,,,,,,,,,,,,,,,,,,,,,,,,,,,
1,right,1,,,,,,stim/upper.png,stim/incongRight.png,right,0,2062,2020-05-26_15h30.30.240,ANTCPTp,2020.1.2,Win32,60,0.67154,,,1,18,66,24,1,,,,,,,,,,,,,,,,,,,,,,,,,,,,,,,,,,,,,,,,,,
1,left,1,,,,,,stim/lower.png,stim/neutralRight.png,left,180,2062,2020-05-26_15h30.30.240,ANTCPTp,2020.1.2,Win32,60,0.662135,,,1,19,67,44,1,,,,,,,,,,,,,,,,,,,,,,,,,,,,,,,,,,,,,,,,,,
0.65,right,1,,,,,,stim/centre.png,stim/congLeft.png,right,180,2062,2020-05-26_15h30.30.240,ANTCPTp,2020.1.2,Win32,60,0.62728,,,1,20,68,6,1,,,,,,,,,,,,,,,,,,,,,,,,,,,,,,,,,,,,,,,,,,
0.4,right,1,,,,,,stim/blank.png,stim/congLeft.png,right,180,2062,2020-05-26_15h30.30.240,ANTCPTp,2020.1.2,Win32,60,0.57245,,,1,21,69,7,1,,,,,,,,,,,,,,,,,,,,,,,,,,,,,,,,,,,,,,,,,,
1.4,left,1,,,,,,stim/lower.png,stim/incongRight.png,left,180,2062,2020-05-26_15h30.30.240,ANTCPTp,2020.1.2,Win32,60,0.719235,,,1,22,70,28,1,,,,,,,,,,,,,,,,,,,,,,,,,,,,,,,,,,,,,,,,,,
1.4,right,1,,,,,,stim/lower.png,stim/incongLeft.png,right,180,2062,2020-05-26_15h30.30.240,ANTCPTp,2020.1.2,Win32,60,0.842585,,,1,23,71,20,1,,,,,,,,,,,,,,,,,,,,,,,,,,,,,,,,,,,,,,,,,,
0.75,left,1,,,,,,stim/centre.png,stim/congRight.png,left,180,2062,2020-05-26_15h30.30.240,ANTCPTp,2020.1.2,Win32,60,0.701035,,,1,24,72,14,1,,,,,,,,,,,,,,,,,,,,,,,,,,,,,,,,,,,,,,,,,,
0.85,left,1,,,,,,stim/centre.png,stim/incongLeft.png,left,0,2062,2020-05-26_15h30.30.240,ANTCPTp,2020.1.2,Win32,60,1.09569,,,1,25,73,18,1,,,,,,,,,,,,,,,,,,,,,,,,,,,,,,,,,,,,,,,,,,
0.6,left,1,,,,,,stim/both.png,stim/incongRight.png,left,180,2062,2020-05-26_15h30.30.240,ANTCPTp,2020.1.2,Win32,60,0.805825,,,1,26,74,29,1,,,,,,,,,,,,,,,,,,,,,,,,,,,,,,,,,,,,,,,,,,
1.4,right,1,,,,,,stim/upper.png,stim/neutralRight.png,right,0,2062,2020-05-26_15h30.30.240,ANTCPTp,2020.1.2,Win32,60,0.62229,,,1,27,75,40,1,,,,,,,,,,,,,,,,,,,,,,,,,,,,,,,,,,,,,,,,,,
1.4,left,1,,,,,,stim/centre.png,stim/incongRight.png,left,180,2062,2020-05-26_15h30.30.240,ANTCPTp,2020.1.2,Win32,60,1.12631,,,1,28,76,30,1,,,,,,,,,,,,,,,,,,,,,,,,,,,,,,,,,,,,,,,,,,
0.65,right,1,,,,,,stim/blank.png,stim/incongRight.png,right,0,2062,2020-05-26_15h30.30.240,ANTCPTp,2020.1.2,Win32,60,0.88932,,,1,29,77,27,1,,,,,,,,,,,,,,,,,,,,,,,,,,,,,,,,,,,,,,,,,,
0.45,right,1,,,,,,stim/both.png,stim/incongRight.png,right,0,2062,2020-05-26_15h30.30.240,ANTCPTp,2020.1.2,Win32,60,0.980515,,,1,30,78,25,1,,,,,,,,,,,,,,,,,,,,,,,,,,,,,,,,,,,,,,,,,,
1.5,right,1,,,,,,stim/centre.png,stim/incongLeft.png,right,180,2062,2020-05-26_15h30.30.240,ANTCPTp,2020.1.2,Win32,60,0.82629,,,1,31,79,22,1,,,,,,,,,,,,,,,,,,,,,,,,,,,,,,,,,,,,,,,,,,
1.5,left,1,,,,,,stim/upper.png,stim/neutralLeft.png,left,0,2062,2020-05-26_15h30.30.240,ANTCPTp,2020.1.2,Win32,60,0.82252,,,1,32,80,32,1,,,,,,,,,,,,,,,,,,,,,,,,,,,,,,,,,,,,,,,,,,
1,left,1,,,,,,stim/both.png,stim/congLeft.png,left,0,2062,2020-05-26_15h30.30.240,ANTCPTp,2020.1.2,Win32,60,0.65493,,,1,33,81,1,1,,,,,,,,,,,,,,,,,,,,,,,,,,,,,,,,,,,,,,,,,,
0.45,right,1,,,,,,stim/both.png,stim/incongLeft.png,right,180,2062,2020-05-26_15h30.30.240,ANTCPTp,2020.1.2,Win32,60,1.062105,,,1,34,82,21,1,,,,,,,,,,,,,,,,,,,,,,,,,,,,,,,,,,,,,,,,,,
1.45,right,1,,,,,,stim/centre.png,stim/congRight.png,right,0,2062,2020-05-26_15h30.30.240,ANTCPTp,2020.1.2,Win32,60,0.657395,,,1,35,83,10,1,,,,,,,,,,,,,,,,,,,,,,,,,,,,,,,,,,,,,,,,,,
0.7,left,1,,,,,,stim/blank.png,stim/neutralRight.png,left,180,2062,2020-05-26_15h30.30.240,ANTCPTp,2020.1.2,Win32,60,0.95644,,,1,36,84,47,1,,,,,,,,,,,,,,,,,,,,,,,,,,,,,,,,,,,,,,,,,,
1.2,right,1,,,,,,stim/blank.png,stim/neutralRight.png,right,0,2062,2020-05-26_15h30.30.240,ANTCPTp,2020.1.2,Win32,60,0.623235,,,1,37,85,43,1,,,,,,,,,,,,,,,,,,,,,,,,,,,,,,,,,,,,,,,,,,
1.5,right,1,,,,,,stim/blank.png,stim/congRight.png,right,0,2062,2020-05-26_15h30.30.240,ANTCPTp,2020.1.2,Win32,60,0.635725,,,1,38,86,11,1,,,,,,,,,,,,,,,,,,,,,,,,,,,,,,,,,,,,,,,,,,
1.25,right,1,,,,,,stim/centre.png,stim/neutralLeft.png,right,180,2062,2020-05-26_15h30.30.240,ANTCPTp,2020.1.2,Win32,60,0.704995,,,1,39,87,38,1,,,,,,,,,,,,,,,,,,,,,,,,,,,,,,,,,,,,,,,,,,
1.45,left,1,,,,,,stim/both.png,stim/congRight.png,left,180,2062,2020-05-26_15h30.30.240,ANTCPTp,2020.1.2,Win32,60,0.68392,,,1,40,88,13,1,,,,,,,,,,,,,,,,,,,,,,,,,,,,,,,,,,,,,,,,,,
0.95,left,1,,,,,,stim/blank.png,stim/incongLeft.png,left,0,2062,2020-05-26_15h30.30.240,ANTCPTp,2020.1.2,Win32,60,0.99533,,,1,41,89,19,1,,,,,,,,,,,,,,,,,,,,,,,,,,,,,,,,,,,,,,,,,,
1.2,left,1,,,,,,stim/centre.png,stim/neutralLeft.png,left,0,2062,2020-05-26_15h30.30.240,ANTCPTp,2020.1.2,Win32,60,0.65308,,,1,42,90,34,1,,,,,,,,,,,,,,,,,,,,,,,,,,,,,,,,,,,,,,,,,,
0.7,left,1,,,,,,stim/upper.png,stim/incongLeft.png,left,0,2062,2020-05-26_15h30.30.240,ANTCPTp,2020.1.2,Win32,60,0.66451,,,1,43,91,16,1,,,,,,,,,,,,,,,,,,,,,,,,,,,,,,,,,,,,,,,,,,
0.6,right,1,,,,,,stim/both.png,stim/neutralRight.png,right,0,2062,2020-05-26_15h30.30.240,ANTCPTp,2020.1.2,Win32,60,0.753595,,,1,44,92,41,1,,,,,,,,,,,,,,,,,,,,,,,,,,,,,,,,,,,,,,,,,,
0.75,right,1,,,,,,stim/both.png,stim/congRight.png,right,0,2062,2020-05-26_15h30.30.240,ANTCPTp,2020.1.2,Win32,60,0.677135,,,1,45,93,9,1,,,,,,,,,,,,,,,,,,,,,,,,,,,,,,,,,,,,,,,,,,
0.95,right,1,,,,,,stim/upper.png,stim/congRight.png,right,0,2062,2020-05-26_15h30.30.240,ANTCPTp,2020.1.2,Win32,60,1.205455,,,1,46,94,8,1,,,,,,,,,,,,,,,,,,,,,,,,,,,,,,,,,,,,,,,,,,
1.55,left,1,,,,,,stim/centre.png,stim/congLeft.png,left,0,2062,2020-05-26_15h30.30.240,ANTCPTp,2020.1.2,Win32,60,0.64744,,,1,47,95,2,1,,,,,,,,,,,,,,,,,,,,,,,,,,,,,,,,,,,,,,,,,,
,,,,,,,,,,space,,2062,2020-05-26_15h30.30.240,ANTCPTp,2020.1.2,Win32,60,,,,,,,,,,,,,,space,18.755945,space,20.40592,space,10.64813,space,1,0.574785,0,0,0,13,1,W,,,,,,,,,,,,,,,,,,,,,,
,,,,,,,,,,space,,2062,2020-05-26_15h30.30.240,ANTCPTp,2020.1.2,Win32,60,,,,,,,,,,,,,,,,,,,,space,1,0.489645,0,1,1,7,1,N,,,,,,,,,,,,,,,,,,,,,,
,,,,,,,,,,space,,2062,2020-05-26_15h30.30.240,ANTCPTp,2020.1.2,Win32,60,,,,,,,,,,,,,,,,,,,,space,1,0.449865,0,2,2,3,1,D,,,,,,,,,,,,,,,,,,,,,,
,,,,,,,,,,space,,2062,2020-05-26_15h30.30.240,ANTCPTp,2020.1.2,Win32,60,,,,,,,,,,,,,,,,,,,,space,1,0.399185,0,3,3,4,1,E,,,,,,,,,,,,,,,,,,,,,,
,,,,,,,,,,space,,2062,2020-05-26_15h30.30.240,ANTCPTp,2020.1.2,Win32,60,,,,,,,,,,,,,,,,,,,,space,1,0.44412,0,4,4,12,1,V,,,,,,,,,,,,,,,,,,,,,,
,,,,,,,,,,space,,2062,2020-05-26_15h30.30.240,ANTCPTp,2020.1.2,Win32,60,,,,,,,,,,,,,,,,,,,,space,1,0.33842,0,5,5,5,1,F,,,,,,,,,,,,,,,,,,,,,,
,,,,,,,,,,space,,2062,2020-05-26_15h30.30.240,ANTCPTp,2020.1.2,Win32,60,,,,,,,,,,,,,,,,,,,,space,1,0.32014,0,6,6,8,1,O,,,,,,,,,,,,,,,,,,,,,,
,,,,,,,,,,,,2062,2020-05-26_15h30.30.240,ANTCPTp,2020.1.2,Win32,60,,,,,,,,,,,,,,,,,,,,space,0,0.309945,0,7,7,15,1,X,,,,,,,,,,,,,,,,,,,,,,
,,,,,,,,,,space,,2062,2020-05-26_15h30.30.240,ANTCPTp,2020.1.2,Win32,60,,,,,,,,,,,,,,,,,,,,space,1,0.48513,0,8,8,0,1,A,,,,,,,,,,,,,,,,,,,,,,
,,,,,,,,,,space,,2062,2020-05-26_15h30.30.240,ANTCPTp,2020.1.2,Win32,60,,,,,,,,,,,,,,,,,,,,space,1,0.451745,0,9,9,9,1,P,,,,,,,,,,,,,,,,,,,,,,
,,,,,,,,,,,,2062,2020-05-26_15h30.30.240,ANTCPTp,2020.1.2,Win32,60,,,,,,,,,,,,,,,,,,,,,1,,0,10,10,16,1,X,,,,,,,,,,,,,,,,,,,,,,
,,,,,,,,,,space,,2062,2020-05-26_15h30.30.240,ANTCPTp,2020.1.2,Win32,60,,,,,,,,,,,,,,,,,,,,space,1,0.319015,0,11,11,10,1,Q,,,,,,,,,,,,,,,,,,,,,,
,,,,,,,,,,space,,2062,2020-05-26_15h30.30.240,ANTCPTp,2020.1.2,Win32,60,,,,,,,,,,,,,,,,,,,,space,1,0.40462,0,12,12,1,1,B,,,,,,,,,,,,,,,,,,,,,,
,,,,,,,,,,space,,2062,2020-05-26_15h30.30.240,ANTCPTp,2020.1.2,Win32,60,,,,,,,,,,,,,,,,,,,,space,1,0.37096,0,13,13,2,1,C,,,,,,,,,,,,,,,,,,,,,,
,,,,,,,,,,space,,2062,2020-05-26_15h30.30.240,ANTCPTp,2020.1.2,Win32,60,,,,,,,,,,,,,,,,,,,,space,1,0.41663,0,14,14,6,1,J,,,,,,,,,,,,,,,,,,,,,,
,,,,,,,,,,space,,2062,2020-05-26_15h30.30.240,ANTCPTp,2020.1.2,Win32,60,,,,,,,,,,,,,,,,,,,,space,1,0.43916,0,15,15,11,1,U,,,,,,,,,,,,,,,,,,,,,,
,,,,,,,,,,space,,2062,2020-05-26_15h30.30.240,ANTCPTp,2020.1.2,Win32,60,,,,,,,,,,,,,,,,,,,,space,1,0.46918,0,16,16,14,1,Y,,,,,,,,,,,,,,,,,,,,,,
,,,,,,,,,,space,,2062,2020-05-26_15h30.30.240,ANTCPTp,2020.1.2,Win32,60,,,,,,,,,,,,,,,,,,,,space,1,0.841025,,,,,,U,1,4.43192,0,0,0,20,1,,,,,,,,,,,,,,,
,,,,,,,,,,space,,2062,2020-05-26_15h30.30.240,ANTCPTp,2020.1.2,Win32,60,,,,,,,,,,,,,,,,,,,,space,1,0.428245,,,,,,D,,,0,1,1,3,1,,,,,,,,,,,,,,,
,,,,,,,,,,space,,2062,2020-05-26_15h30.30.240,ANTCPTp,2020.1.2,Win32,60,,,,,,,,,,,,,,,,,,,,space,1,0.458305,,,,,,Y,,,0,2,2,23,1,,,,,,,,,,,,,,,
,,,,,,,,,,,,2062,2020-05-26_15h30.30.240,ANTCPTp,2020.1.2,Win32,60,,,,,,,,,,,,,,,,,,,,,1,,,,,,,X,,,0,3,3,26,1,,,,,,,,,,,,,,,
,,,,,,,,,,,,2062,2020-05-26_15h30.30.240,ANTCPTp,2020.1.2,Win32,60,,,,,,,,,,,,,,,,,,,,,1,,,,,,,X,,,0,4,4,29,1,,,,,,,,,,,,,,,
,,,,,,,,,,space,,2062,2020-05-26_15h30.30.240,ANTCPTp,2020.1.2,Win32,60,,,,,,,,,,,,,,,,,,,,space,1,0.428365,,,,,,Q,,,0,5,5,16,1,,,,,,,,,,,,,,,
,,,,,,,,,,space,,2062,2020-05-26_15h30.30.240,ANTCPTp,2020.1.2,Win32,60,,,,,,,,,,,,,,,,,,,,space,1,0.489975,,,,,,O,,,0,6,6,14,1,,,,,,,,,,,,,,,
,,,,,,,,,,space,,2062,2020-05-26_15h30.30.240,ANTCPTp,2020.1.2,Win32,60,,,,,,,,,,,,,,,,,,,,space,1,0.38338,,,,,,H,,,0,7,7,7,1,,,,,,,,,,,,,,,
,,,,,,,,,,space,,2062,2020-05-26_15h30.30.240,ANTCPTp,2020.1.2,Win32,60,,,,,,,,,,,,,,,,,,,,space,1,0.325795,,,,,,P,,,0,8,8,15,1,,,,,,,,,,,,,,,
,,,,,,,,,,,,2062,2020-05-26_15h30.30.240,ANTCPTp,2020.1.2,Win32,60,,,,,,,,,,,,,,,,,,,,,1,,,,,,,X,,,0,9,9,27,1,,,,,,,,,,,,,,,
,,,,,,,,,,space,,2062,2020-05-26_15h30.30.240,ANTCPTp,2020.1.2,Win32,60,,,,,,,,,,,,,,,,,,,,space,1,0.330685,,,,,,Z,,,0,10,10,24,1,,,,,,,,,,,,,,,
,,,,,,,,,,space,,2062,2020-05-26_15h30.30.240,ANTCPTp,2020.1.2,Win32,60,,,,,,,,,,,,,,,,,,,,space,1,0.540505,,,,,,L,,,0,11,11,11,1,,,,,,,,,,,,,,,
,,,,,,,,,,space,,2062,2020-05-26_15h30.30.240,ANTCPTp,2020.1.2,Win32,60,,,,,,,,,,,,,,,,,,,,space,1,0.484785,,,,,,F,,,0,12,12,5,1,,,,,,,,,,,,,,,
,,,,,,,,,,space,,2062,2020-05-26_15h30.30.240,ANTCPTp,2020.1.2,Win32,60,,,,,,,,,,,,,,,,,,,,space,1,0.434925,,,,,,N,,,0,13,13,13,1,,,,,,,,,,,,,,,
,,,,,,,,,,space,,2062,2020-05-26_15h30.30.240,ANTCPTp,2020.1.2,Win32,60,,,,,,,,,,,,,,,,,,,,space,1,0.483305,,,,,,J,,,0,14,14,9,1,,,,,,,,,,,,,,,
,,,,,,,,,,space,,2062,2020-05-26_15h30.30.240,ANTCPTp,2020.1.2,Win32,60,,,,,,,,,,,,,,,,,,,,space,1,0.479175,,,,,,V,,,0,15,15,21,1,,,,,,,,,,,,,,,
,,,,,,,,,,space,,2062,2020-05-26_15h30.30.240,ANTCPTp,2020.1.2,Win32,60,,,,,,,,,,,,,,,,,,,,space,1,0.500405,,,,,,K,,,0,16,16,10,1,,,,,,,,,,,,,,,
,,,,,,,,,,space,,2062,2020-05-26_15h30.30.240,ANTCPTp,2020.1.2,Win32,60,,,,,,,,,,,,,,,,,,,,space,1,0.53364,,,,,,B,,,0,17,17,1,1,,,,,,,,,,,,,,,
,,,,,,,,,,space,,2062,2020-05-26_15h30.30.240,ANTCPTp,2020.1.2,Win32,60,,,,,,,,,,,,,,,,,,,,space,1,0.457095,,,,,,R,,,0,18,18,17,1,,,,,,,,,,,,,,,
,,,,,,,,,,space,,2062,2020-05-26_15h30.30.240,ANTCPTp,2020.1.2,Win32,60,,,,,,,,,,,,,,,,,,,,space,1,0.450325,,,,,,E,,,0,19,19,4,1,,,,,,,,,,,,,,,
,,,,,,,,,,space,,2062,2020-05-26_15h30.30.240,ANTCPTp,2020.1.2,Win32,60,,,,,,,,,,,,,,,,,,,,space,1,0.405445,,,,,,S,,,0,20,20,18,1,,,,,,,,,,,,,,,
,,,,,,,,,,space,,2062,2020-05-26_15h30.30.240,ANTCPTp,2020.1.2,Win32,60,,,,,,,,,,,,,,,,,,,,space,1,0.507425,,,,,,A,,,0,21,21,0,1,,,,,,,,,,,,,,,
,,,,,,,,,,space,,2062,2020-05-26_15h30.30.240,ANTCPTp,2020.1.2,Win32,60,,,,,,,,,,,,,,,,,,,,space,1,0.52136,,,,,,M,,,0,22,22,12,1,,,,,,,,,,,,,,,
,,,,,,,,,,space,,2062,2020-05-26_15h30.30.240,ANTCPTp,2020.1.2,Win32,60,,,,,,,,,,,,,,,,,,,,space,1,0.40691,,,,,,A,,,0,23,23,25,1,,,,,,,,,,,,,,,
,,,,,,,,,,space,,2062,2020-05-26_15h30.30.240,ANTCPTp,2020.1.2,Win32,60,,,,,,,,,,,,,,,,,,,,space,1,0.44537,,,,,,I,,,0,24,24,8,1,,,,,,,,,,,,,,,
,,,,,,,,,,,,2062,2020-05-26_15h30.30.240,ANTCPTp,2020.1.2,Win32,60,,,,,,,,,,,,,,,,,,,,,1,,,,,,,X,,,0,25,25,28,1,,,,,,,,,,,,,,,
,,,,,,,,,,space,,2062,2020-05-26_15h30.30.240,ANTCPTp,2020.1.2,Win32,60,,,,,,,,,,,,,,,,,,,,space,1,0.473045,,,,,,T,,,0,26,26,19,1,,,,,,,,,,,,,,,
,,,,,,,,,,space,,2062,2020-05-26_15h30.30.240,ANTCPTp,2020.1.2,Win32,60,,,,,,,,,,,,,,,,,,,,space,1,0.3599,,,,,,W,,,0,27,27,22,1,,,,,,,,,,,,,,,
,,,,,,,,,,space,,2062,2020-05-26_15h30.30.240,ANTCPTp,2020.1.2,Win32,60,,,,,,,,,,,,,,,,,,,,space,1,0.357445,,,,,,G,,,0,28,28,6,1,,,,,,,,,,,,,,,
,,,,,,,,,,space,,2062,2020-05-26_15h30.30.240,ANTCPTp,2020.1.2,Win32,60,,,,,,,,,,,,,,,,,,,,space,1,0.40461,,,,,,C,,,0,29,29,2,1,,,,,,,,,,,,,,,
,,,,,,,,,,space,,2062,2020-05-26_15h30.30.240,ANTCPTp,2020.1.2,Win32,60,,,,,,,,,,,,,,,,,,,,space,1,0.56747,,,,,,O,1,2.78797,,,,,,0,0,0,10,1,,,,,,,,,,
,,,,,,,,,,space,,2062,2020-05-26_15h30.30.240,ANTCPTp,2020.1.2,Win32,60,,,,,,,,,,,,,,,,,,,,space,1,0.502175,,,,,,G,,,,,,,,0,1,1,4,1,,,,,,,,,,
,,,,,,,,,,space,,2062,2020-05-26_15h30.30.240,ANTCPTp,2020.1.2,Win32,60,,,,,,,,,,,,,,,,,,,,space,1,0.44422,,,,,,Y,,,,,,,,0,2,2,17,1,,,,,,,,,,
,,,,,,,,,,,,2062,2020-05-26_15h30.30.240,ANTCPTp,2020.1.2,Win32,60,,,,,,,,,,,,,,,,,,,,,1,,,,,,,X,,,,,,,,0,3,3,20,1,,,,,,,,,,
,,,,,,,,,,space,,2062,2020-05-26_15h30.30.240,ANTCPTp,2020.1.2,Win32,60,,,,,,,,,,,,,,,,,,,,space,1,0.51213,,,,,,H,,,,,,,,0,4,4,5,1,,,,,,,,,,
,,,,,,,,,,space,,2062,2020-05-26_15h30.30.240,ANTCPTp,2020.1.2,Win32,60,,,,,,,,,,,,,,,,,,,,space,1,0.35072,,,,,,E,,,,,,,,0,5,5,2,1,,,,,,,,,,
,,,,,,,,,,,,2062,2020-05-26_15h30.30.240,ANTCPTp,2020.1.2,Win32,60,,,,,,,,,,,,,,,,,,,,,1,,,,,,,X,,,,,,,,0,6,6,21,1,,,,,,,,,,
,,,,,,,,,,space,,2062,2020-05-26_15h30.30.240,ANTCPTp,2020.1.2,Win32,60,,,,,,,,,,,,,,,,,,,,space,1,0.417715,,,,,,S,,,,,,,,0,7,7,13,1,,,,,,,,,,
,,,,,,,,,,space,,2062,2020-05-26_15h30.30.240,ANTCPTp,2020.1.2,Win32,60,,,,,,,,,,,,,,,,,,,,space,1,0.575655,,,,,,D,,,,,,,,0,8,8,1,1,,,,,,,,,,
,,,,,,,,,,space,,2062,2020-05-26_15h30.30.240,ANTCPTp,2020.1.2,Win32,60,,,,,,,,,,,,,,,,,,,,space,1,0.433685,,,,,,Q,,,,,,,,0,9,9,11,1,,,,,,,,,,
,,,,,,,,,,space,,2062,2020-05-26_15h30.30.240,ANTCPTp,2020.1.2,Win32,60,,,,,,,,,,,,,,,,,,,,space,1,0.420755,,,,,,R,,,,,,,,0,10,10,12,1,,,,,,,,,,
,,,,,,,,,,space,,2062,2020-05-26_15h30.30.240,ANTCPTp,2020.1.2,Win32,60,,,,,,,,,,,,,,,,,,,,space,1,0.370365,,,,,,F,,,,,,,,0,11,11,3,1,,,,,,,,,,
,,,,,,,,,,space,,2062,2020-05-26_15h30.30.240,ANTCPTp,2020.1.2,Win32,60,,,,,,,,,,,,,,,,,,,,space,1,0.375765,,,,,,N,,,,,,,,0,12,12,9,1,,,,,,,,,,
,,,,,,,,,,space,,2062,2020-05-26_15h30.30.240,ANTCPTp,2020.1.2,Win32,60,,,,,,,,,,,,,,,,,,,,space,1,0.493745,,,,,,U,,,,,,,,0,13,13,15,1,,,,,,,,,,
,,,,,,,,,,space,,2062,2020-05-26_15h30.30.240,ANTCPTp,2020.1.2,Win32,60,,,,,,,,,,,,,,,,,,,,space,1,0.588285,,,,,,Z,,,,,,,,0,14,14,18,1,,,,,,,,,,
,,,,,,,,,,space,,2062,2020-05-26_15h30.30.240,ANTCPTp,2020.1.2,Win32,60,,,,,,,,,,,,,,,,,,,,space,1,0.516925,,,,,,W,,,,,,,,0,15,15,16,1,,,,,,,,,,
,,,,,,,,,,space,,2062,2020-05-26_15h30.30.240,ANTCPTp,2020.1.2,Win32,60,,,,,,,,,,,,,,,,,,,,space,1,0.42421,,,,,,B,,,,,,,,0,16,16,0,1,,,,,,,,,,
,,,,,,,,,,space,,2062,2020-05-26_15h30.30.240,ANTCPTp,2020.1.2,Win32,60,,,,,,,,,,,,,,,,,,,,space,1,0.519015,,,,,,A,,,,,,,,0,17,17,19,1,,,,,,,,,,
,,,,,,,,,,space,,2062,2020-05-26_15h30.30.240,ANTCPTp,2020.1.2,Win32,60,,,,,,,,,,,,,,,,,,,,space,1,0.47709,,,,,,M,,,,,,,,0,18,18,8,1,,,,,,,,,,
,,,,,,,,,,space,,2062,2020-05-26_15h30.30.240,ANTCPTp,2020.1.2,Win32,60,,,,,,,,,,,,,,,,,,,,space,1,0.48331,,,,,,L,,,,,,,,0,19,19,7,1,,,,,,,,,,
,,,,,,,,,,space,,2062,2020-05-26_15h30.30.240,ANTCPTp,2020.1.2,Win32,60,,,,,,,,,,,,,,,,,,,,space,1,0.38526,,,,,,T,,,,,,,,0,20,20,14,1,,,,,,,,,,
,,,,,,,,,,space,,2062,2020-05-26_15h30.30.240,ANTCPTp,2020.1.2,Win32,60,,,,,,,,,,,,,,,,,,,,space,1,0.527345,,,,,,K,,,,,,,,0,21,21,6,1,,,,,,,,,,
,,,,,,,,,,space,,2062,2020-05-26_15h30.30.240,ANTCPTp,2020.1.2,Win32,60,,,,,,,,,,,,,,,,,,,,space,1,0.41713,,,,,,M,1,2.69451,,,,,,,,,,,0,0,0,12,1,,,,,
,,,,,,,,,,space,,2062,2020-05-26_15h30.30.240,ANTCPTp,2020.1.2,Win32,60,,,,,,,,,,,,,,,,,,,,space,1,0.4042,,,,,,C,,,,,,,,,,,,,0,1,1,2,1,,,,,
,,,,,,,,,,space,,2062,2020-05-26_15h30.30.240,ANTCPTp,2020.1.2,Win32,60,,,,,,,,,,,,,,,,,,,,space,1,0.4342,,,,,,V,,,,,,,,,,,,,0,2,2,20,1,,,,,
,,,,,,,,,,,,2062,2020-05-26_15h30.30.240,ANTCPTp,2020.1.2,Win32,60,,,,,,,,,,,,,,,,,,,,space,0,0.38454,,,,,,X,,,,,,,,,,,,,0,3,3,24,1,,,,,
,,,,,,,,,,space,,2062,2020-05-26_15h30.30.240,ANTCPTp,2020.1.2,Win32,60,,,,,,,,,,,,,,,,,,,,space,1,0.47021,,,,,,S,,,,,,,,,,,,,0,4,4,18,1,,,,,
,,,,,,,,,,space,,2062,2020-05-26_15h30.30.240,ANTCPTp,2020.1.2,Win32,60,,,,,,,,,,,,,,,,,,,,space,1,0.459365,,,,,,R,,,,,,,,,,,,,0,5,5,17,1,,,,,
,,,,,,,,,,space,,2062,2020-05-26_15h30.30.240,ANTCPTp,2020.1.2,Win32,60,,,,,,,,,,,,,,,,,,,,space,1,0.42684,,,,,,O,,,,,,,,,,,,,0,6,6,14,1,,,,,
,,,,,,,,,,space,,2062,2020-05-26_15h30.30.240,ANTCPTp,2020.1.2,Win32,60,,,,,,,,,,,,,,,,,,,,space,1,0.416885,,,,,,G,,,,,,,,,,,,,0,7,7,6,1,,,,,
,,,,,,,,,,space,,2062,2020-05-26_15h30.30.240,ANTCPTp,2020.1.2,Win32,60,,,,,,,,,,,,,,,,,,,,space,1,0.433505,,,,,,H,,,,,,,,,,,,,0,8,8,7,1,,,,,
,,,,,,,,,,space,,2062,2020-05-26_15h30.30.240,ANTCPTp,2020.1.2,Win32,60,,,,,,,,,,,,,,,,,,,,space,1,0.428825,,,,,,F,,,,,,,,,,,,,0,9,9,5,1,,,,,
,,,,,,,,,,space,,2062,2020-05-26_15h30.30.240,ANTCPTp,2020.1.2,Win32,60,,,,,,,,,,,,,,,,,,,,space,1,0.49099,,,,,,E,,,,,,,,,,,,,0,10,10,4,1,,,,,
,,,,,,,,,,space,,2062,2020-05-26_15h30.30.240,ANTCPTp,2020.1.2,Win32,60,,,,,,,,,,,,,,,,,,,,space,1,0.535655,,,,,,I,,,,,,,,,,,,,0,11,11,8,1,,,,,
,,,,,,,,,,space,,2062,2020-05-26_15h30.30.240,ANTCPTp,2020.1.2,Win32,60,,,,,,,,,,,,,,,,,,,,space,1,0.46976,,,,,,J,,,,,,,,,,,,,0,12,12,9,1,,,,,
,,,,,,,,,,space,,2062,2020-05-26_15h30.30.240,ANTCPTp,2020.1.2,Win32,60,,,,,,,,,,,,,,,,,,,,space,1,0.444895,,,,,,Z,,,,,,,,,,,,,0,13,13,23,1,,,,,
,,,,,,,,,,space,,2062,2020-05-26_15h30.30.240,ANTCPTp,2020.1.2,Win32,60,,,,,,,,,,,,,,,,,,,,space,1,0.50047,,,,,,A,,,,,,,,,,,,,0,14,14,0,1,,,,,
,,,,,,,,,,space,,2062,2020-05-26_15h30.30.240,ANTCPTp,2020.1.2,Win32,60,,,,,,,,,,,,,,,,,,,,space,1,0.500025,,,,,,K,,,,,,,,,,,,,0,15,15,10,1,,,,,
,,,,,,,,,,space,,2062,2020-05-26_15h30.30.240,ANTCPTp,2020.1.2,Win32,60,,,,,,,,,,,,,,,,,,,,space,1,0.503045,,,,,,N,,,,,,,,,,,,,0,16,16,13,1,,,,,
,,,,,,,,,,space,,2062,2020-05-26_15h30.30.240,ANTCPTp,2020.1.2,Win32,60,,,,,,,,,,,,,,,,,,,,space,1,0.46132,,,,,,L,,,,,,,,,,,,,0,17,17,11,1,,,,,
,,,,,,,,,,space,,2062,2020-05-26_15h30.30.240,ANTCPTp,2020.1.2,Win32,60,,,,,,,,,,,,,,,,,,,,space,1,0.483735,,,,,,Q,,,,,,,,,,,,,0,18,18,16,1,,,,,
,,,,,,,,,,space,,2062,2020-05-26_15h30.30.240,ANTCPTp,2020.1.2,Win32,60,,,,,,,,,,,,,,,,,,,,space,1,0.44976,,,,,,W,,,,,,,,,,,,,0,19,19,21,1,,,,,
,,,,,,,,,,space,,2062,2020-05-26_15h30.30.240,ANTCPTp,2020.1.2,Win32,60,,,,,,,,,,,,,,,,,,,,space,1,0.45628,,,,,,U,,,,,,,,,,,,,0,20,20,19,1,,,,,
,,,,,,,,,,space,,2062,2020-05-26_15h30.30.240,ANTCPTp,2020.1.2,Win32,60,,,,,,,,,,,,,,,,,,,,space,1,0.40562,,,,,,B,,,,,,,,,,,,,0,21,21,1,1,,,,,
,,,,,,,,,,space,,2062,2020-05-26_15h30.30.240,ANTCPTp,2020.1.2,Win32,60,,,,,,,,,,,,,,,,,,,,space,1,0.40278,,,,,,Y,,,,,,,,,,,,,0,22,22,22,1,,,,,
,,,,,,,,,,space,,2062,2020-05-26_15h30.30.240,ANTCPTp,2020.1.2,Win32,60,,,,,,,,,,,,,,,,,,,,space,1,0.450135,,,,,,D,,,,,,,,,,,,,0,23,23,3,1,,,,,
,,,,,,,,,,,,2062,2020-05-26_15h30.30.240,ANTCPTp,2020.1.2,Win32,60,,,,,,,,,,,,,,,,,,,,,1,,,,,,,X,,,,,,,,,,,,,0,24,24,26,1,,,,,
,,,,,,,,,,space,,2062,2020-05-26_15h30.30.240,ANTCPTp,2020.1.2,Win32,60,,,,,,,,,,,,,,,,,,,,space,1,0.48617,,,,,,P,,,,,,,,,,,,,0,25,25,15,1,,,,,
,,,,,,,,,,,,2062,2020-05-26_15h30.30.240,ANTCPTp,2020.1.2,Win32,60,,,,,,,,,,,,,,,,,,,,space,0,0.46805,,,,,,X,,,,,,,,,,,,,0,26,26,25,1,,,,,
,,,,,,,,,,,,2062,2020-05-26_15h30.30.240,ANTCPTp,2020.1.2,Win32,60,,,,,,,,,,,,,,,,,,,,,,,,,,,,,1,3.195915,,,,,,,,,,,,,,,,0,0,0,0,1
,,,,,,,,,,space,,2062,2020-05-26_15h30.30.240,ANTCPTp,2020.1.2,Win32,60,,,,,,,,,,,,,,,,,,,,space,1,0.67843,0,0,0,7,1,N,,,,,,,,,,,,,,,,,,,,,,
,,,,,,,,,,space,,2062,2020-05-26_15h30.30.240,ANTCPTp,2020.1.2,Win32,60,,,,,,,,,,,,,,,,,,,,space,1,0.500875,0,1,1,14,1,Y,,,,,,,,,,,,,,,,,,,,,,
,,,,,,,,,,space,,2062,2020-05-26_15h30.30.240,ANTCPTp,2020.1.2,Win32,60,,,,,,,,,,,,,,,,,,,,space,1,0.524175,0,2,2,11,1,U,,,,,,,,,,,,,,,,,,,,,,
,,,,,,,,,,space,,2062,2020-05-26_15h30.30.240,ANTCPTp,2020.1.2,Win32,60,,,,,,,,,,,,,,,,,,,,space,1,0.467395,0,3,3,4,1,E,,,,,,,,,,,,,,,,,,,,,,
,,,,,,,,,,,,2062,2020-05-26_15h30.30.240,ANTCPTp,2020.1.2,Win32,60,,,,,,,,,,,,,,,,,,,,,1,,0,4,4,16,1,X,,,,,,,,,,,,,,,,,,,,,,
,,,,,,,,,,space,,2062,2020-05-26_15h30.30.240,ANTCPTp,2020.1.2,Win32,60,,,,,,,,,,,,,,,,,,,,space,1,0.34107,0,5,5,8,1,O,,,,,,,,,,,,,,,,,,,,,,
,,,,,,,,,,space,,2062,2020-05-26_15h30.30.240,ANTCPTp,2020.1.2,Win32,60,,,,,,,,,,,,,,,,,,,,space,1,0.51676,0,6,6,13,1,W,,,,,,,,,,,,,,,,,,,,,,
,,,,,,,,,,space,,2062,2020-05-26_15h30.30.240,ANTCPTp,2020.1.2,Win32,60,,,,,,,,,,,,,,,,,,,,space,1,0.515065,0,7,7,5,1,F,,,,,,,,,,,,,,,,,,,,,,
,,,,,,,,,,space,,2062,2020-05-26_15h30.30.240,ANTCPTp,2020.1.2,Win32,60,,,,,,,,,,,,,,,,,,,,space,1,0.49573,0,8,8,12,1,V,,,,,,,,,,,,,,,,,,,,,,
,,,,,,,,,,space,,2062,2020-05-26_15h30.30.240,ANTCPTp,2020.1.2,Win32,60,,,,,,,,,,,,,,,,,,,,space,1,0.4477,0,9,9,3,1,D,,,,,,,,,,,,,,,,,,,,,,
,,,,,,,,,,space,,2062,2020-05-26_15h30.30.240,ANTCPTp,2020.1.2,Win32,60,,,,,,,,,,,,,,,,,,,,space,1,0.444075,0,10,10,1,1,B,,,,,,,,,,,,,,,,,,,,,,
,,,,,,,,,,space,,2062,2020-05-26_15h30.30.240,ANTCPTp,2020.1.2,Win32,60,,,,,,,,,,,,,,,,,,,,space,1,0.50021,0,11,11,9,1,P,,,,,,,,,,,,,,,,,,,,,,
,,,,,,,,,,space,,2062,2020-05-26_15h30.30.240,ANTCPTp,2020.1.2,Win32,60,,,,,,,,,,,,,,,,,,,,space,1,0.47935,0,12,12,2,1,C,,,,,,,,,,,,,,,,,,,,,,
,,,,,,,,,,space,,2062,2020-05-26_15h30.30.240,ANTCPTp,2020.1.2,Win32,60,,,,,,,,,,,,,,,,,,,,space,1,0.53419,0,13,13,10,1,Q,,,,,,,,,,,,,,,,,,,,,,
,,,,,,,,,,space,,2062,2020-05-26_15h30.30.240,ANTCPTp,2020.1.2,Win32,60,,,,,,,,,,,,,,,,,,,,space,1,0.50789,0,14,14,6,1,J,,,,,,,,,,,,,,,,,,,,,,
,,,,,,,,,,,,2062,2020-05-26_15h30.30.240,ANTCPTp,2020.1.2,Win32,60,,,,,,,,,,,,,,,,,,,,,1,,0,15,15,15,1,X,,,,,,,,,,,,,,,,,,,,,,
,,,,,,,,,,space,,2062,2020-05-26_15h30.30.240,ANTCPTp,2020.1.2,Win32,60,,,,,,,,,,,,,,,,,,,,space,1,0.335165,0,16,16,0,1,A,,,,,,,,,,,,,,,,,,,,,,
,,,,,,,,,,space,,2062,2020-05-26_15h30.30.240,ANTCPTp,2020.1.2,Win32,60,,,,,,,,,,,,,,,,,,,,space,1,0.467065,,,,,,P,1,8.51991,0,0,0,15,1,,,,,,,,,,,,,,,
,,,,,,,,,,space,,2062,2020-05-26_15h30.30.240,ANTCPTp,2020.1.2,Win32,60,,,,,,,,,,,,,,,,,,,,space,1,0.510725,,,,,,U,,,0,1,1,20,1,,,,,,,,,,,,,,,
,,,,,,,,,,space,,2062,2020-05-26_15h30.30.240,ANTCPTp,2020.1.2,Win32,60,,,,,,,,,,,,,,,,,,,,space,1,0.51683,,,,,,G,,,0,2,2,6,1,,,,,,,,,,,,,,,
,,,,,,,,,,space,,2062,2020-05-26_15h30.30.240,ANTCPTp,2020.1.2,Win32,60,,,,,,,,,,,,,,,,,,,,space,1,0.554285,,,,,,V,,,0,3,3,21,1,,,,,,,,,,,,,,,
,,,,,,,,,,space,,2062,2020-05-26_15h30.30.240,ANTCPTp,2020.1.2,Win32,60,,,,,,,,,,,,,,,,,,,,space,1,0.439925,,,,,,K,,,0,4,4,10,1,,,,,,,,,,,,,,,
,,,,,,,,,,space,,2062,2020-05-26_15h30.30.240,ANTCPTp,2020.1.2,Win32,60,,,,,,,,,,,,,,,,,,,,space,1,0.47099,,,,,,C,,,0,5,5,2,1,,,,,,,,,,,,,,,
,,,,,,,,,,space,,2062,2020-05-26_15h30.30.240,ANTCPTp,2020.1.2,Win32,60,,,,,,,,,,,,,,,,,,,,space,1,0.484645,,,,,,D,,,0,6,6,3,1,,,,,,,,,,,,,,,
,,,,,,,,,,,,2062,2020-05-26_15h30.30.240,ANTCPTp,2020.1.2,Win32,60,,,,,,,,,,,,,,,,,,,,,1,,,,,,,X,,,0,7,7,28,1,,,,,,,,,,,,,,,
,,,,,,,,,,space,,2062,2020-05-26_15h30.30.240,ANTCPTp,2020.1.2,Win32,60,,,,,,,,,,,,,,,,,,,,space,1,0.496625,,,,,,F,,,0,8,8,5,1,,,,,,,,,,,,,,,
,,,,,,,,,,,,2062,2020-05-26_15h30.30.240,ANTCPTp,2020.1.2,Win32,60,,,,,,,,,,,,,,,,,,,,,1,,,,,,,X,,,0,9,9,26,1,,,,,,,,,,,,,,,
,,,,,,,,,,space,,2062,2020-05-26_15h30.30.240,ANTCPTp,2020.1.2,Win32,60,,,,,,,,,,,,,,,,,,,,space,1,0.383765,,,,,,W,,,0,10,10,22,1,,,,,,,,,,,,,,,
,,,,,,,,,,space,,2062,2020-05-26_15h30.30.240,ANTCPTp,2020.1.2,Win32,60,,,,,,,,,,,,,,,,,,,,space,1,0.42714,,,,,,E,,,0,11,11,4,1,,,,,,,,,,,,,,,
,,,,,,,,,,space,,2062,2020-05-26_15h30.30.240,ANTCPTp,2020.1.2,Win32,60,,,,,,,,,,,,,,,,,,,,space,1,0.505255,,,,,,L,,,0,12,12,11,1,,,,,,,,,,,,,,,
,,,,,,,,,,space,,2062,2020-05-26_15h30.30.240,ANTCPTp,2020.1.2,Win32,60,,,,,,,,,,,,,,,,,,,,space,1,0.46749,,,,,,O,,,0,13,13,14,1,,,,,,,,,,,,,,,
,,,,,,,,,,space,,2062,2020-05-26_15h30.30.240,ANTCPTp,2020.1.2,Win32,60,,,,,,,,,,,,,,,,,,,,space,1,0.676845,,,,,,Z,,,0,14,14,24,1,,,,,,,,,,,,,,,
,,,,,,,,,,space,,2062,2020-05-26_15h30.30.240,ANTCPTp,2020.1.2,Win32,60,,,,,,,,,,,,,,,,,,,,space,1,0.53385,,,,,,Y,,,0,15,15,23,1,,,,,,,,,,,,,,,
,,,,,,,,,,space,,2062,2020-05-26_15h30.30.240,ANTCPTp,2020.1.2,Win32,60,,,,,,,,,,,,,,,,,,,,space,1,0.459315,,,,,,S,,,0,16,16,18,1,,,,,,,,,,,,,,,
,,,,,,,,,,space,,2062,2020-05-26_15h30.30.240,ANTCPTp,2020.1.2,Win32,60,,,,,,,,,,,,,,,,,,,,space,1,0.634275,,,,,,T,,,0,17,17,19,1,,,,,,,,,,,,,,,
,,,,,,,,,,space,,2062,2020-05-26_15h30.30.240,ANTCPTp,2020.1.2,Win32,60,,,,,,,,,,,,,,,,,,,,space,1,0.463515,,,,,,R,,,0,18,18,17,1,,,,,,,,,,,,,,,
,,,,,,,,,,space,,2062,2020-05-26_15h30.30.240,ANTCPTp,2020.1.2,Win32,60,,,,,,,,,,,,,,,,,,,,space,1,0.413435,,,,,,J,,,0,19,19,9,1,,,,,,,,,,,,,,,
,,,,,,,,,,space,,2062,2020-05-26_15h30.30.240,ANTCPTp,2020.1.2,Win32,60,,,,,,,,,,,,,,,,,,,,space,1,0.43565,,,,,,B,,,0,20,20,1,1,,,,,,,,,,,,,,,
,,,,,,,,,,space,,2062,2020-05-26_15h30.30.240,ANTCPTp,2020.1.2,Win32,60,,,,,,,,,,,,,,,,,,,,space,1,0.40923,,,,,,A,,,0,21,21,0,1,,,,,,,,,,,,,,,
,,,,,,,,,,space,,2062,2020-05-26_15h30.30.240,ANTCPTp,2020.1.2,Win32,60,,,,,,,,,,,,,,,,,,,,space,1,0.43354,,,,,,I,,,0,22,22,8,1,,,,,,,,,,,,,,,
,,,,,,,,,,,,2062,2020-05-26_15h30.30.240,ANTCPTp,2020.1.2,Win32,60,,,,,,,,,,,,,,,,,,,,,1,,,,,,,X,,,0,23,23,29,1,,,,,,,,,,,,,,,
,,,,,,,,,,space,,2062,2020-05-26_15h30.30.240,ANTCPTp,2020.1.2,Win32,60,,,,,,,,,,,,,,,,,,,,space,1,0.44262,,,,,,M,,,0,24,24,12,1,,,,,,,,,,,,,,,
,,,,,,,,,,space,,2062,2020-05-26_15h30.30.240,ANTCPTp,2020.1.2,Win32,60,,,,,,,,,,,,,,,,,,,,space,1,0.43355,,,,,,H,,,0,25,25,7,1,,,,,,,,,,,,,,,
,,,,,,,,,,space,,2062,2020-05-26_15h30.30.240,ANTCPTp,2020.1.2,Win32,60,,,,,,,,,,,,,,,,,,,,space,1,0.495725,,,,,,Q,,,0,26,26,16,1,,,,,,,,,,,,,,,
,,,,,,,,,,space,,2062,2020-05-26_15h30.30.240,ANTCPTp,2020.1.2,Win32,60,,,,,,,,,,,,,,,,,,,,space,1,0.41415,,,,,,A,,,0,27,27,25,1,,,,,,,,,,,,,,,
,,,,,,,,,,,,2062,2020-05-26_15h30.30.240,ANTCPTp,2020.1.2,Win32,60,,,,,,,,,,,,,,,,,,,,,1,,,,,,,X,,,0,28,28,27,1,,,,,,,,,,,,,,,
,,,,,,,,,,space,,2062,2020-05-26_15h30.30.240,ANTCPTp,2020.1.2,Win32,60,,,,,,,,,,,,,,,,,,,,space,1,0.474175,,,,,,N,,,0,29,29,13,1,,,,,,,,,,,,,,,
,,,,,,,,,,,,2062,2020-05-26_15h30.30.240,ANTCPTp,2020.1.2,Win32,60,,,,,,,,,,,,,,,,,,,,space,0,0.35404,,,,,,X,1,6.56135,,,,,,0,0,0,20,1,,,,,,,,,,
,,,,,,,,,,space,,2062,2020-05-26_15h30.30.240,ANTCPTp,2020.1.2,Win32,60,,,,,,,,,,,,,,,,,,,,space,1,0.32095,,,,,,T,,,,,,,,0,1,1,14,1,,,,,,,,,,
,,,,,,,,,,space,,2062,2020-05-26_15h30.30.240,ANTCPTp,2020.1.2,Win32,60,,,,,,,,,,,,,,,,,,,,space,1,0.446385,,,,,,Q,,,,,,,,0,2,2,11,1,,,,,,,,,,
,,,,,,,,,,space,,2062,2020-05-26_15h30.30.240,ANTCPTp,2020.1.2,Win32,60,,,,,,,,,,,,,,,,,,,,space,1,0.436635,,,,,,M,,,,,,,,0,3,3,8,1,,,,,,,,,,
,,,,,,,,,,space,,2062,2020-05-26_15h30.30.240,ANTCPTp,2020.1.2,Win32,60,,,,,,,,,,,,,,,,,,,,space,1,0.354555,,,,,,G,,,,,,,,0,4,4,4,1,,,,,,,,,,
,,,,,,,,,,space,,2062,2020-05-26_15h30.30.240,ANTCPTp,2020.1.2,Win32,60,,,,,,,,,,,,,,,,,,,,space,1,0.344555,,,,,,Z,,,,,,,,0,5,5,18,1,,,,,,,,,,
,,,,,,,,,,space,,2062,2020-05-26_15h30.30.240,ANTCPTp,2020.1.2,Win32,60,,,,,,,,,,,,,,,,,,,,space,1,0.42321,,,,,,S,,,,,,,,0,6,6,13,1,,,,,,,,,,
,,,,,,,,,,space,,2062,2020-05-26_15h30.30.240,ANTCPTp,2020.1.2,Win32,60,,,,,,,,,,,,,,,,,,,,space,1,0.39657,,,,,,K,,,,,,,,0,7,7,6,1,,,,,,,,,,
,,,,,,,,,,space,,2062,2020-05-26_15h30.30.240,ANTCPTp,2020.1.2,Win32,60,,,,,,,,,,,,,,,,,,,,space,1,0.410595,,,,,,F,,,,,,,,0,8,8,3,1,,,,,,,,,,
,,,,,,,,,,space,,2062,2020-05-26_15h30.30.240,ANTCPTp,2020.1.2,Win32,60,,,,,,,,,,,,,,,,,,,,space,1,0.402195,,,,,,Y,,,,,,,,0,9,9,17,1,,,,,,,,,,
,,,,,,,,,,space,,2062,2020-05-26_15h30.30.240,ANTCPTp,2020.1.2,Win32,60,,,,,,,,,,,,,,,,,,,,space,1,0.343565,,,,,,R,,,,,,,,0,10,10,12,1,,,,,,,,,,
,,,,,,,,,,space,,2062,2020-05-26_15h30.30.240,ANTCPTp,2020.1.2,Win32,60,,,,,,,,,,,,,,,,,,,,space,1,0.477885,,,,,,H,,,,,,,,0,11,11,5,1,,,,,,,,,,
,,,,,,,,,,space,,2062,2020-05-26_15h30.30.240,ANTCPTp,2020.1.2,Win32,60,,,,,,,,,,,,,,,,,,,,space,1,0.54153,,,,,,W,,,,,,,,0,12,12,16,1,,,,,,,,,,
,,,,,,,,,,space,,2062,2020-05-26_15h30.30.240,ANTCPTp,2020.1.2,Win32,60,,,,,,,,,,,,,,,,,,,,space,1,0.609995,,,,,,D,,,,,,,,0,13,13,1,1,,,,,,,,,,
,,,,,,,,,,space,,2062,2020-05-26_15h30.30.240,ANTCPTp,2020.1.2,Win32,60,,,,,,,,,,,,,,,,,,,,space,1,0.48,,,,,,B,,,,,,,,0,14,14,0,1,,,,,,,,,,
,,,,,,,,,,space,,2062,2020-05-26_15h30.30.240,ANTCPTp,2020.1.2,Win32,60,,,,,,,,,,,,,,,,,,,,space,1,0.533925,,,,,,N,,,,,,,,0,15,15,9,1,,,,,,,,,,
,,,,,,,,,,space,,2062,2020-05-26_15h30.30.240,ANTCPTp,2020.1.2,Win32,60,,,,,,,,,,,,,,,,,,,,space,1,0.4435,,,,,,O,,,,,,,,0,16,16,10,1,,,,,,,,,,
,,,,,,,,,,space,,2062,2020-05-26_15h30.30.240,ANTCPTp,2020.1.2,Win32,60,,,,,,,,,,,,,,,,,,,,space,1,0.46695,,,,,,L,,,,,,,,0,17,17,7,1,,,,,,,,,,
,,,,,,,,,,,,2062,2020-05-26_15h30.30.240,ANTCPTp,2020.1.2,Win32,60,,,,,,,,,,,,,,,,,,,,,1,,,,,,,X,,,,,,,,0,18,18,21,1,,,,,,,,,,
,,,,,,,,,,space,,2062,2020-05-26_15h30.30.240,ANTCPTp,2020.1.2,Win32,60,,,,,,,,,,,,,,,,,,,,space,1,0.35806,,,,,,E,,,,,,,,0,19,19,2,1,,,,,,,,,,
,,,,,,,,,,space,,2062,2020-05-26_15h30.30.240,ANTCPTp,2020.1.2,Win32,60,,,,,,,,,,,,,,,,,,,,space,1,0.42794,,,,,,U,,,,,,,,0,20,20,15,1,,,,,,,,,,
,,,,,,,,,,space,,2062,2020-05-26_15h30.30.240,ANTCPTp,2020.1.2,Win32,60,,,,,,,,,,,,,,,,,,,,space,1,0.40274,,,,,,A,,,,,,,,0,21,21,19,1,,,,,,,,,,
,,,,,,,,,,space,,2062,2020-05-26_15h30.30.240,ANTCPTp,2020.1.2,Win32,60,,,,,,,,,,,,,,,,,,,,space,1,0.45021,,,,,,J,2,7.93049,,,,,,,,,,,0,0,0,9,1,,,,,
,,,,,,,,,,space,,2062,2020-05-26_15h30.30.240,ANTCPTp,2020.1.2,Win32,60,,,,,,,,,,,,,,,,,,,,space,1,0.41708,,,,,,S,,,,,,,,,,,,,0,1,1,18,1,,,,,
,,,,,,,,,,space,,2062,2020-05-26_15h30.30.240,ANTCPTp,2020.1.2,Win32,60,,,,,,,,,,,,,,,,,,,,space,1,0.37469,,,,,,A,,,,,,,,,,,,,0,2,2,0,1,,,,,
,,,,,,,,,,space,,2062,2020-05-26_15h30.30.240,ANTCPTp,2020.1.2,Win32,60,,,,,,,,,,,,,,,,,,,,space,1,0.404125,,,,,,U,,,,,,,,,,,,,0,3,3,19,1,,,,,
,,,,,,,,,,space,,2062,2020-05-26_15h30.30.240,ANTCPTp,2020.1.2,Win32,60,,,,,,,,,,,,,,,,,,,,space,1,0.458865,,,,,,D,,,,,,,,,,,,,0,4,4,3,1,,,,,
,,,,,,,,,,space,,2062,2020-05-26_15h30.30.240,ANTCPTp,2020.1.2,Win32,60,,,,,,,,,,,,,,,,,,,,space,1,0.361115,,,,,,R,,,,,,,,,,,,,0,5,5,17,1,,,,,
,,,,,,,,,,space,,2062,2020-05-26_15h30.30.240,ANTCPTp,2020.1.2,Win32,60,,,,,,,,,,,,,,,,,,,,space,1,0.462235,,,,,,L,,,,,,,,,,,,,0,6,6,11,1,,,,,
,,,,,,,,,,space,,2062,2020-05-26_15h30.30.240,ANTCPTp,2020.1.2,Win32,60,,,,,,,,,,,,,,,,,,,,space,1,0.3886,,,,,,C,,,,,,,,,,,,,0,7,7,2,1,,,,,
,,,,,,,,,,space,,2062,2020-05-26_15h30.30.240,ANTCPTp,2020.1.2,Win32,60,,,,,,,,,,,,,,,,,,,,space,1,0.42689,,,,,,P,,,,,,,,,,,,,0,8,8,15,1,,,,,
,,,,,,,,,,space,,2062,2020-05-26_15h30.30.240,ANTCPTp,2020.1.2,Win32,60,,,,,,,,,,,,,,,,,,,,space,1,0.505185,,,,,,O,,,,,,,,,,,,,0,9,9,14,1,,,,,
,,,,,,,,,,space,,2062,2020-05-26_15h30.30.240,ANTCPTp,2020.1.2,Win32,60,,,,,,,,,,,,,,,,,,,,space,1,0.471645,,,,,,Z,,,,,,,,,,,,,0,10,10,23,1,,,,,
,,,,,,,,,,,,2062,2020-05-26_15h30.30.240,ANTCPTp,2020.1.2,Win32,60,,,,,,,,,,,,,,,,,,,,,1,,,,,,,X,,,,,,,,,,,,,0,11,11,24,1,,,,,
,,,,,,,,,,,,2062,2020-05-26_15h30.30.240,ANTCPTp,2020.1.2,Win32,60,,,,,,,,,,,,,,,,,,,,space,0,0.35021,,,,,,X,,,,,,,,,,,,,0,12,12,26,1,,,,,
,,,,,,,,,,space,,2062,2020-05-26_15h30.30.240,ANTCPTp,2020.1.2,Win32,60,,,,,,,,,,,,,,,,,,,,space,1,0.337565,,,,,,M,,,,,,,,,,,,,0,13,13,12,1,,,,,
,,,,,,,,,,space,,2062,2020-05-26_15h30.30.240,ANTCPTp,2020.1.2,Win32,60,,,,,,,,,,,,,,,,,,,,space,1,0.32735,,,,,,F,,,,,,,,,,,,,0,14,14,5,1,,,,,
,,,,,,,,,,space,,2062,2020-05-26_15h30.30.240,ANTCPTp,2020.1.2,Win32,60,,,,,,,,,,,,,,,,,,,,space,1,0.400265,,,,,,G,,,,,,,,,,,,,0,15,15,6,1,,,,,
,,,,,,,,,,space,,2062,2020-05-26_15h30.30.240,ANTCPTp,2020.1.2,Win32,60,,,,,,,,,,,,,,,,,,,,space,1,0.39589,,,,,,Y,,,,,,,,,,,,,0,16,16,22,1,,,,,
,,,,,,,,,,space,,2062,2020-05-26_15h30.30.240,ANTCPTp,2020.1.2,Win32,60,,,,,,,,,,,,,,,,,,,,space,1,0.35479,,,,,,H,,,,,,,,,,,,,0,17,17,7,1,,,,,
,,,,,,,,,,space,,2062,2020-05-26_15h30.30.240,ANTCPTp,2020.1.2,Win32,60,,,,,,,,,,,,,,,,,,,,space,1,0.400555,,,,,,N,,,,,,,,,,,,,0,18,18,13,1,,,,,
,,,,,,,,,,space,,2062,2020-05-26_15h30.30.240,ANTCPTp,2020.1.2,Win32,60,,,,,,,,,,,,,,,,,,,,space,1,0.438175,,,,,,Q,,,,,,,,,,,,,0,19,19,16,1,,,,,
,,,,,,,,,,space,,2062,2020-05-26_15h30.30.240,ANTCPTp,2020.1.2,Win32,60,,,,,,,,,,,,,,,,,,,,space,1,0.48267,,,,,,I,,,,,,,,,,,,,0,20,20,8,1,,,,,
,,,,,,,,,,space,,2062,2020-05-26_15h30.30.240,ANTCPTp,2020.1.2,Win32,60,,,,,,,,,,,,,,,,,,,,space,1,0.44311,,,,,,K,,,,,,,,,,,,,0,21,21,10,1,,,,,
,,,,,,,,,,space,,2062,2020-05-26_15h30.30.240,ANTCPTp,2020.1.2,Win32,60,,,,,,,,,,,,,,,,,,,,space,1,0.40066,,,,,,V,,,,,,,,,,,,,0,22,22,20,1,,,,,
,,,,,,,,,,space,,2062,2020-05-26_15h30.30.240,ANTCPTp,2020.1.2,Win32,60,,,,,,,,,,,,,,,,,,,,space,1,0.40617,,,,,,E,,,,,,,,,,,,,0,23,23,4,1,,,,,
,,,,,,,,,,space,,2062,2020-05-26_15h30.30.240,ANTCPTp,2020.1.2,Win32,60,,,,,,,,,,,,,,,,,,,,space,1,0.350115,,,,,,B,,,,,,,,,,,,,0,24,24,1,1,,,,,
,,,,,,,,,,space,,2062,2020-05-26_15h30.30.240,ANTCPTp,2020.1.2,Win32,60,,,,,,,,,,,,,,,,,,,,space,1,0.36981,,,,,,W,,,,,,,,,,,,,0,25,25,21,1,,,,,
,,,,,,,,,,,,2062,2020-05-26_15h30.30.240,ANTCPTp,2020.1.2,Win32,60,,,,,,,,,,,,,,,,,,,,,1,,,,,,,X,,,,,,,,,,,,,0,26,26,25,1,,,,,
,,,,,,,,,,,,2062,2020-05-26_15h30.30.240,ANTCPTp,2020.1.2,Win32,60,,,,,,,,,,,,,,,,,,,,,,,,,,,,,1,6.056785,,,,,,,,,,,,,,,,1,0,1,0,1
,,,,,,,,,,,,2062,2020-05-26_15h30.30.240,ANTCPTp,2020.1.2,Win32,60,,,,,,,,,,,,,,,,,,,,,1,,0,0,0,16,1,X,,,,,,,,,,,,,,,,,,,,,,
,,,,,,,,,,space,,2062,2020-05-26_15h30.30.240,ANTCPTp,2020.1.2,Win32,60,,,,,,,,,,,,,,,,,,,,space,1,0.349915,0,1,1,13,1,W,,,,,,,,,,,,,,,,,,,,,,
,,,,,,,,,,space,,2062,2020-05-26_15h30.30.240,ANTCPTp,2020.1.2,Win32,60,,,,,,,,,,,,,,,,,,,,space,1,0.418785,0,2,2,4,1,E,,,,,,,,,,,,,,,,,,,,,,
,,,,,,,,,,space,,2062,2020-05-26_15h30.30.240,ANTCPTp,2020.1.2,Win32,60,,,,,,,,,,,,,,,,,,,,space,1,0.38392,0,3,3,8,1,O,,,,,,,,,,,,,,,,,,,,,,
,,,,,,,,,,space,,2062,2020-05-26_15h30.30.240,ANTCPTp,2020.1.2,Win32,60,,,,,,,,,,,,,,,,,,,,space,1,0.43805,0,4,4,7,1,N,,,,,,,,,,,,,,,,,,,,,,
,,,,,,,,,,space,,2062,2020-05-26_15h30.30.240,ANTCPTp,2020.1.2,Win32,60,,,,,,,,,,,,,,,,,,,,space,1,0.4848,0,5,5,5,1,F,,,,,,,,,,,,,,,,,,,,,,
,,,,,,,,,,space,,2062,2020-05-26_15h30.30.240,ANTCPTp,2020.1.2,Win32,60,,,,,,,,,,,,,,,,,,,,space,1,0.458235,0,6,6,9,1,P,,,,,,,,,,,,,,,,,,,,,,
,,,,,,,,,,space,,2062,2020-05-26_15h30.30.240,ANTCPTp,2020.1.2,Win32,60,,,,,,,,,,,,,,,,,,,,space,1,0.433405,0,7,7,6,1,J,,,,,,,,,,,,,,,,,,,,,,
,,,,,,,,,,,,2062,2020-05-26_15h30.30.240,ANTCPTp,2020.1.2,Win32,60,,,,,,,,,,,,,,,,,,,,,1,,0,8,8,15,1,X,,,,,,,,,,,,,,,,,,,,,,
,,,,,,,,,,space,,2062,2020-05-26_15h30.30.240,ANTCPTp,2020.1.2,Win32,60,,,,,,,,,,,,,,,,,,,,space,1,0.38317,0,9,9,10,1,Q,,,,,,,,,,,,,,,,,,,,,,
,,,,,,,,,,space,,2062,2020-05-26_15h30.30.240,ANTCPTp,2020.1.2,Win32,60,,,,,,,,,,,,,,,,,,,,space,1,0.483465,0,10,10,12,1,V,,,,,,,,,,,,,,,,,,,,,,
,,,,,,,,,,space,,2062,2020-05-26_15h30.30.240,ANTCPTp,2020.1.2,Win32,60,,,,,,,,,,,,,,,,,,,,space,1,0.544345,0,11,11,3,1,D,,,,,,,,,,,,,,,,,,,,,,
,,,,,,,,,,space,,2062,2020-05-26_15h30.30.240,ANTCPTp,2020.1.2,Win32,60,,,,,,,,,,,,,,,,,,,,space,1,0.52673,0,12,12,14,1,Y,,,,,,,,,,,,,,,,,,,,,,
,,,,,,,,,,space,,2062,2020-05-26_15h30.30.240,ANTCPTp,2020.1.2,Win32,60,,,,,,,,,,,,,,,,,,,,space,1,0.42918,0,13,13,0,1,A,,,,,,,,,,,,,,,,,,,,,,
,,,,,,,,,,space,,2062,2020-05-26_15h30.30.240,ANTCPTp,2020.1.2,Win32,60,,,,,,,,,,,,,,,,,,,,space,1,0.442875,0,14,14,1,1,B,,,,,,,,,,,,,,,,,,,,,,
,,,,,,,,,,space,,2062,2020-05-26_15h30.30.240,ANTCPTp,2020.1.2,Win32,60,,,,,,,,,,,,,,,,,,,,space,1,0.48881,0,15,15,11,1,U,,,,,,,,,,,,,,,,,,,,,,
,,,,,,,,,,space,,2062,2020-05-26_15h30.30.240,ANTCPTp,2020.1.2,Win32,60,,,,,,,,,,,,,,,,,,,,space,1,0.478755,0,16,16,2,1,C,,,,,,,,,,,,,,,,,,,,,,
,,,,,,,,,,space,,2062,2020-05-26_15h30.30.240,ANTCPTp,2020.1.2,Win32,60,,,,,,,,,,,,,,,,,,,,space,1,0.462215,,,,,,F,1,5.04031,0,0,0,5,1,,,,,,,,,,,,,,,
,,,,,,,,,,space,,2062,2020-05-26_15h30.30.240,ANTCPTp,2020.1.2,Win32,60,,,,,,,,,,,,,,,,,,,,space,1,0.444345,,,,,,R,,,0,1,1,17,1,,,,,,,,,,,,,,,
,,,,,,,,,,space,,2062,2020-05-26_15h30.30.240,ANTCPTp,2020.1.2,Win32,60,,,,,,,,,,,,,,,,,,,,space,1,0.41042,,,,,,W,,,0,2,2,22,1,,,,,,,,,,,,,,,
,,,,,,,,,,space,,2062,2020-05-26_15h30.30.240,ANTCPTp,2020.1.2,Win32,60,,,,,,,,,,,,,,,,,,,,space,1,0.44068,,,,,,M,,,0,3,3,12,1,,,,,,,,,,,,,,,
,,,,,,,,,,space,,2062,2020-05-26_15h30.30.240,ANTCPTp,2020.1.2,Win32,60,,,,,,,,,,,,,,,,,,,,space,1,0.41695,,,,,,P,,,0,4,4,15,1,,,,,,,,,,,,,,,
,,,,,,,,,,space,,2062,2020-05-26_15h30.30.240,ANTCPTp,2020.1.2,Win32,60,,,,,,,,,,,,,,,,,,,,space,1,0.501785,,,,,,Q,,,0,5,5,16,1,,,,,,,,,,,,,,,
,,,,,,,,,,space,,2062,2020-05-26_15h30.30.240,ANTCPTp,2020.1.2,Win32,60,,,,,,,,,,,,,,,,,,,,space,1,0.4265,,,,,,V,,,0,6,6,21,1,,,,,,,,,,,,,,,
,,,,,,,,,,space,,2062,2020-05-26_15h30.30.240,ANTCPTp,2020.1.2,Win32,60,,,,,,,,,,,,,,,,,,,,space,1,0.360485,,,,,,U,,,0,7,7,20,1,,,,,,,,,,,,,,,
,,,,,,,,,,space,,2062,2020-05-26_15h30.30.240,ANTCPTp,2020.1.2,Win32,60,,,,,,,,,,,,,,,,,,,,space,1,0.48672,,,,,,D,,,0,8,8,3,1,,,,,,,,,,,,,,,
,,,,,,,,,,space,,2062,2020-05-26_15h30.30.240,ANTCPTp,2020.1.2,Win32,60,,,,,,,,,,,,,,,,,,,,space,1,0.404145,,,,,,S,,,0,9,9,18,1,,,,,,,,,,,,,,,
,,,,,,,,,,space,,2062,2020-05-26_15h30.30.240,ANTCPTp,2020.1.2,Win32,60,,,,,,,,,,,,,,,,,,,,space,1,0.40253,,,,,,A,,,0,10,10,0,1,,,,,,,,,,,,,,,
,,,,,,,,,,space,,2062,2020-05-26_15h30.30.240,ANTCPTp,2020.1.2,Win32,60,,,,,,,,,,,,,,,,,,,,space,1,0.45777,,,,,,Z,,,0,11,11,24,1,,,,,,,,,,,,,,,
,,,,,,,,,,space,,2062,2020-05-26_15h30.30.240,ANTCPTp,2020.1.2,Win32,60,,,,,,,,,,,,,,,,,,,,space,1,0.4393,,,,,,H,,,0,12,12,7,1,,,,,,,,,,,,,,,
,,,,,,,,,,space,,2062,2020-05-26_15h30.30.240,ANTCPTp,2020.1.2,Win32,60,,,,,,,,,,,,,,,,,,,,space,1,0.44523,,,,,,L,,,0,13,13,11,1,,,,,,,,,,,,,,,
,,,,,,,,,,space,,2062,2020-05-26_15h30.30.240,ANTCPTp,2020.1.2,Win32,60,,,,,,,,,,,,,,,,,,,,space,1,0.45219,,,,,,K,,,0,14,14,10,1,,,,,,,,,,,,,,,
,,,,,,,,,,,,2062,2020-05-26_15h30.30.240,ANTCPTp,2020.1.2,Win32,60,,,,,,,,,,,,,,,,,,,,space,0,0.42516,,,,,,X,,,0,15,15,27,1,,,,,,,,,,,,,,,
,,,,,,,,,,space,,2062,2020-05-26_15h30.30.240,ANTCPTp,2020.1.2,Win32,60,,,,,,,,,,,,,,,,,,,,space,1,0.536475,,,,,,B,,,0,16,16,1,1,,,,,,,,,,,,,,,
,,,,,,,,,,space,,2062,2020-05-26_15h30.30.240,ANTCPTp,2020.1.2,Win32,60,,,,,,,,,,,,,,,,,,,,space,1,0.46978,,,,,,I,,,0,17,17,8,1,,,,,,,,,,,,,,,
,,,,,,,,,,,,2062,2020-05-26_15h30.30.240,ANTCPTp,2020.1.2,Win32,60,,,,,,,,,,,,,,,,,,,,,1,,,,,,,X,,,0,18,18,29,1,,,,,,,,,,,,,,,
,,,,,,,,,,space,,2062,2020-05-26_15h30.30.240,ANTCPTp,2020.1.2,Win32,60,,,,,,,,,,,,,,,,,,,,space,1,0.466855,,,,,,A,,,0,19,19,25,1,,,,,,,,,,,,,,,
,,,,,,,,,,space,,2062,2020-05-26_15h30.30.240,ANTCPTp,2020.1.2,Win32,60,,,,,,,,,,,,,,,,,,,,space,1,0.376205,,,,,,J,,,0,20,20,9,1,,,,,,,,,,,,,,,
,,,,,,,,,,space,,2062,2020-05-26_15h30.30.240,ANTCPTp,2020.1.2,Win32,60,,,,,,,,,,,,,,,,,,,,space,1,0.430325,,,,,,N,,,0,21,21,13,1,,,,,,,,,,,,,,,
,,,,,,,,,,space,,2062,2020-05-26_15h30.30.240,ANTCPTp,2020.1.2,Win32,60,,,,,,,,,,,,,,,,,,,,space,1,0.508505,,,,,,G,,,0,22,22,6,1,,,,,,,,,,,,,,,
,,,,,,,,,,space,,2062,2020-05-26_15h30.30.240,ANTCPTp,2020.1.2,Win32,60,,,,,,,,,,,,,,,,,,,,space,1,0.545825,,,,,,E,,,0,23,23,4,1,,,,,,,,,,,,,,,
,,,,,,,,,,,,2062,2020-05-26_15h30.30.240,ANTCPTp,2020.1.2,Win32,60,,,,,,,,,,,,,,,,,,,,,1,,,,,,,X,,,0,24,24,26,1,,,,,,,,,,,,,,,
,,,,,,,,,,space,,2062,2020-05-26_15h30.30.240,ANTCPTp,2020.1.2,Win32,60,,,,,,,,,,,,,,,,,,,,space,1,0.477835,,,,,,O,,,0,25,25,14,1,,,,,,,,,,,,,,,
,,,,,,,,,,,,2062,2020-05-26_15h30.30.240,ANTCPTp,2020.1.2,Win32,60,,,,,,,,,,,,,,,,,,,,,1,,,,,,,X,,,0,26,26,28,1,,,,,,,,,,,,,,,
,,,,,,,,,,space,,2062,2020-05-26_15h30.30.240,ANTCPTp,2020.1.2,Win32,60,,,,,,,,,,,,,,,,,,,,space,1,0.465865,,,,,,T,,,0,27,27,19,1,,,,,,,,,,,,,,,
,,,,,,,,,,space,,2062,2020-05-26_15h30.30.240,ANTCPTp,2020.1.2,Win32,60,,,,,,,,,,,,,,,,,,,,space,1,0.55222,,,,,,C,,,0,28,28,2,1,,,,,,,,,,,,,,,
,,,,,,,,,,space,,2062,2020-05-26_15h30.30.240,ANTCPTp,2020.1.2,Win32,60,,,,,,,,,,,,,,,,,,,,space,1,0.55057,,,,,,Y,,,0,29,29,23,1,,,,,,,,,,,,,,,
,,,,,,,,,,space,,2062,2020-05-26_15h30.30.240,ANTCPTp,2020.1.2,Win32,60,,,,,,,,,,,,,,,,,,,,space,1,0.55169,,,,,,N,2,6.71727,,,,,,0,0,0,9,1,,,,,,,,,,
,,,,,,,,,,space,,2062,2020-05-26_15h30.30.240,ANTCPTp,2020.1.2,Win32,60,,,,,,,,,,,,,,,,,,,,space,1,0.477805,,,,,,E,,,,,,,,0,1,1,2,1,,,,,,,,,,
,,,,,,,,,,space,,2062,2020-05-26_15h30.30.240,ANTCPTp,2020.1.2,Win32,60,,,,,,,,,,,,,,,,,,,,space,1,0.491955,,,,,,Y,,,,,,,,0,2,2,17,1,,,,,,,,,,
,,,,,,,,,,space,,2062,2020-05-26_15h30.30.240,ANTCPTp,2020.1.2,Win32,60,,,,,,,,,,,,,,,,,,,,space,1,0.505345,,,,,,O,,,,,,,,0,3,3,10,1,,,,,,,,,,
,,,,,,,,,,space,,2062,2020-05-26_15h30.30.240,ANTCPTp,2020.1.2,Win32,60,,,,,,,,,,,,,,,,,,,,space,1,0.528035,,,,,,D,,,,,,,,0,4,4,1,1,,,,,,,,,,
,,,,,,,,,,space,,2062,2020-05-26_15h30.30.240,ANTCPTp,2020.1.2,Win32,60,,,,,,,,,,,,,,,,,,,,space,1,0.48599,,,,,,Z,,,,,,,,0,5,5,18,1,,,,,,,,,,
,,,,,,,,,,,,2062,2020-05-26_15h30.30.240,ANTCPTp,2020.1.2,Win32,60,,,,,,,,,,,,,,,,,,,,,1,,,,,,,X,,,,,,,,0,6,6,21,1,,,,,,,,,,
,,,,,,,,,,space,,2062,2020-05-26_15h30.30.240,ANTCPTp,2020.1.2,Win32,60,,,,,,,,,,,,,,,,,,,,space,1,0.500175,,,,,,W,,,,,,,,0,7,7,16,1,,,,,,,,,,
,,,,,,,,,,space,,2062,2020-05-26_15h30.30.240,ANTCPTp,2020.1.2,Win32,60,,,,,,,,,,,,,,,,,,,,space,1,0.57614,,,,,,U,,,,,,,,0,8,8,15,1,,,,,,,,,,
,,,,,,,,,,space,,2062,2020-05-26_15h30.30.240,ANTCPTp,2020.1.2,Win32,60,,,,,,,,,,,,,,,,,,,,space,1,0.684985,,,,,,T,,,,,,,,0,9,9,14,1,,,,,,,,,,
,,,,,,,,,,space,,2062,2020-05-26_15h30.30.240,ANTCPTp,2020.1.2,Win32,60,,,,,,,,,,,,,,,,,,,,space,1,0.484355,,,,,,M,,,,,,,,0,10,10,8,1,,,,,,,,,,
,,,,,,,,,,space,,2062,2020-05-26_15h30.30.240,ANTCPTp,2020.1.2,Win32,60,,,,,,,,,,,,,,,,,,,,space,1,0.500015,,,,,,G,,,,,,,,0,11,11,4,1,,,,,,,,,,
,,,,,,,,,,space,,2062,2020-05-26_15h30.30.240,ANTCPTp,2020.1.2,Win32,60,,,,,,,,,,,,,,,,,,,,space,1,0.54496,,,,,,R,,,,,,,,0,12,12,12,1,,,,,,,,,,
,,,,,,,,,,,,2062,2020-05-26_15h30.30.240,ANTCPTp,2020.1.2,Win32,60,,,,,,,,,,,,,,,,,,,,,1,,,,,,,X,,,,,,,,0,13,13,20,1,,,,,,,,,,
,,,,,,,,,,space,,2062,2020-05-26_15h30.30.240,ANTCPTp,2020.1.2,Win32,60,,,,,,,,,,,,,,,,,,,,space,1,0.500315,,,,,,Q,,,,,,,,0,14,14,11,1,,,,,,,,,,
,,,,,,,,,,space,,2062,2020-05-26_15h30.30.240,ANTCPTp,2020.1.2,Win32,60,,,,,,,,,,,,,,,,,,,,space,1,0.522705,,,,,,S,,,,,,,,0,15,15,13,1,,,,,,,,,,
,,,,,,,,,,space,,2062,2020-05-26_15h30.30.240,ANTCPTp,2020.1.2,Win32,60,,,,,,,,,,,,,,,,,,,,space,1,0.536805,,,,,,L,,,,,,,,0,16,16,7,1,,,,,,,,,,
,,,,,,,,,,space,,2062,2020-05-26_15h30.30.240,ANTCPTp,2020.1.2,Win32,60,,,,,,,,,,,,,,,,,,,,space,1,0.495315,,,,,,A,,,,,,,,0,17,17,19,1,,,,,,,,,,
,,,,,,,,,,space,,2062,2020-05-26_15h30.30.240,ANTCPTp,2020.1.2,Win32,60,,,,,,,,,,,,,,,,,,,,space,1,0.49363,,,,,,H,,,,,,,,0,18,18,5,1,,,,,,,,,,
,,,,,,,,,,space,,2062,2020-05-26_15h30.30.240,ANTCPTp,2020.1.2,Win32,60,,,,,,,,,,,,,,,,,,,,space,1,0.466665,,,,,,B,,,,,,,,0,19,19,0,1,,,,,,,,,,
,,,,,,,,,,space,,2062,2020-05-26_15h30.30.240,ANTCPTp,2020.1.2,Win32,60,,,,,,,,,,,,,,,,,,,,space,1,0.4733,,,,,,F,,,,,,,,0,20,20,3,1,,,,,,,,,,
,,,,,,,,,,space,,2062,2020-05-26_15h30.30.240,ANTCPTp,2020.1.2,Win32,60,,,,,,,,,,,,,,,,,,,,space,1,0.59976,,,,,,K,,,,,,,,0,21,21,6,1,,,,,,,,,,
,,,,,,,,,,space,,2062,2020-05-26_15h30.30.240,ANTCPTp,2020.1.2,Win32,60,,,,,,,,,,,,,,,,,,,,space,1,0.51322,,,,,,A,1,21.95881,,,,,,,,,,,0,0,0,0,1,,,,,
,,,,,,,,,,space,,2062,2020-05-26_15h30.30.240,ANTCPTp,2020.1.2,Win32,60,,,,,,,,,,,,,,,,,,,,space,1,0.467225,,,,,,E,,,,,,,,,,,,,0,1,1,4,1,,,,,
,,,,,,,,,,space,,2062,2020-05-26_15h30.30.240,ANTCPTp,2020.1.2,Win32,60,,,,,,,,,,,,,,,,,,,,space,1,0.58383,,,,,,Y,,,,,,,,,,,,,0,2,2,22,1,,,,,
,,,,,,,,,,space,,2062,2020-05-26_15h30.30.240,ANTCPTp,2020.1.2,Win32,60,,,,,,,,,,,,,,,,,,,,space,1,0.42744,,,,,,D,,,,,,,,,,,,,0,3,3,3,1,,,,,
,,,,,,,,,,space,,2062,2020-05-26_15h30.30.240,ANTCPTp,2020.1.2,Win32,60,,,,,,,,,,,,,,,,,,,,space,1,0.44998,,,,,,U,,,,,,,,,,,,,0,4,4,19,1,,,,,
,,,,,,,,,,space,,2062,2020-05-26_15h30.30.240,ANTCPTp,2020.1.2,Win32,60,,,,,,,,,,,,,,,,,,,,space,1,0.391585,,,,,,G,,,,,,,,,,,,,0,5,5,6,1,,,,,
,,,,,,,,,,,,2062,2020-05-26_15h30.30.240,ANTCPTp,2020.1.2,Win32,60,,,,,,,,,,,,,,,,,,,,,1,,,,,,,X,,,,,,,,,,,,,0,6,6,24,1,,,,,
,,,,,,,,,,space,,2062,2020-05-26_15h30.30.240,ANTCPTp,2020.1.2,Win32,60,,,,,,,,,,,,,,,,,,,,space,1,0.394725,,,,,,N,,,,,,,,,,,,,0,7,7,13,1,,,,,
,,,,,,,,,,space,,2062,2020-05-26_15h30.30.240,ANTCPTp,2020.1.2,Win32,60,,,,,,,,,,,,,,,,,,,,space,1,0.505115,,,,,,R,,,,,,,,,,,,,0,8,8,17,1,,,,,
,,,,,,,,,,space,,2062,2020-05-26_15h30.30.240,ANTCPTp,2020.1.2,Win32,60,,,,,,,,,,,,,,,,,,,,space,1,0.53533,,,,,,W,,,,,,,,,,,,,0,9,9,21,1,,,,,
,,,,,,,,,,,,2062,2020-05-26_15h30.30.240,ANTCPTp,2020.1.2,Win32,60,,,,,,,,,,,,,,,,,,,,space,0,0.38992,,,,,,X,,,,,,,,,,,,,0,10,10,25,1,,,,,
,,,,,,,,,,space,,2062,2020-05-26_15h30.30.240,ANTCPTp,2020.1.2,Win32,60,,,,,,,,,,,,,,,,,,,,space,1,0.572145,,,,,,S,,,,,,,,,,,,,0,11,11,18,1,,,,,
,,,,,,,,,,space,,2062,2020-05-26_15h30.30.240,ANTCPTp,2020.1.2,Win32,60,,,,,,,,,,,,,,,,,,,,space,1,0.40995,,,,,,P,,,,,,,,,,,,,0,12,12,15,1,,,,,
,,,,,,,,,,space,,2062,2020-05-26_15h30.30.240,ANTCPTp,2020.1.2,Win32,60,,,,,,,,,,,,,,,,,,,,space,1,0.511675,,,,,,J,,,,,,,,,,,,,0,13,13,9,1,,,,,
,,,,,,,,,,space,,2062,2020-05-26_15h30.30.240,ANTCPTp,2020.1.2,Win32,60,,,,,,,,,,,,,,,,,,,,space,1,0.509445,,,,,,Q,,,,,,,,,,,,,0,14,14,16,1,,,,,
,,,,,,,,,,space,,2062,2020-05-26_15h30.30.240,ANTCPTp,2020.1.2,Win32,60,,,,,,,,,,,,,,,,,,,,space,1,0.533605,,,,,,C,,,,,,,,,,,,,0,15,15,2,1,,,,,
,,,,,,,,,,space,,2062,2020-05-26_15h30.30.240,ANTCPTp,2020.1.2,Win32,60,,,,,,,,,,,,,,,,,,,,space,1,0.466875,,,,,,Z,,,,,,,,,,,,,0,16,16,23,1,,,,,
,,,,,,,,,,space,,2062,2020-05-26_15h30.30.240,ANTCPTp,2020.1.2,Win32,60,,,,,,,,,,,,,,,,,,,,space,1,0.433345,,,,,,K,,,,,,,,,,,,,0,17,17,10,1,,,,,
,,,,,,,,,,space,,2062,2020-05-26_15h30.30.240,ANTCPTp,2020.1.2,Win32,60,,,,,,,,,,,,,,,,,,,,space,1,0.46387,,,,,,B,,,,,,,,,,,,,0,18,18,1,1,,,,,
,,,,,,,,,,space,,2062,2020-05-26_15h30.30.240,ANTCPTp,2020.1.2,Win32,60,,,,,,,,,,,,,,,,,,,,space,1,0.45265,,,,,,F,,,,,,,,,,,,,0,19,19,5,1,,,,,
,,,,,,,,,,,,2062,2020-05-26_15h30.30.240,ANTCPTp,2020.1.2,Win32,60,,,,,,,,,,,,,,,,,,,,,1,,,,,,,X,,,,,,,,,,,,,0,20,20,26,1,,,,,
,,,,,,,,,,space,,2062,2020-05-26_15h30.30.240,ANTCPTp,2020.1.2,Win32,60,,,,,,,,,,,,,,,,,,,,space,1,0.545195,,,,,,H,,,,,,,,,,,,,0,21,21,7,1,,,,,
,,,,,,,,,,space,,2062,2020-05-26_15h30.30.240,ANTCPTp,2020.1.2,Win32,60,,,,,,,,,,,,,,,,,,,,space,1,0.48704,,,,,,V,,,,,,,,,,,,,0,22,22,20,1,,,,,
,,,,,,,,,,space,,2062,2020-05-26_15h30.30.240,ANTCPTp,2020.1.2,Win32,60,,,,,,,,,,,,,,,,,,,,space,1,0.493405,,,,,,O,,,,,,,,,,,,,0,23,23,14,1,,,,,
,,,,,,,,,,space,,2062,2020-05-26_15h30.30.240,ANTCPTp,2020.1.2,Win32,60,,,,,,,,,,,,,,,,,,,,space,1,0.55424,,,,,,I,,,,,,,,,,,,,0,24,24,8,1,,,,,
,,,,,,,,,,space,,2062,2020-05-26_15h30.30.240,ANTCPTp,2020.1.2,Win32,60,,,,,,,,,,,,,,,,,,,,space,1,0.50466,,,,,,L,,,,,,,,,,,,,0,25,25,11,1,,,,,
,,,,,,,,,,space,,2062,2020-05-26_15h30.30.240,ANTCPTp,2020.1.2,Win32,60,,,,,,,,,,,,,,,,,,,,space,1,0.51938,,,,,,M,,,,,,,,,,,,,0,26,26,12,1,,,,,
,,,,,,,,,,,,2062,2020-05-26_15h30.30.240,ANTCPTp,2020.1.2,Win32,60,,,,,,,,,,,,,,,,,,,,,,,,,,,,,2,5.967385,,,,,,,,,,,,,,,,2,0,2,0,1
