fixDuration,resp.keys,resp.corr,pracLoop.thisRepN,pracLoop.thisTrialN,pracLoop.thisN,pracLoop.thisIndex,pracLoop.ran,cue,tar,corrAns,targOrientation,Please enter your Participant ID,date,expName,psychopyVersion,OS,frameRate,instResp.keys,instResp.rt,resp.rt,mainLoop.thisRepN,mainLoop.thisTrialN,mainLoop.thisN,mainLoop.thisIndex,mainLoop.ran,blockLoop.thisRepN,blockLoop.thisTrialN,blockLoop.thisN,blockLoop.thisIndex,blockLoop.ran,key_resp.keys,key_resp.rt,probe_response3.keys,probe_response3.rt,getready_resp.keys,getready_resp.rt,response.keys,response.corr,response.rt,trials.thisRepN,trials.thisTrialN,trials.thisN,trials.thisIndex,trials.ran,letter,probe_response.keys,probe_response.rt,trials_2.thisRepN,trials_2.thisTrialN,trials_2.thisN,trials_2.thisIndex,trials_2.ran,trials_3.thisRepN,trials_3.thisTrialN,trials_3.thisN,trials_3.thisIndex,trials_3.ran,trials_4.thisRepN,trials_4.thisTrialN,trials_4.thisN,trials_4.thisIndex,trials_4.ran,trials_5.thisRepN,trials_5.thisTrialN,trials_5.thisN,trials_5.thisIndex,trials_5.ran
0.4,,0,0,0,0,21,1,stim/both.png,stim/incongLeft.png,right,180,2041,2020-05-16_13h39.07.981,ANTCPTp,2020.1.2,Win32,60,,,,,,,,,,,,,,,,,,,,,,,,,,,,,,,,,,,,,,,,,,,,,,,,,,
0.75,,0,0,1,1,6,1,stim/centre.png,stim/congLeft.png,right,180,2041,2020-05-16_13h39.07.981,ANTCPTp,2020.1.2,Win32,60,,,,,,,,,,,,,,,,,,,,,,,,,,,,,,,,,,,,,,,,,,,,,,,,,,
0.4,,0,0,2,2,2,1,stim/centre.png,stim/congLeft.png,left,0,2041,2020-05-16_13h39.07.981,ANTCPTp,2020.1.2,Win32,60,,,,,,,,,,,,,,,,,,,,,,,,,,,,,,,,,,,,,,,,,,,,,,,,,,
0.75,,0,0,3,3,3,1,stim/blank.png,stim/congLeft.png,left,0,2041,2020-05-16_13h39.07.981,ANTCPTp,2020.1.2,Win32,60,,,,,,,,,,,,,,,,,,,,,,,,,,,,,,,,,,,,,,,,,,,,,,,,,,
0.6,,0,0,4,4,18,1,stim/centre.png,stim/incongLeft.png,left,0,2041,2020-05-16_13h39.07.981,ANTCPTp,2020.1.2,Win32,60,,,,,,,,,,,,,,,,,,,,,,,,,,,,,,,,,,,,,,,,,,,,,,,,,,
0.7,,0,0,5,5,9,1,stim/both.png,stim/congRight.png,right,0,2041,2020-05-16_13h39.07.981,ANTCPTp,2020.1.2,Win32,60,,,,,,,,,,,,,,,,,,,,,,,,,,,,,,,,,,,,,,,,,,,,,,,,,,
0.8,,0,0,6,6,5,1,stim/both.png,stim/congLeft.png,right,180,2041,2020-05-16_13h39.07.981,ANTCPTp,2020.1.2,Win32,60,,,,,,,,,,,,,,,,,,,,,,,,,,,,,,,,,,,,,,,,,,,,,,,,,,
1.05,,0,0,7,7,10,1,stim/centre.png,stim/congRight.png,right,0,2041,2020-05-16_13h39.07.981,ANTCPTp,2020.1.2,Win32,60,,,,,,,,,,,,,,,,,,,,,,,,,,,,,,,,,,,,,,,,,,,,,,,,,,
1.3,,0,0,8,8,8,1,stim/upper.png,stim/congRight.png,right,0,2041,2020-05-16_13h39.07.981,ANTCPTp,2020.1.2,Win32,60,,,,,,,,,,,,,,,,,,,,,,,,,,,,,,,,,,,,,,,,,,,,,,,,,,
1.25,,0,0,9,9,20,1,stim/lower.png,stim/incongLeft.png,right,180,2041,2020-05-16_13h39.07.981,ANTCPTp,2020.1.2,Win32,60,,,,,,,,,,,,,,,,,,,,,,,,,,,,,,,,,,,,,,,,,,,,,,,,,,
0.4,,0,0,10,10,12,1,stim/lower.png,stim/congRight.png,left,180,2041,2020-05-16_13h39.07.981,ANTCPTp,2020.1.2,Win32,60,,,,,,,,,,,,,,,,,,,,,,,,,,,,,,,,,,,,,,,,,,,,,,,,,,
1.45,,0,0,11,11,7,1,stim/blank.png,stim/congLeft.png,right,180,2041,2020-05-16_13h39.07.981,ANTCPTp,2020.1.2,Win32,60,,,,,,,,,,,,,,,,,,,,,,,,,,,,,,,,,,,,,,,,,,,,,,,,,,
1.45,,0,0,12,12,19,1,stim/blank.png,stim/incongLeft.png,left,0,2041,2020-05-16_13h39.07.981,ANTCPTp,2020.1.2,Win32,60,,,,,,,,,,,,,,,,,,,,,,,,,,,,,,,,,,,,,,,,,,,,,,,,,,
1.25,,0,0,13,13,17,1,stim/both.png,stim/incongLeft.png,left,0,2041,2020-05-16_13h39.07.981,ANTCPTp,2020.1.2,Win32,60,,,,,,,,,,,,,,,,,,,,,,,,,,,,,,,,,,,,,,,,,,,,,,,,,,
0.85,,0,0,14,14,14,1,stim/centre.png,stim/congRight.png,left,180,2041,2020-05-16_13h39.07.981,ANTCPTp,2020.1.2,Win32,60,,,,,,,,,,,,,,,,,,,,,,,,,,,,,,,,,,,,,,,,,,,,,,,,,,
0.5,,0,0,15,15,0,1,stim/upper.png,stim/congLeft.png,left,0,2041,2020-05-16_13h39.07.981,ANTCPTp,2020.1.2,Win32,60,,,,,,,,,,,,,,,,,,,,,,,,,,,,,,,,,,,,,,,,,,,,,,,,,,
1.25,,0,0,16,16,23,1,stim/blank.png,stim/incongLeft.png,right,180,2041,2020-05-16_13h39.07.981,ANTCPTp,2020.1.2,Win32,60,,,,,,,,,,,,,,,,,,,,,,,,,,,,,,,,,,,,,,,,,,,,,,,,,,
0.4,,0,0,17,17,22,1,stim/centre.png,stim/incongLeft.png,right,180,2041,2020-05-16_13h39.07.981,ANTCPTp,2020.1.2,Win32,60,,,,,,,,,,,,,,,,,,,,,,,,,,,,,,,,,,,,,,,,,,,,,,,,,,
0.9,,0,0,18,18,16,1,stim/upper.png,stim/incongLeft.png,left,0,2041,2020-05-16_13h39.07.981,ANTCPTp,2020.1.2,Win32,60,,,,,,,,,,,,,,,,,,,,,,,,,,,,,,,,,,,,,,,,,,,,,,,,,,
1.5,,0,0,19,19,11,1,stim/blank.png,stim/congRight.png,right,0,2041,2020-05-16_13h39.07.981,ANTCPTp,2020.1.2,Win32,60,,,,,,,,,,,,,,,,,,,,,,,,,,,,,,,,,,,,,,,,,,,,,,,,,,
0.5,,0,0,20,20,15,1,stim/blank.png,stim/congRight.png,left,180,2041,2020-05-16_13h39.07.981,ANTCPTp,2020.1.2,Win32,60,,,,,,,,,,,,,,,,,,,,,,,,,,,,,,,,,,,,,,,,,,,,,,,,,,
0.95,,0,0,21,21,1,1,stim/both.png,stim/congLeft.png,left,0,2041,2020-05-16_13h39.07.981,ANTCPTp,2020.1.2,Win32,60,,,,,,,,,,,,,,,,,,,,,,,,,,,,,,,,,,,,,,,,,,,,,,,,,,
0.65,,0,0,22,22,4,1,stim/lower.png,stim/congLeft.png,right,180,2041,2020-05-16_13h39.07.981,ANTCPTp,2020.1.2,Win32,60,,,,,,,,,,,,,,,,,,,,,,,,,,,,,,,,,,,,,,,,,,,,,,,,,,
0.8,,0,0,23,23,13,1,stim/both.png,stim/congRight.png,left,180,2041,2020-05-16_13h39.07.981,ANTCPTp,2020.1.2,Win32,60,,,,,,,,,,,,,,,,,,,,,,,,,,,,,,,,,,,,,,,,,,,,,,,,,,
0.5,right,1,,,,,,stim/upper.png,stim/neutralRight.png,right,0,2041,2020-05-16_13h39.07.981,ANTCPTp,2020.1.2,Win32,60,space,18.111,1.0365,0,0,0,40,1,,,,,,,,,,,,,,,,,,,,,,,,,,,,,,,,,,,,,,,,,,
0.95,right,1,,,,,,stim/blank.png,stim/congRight.png,right,0,2041,2020-05-16_13h39.07.981,ANTCPTp,2020.1.2,Win32,60,,,0.9203,0,1,1,11,1,,,,,,,,,,,,,,,,,,,,,,,,,,,,,,,,,,,,,,,,,,
0.85,left,1,,,,,,stim/blank.png,stim/neutralRight.png,left,180,2041,2020-05-16_13h39.07.981,ANTCPTp,2020.1.2,Win32,60,,,1.2504,0,2,2,47,1,,,,,,,,,,,,,,,,,,,,,,,,,,,,,,,,,,,,,,,,,,
1.5,right,1,,,,,,stim/blank.png,stim/neutralLeft.png,right,180,2041,2020-05-16_13h39.07.981,ANTCPTp,2020.1.2,Win32,60,,,0.736,0,3,3,39,1,,,,,,,,,,,,,,,,,,,,,,,,,,,,,,,,,,,,,,,,,,
0.7,left,1,,,,,,stim/centre.png,stim/congRight.png,left,180,2041,2020-05-16_13h39.07.981,ANTCPTp,2020.1.2,Win32,60,,,0.7395,0,4,4,14,1,,,,,,,,,,,,,,,,,,,,,,,,,,,,,,,,,,,,,,,,,,
1,,0,,,,,,stim/blank.png,stim/incongRight.png,left,180,2041,2020-05-16_13h39.07.981,ANTCPTp,2020.1.2,Win32,60,,,,0,5,5,31,1,,,,,,,,,,,,,,,,,,,,,,,,,,,,,,,,,,,,,,,,,,
0.5,right,1,,,,,,stim/centre.png,stim/congLeft.png,right,180,2041,2020-05-16_13h39.07.981,ANTCPTp,2020.1.2,Win32,60,,,0.7546,0,6,6,6,1,,,,,,,,,,,,,,,,,,,,,,,,,,,,,,,,,,,,,,,,,,
1.25,left,1,,,,,,stim/blank.png,stim/congLeft.png,left,0,2041,2020-05-16_13h39.07.981,ANTCPTp,2020.1.2,Win32,60,,,0.6699,0,7,7,3,1,,,,,,,,,,,,,,,,,,,,,,,,,,,,,,,,,,,,,,,,,,
0.75,right,1,,,,,,stim/lower.png,stim/neutralLeft.png,right,180,2041,2020-05-16_13h39.07.981,ANTCPTp,2020.1.2,Win32,60,,,0.7341,0,8,8,36,1,,,,,,,,,,,,,,,,,,,,,,,,,,,,,,,,,,,,,,,,,,
0.4,left,1,,,,,,stim/centre.png,stim/incongLeft.png,left,0,2041,2020-05-16_13h39.07.981,ANTCPTp,2020.1.2,Win32,60,,,1.0002,0,9,9,18,1,,,,,,,,,,,,,,,,,,,,,,,,,,,,,,,,,,,,,,,,,,
1.5,right,1,,,,,,stim/both.png,stim/incongLeft.png,right,180,2041,2020-05-16_13h39.07.981,ANTCPTp,2020.1.2,Win32,60,,,0.7732,0,10,10,21,1,,,,,,,,,,,,,,,,,,,,,,,,,,,,,,,,,,,,,,,,,,
1.1,left,1,,,,,,stim/upper.png,stim/incongLeft.png,left,0,2041,2020-05-16_13h39.07.981,ANTCPTp,2020.1.2,Win32,60,,,1.0208,0,11,11,16,1,,,,,,,,,,,,,,,,,,,,,,,,,,,,,,,,,,,,,,,,,,
1,right,1,,,,,,stim/centre.png,stim/neutralLeft.png,right,180,2041,2020-05-16_13h39.07.981,ANTCPTp,2020.1.2,Win32,60,,,0.6199,0,12,12,38,1,,,,,,,,,,,,,,,,,,,,,,,,,,,,,,,,,,,,,,,,,,
0.7,right,1,,,,,,stim/upper.png,stim/incongRight.png,right,0,2041,2020-05-16_13h39.07.981,ANTCPTp,2020.1.2,Win32,60,,,1.143,0,13,13,24,1,,,,,,,,,,,,,,,,,,,,,,,,,,,,,,,,,,,,,,,,,,
1.35,left,1,,,,,,stim/both.png,stim/neutralRight.png,left,180,2041,2020-05-16_13h39.07.981,ANTCPTp,2020.1.2,Win32,60,,,0.6701,0,14,14,45,1,,,,,,,,,,,,,,,,,,,,,,,,,,,,,,,,,,,,,,,,,,
1.1,left,1,,,,,,stim/lower.png,stim/incongRight.png,left,180,2041,2020-05-16_13h39.07.981,ANTCPTp,2020.1.2,Win32,60,,,0.8746,0,15,15,28,1,,,,,,,,,,,,,,,,,,,,,,,,,,,,,,,,,,,,,,,,,,
1.5,right,1,,,,,,stim/centre.png,stim/incongRight.png,right,0,2041,2020-05-16_13h39.07.981,ANTCPTp,2020.1.2,Win32,60,,,0.9438,0,16,16,26,1,,,,,,,,,,,,,,,,,,,,,,,,,,,,,,,,,,,,,,,,,,
1.45,left,1,,,,,,stim/centre.png,stim/incongRight.png,left,180,2041,2020-05-16_13h39.07.981,ANTCPTp,2020.1.2,Win32,60,,,0.8345,0,17,17,30,1,,,,,,,,,,,,,,,,,,,,,,,,,,,,,,,,,,,,,,,,,,
1.15,right,1,,,,,,stim/centre.png,stim/incongLeft.png,right,180,2041,2020-05-16_13h39.07.981,ANTCPTp,2020.1.2,Win32,60,,,0.8572,0,18,18,22,1,,,,,,,,,,,,,,,,,,,,,,,,,,,,,,,,,,,,,,,,,,
0.45,left,1,,,,,,stim/centre.png,stim/neutralLeft.png,left,0,2041,2020-05-16_13h39.07.981,ANTCPTp,2020.1.2,Win32,60,,,0.6706,0,19,19,34,1,,,,,,,,,,,,,,,,,,,,,,,,,,,,,,,,,,,,,,,,,,
0.5,right,1,,,,,,stim/lower.png,stim/congLeft.png,right,180,2041,2020-05-16_13h39.07.981,ANTCPTp,2020.1.2,Win32,60,,,0.5013,0,20,20,4,1,,,,,,,,,,,,,,,,,,,,,,,,,,,,,,,,,,,,,,,,,,
0.4,right,1,,,,,,stim/blank.png,stim/neutralRight.png,right,0,2041,2020-05-16_13h39.07.981,ANTCPTp,2020.1.2,Win32,60,,,0.8041,0,21,21,43,1,,,,,,,,,,,,,,,,,,,,,,,,,,,,,,,,,,,,,,,,,,
1.35,right,1,,,,,,stim/centre.png,stim/neutralRight.png,right,0,2041,2020-05-16_13h39.07.981,ANTCPTp,2020.1.2,Win32,60,,,0.5914,0,22,22,42,1,,,,,,,,,,,,,,,,,,,,,,,,,,,,,,,,,,,,,,,,,,
1.05,right,1,,,,,,stim/blank.png,stim/incongLeft.png,right,180,2041,2020-05-16_13h39.07.981,ANTCPTp,2020.1.2,Win32,60,,,0.9207,0,23,23,23,1,,,,,,,,,,,,,,,,,,,,,,,,,,,,,,,,,,,,,,,,,,
1.15,left,1,,,,,,stim/blank.png,stim/congRight.png,left,180,2041,2020-05-16_13h39.07.981,ANTCPTp,2020.1.2,Win32,60,,,0.6539,0,24,24,15,1,,,,,,,,,,,,,,,,,,,,,,,,,,,,,,,,,,,,,,,,,,
1.15,right,1,,,,,,stim/upper.png,stim/congRight.png,right,0,2041,2020-05-16_13h39.07.981,ANTCPTp,2020.1.2,Win32,60,,,0.4995,0,25,25,8,1,,,,,,,,,,,,,,,,,,,,,,,,,,,,,,,,,,,,,,,,,,
1.2,left,1,,,,,,stim/both.png,stim/incongRight.png,left,180,2041,2020-05-16_13h39.07.981,ANTCPTp,2020.1.2,Win32,60,,,0.8037,0,26,26,29,1,,,,,,,,,,,,,,,,,,,,,,,,,,,,,,,,,,,,,,,,,,
1,right,1,,,,,,stim/both.png,stim/neutralRight.png,right,0,2041,2020-05-16_13h39.07.981,ANTCPTp,2020.1.2,Win32,60,,,0.5478,0,27,27,41,1,,,,,,,,,,,,,,,,,,,,,,,,,,,,,,,,,,,,,,,,,,
0.55,left,1,,,,,,stim/both.png,stim/congLeft.png,left,0,2041,2020-05-16_13h39.07.981,ANTCPTp,2020.1.2,Win32,60,,,0.5262,0,28,28,1,1,,,,,,,,,,,,,,,,,,,,,,,,,,,,,,,,,,,,,,,,,,
0.45,right,1,,,,,,stim/both.png,stim/congRight.png,right,0,2041,2020-05-16_13h39.07.981,ANTCPTp,2020.1.2,Win32,60,,,0.4892,0,29,29,9,1,,,,,,,,,,,,,,,,,,,,,,,,,,,,,,,,,,,,,,,,,,
1.05,right,1,,,,,,stim/blank.png,stim/congLeft.png,right,180,2041,2020-05-16_13h39.07.981,ANTCPTp,2020.1.2,Win32,60,,,0.7326,0,30,30,7,1,,,,,,,,,,,,,,,,,,,,,,,,,,,,,,,,,,,,,,,,,,
0.5,left,1,,,,,,stim/blank.png,stim/incongLeft.png,left,0,2041,2020-05-16_13h39.07.981,ANTCPTp,2020.1.2,Win32,60,,,0.7226,0,31,31,19,1,,,,,,,,,,,,,,,,,,,,,,,,,,,,,,,,,,,,,,,,,,
0.45,left,1,,,,,,stim/upper.png,stim/congLeft.png,left,0,2041,2020-05-16_13h39.07.981,ANTCPTp,2020.1.2,Win32,60,,,0.6226,0,32,32,0,1,,,,,,,,,,,,,,,,,,,,,,,,,,,,,,,,,,,,,,,,,,
1.3,right,1,,,,,,stim/centre.png,stim/congRight.png,right,0,2041,2020-05-16_13h39.07.981,ANTCPTp,2020.1.2,Win32,60,,,0.6376,0,33,33,10,1,,,,,,,,,,,,,,,,,,,,,,,,,,,,,,,,,,,,,,,,,,
0.85,left,1,,,,,,stim/lower.png,stim/congRight.png,left,180,2041,2020-05-16_13h39.07.981,ANTCPTp,2020.1.2,Win32,60,,,0.6206,0,34,34,12,1,,,,,,,,,,,,,,,,,,,,,,,,,,,,,,,,,,,,,,,,,,
0.95,left,1,,,,,,stim/centre.png,stim/neutralRight.png,left,180,2041,2020-05-16_13h39.07.981,ANTCPTp,2020.1.2,Win32,60,,,0.7379,0,35,35,46,1,,,,,,,,,,,,,,,,,,,,,,,,,,,,,,,,,,,,,,,,,,
1,left,1,,,,,,stim/upper.png,stim/neutralLeft.png,left,0,2041,2020-05-16_13h39.07.981,ANTCPTp,2020.1.2,Win32,60,,,0.7209,0,36,36,32,1,,,,,,,,,,,,,,,,,,,,,,,,,,,,,,,,,,,,,,,,,,
1.05,left,1,,,,,,stim/lower.png,stim/neutralRight.png,left,180,2041,2020-05-16_13h39.07.981,ANTCPTp,2020.1.2,Win32,60,,,0.6055,0,37,37,44,1,,,,,,,,,,,,,,,,,,,,,,,,,,,,,,,,,,,,,,,,,,
0.8,right,1,,,,,,stim/both.png,stim/neutralLeft.png,right,180,2041,2020-05-16_13h39.07.981,ANTCPTp,2020.1.2,Win32,60,,,0.684,0,38,38,37,1,,,,,,,,,,,,,,,,,,,,,,,,,,,,,,,,,,,,,,,,,,
1.25,left,1,,,,,,stim/both.png,stim/incongLeft.png,left,0,2041,2020-05-16_13h39.07.981,ANTCPTp,2020.1.2,Win32,60,,,0.6703,0,39,39,17,1,,,,,,,,,,,,,,,,,,,,,,,,,,,,,,,,,,,,,,,,,,
0.4,right,1,,,,,,stim/lower.png,stim/incongLeft.png,right,180,2041,2020-05-16_13h39.07.981,ANTCPTp,2020.1.2,Win32,60,,,0.8375,0,40,40,20,1,,,,,,,,,,,,,,,,,,,,,,,,,,,,,,,,,,,,,,,,,,
1.2,left,1,,,,,,stim/centre.png,stim/congLeft.png,left,0,2041,2020-05-16_13h39.07.981,ANTCPTp,2020.1.2,Win32,60,,,0.5266,0,41,41,2,1,,,,,,,,,,,,,,,,,,,,,,,,,,,,,,,,,,,,,,,,,,
0.5,right,1,,,,,,stim/both.png,stim/congLeft.png,right,180,2041,2020-05-16_13h39.07.981,ANTCPTp,2020.1.2,Win32,60,,,0.5887,0,42,42,5,1,,,,,,,,,,,,,,,,,,,,,,,,,,,,,,,,,,,,,,,,,,
0.5,left,0,,,,,,stim/blank.png,stim/incongRight.png,right,0,2041,2020-05-16_13h39.07.981,ANTCPTp,2020.1.2,Win32,60,,,0.4372,0,43,43,27,1,,,,,,,,,,,,,,,,,,,,,,,,,,,,,,,,,,,,,,,,,,
0.9,left,1,,,,,,stim/both.png,stim/neutralLeft.png,left,0,2041,2020-05-16_13h39.07.981,ANTCPTp,2020.1.2,Win32,60,,,0.6661,0,44,44,33,1,,,,,,,,,,,,,,,,,,,,,,,,,,,,,,,,,,,,,,,,,,
1.2,right,1,,,,,,stim/both.png,stim/incongRight.png,right,0,2041,2020-05-16_13h39.07.981,ANTCPTp,2020.1.2,Win32,60,,,0.7926,0,45,45,25,1,,,,,,,,,,,,,,,,,,,,,,,,,,,,,,,,,,,,,,,,,,
0.45,left,1,,,,,,stim/both.png,stim/congRight.png,left,180,2041,2020-05-16_13h39.07.981,ANTCPTp,2020.1.2,Win32,60,,,0.6695,0,46,46,13,1,,,,,,,,,,,,,,,,,,,,,,,,,,,,,,,,,,,,,,,,,,
0.8,left,1,,,,,,stim/blank.png,stim/neutralLeft.png,left,0,2041,2020-05-16_13h39.07.981,ANTCPTp,2020.1.2,Win32,60,,,0.6903,0,47,47,35,1,,,,,,,,,,,,,,,,,,,,,,,,,,,,,,,,,,,,,,,,,,
0.5,right,1,,,,,,stim/upper.png,stim/incongRight.png,right,0,2041,2020-05-16_13h39.07.981,ANTCPTp,2020.1.2,Win32,60,,,0.5385,1,0,48,24,1,,,,,,,,,,,,,,,,,,,,,,,,,,,,,,,,,,,,,,,,,,
1.05,right,1,,,,,,stim/upper.png,stim/congRight.png,right,0,2041,2020-05-16_13h39.07.981,ANTCPTp,2020.1.2,Win32,60,,,0.5337,1,1,49,8,1,,,,,,,,,,,,,,,,,,,,,,,,,,,,,,,,,,,,,,,,,,
1.4,left,1,,,,,,stim/centre.png,stim/incongLeft.png,left,0,2041,2020-05-16_13h39.07.981,ANTCPTp,2020.1.2,Win32,60,,,0.6739,1,2,50,18,1,,,,,,,,,,,,,,,,,,,,,,,,,,,,,,,,,,,,,,,,,,
1.4,right,1,,,,,,stim/centre.png,stim/neutralLeft.png,right,180,2041,2020-05-16_13h39.07.981,ANTCPTp,2020.1.2,Win32,60,,,0.7546,1,3,51,38,1,,,,,,,,,,,,,,,,,,,,,,,,,,,,,,,,,,,,,,,,,,
1.5,left,1,,,,,,stim/both.png,stim/neutralRight.png,left,180,2041,2020-05-16_13h39.07.981,ANTCPTp,2020.1.2,Win32,60,,,0.5031,1,4,52,45,1,,,,,,,,,,,,,,,,,,,,,,,,,,,,,,,,,,,,,,,,,,
0.8,left,1,,,,,,stim/blank.png,stim/neutralRight.png,left,180,2041,2020-05-16_13h39.07.981,ANTCPTp,2020.1.2,Win32,60,,,0.5003,1,5,53,47,1,,,,,,,,,,,,,,,,,,,,,,,,,,,,,,,,,,,,,,,,,,
0.45,left,1,,,,,,stim/centre.png,stim/neutralLeft.png,left,0,2041,2020-05-16_13h39.07.981,ANTCPTp,2020.1.2,Win32,60,,,0.5372,1,6,54,34,1,,,,,,,,,,,,,,,,,,,,,,,,,,,,,,,,,,,,,,,,,,
1.35,right,1,,,,,,stim/both.png,stim/congRight.png,right,0,2041,2020-05-16_13h39.07.981,ANTCPTp,2020.1.2,Win32,60,,,0.4691,1,7,55,9,1,,,,,,,,,,,,,,,,,,,,,,,,,,,,,,,,,,,,,,,,,,
1.5,left,1,,,,,,stim/both.png,stim/neutralLeft.png,left,0,2041,2020-05-16_13h39.07.981,ANTCPTp,2020.1.2,Win32,60,,,0.5997,1,8,56,33,1,,,,,,,,,,,,,,,,,,,,,,,,,,,,,,,,,,,,,,,,,,
1.1,right,0,,,,,,stim/centre.png,stim/incongRight.png,left,180,2041,2020-05-16_13h39.07.981,ANTCPTp,2020.1.2,Win32,60,,,0.5161,1,9,57,30,1,,,,,,,,,,,,,,,,,,,,,,,,,,,,,,,,,,,,,,,,,,
1.5,right,1,,,,,,stim/centre.png,stim/incongLeft.png,right,180,2041,2020-05-16_13h39.07.981,ANTCPTp,2020.1.2,Win32,60,,,0.9335,1,10,58,22,1,,,,,,,,,,,,,,,,,,,,,,,,,,,,,,,,,,,,,,,,,,
0.85,left,1,,,,,,stim/both.png,stim/incongRight.png,left,180,2041,2020-05-16_13h39.07.981,ANTCPTp,2020.1.2,Win32,60,,,0.8259,1,11,59,29,1,,,,,,,,,,,,,,,,,,,,,,,,,,,,,,,,,,,,,,,,,,
0.6,right,1,,,,,,stim/upper.png,stim/neutralRight.png,right,0,2041,2020-05-16_13h39.07.981,ANTCPTp,2020.1.2,Win32,60,,,0.7857,1,12,60,40,1,,,,,,,,,,,,,,,,,,,,,,,,,,,,,,,,,,,,,,,,,,
0.85,right,1,,,,,,stim/blank.png,stim/neutralRight.png,right,0,2041,2020-05-16_13h39.07.981,ANTCPTp,2020.1.2,Win32,60,,,0.6512,1,13,61,43,1,,,,,,,,,,,,,,,,,,,,,,,,,,,,,,,,,,,,,,,,,,
1.2,left,1,,,,,,stim/upper.png,stim/congLeft.png,left,0,2041,2020-05-16_13h39.07.981,ANTCPTp,2020.1.2,Win32,60,,,0.3942,1,14,62,0,1,,,,,,,,,,,,,,,,,,,,,,,,,,,,,,,,,,,,,,,,,,
1.2,left,1,,,,,,stim/blank.png,stim/congLeft.png,left,0,2041,2020-05-16_13h39.07.981,ANTCPTp,2020.1.2,Win32,60,,,0.5526,1,15,63,3,1,,,,,,,,,,,,,,,,,,,,,,,,,,,,,,,,,,,,,,,,,,
1.55,left,1,,,,,,stim/lower.png,stim/neutralRight.png,left,180,2041,2020-05-16_13h39.07.981,ANTCPTp,2020.1.2,Win32,60,,,0.704,1,16,64,44,1,,,,,,,,,,,,,,,,,,,,,,,,,,,,,,,,,,,,,,,,,,
1.3,right,1,,,,,,stim/centre.png,stim/congLeft.png,right,180,2041,2020-05-16_13h39.07.981,ANTCPTp,2020.1.2,Win32,60,,,0.5914,1,17,65,6,1,,,,,,,,,,,,,,,,,,,,,,,,,,,,,,,,,,,,,,,,,,
1.15,left,1,,,,,,stim/both.png,stim/congLeft.png,left,0,2041,2020-05-16_13h39.07.981,ANTCPTp,2020.1.2,Win32,60,,,0.4701,1,18,66,1,1,,,,,,,,,,,,,,,,,,,,,,,,,,,,,,,,,,,,,,,,,,
0.7,right,1,,,,,,stim/centre.png,stim/incongRight.png,right,0,2041,2020-05-16_13h39.07.981,ANTCPTp,2020.1.2,Win32,60,,,0.695,1,19,67,26,1,,,,,,,,,,,,,,,,,,,,,,,,,,,,,,,,,,,,,,,,,,
1.55,left,0,,,,,,stim/both.png,stim/incongRight.png,right,0,2041,2020-05-16_13h39.07.981,ANTCPTp,2020.1.2,Win32,60,,,0.4544,1,20,68,25,1,,,,,,,,,,,,,,,,,,,,,,,,,,,,,,,,,,,,,,,,,,
1.3,right,1,,,,,,stim/blank.png,stim/incongLeft.png,right,180,2041,2020-05-16_13h39.07.981,ANTCPTp,2020.1.2,Win32,60,,,0.8873,1,21,69,23,1,,,,,,,,,,,,,,,,,,,,,,,,,,,,,,,,,,,,,,,,,,
1.1,right,1,,,,,,stim/blank.png,stim/neutralLeft.png,right,180,2041,2020-05-16_13h39.07.981,ANTCPTp,2020.1.2,Win32,60,,,0.6858,1,22,70,39,1,,,,,,,,,,,,,,,,,,,,,,,,,,,,,,,,,,,,,,,,,,
0.95,right,1,,,,,,stim/both.png,stim/congLeft.png,right,180,2041,2020-05-16_13h39.07.981,ANTCPTp,2020.1.2,Win32,60,,,0.6577,1,23,71,5,1,,,,,,,,,,,,,,,,,,,,,,,,,,,,,,,,,,,,,,,,,,
1.3,left,1,,,,,,stim/lower.png,stim/congRight.png,left,180,2041,2020-05-16_13h39.07.981,ANTCPTp,2020.1.2,Win32,60,,,0.5879,1,24,72,12,1,,,,,,,,,,,,,,,,,,,,,,,,,,,,,,,,,,,,,,,,,,
1.05,right,1,,,,,,stim/blank.png,stim/congLeft.png,right,180,2041,2020-05-16_13h39.07.981,ANTCPTp,2020.1.2,Win32,60,,,0.651,1,25,73,7,1,,,,,,,,,,,,,,,,,,,,,,,,,,,,,,,,,,,,,,,,,,
0.45,right,1,,,,,,stim/centre.png,stim/congRight.png,right,0,2041,2020-05-16_13h39.07.981,ANTCPTp,2020.1.2,Win32,60,,,0.6366,1,26,74,10,1,,,,,,,,,,,,,,,,,,,,,,,,,,,,,,,,,,,,,,,,,,
1.55,left,1,,,,,,stim/blank.png,stim/congRight.png,left,180,2041,2020-05-16_13h39.07.981,ANTCPTp,2020.1.2,Win32,60,,,0.7377,1,27,75,15,1,,,,,,,,,,,,,,,,,,,,,,,,,,,,,,,,,,,,,,,,,,
0.9,left,1,,,,,,stim/blank.png,stim/neutralLeft.png,left,0,2041,2020-05-16_13h39.07.981,ANTCPTp,2020.1.2,Win32,60,,,0.8241,1,28,76,35,1,,,,,,,,,,,,,,,,,,,,,,,,,,,,,,,,,,,,,,,,,,
0.65,right,1,,,,,,stim/lower.png,stim/incongLeft.png,right,180,2041,2020-05-16_13h39.07.981,ANTCPTp,2020.1.2,Win32,60,,,0.7843,1,29,77,20,1,,,,,,,,,,,,,,,,,,,,,,,,,,,,,,,,,,,,,,,,,,
0.8,right,1,,,,,,stim/both.png,stim/neutralRight.png,right,0,2041,2020-05-16_13h39.07.981,ANTCPTp,2020.1.2,Win32,60,,,0.6059,1,30,78,41,1,,,,,,,,,,,,,,,,,,,,,,,,,,,,,,,,,,,,,,,,,,
1.4,left,1,,,,,,stim/lower.png,stim/incongRight.png,left,180,2041,2020-05-16_13h39.07.981,ANTCPTp,2020.1.2,Win32,60,,,0.7747,1,31,79,28,1,,,,,,,,,,,,,,,,,,,,,,,,,,,,,,,,,,,,,,,,,,
1.15,right,1,,,,,,stim/both.png,stim/neutralLeft.png,right,180,2041,2020-05-16_13h39.07.981,ANTCPTp,2020.1.2,Win32,60,,,0.5538,1,32,80,37,1,,,,,,,,,,,,,,,,,,,,,,,,,,,,,,,,,,,,,,,,,,
1.2,left,1,,,,,,stim/centre.png,stim/congLeft.png,left,0,2041,2020-05-16_13h39.07.981,ANTCPTp,2020.1.2,Win32,60,,,0.5021,1,33,81,2,1,,,,,,,,,,,,,,,,,,,,,,,,,,,,,,,,,,,,,,,,,,
1.25,left,1,,,,,,stim/upper.png,stim/neutralLeft.png,left,0,2041,2020-05-16_13h39.07.981,ANTCPTp,2020.1.2,Win32,60,,,0.6188,1,34,82,32,1,,,,,,,,,,,,,,,,,,,,,,,,,,,,,,,,,,,,,,,,,,
0.85,left,1,,,,,,stim/upper.png,stim/incongLeft.png,left,0,2041,2020-05-16_13h39.07.981,ANTCPTp,2020.1.2,Win32,60,,,0.6227,1,35,83,16,1,,,,,,,,,,,,,,,,,,,,,,,,,,,,,,,,,,,,,,,,,,
0.6,left,1,,,,,,stim/blank.png,stim/incongLeft.png,left,0,2041,2020-05-16_13h39.07.981,ANTCPTp,2020.1.2,Win32,60,,,0.6552,1,36,84,19,1,,,,,,,,,,,,,,,,,,,,,,,,,,,,,,,,,,,,,,,,,,
1.4,left,1,,,,,,stim/centre.png,stim/neutralRight.png,left,180,2041,2020-05-16_13h39.07.981,ANTCPTp,2020.1.2,Win32,60,,,0.7372,1,37,85,46,1,,,,,,,,,,,,,,,,,,,,,,,,,,,,,,,,,,,,,,,,,,
0.65,right,1,,,,,,stim/lower.png,stim/congLeft.png,right,180,2041,2020-05-16_13h39.07.981,ANTCPTp,2020.1.2,Win32,60,,,0.5664,1,38,86,4,1,,,,,,,,,,,,,,,,,,,,,,,,,,,,,,,,,,,,,,,,,,
1.25,left,1,,,,,,stim/both.png,stim/congRight.png,left,180,2041,2020-05-16_13h39.07.981,ANTCPTp,2020.1.2,Win32,60,,,0.6541,1,39,87,13,1,,,,,,,,,,,,,,,,,,,,,,,,,,,,,,,,,,,,,,,,,,
1.2,left,1,,,,,,stim/centre.png,stim/congRight.png,left,180,2041,2020-05-16_13h39.07.981,ANTCPTp,2020.1.2,Win32,60,,,0.5571,1,40,88,14,1,,,,,,,,,,,,,,,,,,,,,,,,,,,,,,,,,,,,,,,,,,
0.4,right,1,,,,,,stim/lower.png,stim/neutralLeft.png,right,180,2041,2020-05-16_13h39.07.981,ANTCPTp,2020.1.2,Win32,60,,,0.6868,1,41,89,36,1,,,,,,,,,,,,,,,,,,,,,,,,,,,,,,,,,,,,,,,,,,
1.3,right,1,,,,,,stim/both.png,stim/incongLeft.png,right,180,2041,2020-05-16_13h39.07.981,ANTCPTp,2020.1.2,Win32,60,,,0.7871,1,42,90,21,1,,,,,,,,,,,,,,,,,,,,,,,,,,,,,,,,,,,,,,,,,,
1.2,left,1,,,,,,stim/both.png,stim/incongLeft.png,left,0,2041,2020-05-16_13h39.07.981,ANTCPTp,2020.1.2,Win32,60,,,0.8227,1,43,91,17,1,,,,,,,,,,,,,,,,,,,,,,,,,,,,,,,,,,,,,,,,,,
0.4,right,1,,,,,,stim/centre.png,stim/neutralRight.png,right,0,2041,2020-05-16_13h39.07.981,ANTCPTp,2020.1.2,Win32,60,,,0.756,1,44,92,42,1,,,,,,,,,,,,,,,,,,,,,,,,,,,,,,,,,,,,,,,,,,
0.85,right,1,,,,,,stim/blank.png,stim/incongRight.png,right,0,2041,2020-05-16_13h39.07.981,ANTCPTp,2020.1.2,Win32,60,,,0.7203,1,45,93,27,1,,,,,,,,,,,,,,,,,,,,,,,,,,,,,,,,,,,,,,,,,,
1.55,left,1,,,,,,stim/blank.png,stim/incongRight.png,left,180,2041,2020-05-16_13h39.07.981,ANTCPTp,2020.1.2,Win32,60,,,0.8199,1,46,94,31,1,,,,,,,,,,,,,,,,,,,,,,,,,,,,,,,,,,,,,,,,,,
1.05,right,1,,,,,,stim/blank.png,stim/congRight.png,right,0,2041,2020-05-16_13h39.07.981,ANTCPTp,2020.1.2,Win32,60,,,0.6738,1,47,95,11,1,,,,,,,,,,,,,,,,,,,,,,,,,,,,,,,,,,,,,,,,,,
,,,,,,,,,,,,2041,2020-05-16_13h39.07.981,ANTCPTp,2020.1.2,Win32,60,,,,,,,,,0,0,0,0,1,,,,,,,,,,,,,,,,,,,,,,,,,,,,,,,,,,,,,
0.7,right,1,,,,,,stim/centre.png,stim/congLeft.png,right,180,2041,2020-05-16_13h39.07.981,ANTCPTp,2020.1.2,Win32,60,,,0.8251,0,0,0,6,1,,,,,,,,,,,,,,,,,,,,,,,,,,,,,,,,,,,,,,,,,,
1.15,left,1,,,,,,stim/both.png,stim/congRight.png,left,180,2041,2020-05-16_13h39.07.981,ANTCPTp,2020.1.2,Win32,60,,,0.6536,0,1,1,13,1,,,,,,,,,,,,,,,,,,,,,,,,,,,,,,,,,,,,,,,,,,
0.9,right,1,,,,,,stim/lower.png,stim/incongLeft.png,right,180,2041,2020-05-16_13h39.07.981,ANTCPTp,2020.1.2,Win32,60,,,0.7752,0,2,2,20,1,,,,,,,,,,,,,,,,,,,,,,,,,,,,,,,,,,,,,,,,,,
1.5,right,1,,,,,,stim/lower.png,stim/congLeft.png,right,180,2041,2020-05-16_13h39.07.981,ANTCPTp,2020.1.2,Win32,60,,,0.6724,0,3,3,4,1,,,,,,,,,,,,,,,,,,,,,,,,,,,,,,,,,,,,,,,,,,
1,right,1,,,,,,stim/centre.png,stim/neutralRight.png,right,0,2041,2020-05-16_13h39.07.981,ANTCPTp,2020.1.2,Win32,60,,,0.7869,0,4,4,42,1,,,,,,,,,,,,,,,,,,,,,,,,,,,,,,,,,,,,,,,,,,
1.3,left,1,,,,,,stim/blank.png,stim/neutralRight.png,left,180,2041,2020-05-16_13h39.07.981,ANTCPTp,2020.1.2,Win32,60,,,0.5545,0,5,5,47,1,,,,,,,,,,,,,,,,,,,,,,,,,,,,,,,,,,,,,,,,,,
0.75,left,1,,,,,,stim/upper.png,stim/congLeft.png,left,0,2041,2020-05-16_13h39.07.981,ANTCPTp,2020.1.2,Win32,60,,,0.6848,0,6,6,0,1,,,,,,,,,,,,,,,,,,,,,,,,,,,,,,,,,,,,,,,,,,
1,left,1,,,,,,stim/centre.png,stim/neutralRight.png,left,180,2041,2020-05-16_13h39.07.981,ANTCPTp,2020.1.2,Win32,60,,,0.6206,0,7,7,46,1,,,,,,,,,,,,,,,,,,,,,,,,,,,,,,,,,,,,,,,,,,
0.5,left,1,,,,,,stim/lower.png,stim/incongRight.png,left,180,2041,2020-05-16_13h39.07.981,ANTCPTp,2020.1.2,Win32,60,,,0.776,0,8,8,28,1,,,,,,,,,,,,,,,,,,,,,,,,,,,,,,,,,,,,,,,,,,
1.3,left,1,,,,,,stim/blank.png,stim/congLeft.png,left,0,2041,2020-05-16_13h39.07.981,ANTCPTp,2020.1.2,Win32,60,,,0.5744,0,9,9,3,1,,,,,,,,,,,,,,,,,,,,,,,,,,,,,,,,,,,,,,,,,,
0.95,left,1,,,,,,stim/blank.png,stim/incongLeft.png,left,0,2041,2020-05-16_13h39.07.981,ANTCPTp,2020.1.2,Win32,60,,,0.8189,0,10,10,19,1,,,,,,,,,,,,,,,,,,,,,,,,,,,,,,,,,,,,,,,,,,
1.1,right,1,,,,,,stim/both.png,stim/congRight.png,right,0,2041,2020-05-16_13h39.07.981,ANTCPTp,2020.1.2,Win32,60,,,0.6095,0,11,11,9,1,,,,,,,,,,,,,,,,,,,,,,,,,,,,,,,,,,,,,,,,,,
0.65,left,1,,,,,,stim/both.png,stim/neutralRight.png,left,180,2041,2020-05-16_13h39.07.981,ANTCPTp,2020.1.2,Win32,60,,,0.737,0,12,12,45,1,,,,,,,,,,,,,,,,,,,,,,,,,,,,,,,,,,,,,,,,,,
1.45,left,1,,,,,,stim/centre.png,stim/incongLeft.png,left,0,2041,2020-05-16_13h39.07.981,ANTCPTp,2020.1.2,Win32,60,,,0.7752,0,13,13,18,1,,,,,,,,,,,,,,,,,,,,,,,,,,,,,,,,,,,,,,,,,,
0.55,right,1,,,,,,stim/both.png,stim/congLeft.png,right,180,2041,2020-05-16_13h39.07.981,ANTCPTp,2020.1.2,Win32,60,,,0.6332,0,14,14,5,1,,,,,,,,,,,,,,,,,,,,,,,,,,,,,,,,,,,,,,,,,,
1.3,left,1,,,,,,stim/centre.png,stim/incongRight.png,left,180,2041,2020-05-16_13h39.07.981,ANTCPTp,2020.1.2,Win32,60,,,0.8259,0,15,15,30,1,,,,,,,,,,,,,,,,,,,,,,,,,,,,,,,,,,,,,,,,,,
1,right,1,,,,,,stim/blank.png,stim/congLeft.png,right,180,2041,2020-05-16_13h39.07.981,ANTCPTp,2020.1.2,Win32,60,,,0.7561,0,16,16,7,1,,,,,,,,,,,,,,,,,,,,,,,,,,,,,,,,,,,,,,,,,,
1.5,left,1,,,,,,stim/blank.png,stim/incongRight.png,left,180,2041,2020-05-16_13h39.07.981,ANTCPTp,2020.1.2,Win32,60,,,0.7219,0,17,17,31,1,,,,,,,,,,,,,,,,,,,,,,,,,,,,,,,,,,,,,,,,,,
0.95,right,1,,,,,,stim/centre.png,stim/neutralLeft.png,right,180,2041,2020-05-16_13h39.07.981,ANTCPTp,2020.1.2,Win32,60,,,0.537,0,18,18,38,1,,,,,,,,,,,,,,,,,,,,,,,,,,,,,,,,,,,,,,,,,,
0.9,left,1,,,,,,stim/blank.png,stim/congRight.png,left,180,2041,2020-05-16_13h39.07.981,ANTCPTp,2020.1.2,Win32,60,,,0.5054,0,19,19,15,1,,,,,,,,,,,,,,,,,,,,,,,,,,,,,,,,,,,,,,,,,,
0.9,left,1,,,,,,stim/upper.png,stim/neutralLeft.png,left,0,2041,2020-05-16_13h39.07.981,ANTCPTp,2020.1.2,Win32,60,,,0.6499,0,20,20,32,1,,,,,,,,,,,,,,,,,,,,,,,,,,,,,,,,,,,,,,,,,,
0.4,right,1,,,,,,stim/lower.png,stim/neutralLeft.png,right,180,2041,2020-05-16_13h39.07.981,ANTCPTp,2020.1.2,Win32,60,,,0.6687,0,21,21,36,1,,,,,,,,,,,,,,,,,,,,,,,,,,,,,,,,,,,,,,,,,,
0.8,left,1,,,,,,stim/centre.png,stim/neutralLeft.png,left,0,2041,2020-05-16_13h39.07.981,ANTCPTp,2020.1.2,Win32,60,,,0.5536,0,22,22,34,1,,,,,,,,,,,,,,,,,,,,,,,,,,,,,,,,,,,,,,,,,,
1.5,right,1,,,,,,stim/both.png,stim/neutralLeft.png,right,180,2041,2020-05-16_13h39.07.981,ANTCPTp,2020.1.2,Win32,60,,,0.6335,0,23,23,37,1,,,,,,,,,,,,,,,,,,,,,,,,,,,,,,,,,,,,,,,,,,
0.65,right,1,,,,,,stim/blank.png,stim/neutralLeft.png,right,180,2041,2020-05-16_13h39.07.981,ANTCPTp,2020.1.2,Win32,60,,,0.6192,0,24,24,39,1,,,,,,,,,,,,,,,,,,,,,,,,,,,,,,,,,,,,,,,,,,
0.6,right,1,,,,,,stim/both.png,stim/incongRight.png,right,0,2041,2020-05-16_13h39.07.981,ANTCPTp,2020.1.2,Win32,60,,,0.8357,0,25,25,25,1,,,,,,,,,,,,,,,,,,,,,,,,,,,,,,,,,,,,,,,,,,
1.3,right,1,,,,,,stim/blank.png,stim/congRight.png,right,0,2041,2020-05-16_13h39.07.981,ANTCPTp,2020.1.2,Win32,60,,,0.6854,0,26,26,11,1,,,,,,,,,,,,,,,,,,,,,,,,,,,,,,,,,,,,,,,,,,
1.4,right,1,,,,,,stim/upper.png,stim/incongRight.png,right,0,2041,2020-05-16_13h39.07.981,ANTCPTp,2020.1.2,Win32,60,,,0.7553,0,27,27,24,1,,,,,,,,,,,,,,,,,,,,,,,,,,,,,,,,,,,,,,,,,,
0.55,right,1,,,,,,stim/blank.png,stim/incongLeft.png,right,180,2041,2020-05-16_13h39.07.981,ANTCPTp,2020.1.2,Win32,60,,,0.8242,0,28,28,23,1,,,,,,,,,,,,,,,,,,,,,,,,,,,,,,,,,,,,,,,,,,
1.35,left,1,,,,,,stim/centre.png,stim/congLeft.png,left,0,2041,2020-05-16_13h39.07.981,ANTCPTp,2020.1.2,Win32,60,,,0.6035,0,29,29,2,1,,,,,,,,,,,,,,,,,,,,,,,,,,,,,,,,,,,,,,,,,,
0.4,right,1,,,,,,stim/blank.png,stim/neutralRight.png,right,0,2041,2020-05-16_13h39.07.981,ANTCPTp,2020.1.2,Win32,60,,,0.8364,0,30,30,43,1,,,,,,,,,,,,,,,,,,,,,,,,,,,,,,,,,,,,,,,,,,
0.55,right,1,,,,,,stim/centre.png,stim/congRight.png,right,0,2041,2020-05-16_13h39.07.981,ANTCPTp,2020.1.2,Win32,60,,,0.5048,0,31,31,10,1,,,,,,,,,,,,,,,,,,,,,,,,,,,,,,,,,,,,,,,,,,
0.75,left,1,,,,,,stim/centre.png,stim/congRight.png,left,180,2041,2020-05-16_13h39.07.981,ANTCPTp,2020.1.2,Win32,60,,,0.6214,0,32,32,14,1,,,,,,,,,,,,,,,,,,,,,,,,,,,,,,,,,,,,,,,,,,
1.3,right,1,,,,,,stim/both.png,stim/neutralRight.png,right,0,2041,2020-05-16_13h39.07.981,ANTCPTp,2020.1.2,Win32,60,,,0.5239,0,33,33,41,1,,,,,,,,,,,,,,,,,,,,,,,,,,,,,,,,,,,,,,,,,,
1.45,left,1,,,,,,stim/lower.png,stim/congRight.png,left,180,2041,2020-05-16_13h39.07.981,ANTCPTp,2020.1.2,Win32,60,,,0.6367,0,34,34,12,1,,,,,,,,,,,,,,,,,,,,,,,,,,,,,,,,,,,,,,,,,,
0.4,right,1,,,,,,stim/centre.png,stim/incongLeft.png,right,180,2041,2020-05-16_13h39.07.981,ANTCPTp,2020.1.2,Win32,60,,,0.8393,0,35,35,22,1,,,,,,,,,,,,,,,,,,,,,,,,,,,,,,,,,,,,,,,,,,
1,right,1,,,,,,stim/blank.png,stim/incongRight.png,right,0,2041,2020-05-16_13h39.07.981,ANTCPTp,2020.1.2,Win32,60,,,0.6856,0,36,36,27,1,,,,,,,,,,,,,,,,,,,,,,,,,,,,,,,,,,,,,,,,,,
0.9,right,1,,,,,,stim/upper.png,stim/neutralRight.png,right,0,2041,2020-05-16_13h39.07.981,ANTCPTp,2020.1.2,Win32,60,,,0.4873,0,37,37,40,1,,,,,,,,,,,,,,,,,,,,,,,,,,,,,,,,,,,,,,,,,,
0.4,left,1,,,,,,stim/lower.png,stim/neutralRight.png,left,180,2041,2020-05-16_13h39.07.981,ANTCPTp,2020.1.2,Win32,60,,,0.7256,0,38,38,44,1,,,,,,,,,,,,,,,,,,,,,,,,,,,,,,,,,,,,,,,,,,
1.25,left,1,,,,,,stim/both.png,stim/incongLeft.png,left,0,2041,2020-05-16_13h39.07.981,ANTCPTp,2020.1.2,Win32,60,,,0.6726,0,39,39,17,1,,,,,,,,,,,,,,,,,,,,,,,,,,,,,,,,,,,,,,,,,,
1.35,right,1,,,,,,stim/both.png,stim/incongLeft.png,right,180,2041,2020-05-16_13h39.07.981,ANTCPTp,2020.1.2,Win32,60,,,0.9038,0,40,40,21,1,,,,,,,,,,,,,,,,,,,,,,,,,,,,,,,,,,,,,,,,,,
1.45,right,1,,,,,,stim/centre.png,stim/incongRight.png,right,0,2041,2020-05-16_13h39.07.981,ANTCPTp,2020.1.2,Win32,60,,,0.7516,0,41,41,26,1,,,,,,,,,,,,,,,,,,,,,,,,,,,,,,,,,,,,,,,,,,
1.3,left,1,,,,,,stim/upper.png,stim/incongLeft.png,left,0,2041,2020-05-16_13h39.07.981,ANTCPTp,2020.1.2,Win32,60,,,0.6556,0,42,42,16,1,,,,,,,,,,,,,,,,,,,,,,,,,,,,,,,,,,,,,,,,,,
1.35,left,1,,,,,,stim/blank.png,stim/neutralLeft.png,left,0,2041,2020-05-16_13h39.07.981,ANTCPTp,2020.1.2,Win32,60,,,0.6048,0,43,43,35,1,,,,,,,,,,,,,,,,,,,,,,,,,,,,,,,,,,,,,,,,,,
0.9,right,1,,,,,,stim/upper.png,stim/congRight.png,right,0,2041,2020-05-16_13h39.07.981,ANTCPTp,2020.1.2,Win32,60,,,0.6114,0,44,44,8,1,,,,,,,,,,,,,,,,,,,,,,,,,,,,,,,,,,,,,,,,,,
0.7,left,1,,,,,,stim/both.png,stim/neutralLeft.png,left,0,2041,2020-05-16_13h39.07.981,ANTCPTp,2020.1.2,Win32,60,,,0.5838,0,45,45,33,1,,,,,,,,,,,,,,,,,,,,,,,,,,,,,,,,,,,,,,,,,,
1.1,left,1,,,,,,stim/both.png,stim/congLeft.png,left,0,2041,2020-05-16_13h39.07.981,ANTCPTp,2020.1.2,Win32,60,,,0.5325,0,46,46,1,1,,,,,,,,,,,,,,,,,,,,,,,,,,,,,,,,,,,,,,,,,,
1.1,left,1,,,,,,stim/both.png,stim/incongRight.png,left,180,2041,2020-05-16_13h39.07.981,ANTCPTp,2020.1.2,Win32,60,,,0.8875,0,47,47,29,1,,,,,,,,,,,,,,,,,,,,,,,,,,,,,,,,,,,,,,,,,,
1.45,right,1,,,,,,stim/upper.png,stim/neutralRight.png,right,0,2041,2020-05-16_13h39.07.981,ANTCPTp,2020.1.2,Win32,60,,,0.6327,1,0,48,40,1,,,,,,,,,,,,,,,,,,,,,,,,,,,,,,,,,,,,,,,,,,
1.3,left,1,,,,,,stim/both.png,stim/congLeft.png,left,0,2041,2020-05-16_13h39.07.981,ANTCPTp,2020.1.2,Win32,60,,,0.492,1,1,49,1,1,,,,,,,,,,,,,,,,,,,,,,,,,,,,,,,,,,,,,,,,,,
1.4,left,1,,,,,,stim/lower.png,stim/neutralRight.png,left,180,2041,2020-05-16_13h39.07.981,ANTCPTp,2020.1.2,Win32,60,,,0.6996,1,2,50,44,1,,,,,,,,,,,,,,,,,,,,,,,,,,,,,,,,,,,,,,,,,,
0.55,right,1,,,,,,stim/centre.png,stim/incongLeft.png,right,180,2041,2020-05-16_13h39.07.981,ANTCPTp,2020.1.2,Win32,60,,,0.759,1,3,51,22,1,,,,,,,,,,,,,,,,,,,,,,,,,,,,,,,,,,,,,,,,,,
0.45,left,1,,,,,,stim/centre.png,stim/neutralRight.png,left,180,2041,2020-05-16_13h39.07.981,ANTCPTp,2020.1.2,Win32,60,,,0.6721,1,4,52,46,1,,,,,,,,,,,,,,,,,,,,,,,,,,,,,,,,,,,,,,,,,,
0.85,right,1,,,,,,stim/centre.png,stim/incongRight.png,right,0,2041,2020-05-16_13h39.07.981,ANTCPTp,2020.1.2,Win32,60,,,0.7715,1,5,53,26,1,,,,,,,,,,,,,,,,,,,,,,,,,,,,,,,,,,,,,,,,,,
0.65,right,1,,,,,,stim/blank.png,stim/incongLeft.png,right,180,2041,2020-05-16_13h39.07.981,ANTCPTp,2020.1.2,Win32,60,,,0.8917,1,6,54,23,1,,,,,,,,,,,,,,,,,,,,,,,,,,,,,,,,,,,,,,,,,,
0.8,right,1,,,,,,stim/blank.png,stim/neutralLeft.png,right,180,2041,2020-05-16_13h39.07.981,ANTCPTp,2020.1.2,Win32,60,,,0.5973,1,7,55,39,1,,,,,,,,,,,,,,,,,,,,,,,,,,,,,,,,,,,,,,,,,,
0.6,left,1,,,,,,stim/upper.png,stim/neutralLeft.png,left,0,2041,2020-05-16_13h39.07.981,ANTCPTp,2020.1.2,Win32,60,,,0.552,1,8,56,32,1,,,,,,,,,,,,,,,,,,,,,,,,,,,,,,,,,,,,,,,,,,
0.65,right,1,,,,,,stim/blank.png,stim/incongRight.png,right,0,2041,2020-05-16_13h39.07.981,ANTCPTp,2020.1.2,Win32,60,,,0.6999,1,9,57,27,1,,,,,,,,,,,,,,,,,,,,,,,,,,,,,,,,,,,,,,,,,,
0.85,right,1,,,,,,stim/upper.png,stim/incongRight.png,right,0,2041,2020-05-16_13h39.07.981,ANTCPTp,2020.1.2,Win32,60,,,0.6247,1,10,58,24,1,,,,,,,,,,,,,,,,,,,,,,,,,,,,,,,,,,,,,,,,,,
1.55,right,1,,,,,,stim/both.png,stim/congRight.png,right,0,2041,2020-05-16_13h39.07.981,ANTCPTp,2020.1.2,Win32,60,,,0.554,1,11,59,9,1,,,,,,,,,,,,,,,,,,,,,,,,,,,,,,,,,,,,,,,,,,
0.8,left,1,,,,,,stim/both.png,stim/congRight.png,left,180,2041,2020-05-16_13h39.07.981,ANTCPTp,2020.1.2,Win32,60,,,0.6367,1,12,60,13,1,,,,,,,,,,,,,,,,,,,,,,,,,,,,,,,,,,,,,,,,,,
0.75,left,1,,,,,,stim/lower.png,stim/incongRight.png,left,180,2041,2020-05-16_13h39.07.981,ANTCPTp,2020.1.2,Win32,60,,,0.7497,1,13,61,28,1,,,,,,,,,,,,,,,,,,,,,,,,,,,,,,,,,,,,,,,,,,
1.15,right,0,,,,,,stim/both.png,stim/incongRight.png,left,180,2041,2020-05-16_13h39.07.981,ANTCPTp,2020.1.2,Win32,60,,,0.571,1,14,62,29,1,,,,,,,,,,,,,,,,,,,,,,,,,,,,,,,,,,,,,,,,,,
0.4,right,1,,,,,,stim/both.png,stim/neutralRight.png,right,0,2041,2020-05-16_13h39.07.981,ANTCPTp,2020.1.2,Win32,60,,,0.7682,1,15,63,41,1,,,,,,,,,,,,,,,,,,,,,,,,,,,,,,,,,,,,,,,,,,
1.25,right,1,,,,,,stim/centre.png,stim/neutralLeft.png,right,180,2041,2020-05-16_13h39.07.981,ANTCPTp,2020.1.2,Win32,60,,,0.6869,1,16,64,38,1,,,,,,,,,,,,,,,,,,,,,,,,,,,,,,,,,,,,,,,,,,
0.85,right,1,,,,,,stim/centre.png,stim/congLeft.png,right,180,2041,2020-05-16_13h39.07.981,ANTCPTp,2020.1.2,Win32,60,,,0.6355,1,17,65,6,1,,,,,,,,,,,,,,,,,,,,,,,,,,,,,,,,,,,,,,,,,,
1.25,left,1,,,,,,stim/upper.png,stim/congLeft.png,left,0,2041,2020-05-16_13h39.07.981,ANTCPTp,2020.1.2,Win32,60,,,0.5222,1,18,66,0,1,,,,,,,,,,,,,,,,,,,,,,,,,,,,,,,,,,,,,,,,,,
0.5,left,1,,,,,,stim/centre.png,stim/incongRight.png,left,180,2041,2020-05-16_13h39.07.981,ANTCPTp,2020.1.2,Win32,60,,,0.9058,1,19,67,30,1,,,,,,,,,,,,,,,,,,,,,,,,,,,,,,,,,,,,,,,,,,
1.05,right,1,,,,,,stim/both.png,stim/neutralLeft.png,right,180,2041,2020-05-16_13h39.07.981,ANTCPTp,2020.1.2,Win32,60,,,0.6726,1,20,68,37,1,,,,,,,,,,,,,,,,,,,,,,,,,,,,,,,,,,,,,,,,,,
1.4,left,1,,,,,,stim/centre.png,stim/congLeft.png,left,0,2041,2020-05-16_13h39.07.981,ANTCPTp,2020.1.2,Win32,60,,,0.7476,1,21,69,2,1,,,,,,,,,,,,,,,,,,,,,,,,,,,,,,,,,,,,,,,,,,
0.6,left,1,,,,,,stim/blank.png,stim/congRight.png,left,180,2041,2020-05-16_13h39.07.981,ANTCPTp,2020.1.2,Win32,60,,,0.6409,1,22,70,15,1,,,,,,,,,,,,,,,,,,,,,,,,,,,,,,,,,,,,,,,,,,
1.35,right,1,,,,,,stim/lower.png,stim/neutralLeft.png,right,180,2041,2020-05-16_13h39.07.981,ANTCPTp,2020.1.2,Win32,60,,,0.6938,1,23,71,36,1,,,,,,,,,,,,,,,,,,,,,,,,,,,,,,,,,,,,,,,,,,
0.45,left,1,,,,,,stim/blank.png,stim/neutralLeft.png,left,0,2041,2020-05-16_13h39.07.981,ANTCPTp,2020.1.2,Win32,60,,,0.6718,1,24,72,35,1,,,,,,,,,,,,,,,,,,,,,,,,,,,,,,,,,,,,,,,,,,
0.85,right,1,,,,,,stim/centre.png,stim/congRight.png,right,0,2041,2020-05-16_13h39.07.981,ANTCPTp,2020.1.2,Win32,60,,,0.5334,1,25,73,10,1,,,,,,,,,,,,,,,,,,,,,,,,,,,,,,,,,,,,,,,,,,
1.3,left,1,,,,,,stim/blank.png,stim/neutralRight.png,left,180,2041,2020-05-16_13h39.07.981,ANTCPTp,2020.1.2,Win32,60,,,0.6903,1,26,74,47,1,,,,,,,,,,,,,,,,,,,,,,,,,,,,,,,,,,,,,,,,,,
0.85,right,1,,,,,,stim/blank.png,stim/neutralRight.png,right,0,2041,2020-05-16_13h39.07.981,ANTCPTp,2020.1.2,Win32,60,,,0.5595,1,27,75,43,1,,,,,,,,,,,,,,,,,,,,,,,,,,,,,,,,,,,,,,,,,,
0.55,left,1,,,,,,stim/blank.png,stim/congLeft.png,left,0,2041,2020-05-16_13h39.07.981,ANTCPTp,2020.1.2,Win32,60,,,0.6839,1,28,76,3,1,,,,,,,,,,,,,,,,,,,,,,,,,,,,,,,,,,,,,,,,,,
1.15,right,1,,,,,,stim/blank.png,stim/congRight.png,right,0,2041,2020-05-16_13h39.07.981,ANTCPTp,2020.1.2,Win32,60,,,0.6712,1,29,77,11,1,,,,,,,,,,,,,,,,,,,,,,,,,,,,,,,,,,,,,,,,,,
0.85,left,1,,,,,,stim/blank.png,stim/incongRight.png,left,180,2041,2020-05-16_13h39.07.981,ANTCPTp,2020.1.2,Win32,60,,,0.8177,1,30,78,31,1,,,,,,,,,,,,,,,,,,,,,,,,,,,,,,,,,,,,,,,,,,
1.25,left,1,,,,,,stim/both.png,stim/neutralLeft.png,left,0,2041,2020-05-16_13h39.07.981,ANTCPTp,2020.1.2,Win32,60,,,0.617,1,31,79,33,1,,,,,,,,,,,,,,,,,,,,,,,,,,,,,,,,,,,,,,,,,,
1.05,right,1,,,,,,stim/both.png,stim/incongLeft.png,right,180,2041,2020-05-16_13h39.07.981,ANTCPTp,2020.1.2,Win32,60,,,0.8854,1,32,80,21,1,,,,,,,,,,,,,,,,,,,,,,,,,,,,,,,,,,,,,,,,,,
1,right,1,,,,,,stim/upper.png,stim/congRight.png,right,0,2041,2020-05-16_13h39.07.981,ANTCPTp,2020.1.2,Win32,60,,,0.6426,1,33,81,8,1,,,,,,,,,,,,,,,,,,,,,,,,,,,,,,,,,,,,,,,,,,
0.95,left,1,,,,,,stim/centre.png,stim/incongLeft.png,left,0,2041,2020-05-16_13h39.07.981,ANTCPTp,2020.1.2,Win32,60,,,0.7032,1,34,82,18,1,,,,,,,,,,,,,,,,,,,,,,,,,,,,,,,,,,,,,,,,,,
0.45,left,1,,,,,,stim/centre.png,stim/neutralLeft.png,left,0,2041,2020-05-16_13h39.07.981,ANTCPTp,2020.1.2,Win32,60,,,0.6413,1,35,83,34,1,,,,,,,,,,,,,,,,,,,,,,,,,,,,,,,,,,,,,,,,,,
0.85,left,1,,,,,,stim/upper.png,stim/incongLeft.png,left,0,2041,2020-05-16_13h39.07.981,ANTCPTp,2020.1.2,Win32,60,,,0.6377,1,36,84,16,1,,,,,,,,,,,,,,,,,,,,,,,,,,,,,,,,,,,,,,,,,,
1.3,right,1,,,,,,stim/blank.png,stim/congLeft.png,right,180,2041,2020-05-16_13h39.07.981,ANTCPTp,2020.1.2,Win32,60,,,0.7253,1,37,85,7,1,,,,,,,,,,,,,,,,,,,,,,,,,,,,,,,,,,,,,,,,,,
0.45,right,1,,,,,,stim/lower.png,stim/incongLeft.png,right,180,2041,2020-05-16_13h39.07.981,ANTCPTp,2020.1.2,Win32,60,,,0.8393,1,38,86,20,1,,,,,,,,,,,,,,,,,,,,,,,,,,,,,,,,,,,,,,,,,,
1.4,left,1,,,,,,stim/both.png,stim/incongLeft.png,left,0,2041,2020-05-16_13h39.07.981,ANTCPTp,2020.1.2,Win32,60,,,0.753,1,39,87,17,1,,,,,,,,,,,,,,,,,,,,,,,,,,,,,,,,,,,,,,,,,,
1,left,1,,,,,,stim/centre.png,stim/congRight.png,left,180,2041,2020-05-16_13h39.07.981,ANTCPTp,2020.1.2,Win32,60,,,0.6732,1,40,88,14,1,,,,,,,,,,,,,,,,,,,,,,,,,,,,,,,,,,,,,,,,,,
1.2,right,1,,,,,,stim/both.png,stim/congLeft.png,right,180,2041,2020-05-16_13h39.07.981,ANTCPTp,2020.1.2,Win32,60,,,0.5848,1,41,89,5,1,,,,,,,,,,,,,,,,,,,,,,,,,,,,,,,,,,,,,,,,,,
0.65,right,1,,,,,,stim/both.png,stim/incongRight.png,right,0,2041,2020-05-16_13h39.07.981,ANTCPTp,2020.1.2,Win32,60,,,0.7197,1,42,90,25,1,,,,,,,,,,,,,,,,,,,,,,,,,,,,,,,,,,,,,,,,,,
1,left,1,,,,,,stim/both.png,stim/neutralRight.png,left,180,2041,2020-05-16_13h39.07.981,ANTCPTp,2020.1.2,Win32,60,,,0.672,1,43,91,45,1,,,,,,,,,,,,,,,,,,,,,,,,,,,,,,,,,,,,,,,,,,
0.8,left,1,,,,,,stim/lower.png,stim/congRight.png,left,180,2041,2020-05-16_13h39.07.981,ANTCPTp,2020.1.2,Win32,60,,,0.5553,1,44,92,12,1,,,,,,,,,,,,,,,,,,,,,,,,,,,,,,,,,,,,,,,,,,
1.35,right,1,,,,,,stim/lower.png,stim/congLeft.png,right,180,2041,2020-05-16_13h39.07.981,ANTCPTp,2020.1.2,Win32,60,,,0.5884,1,45,93,4,1,,,,,,,,,,,,,,,,,,,,,,,,,,,,,,,,,,,,,,,,,,
0.45,left,1,,,,,,stim/blank.png,stim/incongLeft.png,left,0,2041,2020-05-16_13h39.07.981,ANTCPTp,2020.1.2,Win32,60,,,0.7671,1,46,94,19,1,,,,,,,,,,,,,,,,,,,,,,,,,,,,,,,,,,,,,,,,,,
0.65,right,1,,,,,,stim/centre.png,stim/neutralRight.png,right,0,2041,2020-05-16_13h39.07.981,ANTCPTp,2020.1.2,Win32,60,,,0.7186,1,47,95,42,1,,,,,,,,,,,,,,,,,,,,,,,,,,,,,,,,,,,,,,,,,,
,,,,,,,,,,,,2041,2020-05-16_13h39.07.981,ANTCPTp,2020.1.2,Win32,60,,,,,,,,,1,0,1,0,1,,,,,,,,,,,,,,,,,,,,,,,,,,,,,,,,,,,,,
0.6,right,1,,,,,,stim/blank.png,stim/congLeft.png,right,180,2041,2020-05-16_13h39.07.981,ANTCPTp,2020.1.2,Win32,60,,,0.8343,0,0,0,7,1,,,,,,,,,,,,,,,,,,,,,,,,,,,,,,,,,,,,,,,,,,
1.05,right,1,,,,,,stim/centre.png,stim/incongRight.png,right,0,2041,2020-05-16_13h39.07.981,ANTCPTp,2020.1.2,Win32,60,,,0.9708,0,1,1,26,1,,,,,,,,,,,,,,,,,,,,,,,,,,,,,,,,,,,,,,,,,,
0.65,right,1,,,,,,stim/upper.png,stim/congRight.png,right,0,2041,2020-05-16_13h39.07.981,ANTCPTp,2020.1.2,Win32,60,,,0.5553,0,2,2,8,1,,,,,,,,,,,,,,,,,,,,,,,,,,,,,,,,,,,,,,,,,,
1.2,right,1,,,,,,stim/both.png,stim/incongRight.png,right,0,2041,2020-05-16_13h39.07.981,ANTCPTp,2020.1.2,Win32,60,,,0.7869,0,3,3,25,1,,,,,,,,,,,,,,,,,,,,,,,,,,,,,,,,,,,,,,,,,,
0.85,right,1,,,,,,stim/both.png,stim/congLeft.png,right,180,2041,2020-05-16_13h39.07.981,ANTCPTp,2020.1.2,Win32,60,,,0.6406,0,4,4,5,1,,,,,,,,,,,,,,,,,,,,,,,,,,,,,,,,,,,,,,,,,,
0.65,left,1,,,,,,stim/blank.png,stim/incongRight.png,left,180,2041,2020-05-16_13h39.07.981,ANTCPTp,2020.1.2,Win32,60,,,0.8757,0,5,5,31,1,,,,,,,,,,,,,,,,,,,,,,,,,,,,,,,,,,,,,,,,,,
1.45,left,1,,,,,,stim/both.png,stim/congRight.png,left,180,2041,2020-05-16_13h39.07.981,ANTCPTp,2020.1.2,Win32,60,,,0.6926,0,6,6,13,1,,,,,,,,,,,,,,,,,,,,,,,,,,,,,,,,,,,,,,,,,,
1,right,1,,,,,,stim/centre.png,stim/neutralLeft.png,right,180,2041,2020-05-16_13h39.07.981,ANTCPTp,2020.1.2,Win32,60,,,0.7039,0,7,7,38,1,,,,,,,,,,,,,,,,,,,,,,,,,,,,,,,,,,,,,,,,,,
1.5,right,1,,,,,,stim/centre.png,stim/neutralRight.png,right,0,2041,2020-05-16_13h39.07.981,ANTCPTp,2020.1.2,Win32,60,,,0.755,0,8,8,42,1,,,,,,,,,,,,,,,,,,,,,,,,,,,,,,,,,,,,,,,,,,
0.55,right,1,,,,,,stim/blank.png,stim/neutralLeft.png,right,180,2041,2020-05-16_13h39.07.981,ANTCPTp,2020.1.2,Win32,60,,,0.6693,0,9,9,39,1,,,,,,,,,,,,,,,,,,,,,,,,,,,,,,,,,,,,,,,,,,
1.4,left,1,,,,,,stim/both.png,stim/neutralRight.png,left,180,2041,2020-05-16_13h39.07.981,ANTCPTp,2020.1.2,Win32,60,,,0.7558,0,10,10,45,1,,,,,,,,,,,,,,,,,,,,,,,,,,,,,,,,,,,,,,,,,,
1.15,right,1,,,,,,stim/upper.png,stim/incongRight.png,right,0,2041,2020-05-16_13h39.07.981,ANTCPTp,2020.1.2,Win32,60,,,0.8015,0,11,11,24,1,,,,,,,,,,,,,,,,,,,,,,,,,,,,,,,,,,,,,,,,,,
1.4,left,1,,,,,,stim/centre.png,stim/congRight.png,left,180,2041,2020-05-16_13h39.07.981,ANTCPTp,2020.1.2,Win32,60,,,0.672,0,12,12,14,1,,,,,,,,,,,,,,,,,,,,,,,,,,,,,,,,,,,,,,,,,,
1,right,1,,,,,,stim/both.png,stim/congRight.png,right,0,2041,2020-05-16_13h39.07.981,ANTCPTp,2020.1.2,Win32,60,,,0.6563,0,13,13,9,1,,,,,,,,,,,,,,,,,,,,,,,,,,,,,,,,,,,,,,,,,,
1.25,right,1,,,,,,stim/both.png,stim/neutralRight.png,right,0,2041,2020-05-16_13h39.07.981,ANTCPTp,2020.1.2,Win32,60,,,0.6694,0,14,14,41,1,,,,,,,,,,,,,,,,,,,,,,,,,,,,,,,,,,,,,,,,,,
0.95,right,1,,,,,,stim/centre.png,stim/congRight.png,right,0,2041,2020-05-16_13h39.07.981,ANTCPTp,2020.1.2,Win32,60,,,0.6658,0,15,15,10,1,,,,,,,,,,,,,,,,,,,,,,,,,,,,,,,,,,,,,,,,,,
0.95,left,1,,,,,,stim/both.png,stim/congLeft.png,left,0,2041,2020-05-16_13h39.07.981,ANTCPTp,2020.1.2,Win32,60,,,0.5056,0,16,16,1,1,,,,,,,,,,,,,,,,,,,,,,,,,,,,,,,,,,,,,,,,,,
0.6,left,1,,,,,,stim/both.png,stim/neutralLeft.png,left,0,2041,2020-05-16_13h39.07.981,ANTCPTp,2020.1.2,Win32,60,,,0.6349,0,17,17,33,1,,,,,,,,,,,,,,,,,,,,,,,,,,,,,,,,,,,,,,,,,,
1.3,left,1,,,,,,stim/centre.png,stim/congLeft.png,left,0,2041,2020-05-16_13h39.07.981,ANTCPTp,2020.1.2,Win32,60,,,0.6765,0,18,18,2,1,,,,,,,,,,,,,,,,,,,,,,,,,,,,,,,,,,,,,,,,,,
0.45,right,1,,,,,,stim/blank.png,stim/incongRight.png,right,0,2041,2020-05-16_13h39.07.981,ANTCPTp,2020.1.2,Win32,60,,,0.7203,0,19,19,27,1,,,,,,,,,,,,,,,,,,,,,,,,,,,,,,,,,,,,,,,,,,
0.95,right,1,,,,,,stim/lower.png,stim/incongLeft.png,right,180,2041,2020-05-16_13h39.07.981,ANTCPTp,2020.1.2,Win32,60,,,0.8551,0,20,20,20,1,,,,,,,,,,,,,,,,,,,,,,,,,,,,,,,,,,,,,,,,,,
1.1,left,1,,,,,,stim/centre.png,stim/neutralRight.png,left,180,2041,2020-05-16_13h39.07.981,ANTCPTp,2020.1.2,Win32,60,,,0.7707,0,21,21,46,1,,,,,,,,,,,,,,,,,,,,,,,,,,,,,,,,,,,,,,,,,,
1.1,right,1,,,,,,stim/lower.png,stim/neutralLeft.png,right,180,2041,2020-05-16_13h39.07.981,ANTCPTp,2020.1.2,Win32,60,,,0.5415,0,22,22,36,1,,,,,,,,,,,,,,,,,,,,,,,,,,,,,,,,,,,,,,,,,,
0.95,left,1,,,,,,stim/both.png,stim/incongRight.png,left,180,2041,2020-05-16_13h39.07.981,ANTCPTp,2020.1.2,Win32,60,,,0.9348,0,23,23,29,1,,,,,,,,,,,,,,,,,,,,,,,,,,,,,,,,,,,,,,,,,,
0.6,left,1,,,,,,stim/blank.png,stim/incongLeft.png,left,0,2041,2020-05-16_13h39.07.981,ANTCPTp,2020.1.2,Win32,60,,,0.7872,0,24,24,19,1,,,,,,,,,,,,,,,,,,,,,,,,,,,,,,,,,,,,,,,,,,
1.5,left,1,,,,,,stim/both.png,stim/incongLeft.png,left,0,2041,2020-05-16_13h39.07.981,ANTCPTp,2020.1.2,Win32,60,,,0.7371,0,25,25,17,1,,,,,,,,,,,,,,,,,,,,,,,,,,,,,,,,,,,,,,,,,,
0.45,left,1,,,,,,stim/lower.png,stim/neutralRight.png,left,180,2041,2020-05-16_13h39.07.981,ANTCPTp,2020.1.2,Win32,60,,,0.7051,0,26,26,44,1,,,,,,,,,,,,,,,,,,,,,,,,,,,,,,,,,,,,,,,,,,
1.3,right,1,,,,,,stim/upper.png,stim/neutralRight.png,right,0,2041,2020-05-16_13h39.07.981,ANTCPTp,2020.1.2,Win32,60,,,0.6591,0,27,27,40,1,,,,,,,,,,,,,,,,,,,,,,,,,,,,,,,,,,,,,,,,,,
1.55,right,1,,,,,,stim/both.png,stim/neutralLeft.png,right,180,2041,2020-05-16_13h39.07.981,ANTCPTp,2020.1.2,Win32,60,,,0.7388,0,28,28,37,1,,,,,,,,,,,,,,,,,,,,,,,,,,,,,,,,,,,,,,,,,,
0.8,left,1,,,,,,stim/lower.png,stim/congRight.png,left,180,2041,2020-05-16_13h39.07.981,ANTCPTp,2020.1.2,Win32,60,,,0.6158,0,29,29,12,1,,,,,,,,,,,,,,,,,,,,,,,,,,,,,,,,,,,,,,,,,,
0.7,right,1,,,,,,stim/both.png,stim/incongLeft.png,right,180,2041,2020-05-16_13h39.07.981,ANTCPTp,2020.1.2,Win32,60,,,0.7566,0,30,30,21,1,,,,,,,,,,,,,,,,,,,,,,,,,,,,,,,,,,,,,,,,,,
0.95,right,1,,,,,,stim/centre.png,stim/congLeft.png,right,180,2041,2020-05-16_13h39.07.981,ANTCPTp,2020.1.2,Win32,60,,,0.5871,0,31,31,6,1,,,,,,,,,,,,,,,,,,,,,,,,,,,,,,,,,,,,,,,,,,
1.55,left,1,,,,,,stim/centre.png,stim/incongRight.png,left,180,2041,2020-05-16_13h39.07.981,ANTCPTp,2020.1.2,Win32,60,,,0.806,0,32,32,30,1,,,,,,,,,,,,,,,,,,,,,,,,,,,,,,,,,,,,,,,,,,
1.1,left,1,,,,,,stim/upper.png,stim/congLeft.png,left,0,2041,2020-05-16_13h39.07.981,ANTCPTp,2020.1.2,Win32,60,,,0.6911,0,33,33,0,1,,,,,,,,,,,,,,,,,,,,,,,,,,,,,,,,,,,,,,,,,,
0.9,left,1,,,,,,stim/blank.png,stim/congRight.png,left,180,2041,2020-05-16_13h39.07.981,ANTCPTp,2020.1.2,Win32,60,,,0.6875,0,34,34,15,1,,,,,,,,,,,,,,,,,,,,,,,,,,,,,,,,,,,,,,,,,,
1.4,left,1,,,,,,stim/centre.png,stim/neutralLeft.png,left,0,2041,2020-05-16_13h39.07.981,ANTCPTp,2020.1.2,Win32,60,,,0.6884,0,35,35,34,1,,,,,,,,,,,,,,,,,,,,,,,,,,,,,,,,,,,,,,,,,,
0.7,right,1,,,,,,stim/lower.png,stim/congLeft.png,right,180,2041,2020-05-16_13h39.07.981,ANTCPTp,2020.1.2,Win32,60,,,0.6709,0,36,36,4,1,,,,,,,,,,,,,,,,,,,,,,,,,,,,,,,,,,,,,,,,,,
0.4,left,1,,,,,,stim/lower.png,stim/incongRight.png,left,180,2041,2020-05-16_13h39.07.981,ANTCPTp,2020.1.2,Win32,60,,,0.7052,0,37,37,28,1,,,,,,,,,,,,,,,,,,,,,,,,,,,,,,,,,,,,,,,,,,
1.5,left,1,,,,,,stim/upper.png,stim/neutralLeft.png,left,0,2041,2020-05-16_13h39.07.981,ANTCPTp,2020.1.2,Win32,60,,,0.6704,0,38,38,32,1,,,,,,,,,,,,,,,,,,,,,,,,,,,,,,,,,,,,,,,,,,
1.15,left,1,,,,,,stim/upper.png,stim/incongLeft.png,left,0,2041,2020-05-16_13h39.07.981,ANTCPTp,2020.1.2,Win32,60,,,0.7021,0,39,39,16,1,,,,,,,,,,,,,,,,,,,,,,,,,,,,,,,,,,,,,,,,,,
1.55,left,1,,,,,,stim/blank.png,stim/neutralRight.png,left,180,2041,2020-05-16_13h39.07.981,ANTCPTp,2020.1.2,Win32,60,,,0.6374,0,40,40,47,1,,,,,,,,,,,,,,,,,,,,,,,,,,,,,,,,,,,,,,,,,,
0.9,left,1,,,,,,stim/blank.png,stim/congLeft.png,left,0,2041,2020-05-16_13h39.07.981,ANTCPTp,2020.1.2,Win32,60,,,0.5514,0,41,41,3,1,,,,,,,,,,,,,,,,,,,,,,,,,,,,,,,,,,,,,,,,,,
1.1,left,1,,,,,,stim/blank.png,stim/neutralLeft.png,left,0,2041,2020-05-16_13h39.07.981,ANTCPTp,2020.1.2,Win32,60,,,0.6568,0,42,42,35,1,,,,,,,,,,,,,,,,,,,,,,,,,,,,,,,,,,,,,,,,,,
1.45,right,1,,,,,,stim/blank.png,stim/congRight.png,right,0,2041,2020-05-16_13h39.07.981,ANTCPTp,2020.1.2,Win32,60,,,0.6331,0,43,43,11,1,,,,,,,,,,,,,,,,,,,,,,,,,,,,,,,,,,,,,,,,,,
1.45,right,1,,,,,,stim/blank.png,stim/incongLeft.png,right,180,2041,2020-05-16_13h39.07.981,ANTCPTp,2020.1.2,Win32,60,,,0.8544,0,44,44,23,1,,,,,,,,,,,,,,,,,,,,,,,,,,,,,,,,,,,,,,,,,,
1.45,right,1,,,,,,stim/blank.png,stim/neutralRight.png,right,0,2041,2020-05-16_13h39.07.981,ANTCPTp,2020.1.2,Win32,60,,,0.7083,0,45,45,43,1,,,,,,,,,,,,,,,,,,,,,,,,,,,,,,,,,,,,,,,,,,
1.45,right,1,,,,,,stim/centre.png,stim/incongLeft.png,right,180,2041,2020-05-16_13h39.07.981,ANTCPTp,2020.1.2,Win32,60,,,0.9178,0,46,46,22,1,,,,,,,,,,,,,,,,,,,,,,,,,,,,,,,,,,,,,,,,,,
0.95,left,1,,,,,,stim/centre.png,stim/incongLeft.png,left,0,2041,2020-05-16_13h39.07.981,ANTCPTp,2020.1.2,Win32,60,,,0.803,0,47,47,18,1,,,,,,,,,,,,,,,,,,,,,,,,,,,,,,,,,,,,,,,,,,
1.45,right,1,,,,,,stim/blank.png,stim/congRight.png,right,0,2041,2020-05-16_13h39.07.981,ANTCPTp,2020.1.2,Win32,60,,,0.6563,1,0,48,11,1,,,,,,,,,,,,,,,,,,,,,,,,,,,,,,,,,,,,,,,,,,
1.55,left,1,,,,,,stim/blank.png,stim/incongLeft.png,left,0,2041,2020-05-16_13h39.07.981,ANTCPTp,2020.1.2,Win32,60,,,0.6891,1,1,49,19,1,,,,,,,,,,,,,,,,,,,,,,,,,,,,,,,,,,,,,,,,,,
1,right,1,,,,,,stim/centre.png,stim/neutralRight.png,right,0,2041,2020-05-16_13h39.07.981,ANTCPTp,2020.1.2,Win32,60,,,0.5994,1,2,50,42,1,,,,,,,,,,,,,,,,,,,,,,,,,,,,,,,,,,,,,,,,,,
0.85,left,1,,,,,,stim/both.png,stim/incongRight.png,left,180,2041,2020-05-16_13h39.07.981,ANTCPTp,2020.1.2,Win32,60,,,0.8915,1,3,51,29,1,,,,,,,,,,,,,,,,,,,,,,,,,,,,,,,,,,,,,,,,,,
1.2,left,1,,,,,,stim/upper.png,stim/incongLeft.png,left,0,2041,2020-05-16_13h39.07.981,ANTCPTp,2020.1.2,Win32,60,,,0.6204,1,4,52,16,1,,,,,,,,,,,,,,,,,,,,,,,,,,,,,,,,,,,,,,,,,,
0.85,right,1,,,,,,stim/blank.png,stim/neutralRight.png,right,0,2041,2020-05-16_13h39.07.981,ANTCPTp,2020.1.2,Win32,60,,,0.6155,1,5,53,43,1,,,,,,,,,,,,,,,,,,,,,,,,,,,,,,,,,,,,,,,,,,
1.25,right,1,,,,,,stim/centre.png,stim/neutralLeft.png,right,180,2041,2020-05-16_13h39.07.981,ANTCPTp,2020.1.2,Win32,60,,,0.7205,1,6,54,38,1,,,,,,,,,,,,,,,,,,,,,,,,,,,,,,,,,,,,,,,,,,
0.85,left,1,,,,,,stim/centre.png,stim/congLeft.png,left,0,2041,2020-05-16_13h39.07.981,ANTCPTp,2020.1.2,Win32,60,,,0.6538,1,7,55,2,1,,,,,,,,,,,,,,,,,,,,,,,,,,,,,,,,,,,,,,,,,,
1.3,left,1,,,,,,stim/both.png,stim/congRight.png,left,180,2041,2020-05-16_13h39.07.981,ANTCPTp,2020.1.2,Win32,60,,,0.6338,1,8,56,13,1,,,,,,,,,,,,,,,,,,,,,,,,,,,,,,,,,,,,,,,,,,
1.45,left,1,,,,,,stim/blank.png,stim/neutralLeft.png,left,0,2041,2020-05-16_13h39.07.981,ANTCPTp,2020.1.2,Win32,60,,,0.6215,1,9,57,35,1,,,,,,,,,,,,,,,,,,,,,,,,,,,,,,,,,,,,,,,,,,
1.45,right,1,,,,,,stim/both.png,stim/neutralRight.png,right,0,2041,2020-05-16_13h39.07.981,ANTCPTp,2020.1.2,Win32,60,,,0.5325,1,10,58,41,1,,,,,,,,,,,,,,,,,,,,,,,,,,,,,,,,,,,,,,,,,,
0.55,left,1,,,,,,stim/centre.png,stim/congRight.png,left,180,2041,2020-05-16_13h39.07.981,ANTCPTp,2020.1.2,Win32,60,,,0.6084,1,11,59,14,1,,,,,,,,,,,,,,,,,,,,,,,,,,,,,,,,,,,,,,,,,,
1.15,right,1,,,,,,stim/both.png,stim/incongRight.png,right,0,2041,2020-05-16_13h39.07.981,ANTCPTp,2020.1.2,Win32,60,,,0.7915,1,12,60,25,1,,,,,,,,,,,,,,,,,,,,,,,,,,,,,,,,,,,,,,,,,,
1.45,left,1,,,,,,stim/blank.png,stim/congLeft.png,left,0,2041,2020-05-16_13h39.07.981,ANTCPTp,2020.1.2,Win32,60,,,0.5032,1,13,61,3,1,,,,,,,,,,,,,,,,,,,,,,,,,,,,,,,,,,,,,,,,,,
1.15,right,1,,,,,,stim/upper.png,stim/incongRight.png,right,0,2041,2020-05-16_13h39.07.981,ANTCPTp,2020.1.2,Win32,60,,,0.7171,1,14,62,24,1,,,,,,,,,,,,,,,,,,,,,,,,,,,,,,,,,,,,,,,,,,
0.6,right,1,,,,,,stim/lower.png,stim/congLeft.png,right,180,2041,2020-05-16_13h39.07.981,ANTCPTp,2020.1.2,Win32,60,,,0.6338,1,15,63,4,1,,,,,,,,,,,,,,,,,,,,,,,,,,,,,,,,,,,,,,,,,,
0.65,left,1,,,,,,stim/both.png,stim/congLeft.png,left,0,2041,2020-05-16_13h39.07.981,ANTCPTp,2020.1.2,Win32,60,,,0.4868,1,16,64,1,1,,,,,,,,,,,,,,,,,,,,,,,,,,,,,,,,,,,,,,,,,,
1.55,right,1,,,,,,stim/centre.png,stim/congRight.png,right,0,2041,2020-05-16_13h39.07.981,ANTCPTp,2020.1.2,Win32,60,,,0.534,1,17,65,10,1,,,,,,,,,,,,,,,,,,,,,,,,,,,,,,,,,,,,,,,,,,
0.55,left,1,,,,,,stim/upper.png,stim/congLeft.png,left,0,2041,2020-05-16_13h39.07.981,ANTCPTp,2020.1.2,Win32,60,,,0.5064,1,18,66,0,1,,,,,,,,,,,,,,,,,,,,,,,,,,,,,,,,,,,,,,,,,,
0.6,right,1,,,,,,stim/centre.png,stim/congLeft.png,right,180,2041,2020-05-16_13h39.07.981,ANTCPTp,2020.1.2,Win32,60,,,0.5701,1,19,67,6,1,,,,,,,,,,,,,,,,,,,,,,,,,,,,,,,,,,,,,,,,,,
0.55,right,1,,,,,,stim/blank.png,stim/incongRight.png,right,0,2041,2020-05-16_13h39.07.981,ANTCPTp,2020.1.2,Win32,60,,,0.7036,1,20,68,27,1,,,,,,,,,,,,,,,,,,,,,,,,,,,,,,,,,,,,,,,,,,
1.4,left,1,,,,,,stim/blank.png,stim/neutralRight.png,left,180,2041,2020-05-16_13h39.07.981,ANTCPTp,2020.1.2,Win32,60,,,0.6034,1,21,69,47,1,,,,,,,,,,,,,,,,,,,,,,,,,,,,,,,,,,,,,,,,,,
0.45,right,1,,,,,,stim/centre.png,stim/incongLeft.png,right,180,2041,2020-05-16_13h39.07.981,ANTCPTp,2020.1.2,Win32,60,,,0.8373,1,22,70,22,1,,,,,,,,,,,,,,,,,,,,,,,,,,,,,,,,,,,,,,,,,,
1.55,right,1,,,,,,stim/blank.png,stim/congLeft.png,right,180,2041,2020-05-16_13h39.07.981,ANTCPTp,2020.1.2,Win32,60,,,0.6576,1,23,71,7,1,,,,,,,,,,,,,,,,,,,,,,,,,,,,,,,,,,,,,,,,,,
0.95,right,1,,,,,,stim/centre.png,stim/incongRight.png,right,0,2041,2020-05-16_13h39.07.981,ANTCPTp,2020.1.2,Win32,60,,,0.706,1,24,72,26,1,,,,,,,,,,,,,,,,,,,,,,,,,,,,,,,,,,,,,,,,,,
0.75,right,0,,,,,,stim/centre.png,stim/incongRight.png,left,180,2041,2020-05-16_13h39.07.981,ANTCPTp,2020.1.2,Win32,60,,,0.6495,1,25,73,30,1,,,,,,,,,,,,,,,,,,,,,,,,,,,,,,,,,,,,,,,,,,
0.9,right,1,,,,,,stim/upper.png,stim/congRight.png,right,0,2041,2020-05-16_13h39.07.981,ANTCPTp,2020.1.2,Win32,60,,,0.7378,1,26,74,8,1,,,,,,,,,,,,,,,,,,,,,,,,,,,,,,,,,,,,,,,,,,
1.5,left,1,,,,,,stim/blank.png,stim/congRight.png,left,180,2041,2020-05-16_13h39.07.981,ANTCPTp,2020.1.2,Win32,60,,,0.6303,1,27,75,15,1,,,,,,,,,,,,,,,,,,,,,,,,,,,,,,,,,,,,,,,,,,
1.2,right,1,,,,,,stim/both.png,stim/neutralLeft.png,right,180,2041,2020-05-16_13h39.07.981,ANTCPTp,2020.1.2,Win32,60,,,0.7374,1,28,76,37,1,,,,,,,,,,,,,,,,,,,,,,,,,,,,,,,,,,,,,,,,,,
1.35,right,1,,,,,,stim/both.png,stim/congRight.png,right,0,2041,2020-05-16_13h39.07.981,ANTCPTp,2020.1.2,Win32,60,,,0.6523,1,29,77,9,1,,,,,,,,,,,,,,,,,,,,,,,,,,,,,,,,,,,,,,,,,,
0.85,right,1,,,,,,stim/lower.png,stim/incongLeft.png,right,180,2041,2020-05-16_13h39.07.981,ANTCPTp,2020.1.2,Win32,60,,,0.9264,1,30,78,20,1,,,,,,,,,,,,,,,,,,,,,,,,,,,,,,,,,,,,,,,,,,
0.55,right,1,,,,,,stim/lower.png,stim/neutralLeft.png,right,180,2041,2020-05-16_13h39.07.981,ANTCPTp,2020.1.2,Win32,60,,,0.673,1,31,79,36,1,,,,,,,,,,,,,,,,,,,,,,,,,,,,,,,,,,,,,,,,,,
0.7,left,1,,,,,,stim/both.png,stim/neutralLeft.png,left,0,2041,2020-05-16_13h39.07.981,ANTCPTp,2020.1.2,Win32,60,,,0.6061,1,32,80,33,1,,,,,,,,,,,,,,,,,,,,,,,,,,,,,,,,,,,,,,,,,,
0.5,left,1,,,,,,stim/centre.png,stim/incongLeft.png,left,0,2041,2020-05-16_13h39.07.981,ANTCPTp,2020.1.2,Win32,60,,,0.67,1,33,81,18,1,,,,,,,,,,,,,,,,,,,,,,,,,,,,,,,,,,,,,,,,,,
0.6,left,1,,,,,,stim/upper.png,stim/neutralLeft.png,left,0,2041,2020-05-16_13h39.07.981,ANTCPTp,2020.1.2,Win32,60,,,0.5383,1,34,82,32,1,,,,,,,,,,,,,,,,,,,,,,,,,,,,,,,,,,,,,,,,,,
1.4,right,1,,,,,,stim/both.png,stim/incongLeft.png,right,180,2041,2020-05-16_13h39.07.981,ANTCPTp,2020.1.2,Win32,60,,,0.8701,1,35,83,21,1,,,,,,,,,,,,,,,,,,,,,,,,,,,,,,,,,,,,,,,,,,
0.4,left,1,,,,,,stim/lower.png,stim/congRight.png,left,180,2041,2020-05-16_13h39.07.981,ANTCPTp,2020.1.2,Win32,60,,,0.6374,1,36,84,12,1,,,,,,,,,,,,,,,,,,,,,,,,,,,,,,,,,,,,,,,,,,
0.75,left,1,,,,,,stim/centre.png,stim/neutralRight.png,left,180,2041,2020-05-16_13h39.07.981,ANTCPTp,2020.1.2,Win32,60,,,0.6426,1,37,85,46,1,,,,,,,,,,,,,,,,,,,,,,,,,,,,,,,,,,,,,,,,,,
0.75,right,1,,,,,,stim/blank.png,stim/incongLeft.png,right,180,2041,2020-05-16_13h39.07.981,ANTCPTp,2020.1.2,Win32,60,,,0.7092,1,38,86,23,1,,,,,,,,,,,,,,,,,,,,,,,,,,,,,,,,,,,,,,,,,,
0.65,right,1,,,,,,stim/both.png,stim/congLeft.png,right,180,2041,2020-05-16_13h39.07.981,ANTCPTp,2020.1.2,Win32,60,,,0.737,1,39,87,5,1,,,,,,,,,,,,,,,,,,,,,,,,,,,,,,,,,,,,,,,,,,
0.8,left,1,,,,,,stim/lower.png,stim/neutralRight.png,left,180,2041,2020-05-16_13h39.07.981,ANTCPTp,2020.1.2,Win32,60,,,0.6706,1,40,88,44,1,,,,,,,,,,,,,,,,,,,,,,,,,,,,,,,,,,,,,,,,,,
1.3,right,1,,,,,,stim/upper.png,stim/neutralRight.png,right,0,2041,2020-05-16_13h39.07.981,ANTCPTp,2020.1.2,Win32,60,,,0.5988,1,41,89,40,1,,,,,,,,,,,,,,,,,,,,,,,,,,,,,,,,,,,,,,,,,,
1.05,left,1,,,,,,stim/both.png,stim/incongLeft.png,left,0,2041,2020-05-16_13h39.07.981,ANTCPTp,2020.1.2,Win32,60,,,0.6852,1,42,90,17,1,,,,,,,,,,,,,,,,,,,,,,,,,,,,,,,,,,,,,,,,,,
0.95,left,1,,,,,,stim/blank.png,stim/incongRight.png,left,180,2041,2020-05-16_13h39.07.981,ANTCPTp,2020.1.2,Win32,60,,,0.7743,1,43,91,31,1,,,,,,,,,,,,,,,,,,,,,,,,,,,,,,,,,,,,,,,,,,
0.85,left,1,,,,,,stim/centre.png,stim/neutralLeft.png,left,0,2041,2020-05-16_13h39.07.981,ANTCPTp,2020.1.2,Win32,60,,,0.8219,1,44,92,34,1,,,,,,,,,,,,,,,,,,,,,,,,,,,,,,,,,,,,,,,,,,
0.7,right,1,,,,,,stim/blank.png,stim/neutralLeft.png,right,180,2041,2020-05-16_13h39.07.981,ANTCPTp,2020.1.2,Win32,60,,,0.6684,1,45,93,39,1,,,,,,,,,,,,,,,,,,,,,,,,,,,,,,,,,,,,,,,,,,
0.6,left,1,,,,,,stim/lower.png,stim/incongRight.png,left,180,2041,2020-05-16_13h39.07.981,ANTCPTp,2020.1.2,Win32,60,,,0.7866,1,46,94,28,1,,,,,,,,,,,,,,,,,,,,,,,,,,,,,,,,,,,,,,,,,,
1.05,left,1,,,,,,stim/both.png,stim/neutralRight.png,left,180,2041,2020-05-16_13h39.07.981,ANTCPTp,2020.1.2,Win32,60,,,0.6034,1,47,95,45,1,,,,,,,,,,,,,,,,,,,,,,,,,,,,,,,,,,,,,,,,,,
,,,,,,,,,,space,,2041,2020-05-16_13h39.07.981,ANTCPTp,2020.1.2,Win32,60,,,,,,,,,,,,,,space,40.3131,space,26.3387,space,4.4195,space,1,0.7347,0,0,0,11,1,U,,,,,,,,,,,,,,,,,,,,,,
,,,,,,,,,,space,,2041,2020-05-16_13h39.07.981,ANTCPTp,2020.1.2,Win32,60,,,,,,,,,,,,,,,,,,,,space,1,0.4506,0,1,1,7,1,N,,,,,,,,,,,,,,,,,,,,,,
,,,,,,,,,,space,,2041,2020-05-16_13h39.07.981,ANTCPTp,2020.1.2,Win32,60,,,,,,,,,,,,,,,,,,,,space,1,0.3121,0,2,2,0,1,A,,,,,,,,,,,,,,,,,,,,,,
,,,,,,,,,,space,,2041,2020-05-16_13h39.07.981,ANTCPTp,2020.1.2,Win32,60,,,,,,,,,,,,,,,,,,,,space,1,0.381,0,3,3,8,1,O,,,,,,,,,,,,,,,,,,,,,,
,,,,,,,,,,space,,2041,2020-05-16_13h39.07.981,ANTCPTp,2020.1.2,Win32,60,,,,,,,,,,,,,,,,,,,,space,1,0.4058,0,4,4,5,1,F,,,,,,,,,,,,,,,,,,,,,,
,,,,,,,,,,space,,2041,2020-05-16_13h39.07.981,ANTCPTp,2020.1.2,Win32,60,,,,,,,,,,,,,,,,,,,,space,1,0.4186,0,5,5,4,1,E,,,,,,,,,,,,,,,,,,,,,,
,,,,,,,,,,space,,2041,2020-05-16_13h39.07.981,ANTCPTp,2020.1.2,Win32,60,,,,,,,,,,,,,,,,,,,,space,1,0.5054,0,6,6,6,1,J,,,,,,,,,,,,,,,,,,,,,,
,,,,,,,,,,,,2041,2020-05-16_13h39.07.981,ANTCPTp,2020.1.2,Win32,60,,,,,,,,,,,,,,,,,,,,,1,,0,7,7,16,1,X,,,,,,,,,,,,,,,,,,,,,,
,,,,,,,,,,space,,2041,2020-05-16_13h39.07.981,ANTCPTp,2020.1.2,Win32,60,,,,,,,,,,,,,,,,,,,,space,1,0.3341,0,8,8,14,1,Y,,,,,,,,,,,,,,,,,,,,,,
,,,,,,,,,,space,,2041,2020-05-16_13h39.07.981,ANTCPTp,2020.1.2,Win32,60,,,,,,,,,,,,,,,,,,,,space,1,0.42,0,9,9,9,1,P,,,,,,,,,,,,,,,,,,,,,,
,,,,,,,,,,space,,2041,2020-05-16_13h39.07.981,ANTCPTp,2020.1.2,Win32,60,,,,,,,,,,,,,,,,,,,,space,1,0.2971,0,10,10,3,1,D,,,,,,,,,,,,,,,,,,,,,,
,,,,,,,,,,,,2041,2020-05-16_13h39.07.981,ANTCPTp,2020.1.2,Win32,60,,,,,,,,,,,,,,,,,,,,space,0,0.3385,0,11,11,15,1,X,,,,,,,,,,,,,,,,,,,,,,
,,,,,,,,,,space,,2041,2020-05-16_13h39.07.981,ANTCPTp,2020.1.2,Win32,60,,,,,,,,,,,,,,,,,,,,space,1,0.4175,0,12,12,12,1,V,,,,,,,,,,,,,,,,,,,,,,
,,,,,,,,,,space,,2041,2020-05-16_13h39.07.981,ANTCPTp,2020.1.2,Win32,60,,,,,,,,,,,,,,,,,,,,space,1,0.4309,0,13,13,2,1,C,,,,,,,,,,,,,,,,,,,,,,
,,,,,,,,,,space,,2041,2020-05-16_13h39.07.981,ANTCPTp,2020.1.2,Win32,60,,,,,,,,,,,,,,,,,,,,space,1,0.4018,0,14,14,10,1,Q,,,,,,,,,,,,,,,,,,,,,,
,,,,,,,,,,space,,2041,2020-05-16_13h39.07.981,ANTCPTp,2020.1.2,Win32,60,,,,,,,,,,,,,,,,,,,,space,1,0.4687,0,15,15,13,1,W,,,,,,,,,,,,,,,,,,,,,,
,,,,,,,,,,space,,2041,2020-05-16_13h39.07.981,ANTCPTp,2020.1.2,Win32,60,,,,,,,,,,,,,,,,,,,,space,1,0.4073,0,16,16,1,1,B,,,,,,,,,,,,,,,,,,,,,,
,,,,,,,,,,space,,2041,2020-05-16_13h39.07.981,ANTCPTp,2020.1.2,Win32,60,,,,,,,,,,,,,,,,,,,,,0,,,,,,,H,1,6.0934,0,0,0,7,1,,,,,,,,,,,,,,,
,,,,,,,,,,space,,2041,2020-05-16_13h39.07.981,ANTCPTp,2020.1.2,Win32,60,,,,,,,,,,,,,,,,,,,,space,1,0.3935,,,,,,E,,,0,1,1,4,1,,,,,,,,,,,,,,,
,,,,,,,,,,space,,2041,2020-05-16_13h39.07.981,ANTCPTp,2020.1.2,Win32,60,,,,,,,,,,,,,,,,,,,,space,1,0.3698,,,,,,S,,,0,2,2,18,1,,,,,,,,,,,,,,,
,,,,,,,,,,space,,2041,2020-05-16_13h39.07.981,ANTCPTp,2020.1.2,Win32,60,,,,,,,,,,,,,,,,,,,,space,1,0.3851,,,,,,A,,,0,3,3,25,1,,,,,,,,,,,,,,,
,,,,,,,,,,space,,2041,2020-05-16_13h39.07.981,ANTCPTp,2020.1.2,Win32,60,,,,,,,,,,,,,,,,,,,,space,1,0.398,,,,,,F,,,0,4,4,5,1,,,,,,,,,,,,,,,
,,,,,,,,,,space,,2041,2020-05-16_13h39.07.981,ANTCPTp,2020.1.2,Win32,60,,,,,,,,,,,,,,,,,,,,space,1,0.307,,,,,,R,,,0,5,5,17,1,,,,,,,,,,,,,,,
,,,,,,,,,,,,2041,2020-05-16_13h39.07.981,ANTCPTp,2020.1.2,Win32,60,,,,,,,,,,,,,,,,,,,,space,0,0.3451,,,,,,X,,,0,6,6,28,1,,,,,,,,,,,,,,,
,,,,,,,,,,space,,2041,2020-05-16_13h39.07.981,ANTCPTp,2020.1.2,Win32,60,,,,,,,,,,,,,,,,,,,,space,1,0.4042,,,,,,G,,,0,7,7,6,1,,,,,,,,,,,,,,,
,,,,,,,,,,space,,2041,2020-05-16_13h39.07.981,ANTCPTp,2020.1.2,Win32,60,,,,,,,,,,,,,,,,,,,,space,1,0.2888,,,,,,Y,,,0,8,8,23,1,,,,,,,,,,,,,,,
,,,,,,,,,,space,,2041,2020-05-16_13h39.07.981,ANTCPTp,2020.1.2,Win32,60,,,,,,,,,,,,,,,,,,,,space,1,0.3063,,,,,,K,,,0,9,9,10,1,,,,,,,,,,,,,,,
,,,,,,,,,,space,,2041,2020-05-16_13h39.07.981,ANTCPTp,2020.1.2,Win32,60,,,,,,,,,,,,,,,,,,,,space,1,0.4352,,,,,,C,,,0,10,10,2,1,,,,,,,,,,,,,,,
,,,,,,,,,,space,,2041,2020-05-16_13h39.07.981,ANTCPTp,2020.1.2,Win32,60,,,,,,,,,,,,,,,,,,,,space,1,0.5011,,,,,,V,,,0,11,11,21,1,,,,,,,,,,,,,,,
,,,,,,,,,,,,2041,2020-05-16_13h39.07.981,ANTCPTp,2020.1.2,Win32,60,,,,,,,,,,,,,,,,,,,,,1,,,,,,,X,,,0,12,12,29,1,,,,,,,,,,,,,,,
,,,,,,,,,,space,,2041,2020-05-16_13h39.07.981,ANTCPTp,2020.1.2,Win32,60,,,,,,,,,,,,,,,,,,,,space,1,0.3466,,,,,,I,,,0,13,13,8,1,,,,,,,,,,,,,,,
,,,,,,,,,,space,,2041,2020-05-16_13h39.07.981,ANTCPTp,2020.1.2,Win32,60,,,,,,,,,,,,,,,,,,,,space,1,0.3112,,,,,,W,,,0,14,14,22,1,,,,,,,,,,,,,,,
,,,,,,,,,,space,,2041,2020-05-16_13h39.07.981,ANTCPTp,2020.1.2,Win32,60,,,,,,,,,,,,,,,,,,,,space,1,0.4371,,,,,,Q,,,0,15,15,16,1,,,,,,,,,,,,,,,
,,,,,,,,,,space,,2041,2020-05-16_13h39.07.981,ANTCPTp,2020.1.2,Win32,60,,,,,,,,,,,,,,,,,,,,space,1,0.3794,,,,,,D,,,0,16,16,3,1,,,,,,,,,,,,,,,
,,,,,,,,,,space,,2041,2020-05-16_13h39.07.981,ANTCPTp,2020.1.2,Win32,60,,,,,,,,,,,,,,,,,,,,space,1,0.343,,,,,,M,,,0,17,17,12,1,,,,,,,,,,,,,,,
,,,,,,,,,,space,,2041,2020-05-16_13h39.07.981,ANTCPTp,2020.1.2,Win32,60,,,,,,,,,,,,,,,,,,,,space,1,0.4716,,,,,,L,,,0,18,18,11,1,,,,,,,,,,,,,,,
,,,,,,,,,,,,2041,2020-05-16_13h39.07.981,ANTCPTp,2020.1.2,Win32,60,,,,,,,,,,,,,,,,,,,,,1,,,,,,,X,,,0,19,19,26,1,,,,,,,,,,,,,,,
,,,,,,,,,,space,,2041,2020-05-16_13h39.07.981,ANTCPTp,2020.1.2,Win32,60,,,,,,,,,,,,,,,,,,,,space,1,0.2928,,,,,,O,,,0,20,20,14,1,,,,,,,,,,,,,,,
,,,,,,,,,,space,,2041,2020-05-16_13h39.07.981,ANTCPTp,2020.1.2,Win32,60,,,,,,,,,,,,,,,,,,,,space,1,0.3246,,,,,,A,,,0,21,21,0,1,,,,,,,,,,,,,,,
,,,,,,,,,,space,,2041,2020-05-16_13h39.07.981,ANTCPTp,2020.1.2,Win32,60,,,,,,,,,,,,,,,,,,,,space,1,0.3017,,,,,,U,,,0,22,22,20,1,,,,,,,,,,,,,,,
,,,,,,,,,,space,,2041,2020-05-16_13h39.07.981,ANTCPTp,2020.1.2,Win32,60,,,,,,,,,,,,,,,,,,,,space,1,0.4025,,,,,,P,,,0,23,23,15,1,,,,,,,,,,,,,,,
,,,,,,,,,,space,,2041,2020-05-16_13h39.07.981,ANTCPTp,2020.1.2,Win32,60,,,,,,,,,,,,,,,,,,,,space,1,0.4249,,,,,,N,,,0,24,24,13,1,,,,,,,,,,,,,,,
,,,,,,,,,,space,,2041,2020-05-16_13h39.07.981,ANTCPTp,2020.1.2,Win32,60,,,,,,,,,,,,,,,,,,,,space,1,0.4289,,,,,,T,,,0,25,25,19,1,,,,,,,,,,,,,,,
,,,,,,,,,,,,2041,2020-05-16_13h39.07.981,ANTCPTp,2020.1.2,Win32,60,,,,,,,,,,,,,,,,,,,,,1,,,,,,,X,,,0,26,26,27,1,,,,,,,,,,,,,,,
,,,,,,,,,,space,,2041,2020-05-16_13h39.07.981,ANTCPTp,2020.1.2,Win32,60,,,,,,,,,,,,,,,,,,,,space,1,0.339,,,,,,B,,,0,27,27,1,1,,,,,,,,,,,,,,,
,,,,,,,,,,space,,2041,2020-05-16_13h39.07.981,ANTCPTp,2020.1.2,Win32,60,,,,,,,,,,,,,,,,,,,,space,1,0.2837,,,,,,Z,,,0,28,28,24,1,,,,,,,,,,,,,,,
,,,,,,,,,,space,,2041,2020-05-16_13h39.07.981,ANTCPTp,2020.1.2,Win32,60,,,,,,,,,,,,,,,,,,,,space,1,0.399,,,,,,J,,,0,29,29,9,1,,,,,,,,,,,,,,,
,,,,,,,,,,space,,2041,2020-05-16_13h39.07.981,ANTCPTp,2020.1.2,Win32,60,,,,,,,,,,,,,,,,,,,,space,1,0.5979,,,,,,Y,1,3.1068,,,,,,0,0,0,17,1,,,,,,,,,,
,,,,,,,,,,space,,2041,2020-05-16_13h39.07.981,ANTCPTp,2020.1.2,Win32,60,,,,,,,,,,,,,,,,,,,,space,1,0.4006,,,,,,M,,,,,,,,0,1,1,8,1,,,,,,,,,,
,,,,,,,,,,,,2041,2020-05-16_13h39.07.981,ANTCPTp,2020.1.2,Win32,60,,,,,,,,,,,,,,,,,,,,space,0,0.3199,,,,,,X,,,,,,,,0,2,2,21,1,,,,,,,,,,
,,,,,,,,,,space,,2041,2020-05-16_13h39.07.981,ANTCPTp,2020.1.2,Win32,60,,,,,,,,,,,,,,,,,,,,space,1,0.3675,,,,,,D,,,,,,,,0,3,3,1,1,,,,,,,,,,
,,,,,,,,,,space,,2041,2020-05-16_13h39.07.981,ANTCPTp,2020.1.2,Win32,60,,,,,,,,,,,,,,,,,,,,space,1,0.4506,,,,,,O,,,,,,,,0,4,4,10,1,,,,,,,,,,
,,,,,,,,,,,,2041,2020-05-16_13h39.07.981,ANTCPTp,2020.1.2,Win32,60,,,,,,,,,,,,,,,,,,,,space,0,0.3025,,,,,,X,,,,,,,,0,5,5,20,1,,,,,,,,,,
,,,,,,,,,,space,,2041,2020-05-16_13h39.07.981,ANTCPTp,2020.1.2,Win32,60,,,,,,,,,,,,,,,,,,,,space,1,0.3051,,,,,,H,,,,,,,,0,6,6,5,1,,,,,,,,,,
,,,,,,,,,,space,,2041,2020-05-16_13h39.07.981,ANTCPTp,2020.1.2,Win32,60,,,,,,,,,,,,,,,,,,,,space,1,0.4192,,,,,,R,,,,,,,,0,7,7,12,1,,,,,,,,,,
,,,,,,,,,,space,,2041,2020-05-16_13h39.07.981,ANTCPTp,2020.1.2,Win32,60,,,,,,,,,,,,,,,,,,,,space,1,0.3455,,,,,,Z,,,,,,,,0,8,8,18,1,,,,,,,,,,
,,,,,,,,,,space,,2041,2020-05-16_13h39.07.981,ANTCPTp,2020.1.2,Win32,60,,,,,,,,,,,,,,,,,,,,space,1,0.4224,,,,,,A,,,,,,,,0,9,9,19,1,,,,,,,,,,
,,,,,,,,,,space,,2041,2020-05-16_13h39.07.981,ANTCPTp,2020.1.2,Win32,60,,,,,,,,,,,,,,,,,,,,space,1,0.4804,,,,,,T,,,,,,,,0,10,10,14,1,,,,,,,,,,
,,,,,,,,,,space,,2041,2020-05-16_13h39.07.981,ANTCPTp,2020.1.2,Win32,60,,,,,,,,,,,,,,,,,,,,space,1,0.4364,,,,,,Q,,,,,,,,0,11,11,11,1,,,,,,,,,,
,,,,,,,,,,space,,2041,2020-05-16_13h39.07.981,ANTCPTp,2020.1.2,Win32,60,,,,,,,,,,,,,,,,,,,,space,1,0.4902,,,,,,W,,,,,,,,0,12,12,16,1,,,,,,,,,,
,,,,,,,,,,space,,2041,2020-05-16_13h39.07.981,ANTCPTp,2020.1.2,Win32,60,,,,,,,,,,,,,,,,,,,,space,1,0.555,,,,,,K,,,,,,,,0,13,13,6,1,,,,,,,,,,
,,,,,,,,,,space,,2041,2020-05-16_13h39.07.981,ANTCPTp,2020.1.2,Win32,60,,,,,,,,,,,,,,,,,,,,space,1,0.4313,,,,,,G,,,,,,,,0,14,14,4,1,,,,,,,,,,
,,,,,,,,,,space,,2041,2020-05-16_13h39.07.981,ANTCPTp,2020.1.2,Win32,60,,,,,,,,,,,,,,,,,,,,space,1,0.4136,,,,,,F,,,,,,,,0,15,15,3,1,,,,,,,,,,
,,,,,,,,,,space,,2041,2020-05-16_13h39.07.981,ANTCPTp,2020.1.2,Win32,60,,,,,,,,,,,,,,,,,,,,space,1,0.4263,,,,,,B,,,,,,,,0,16,16,0,1,,,,,,,,,,
,,,,,,,,,,space,,2041,2020-05-16_13h39.07.981,ANTCPTp,2020.1.2,Win32,60,,,,,,,,,,,,,,,,,,,,space,1,0.4049,,,,,,U,,,,,,,,0,17,17,15,1,,,,,,,,,,
,,,,,,,,,,space,,2041,2020-05-16_13h39.07.981,ANTCPTp,2020.1.2,Win32,60,,,,,,,,,,,,,,,,,,,,space,1,0.4235,,,,,,L,,,,,,,,0,18,18,7,1,,,,,,,,,,
,,,,,,,,,,space,,2041,2020-05-16_13h39.07.981,ANTCPTp,2020.1.2,Win32,60,,,,,,,,,,,,,,,,,,,,space,1,0.4039,,,,,,E,,,,,,,,0,19,19,2,1,,,,,,,,,,
,,,,,,,,,,space,,2041,2020-05-16_13h39.07.981,ANTCPTp,2020.1.2,Win32,60,,,,,,,,,,,,,,,,,,,,space,1,0.3544,,,,,,N,,,,,,,,0,20,20,9,1,,,,,,,,,,
,,,,,,,,,,space,,2041,2020-05-16_13h39.07.981,ANTCPTp,2020.1.2,Win32,60,,,,,,,,,,,,,,,,,,,,space,1,0.4027,,,,,,S,,,,,,,,0,21,21,13,1,,,,,,,,,,
,,,,,,,,,,space,,2041,2020-05-16_13h39.07.981,ANTCPTp,2020.1.2,Win32,60,,,,,,,,,,,,,,,,,,,,space,1,0.554,,,,,,H,1,2.494,,,,,,,,,,,0,0,0,7,1,,,,,
,,,,,,,,,,space,,2041,2020-05-16_13h39.07.981,ANTCPTp,2020.1.2,Win32,60,,,,,,,,,,,,,,,,,,,,space,1,0.2899,,,,,,P,,,,,,,,,,,,,0,1,1,15,1,,,,,
,,,,,,,,,,space,,2041,2020-05-16_13h39.07.981,ANTCPTp,2020.1.2,Win32,60,,,,,,,,,,,,,,,,,,,,space,1,0.3139,,,,,,N,,,,,,,,,,,,,0,2,2,13,1,,,,,
,,,,,,,,,,,,2041,2020-05-16_13h39.07.981,ANTCPTp,2020.1.2,Win32,60,,,,,,,,,,,,,,,,,,,,space,0,0.3022,,,,,,X,,,,,,,,,,,,,0,3,3,24,1,,,,,
,,,,,,,,,,space,,2041,2020-05-16_13h39.07.981,ANTCPTp,2020.1.2,Win32,60,,,,,,,,,,,,,,,,,,,,space,1,0.3503,,,,,,R,,,,,,,,,,,,,0,4,4,17,1,,,,,
,,,,,,,,,,space,,2041,2020-05-16_13h39.07.981,ANTCPTp,2020.1.2,Win32,60,,,,,,,,,,,,,,,,,,,,space,1,0.2888,,,,,,B,,,,,,,,,,,,,0,5,5,1,1,,,,,
,,,,,,,,,,space,,2041,2020-05-16_13h39.07.981,ANTCPTp,2020.1.2,Win32,60,,,,,,,,,,,,,,,,,,,,,0,,,,,,,K,,,,,,,,,,,,,0,6,6,10,1,,,,,
,,,,,,,,,,space,,2041,2020-05-16_13h39.07.981,ANTCPTp,2020.1.2,Win32,60,,,,,,,,,,,,,,,,,,,,space,1,0.2815,,,,,,F,,,,,,,,,,,,,0,7,7,5,1,,,,,
,,,,,,,,,,space,,2041,2020-05-16_13h39.07.981,ANTCPTp,2020.1.2,Win32,60,,,,,,,,,,,,,,,,,,,,space,1,0.3538,,,,,,J,,,,,,,,,,,,,0,8,8,9,1,,,,,
,,,,,,,,,,,,2041,2020-05-16_13h39.07.981,ANTCPTp,2020.1.2,Win32,60,,,,,,,,,,,,,,,,,,,,,1,,,,,,,X,,,,,,,,,,,,,0,9,9,25,1,,,,,
,,,,,,,,,,space,,2041,2020-05-16_13h39.07.981,ANTCPTp,2020.1.2,Win32,60,,,,,,,,,,,,,,,,,,,,space,1,0.3341,,,,,,L,,,,,,,,,,,,,0,10,10,11,1,,,,,
,,,,,,,,,,space,,2041,2020-05-16_13h39.07.981,ANTCPTp,2020.1.2,Win32,60,,,,,,,,,,,,,,,,,,,,space,1,0.3393,,,,,,A,,,,,,,,,,,,,0,11,11,0,1,,,,,
,,,,,,,,,,space,,2041,2020-05-16_13h39.07.981,ANTCPTp,2020.1.2,Win32,60,,,,,,,,,,,,,,,,,,,,space,1,0.3523,,,,,,D,,,,,,,,,,,,,0,12,12,3,1,,,,,
,,,,,,,,,,space,,2041,2020-05-16_13h39.07.981,ANTCPTp,2020.1.2,Win32,60,,,,,,,,,,,,,,,,,,,,space,1,0.3219,,,,,,Z,,,,,,,,,,,,,0,13,13,23,1,,,,,
,,,,,,,,,,space,,2041,2020-05-16_13h39.07.981,ANTCPTp,2020.1.2,Win32,60,,,,,,,,,,,,,,,,,,,,space,1,0.4852,,,,,,I,,,,,,,,,,,,,0,14,14,8,1,,,,,
,,,,,,,,,,space,,2041,2020-05-16_13h39.07.981,ANTCPTp,2020.1.2,Win32,60,,,,,,,,,,,,,,,,,,,,space,1,0.4954,,,,,,O,,,,,,,,,,,,,0,15,15,14,1,,,,,
,,,,,,,,,,space,,2041,2020-05-16_13h39.07.981,ANTCPTp,2020.1.2,Win32,60,,,,,,,,,,,,,,,,,,,,space,1,0.4573,,,,,,C,,,,,,,,,,,,,0,16,16,2,1,,,,,
,,,,,,,,,,space,,2041,2020-05-16_13h39.07.981,ANTCPTp,2020.1.2,Win32,60,,,,,,,,,,,,,,,,,,,,space,1,0.4857,,,,,,M,,,,,,,,,,,,,0,17,17,12,1,,,,,
,,,,,,,,,,space,,2041,2020-05-16_13h39.07.981,ANTCPTp,2020.1.2,Win32,60,,,,,,,,,,,,,,,,,,,,space,1,0.4696,,,,,,U,,,,,,,,,,,,,0,18,18,19,1,,,,,
,,,,,,,,,,,,2041,2020-05-16_13h39.07.981,ANTCPTp,2020.1.2,Win32,60,,,,,,,,,,,,,,,,,,,,,1,,,,,,,X,,,,,,,,,,,,,0,19,19,26,1,,,,,
,,,,,,,,,,space,,2041,2020-05-16_13h39.07.981,ANTCPTp,2020.1.2,Win32,60,,,,,,,,,,,,,,,,,,,,space,1,0.3702,,,,,,G,,,,,,,,,,,,,0,20,20,6,1,,,,,
,,,,,,,,,,space,,2041,2020-05-16_13h39.07.981,ANTCPTp,2020.1.2,Win32,60,,,,,,,,,,,,,,,,,,,,space,1,0.3341,,,,,,Y,,,,,,,,,,,,,0,21,21,22,1,,,,,
,,,,,,,,,,space,,2041,2020-05-16_13h39.07.981,ANTCPTp,2020.1.2,Win32,60,,,,,,,,,,,,,,,,,,,,space,1,0.3906,,,,,,V,,,,,,,,,,,,,0,22,22,20,1,,,,,
,,,,,,,,,,space,,2041,2020-05-16_13h39.07.981,ANTCPTp,2020.1.2,Win32,60,,,,,,,,,,,,,,,,,,,,space,1,0.416,,,,,,W,,,,,,,,,,,,,0,23,23,21,1,,,,,
,,,,,,,,,,space,,2041,2020-05-16_13h39.07.981,ANTCPTp,2020.1.2,Win32,60,,,,,,,,,,,,,,,,,,,,space,1,0.4342,,,,,,Q,,,,,,,,,,,,,0,24,24,16,1,,,,,
,,,,,,,,,,space,,2041,2020-05-16_13h39.07.981,ANTCPTp,2020.1.2,Win32,60,,,,,,,,,,,,,,,,,,,,space,1,0.4342,,,,,,S,,,,,,,,,,,,,0,25,25,18,1,,,,,
,,,,,,,,,,space,,2041,2020-05-16_13h39.07.981,ANTCPTp,2020.1.2,Win32,60,,,,,,,,,,,,,,,,,,,,space,1,0.4692,,,,,,E,,,,,,,,,,,,,0,26,26,4,1,,,,,
,,,,,,,,,,,,2041,2020-05-16_13h39.07.981,ANTCPTp,2020.1.2,Win32,60,,,,,,,,,,,,,,,,,,,,,,,,,,,,,2,8.5438,,,,,,,,,,,,,,,,0,0,0,0,1
,,,,,,,,,,space,,2041,2020-05-16_13h39.07.981,ANTCPTp,2020.1.2,Win32,60,,,,,,,,,,,,,,,,,,,,space,1,0.6876,0,0,0,13,1,W,,,,,,,,,,,,,,,,,,,,,,
,,,,,,,,,,space,,2041,2020-05-16_13h39.07.981,ANTCPTp,2020.1.2,Win32,60,,,,,,,,,,,,,,,,,,,,space,1,0.4658,0,1,1,7,1,N,,,,,,,,,,,,,,,,,,,,,,
,,,,,,,,,,space,,2041,2020-05-16_13h39.07.981,ANTCPTp,2020.1.2,Win32,60,,,,,,,,,,,,,,,,,,,,space,1,0.4051,0,2,2,5,1,F,,,,,,,,,,,,,,,,,,,,,,
,,,,,,,,,,space,,2041,2020-05-16_13h39.07.981,ANTCPTp,2020.1.2,Win32,60,,,,,,,,,,,,,,,,,,,,space,1,0.4195,0,3,3,6,1,J,,,,,,,,,,,,,,,,,,,,,,
,,,,,,,,,,space,,2041,2020-05-16_13h39.07.981,ANTCPTp,2020.1.2,Win32,60,,,,,,,,,,,,,,,,,,,,space,1,0.3854,0,4,4,14,1,Y,,,,,,,,,,,,,,,,,,,,,,
,,,,,,,,,,,,2041,2020-05-16_13h39.07.981,ANTCPTp,2020.1.2,Win32,60,,,,,,,,,,,,,,,,,,,,space,0,0.3043,0,5,5,15,1,X,,,,,,,,,,,,,,,,,,,,,,
,,,,,,,,,,space,,2041,2020-05-16_13h39.07.981,ANTCPTp,2020.1.2,Win32,60,,,,,,,,,,,,,,,,,,,,space,1,0.4092,0,6,6,10,1,Q,,,,,,,,,,,,,,,,,,,,,,
,,,,,,,,,,space,,2041,2020-05-16_13h39.07.981,ANTCPTp,2020.1.2,Win32,60,,,,,,,,,,,,,,,,,,,,space,1,0.3885,0,7,7,1,1,B,,,,,,,,,,,,,,,,,,,,,,
,,,,,,,,,,space,,2041,2020-05-16_13h39.07.981,ANTCPTp,2020.1.2,Win32,60,,,,,,,,,,,,,,,,,,,,space,1,0.3857,0,8,8,11,1,U,,,,,,,,,,,,,,,,,,,,,,
,,,,,,,,,,space,,2041,2020-05-16_13h39.07.981,ANTCPTp,2020.1.2,Win32,60,,,,,,,,,,,,,,,,,,,,space,1,0.4377,0,9,9,0,1,A,,,,,,,,,,,,,,,,,,,,,,
,,,,,,,,,,space,,2041,2020-05-16_13h39.07.981,ANTCPTp,2020.1.2,Win32,60,,,,,,,,,,,,,,,,,,,,space,1,0.383,0,10,10,8,1,O,,,,,,,,,,,,,,,,,,,,,,
,,,,,,,,,,space,,2041,2020-05-16_13h39.07.981,ANTCPTp,2020.1.2,Win32,60,,,,,,,,,,,,,,,,,,,,space,1,0.368,0,11,11,2,1,C,,,,,,,,,,,,,,,,,,,,,,
,,,,,,,,,,space,,2041,2020-05-16_13h39.07.981,ANTCPTp,2020.1.2,Win32,60,,,,,,,,,,,,,,,,,,,,space,1,0.3361,0,12,12,4,1,E,,,,,,,,,,,,,,,,,,,,,,
,,,,,,,,,,space,,2041,2020-05-16_13h39.07.981,ANTCPTp,2020.1.2,Win32,60,,,,,,,,,,,,,,,,,,,,space,1,0.4055,0,13,13,9,1,P,,,,,,,,,,,,,,,,,,,,,,
,,,,,,,,,,,,2041,2020-05-16_13h39.07.981,ANTCPTp,2020.1.2,Win32,60,,,,,,,,,,,,,,,,,,,,,1,,0,14,14,16,1,X,,,,,,,,,,,,,,,,,,,,,,
,,,,,,,,,,space,,2041,2020-05-16_13h39.07.981,ANTCPTp,2020.1.2,Win32,60,,,,,,,,,,,,,,,,,,,,space,1,0.3169,0,15,15,3,1,D,,,,,,,,,,,,,,,,,,,,,,
,,,,,,,,,,space,,2041,2020-05-16_13h39.07.981,ANTCPTp,2020.1.2,Win32,60,,,,,,,,,,,,,,,,,,,,space,1,0.3206,0,16,16,12,1,V,,,,,,,,,,,,,,,,,,,,,,
,,,,,,,,,,space,,2041,2020-05-16_13h39.07.981,ANTCPTp,2020.1.2,Win32,60,,,,,,,,,,,,,,,,,,,,space,1,0.5162,,,,,,F,1,3.2071,0,0,0,5,1,,,,,,,,,,,,,,,
,,,,,,,,,,space,,2041,2020-05-16_13h39.07.981,ANTCPTp,2020.1.2,Win32,60,,,,,,,,,,,,,,,,,,,,space,1,0.4296,,,,,,A,,,0,1,1,25,1,,,,,,,,,,,,,,,
,,,,,,,,,,,,2041,2020-05-16_13h39.07.981,ANTCPTp,2020.1.2,Win32,60,,,,,,,,,,,,,,,,,,,,,1,,,,,,,X,,,0,2,2,27,1,,,,,,,,,,,,,,,
,,,,,,,,,,space,,2041,2020-05-16_13h39.07.981,ANTCPTp,2020.1.2,Win32,60,,,,,,,,,,,,,,,,,,,,space,1,0.347,,,,,,V,,,0,3,3,21,1,,,,,,,,,,,,,,,
,,,,,,,,,,space,,2041,2020-05-16_13h39.07.981,ANTCPTp,2020.1.2,Win32,60,,,,,,,,,,,,,,,,,,,,space,1,0.5037,,,,,,G,,,0,4,4,6,1,,,,,,,,,,,,,,,
,,,,,,,,,,space,,2041,2020-05-16_13h39.07.981,ANTCPTp,2020.1.2,Win32,60,,,,,,,,,,,,,,,,,,,,space,1,0.3378,,,,,,M,,,0,5,5,12,1,,,,,,,,,,,,,,,
,,,,,,,,,,space,,2041,2020-05-16_13h39.07.981,ANTCPTp,2020.1.2,Win32,60,,,,,,,,,,,,,,,,,,,,space,1,0.3698,,,,,,W,,,0,6,6,22,1,,,,,,,,,,,,,,,
,,,,,,,,,,space,,2041,2020-05-16_13h39.07.981,ANTCPTp,2020.1.2,Win32,60,,,,,,,,,,,,,,,,,,,,space,1,0.4188,,,,,,L,,,0,7,7,11,1,,,,,,,,,,,,,,,
,,,,,,,,,,space,,2041,2020-05-16_13h39.07.981,ANTCPTp,2020.1.2,Win32,60,,,,,,,,,,,,,,,,,,,,space,1,0.4598,,,,,,D,,,0,8,8,3,1,,,,,,,,,,,,,,,
,,,,,,,,,,space,,2041,2020-05-16_13h39.07.981,ANTCPTp,2020.1.2,Win32,60,,,,,,,,,,,,,,,,,,,,space,1,0.6504,,,,,,Z,,,0,9,9,24,1,,,,,,,,,,,,,,,
,,,,,,,,,,space,,2041,2020-05-16_13h39.07.981,ANTCPTp,2020.1.2,Win32,60,,,,,,,,,,,,,,,,,,,,space,1,0.3822,,,,,,A,,,0,10,10,0,1,,,,,,,,,,,,,,,
,,,,,,,,,,space,,2041,2020-05-16_13h39.07.981,ANTCPTp,2020.1.2,Win32,60,,,,,,,,,,,,,,,,,,,,space,1,0.4653,,,,,,S,,,0,11,11,18,1,,,,,,,,,,,,,,,
,,,,,,,,,,space,,2041,2020-05-16_13h39.07.981,ANTCPTp,2020.1.2,Win32,60,,,,,,,,,,,,,,,,,,,,space,1,0.4672,,,,,,I,,,0,12,12,8,1,,,,,,,,,,,,,,,
,,,,,,,,,,space,,2041,2020-05-16_13h39.07.981,ANTCPTp,2020.1.2,Win32,60,,,,,,,,,,,,,,,,,,,,space,1,0.4678,,,,,,U,,,0,13,13,20,1,,,,,,,,,,,,,,,
,,,,,,,,,,space,,2041,2020-05-16_13h39.07.981,ANTCPTp,2020.1.2,Win32,60,,,,,,,,,,,,,,,,,,,,space,1,0.5355,,,,,,T,,,0,14,14,19,1,,,,,,,,,,,,,,,
,,,,,,,,,,space,,2041,2020-05-16_13h39.07.981,ANTCPTp,2020.1.2,Win32,60,,,,,,,,,,,,,,,,,,,,space,1,0.414,,,,,,H,,,0,15,15,7,1,,,,,,,,,,,,,,,
,,,,,,,,,,space,,2041,2020-05-16_13h39.07.981,ANTCPTp,2020.1.2,Win32,60,,,,,,,,,,,,,,,,,,,,space,1,0.4203,,,,,,P,,,0,16,16,15,1,,,,,,,,,,,,,,,
,,,,,,,,,,,,2041,2020-05-16_13h39.07.981,ANTCPTp,2020.1.2,Win32,60,,,,,,,,,,,,,,,,,,,,,1,,,,,,,X,,,0,17,17,28,1,,,,,,,,,,,,,,,
,,,,,,,,,,space,,2041,2020-05-16_13h39.07.981,ANTCPTp,2020.1.2,Win32,60,,,,,,,,,,,,,,,,,,,,space,1,0.3212,,,,,,C,,,0,18,18,2,1,,,,,,,,,,,,,,,
,,,,,,,,,,space,,2041,2020-05-16_13h39.07.981,ANTCPTp,2020.1.2,Win32,60,,,,,,,,,,,,,,,,,,,,space,1,0.3329,,,,,,N,,,0,19,19,13,1,,,,,,,,,,,,,,,
,,,,,,,,,,space,,2041,2020-05-16_13h39.07.981,ANTCPTp,2020.1.2,Win32,60,,,,,,,,,,,,,,,,,,,,space,1,0.3821,,,,,,O,,,0,20,20,14,1,,,,,,,,,,,,,,,
,,,,,,,,,,,,2041,2020-05-16_13h39.07.981,ANTCPTp,2020.1.2,Win32,60,,,,,,,,,,,,,,,,,,,,space,0,0.3663,,,,,,X,,,0,21,21,29,1,,,,,,,,,,,,,,,
,,,,,,,,,,space,,2041,2020-05-16_13h39.07.981,ANTCPTp,2020.1.2,Win32,60,,,,,,,,,,,,,,,,,,,,space,1,0.3214,,,,,,K,,,0,22,22,10,1,,,,,,,,,,,,,,,
,,,,,,,,,,space,,2041,2020-05-16_13h39.07.981,ANTCPTp,2020.1.2,Win32,60,,,,,,,,,,,,,,,,,,,,space,1,0.3885,,,,,,J,,,0,23,23,9,1,,,,,,,,,,,,,,,
,,,,,,,,,,space,,2041,2020-05-16_13h39.07.981,ANTCPTp,2020.1.2,Win32,60,,,,,,,,,,,,,,,,,,,,space,1,0.4901,,,,,,E,,,0,24,24,4,1,,,,,,,,,,,,,,,
,,,,,,,,,,,,2041,2020-05-16_13h39.07.981,ANTCPTp,2020.1.2,Win32,60,,,,,,,,,,,,,,,,,,,,,1,,,,,,,X,,,0,25,25,26,1,,,,,,,,,,,,,,,
,,,,,,,,,,space,,2041,2020-05-16_13h39.07.981,ANTCPTp,2020.1.2,Win32,60,,,,,,,,,,,,,,,,,,,,space,1,0.5061,,,,,,R,,,0,26,26,17,1,,,,,,,,,,,,,,,
,,,,,,,,,,space,,2041,2020-05-16_13h39.07.981,ANTCPTp,2020.1.2,Win32,60,,,,,,,,,,,,,,,,,,,,space,1,0.397,,,,,,Q,,,0,27,27,16,1,,,,,,,,,,,,,,,
,,,,,,,,,,space,,2041,2020-05-16_13h39.07.981,ANTCPTp,2020.1.2,Win32,60,,,,,,,,,,,,,,,,,,,,space,1,0.4327,,,,,,B,,,0,28,28,1,1,,,,,,,,,,,,,,,
,,,,,,,,,,space,,2041,2020-05-16_13h39.07.981,ANTCPTp,2020.1.2,Win32,60,,,,,,,,,,,,,,,,,,,,space,1,0.3747,,,,,,Y,,,0,29,29,23,1,,,,,,,,,,,,,,,
,,,,,,,,,,space,,2041,2020-05-16_13h39.07.981,ANTCPTp,2020.1.2,Win32,60,,,,,,,,,,,,,,,,,,,,space,1,0.5461,,,,,,S,2,8.6966,,,,,,0,0,0,13,1,,,,,,,,,,
,,,,,,,,,,space,,2041,2020-05-16_13h39.07.981,ANTCPTp,2020.1.2,Win32,60,,,,,,,,,,,,,,,,,,,,space,1,0.3672,,,,,,T,,,,,,,,0,1,1,14,1,,,,,,,,,,
,,,,,,,,,,space,,2041,2020-05-16_13h39.07.981,ANTCPTp,2020.1.2,Win32,60,,,,,,,,,,,,,,,,,,,,space,1,0.3217,,,,,,H,,,,,,,,0,2,2,5,1,,,,,,,,,,
,,,,,,,,,,space,,2041,2020-05-16_13h39.07.981,ANTCPTp,2020.1.2,Win32,60,,,,,,,,,,,,,,,,,,,,space,1,0.4061,,,,,,W,,,,,,,,0,3,3,16,1,,,,,,,,,,
,,,,,,,,,,space,,2041,2020-05-16_13h39.07.981,ANTCPTp,2020.1.2,Win32,60,,,,,,,,,,,,,,,,,,,,space,1,0.3704,,,,,,R,,,,,,,,0,4,4,12,1,,,,,,,,,,
,,,,,,,,,,space,,2041,2020-05-16_13h39.07.981,ANTCPTp,2020.1.2,Win32,60,,,,,,,,,,,,,,,,,,,,space,1,0.357,,,,,,Y,,,,,,,,0,5,5,17,1,,,,,,,,,,
,,,,,,,,,,,,2041,2020-05-16_13h39.07.981,ANTCPTp,2020.1.2,Win32,60,,,,,,,,,,,,,,,,,,,,,1,,,,,,,X,,,,,,,,0,6,6,20,1,,,,,,,,,,
,,,,,,,,,,space,,2041,2020-05-16_13h39.07.981,ANTCPTp,2020.1.2,Win32,60,,,,,,,,,,,,,,,,,,,,space,1,0.4496,,,,,,G,,,,,,,,0,7,7,4,1,,,,,,,,,,
,,,,,,,,,,space,,2041,2020-05-16_13h39.07.981,ANTCPTp,2020.1.2,Win32,60,,,,,,,,,,,,,,,,,,,,space,1,0.4079,,,,,,L,,,,,,,,0,8,8,7,1,,,,,,,,,,
,,,,,,,,,,space,,2041,2020-05-16_13h39.07.981,ANTCPTp,2020.1.2,Win32,60,,,,,,,,,,,,,,,,,,,,space,1,0.3308,,,,,,Z,,,,,,,,0,9,9,18,1,,,,,,,,,,
,,,,,,,,,,,,2041,2020-05-16_13h39.07.981,ANTCPTp,2020.1.2,Win32,60,,,,,,,,,,,,,,,,,,,,,1,,,,,,,X,,,,,,,,0,10,10,21,1,,,,,,,,,,
,,,,,,,,,,space,,2041,2020-05-16_13h39.07.981,ANTCPTp,2020.1.2,Win32,60,,,,,,,,,,,,,,,,,,,,space,1,0.3838,,,,,,K,,,,,,,,0,11,11,6,1,,,,,,,,,,
,,,,,,,,,,space,,2041,2020-05-16_13h39.07.981,ANTCPTp,2020.1.2,Win32,60,,,,,,,,,,,,,,,,,,,,space,1,0.4639,,,,,,A,,,,,,,,0,12,12,19,1,,,,,,,,,,
,,,,,,,,,,space,,2041,2020-05-16_13h39.07.981,ANTCPTp,2020.1.2,Win32,60,,,,,,,,,,,,,,,,,,,,space,1,0.4664,,,,,,N,,,,,,,,0,13,13,9,1,,,,,,,,,,
,,,,,,,,,,space,,2041,2020-05-16_13h39.07.981,ANTCPTp,2020.1.2,Win32,60,,,,,,,,,,,,,,,,,,,,space,1,0.4727,,,,,,E,,,,,,,,0,14,14,2,1,,,,,,,,,,
,,,,,,,,,,space,,2041,2020-05-16_13h39.07.981,ANTCPTp,2020.1.2,Win32,60,,,,,,,,,,,,,,,,,,,,space,1,0.5363,,,,,,F,,,,,,,,0,15,15,3,1,,,,,,,,,,
,,,,,,,,,,space,,2041,2020-05-16_13h39.07.981,ANTCPTp,2020.1.2,Win32,60,,,,,,,,,,,,,,,,,,,,space,1,0.3903,,,,,,O,,,,,,,,0,16,16,10,1,,,,,,,,,,
,,,,,,,,,,space,,2041,2020-05-16_13h39.07.981,ANTCPTp,2020.1.2,Win32,60,,,,,,,,,,,,,,,,,,,,space,1,0.4506,,,,,,Q,,,,,,,,0,17,17,11,1,,,,,,,,,,
,,,,,,,,,,space,,2041,2020-05-16_13h39.07.981,ANTCPTp,2020.1.2,Win32,60,,,,,,,,,,,,,,,,,,,,space,1,0.4544,,,,,,D,,,,,,,,0,18,18,1,1,,,,,,,,,,
,,,,,,,,,,space,,2041,2020-05-16_13h39.07.981,ANTCPTp,2020.1.2,Win32,60,,,,,,,,,,,,,,,,,,,,space,1,0.4476,,,,,,M,,,,,,,,0,19,19,8,1,,,,,,,,,,
,,,,,,,,,,space,,2041,2020-05-16_13h39.07.981,ANTCPTp,2020.1.2,Win32,60,,,,,,,,,,,,,,,,,,,,space,1,0.4162,,,,,,U,,,,,,,,0,20,20,15,1,,,,,,,,,,
,,,,,,,,,,space,,2041,2020-05-16_13h39.07.981,ANTCPTp,2020.1.2,Win32,60,,,,,,,,,,,,,,,,,,,,space,1,0.4091,,,,,,B,,,,,,,,0,21,21,0,1,,,,,,,,,,
,,,,,,,,,,space,,2041,2020-05-16_13h39.07.981,ANTCPTp,2020.1.2,Win32,60,,,,,,,,,,,,,,,,,,,,space,1,0.4021,,,,,,N,1,2.4544,,,,,,,,,,,0,0,0,13,1,,,,,
,,,,,,,,,,space,,2041,2020-05-16_13h39.07.981,ANTCPTp,2020.1.2,Win32,60,,,,,,,,,,,,,,,,,,,,space,1,0.3848,,,,,,C,,,,,,,,,,,,,0,1,1,2,1,,,,,
,,,,,,,,,,space,,2041,2020-05-16_13h39.07.981,ANTCPTp,2020.1.2,Win32,60,,,,,,,,,,,,,,,,,,,,space,1,0.3355,,,,,,Y,,,,,,,,,,,,,0,2,2,22,1,,,,,
,,,,,,,,,,space,,2041,2020-05-16_13h39.07.981,ANTCPTp,2020.1.2,Win32,60,,,,,,,,,,,,,,,,,,,,space,1,0.3241,,,,,,A,,,,,,,,,,,,,0,3,3,0,1,,,,,
,,,,,,,,,,space,,2041,2020-05-16_13h39.07.981,ANTCPTp,2020.1.2,Win32,60,,,,,,,,,,,,,,,,,,,,space,1,0.3541,,,,,,D,,,,,,,,,,,,,0,4,4,3,1,,,,,
,,,,,,,,,,space,,2041,2020-05-16_13h39.07.981,ANTCPTp,2020.1.2,Win32,60,,,,,,,,,,,,,,,,,,,,space,1,0.386,,,,,,Q,,,,,,,,,,,,,0,5,5,16,1,,,,,
,,,,,,,,,,,,2041,2020-05-16_13h39.07.981,ANTCPTp,2020.1.2,Win32,60,,,,,,,,,,,,,,,,,,,,,1,,,,,,,X,,,,,,,,,,,,,0,6,6,24,1,,,,,
,,,,,,,,,,space,,2041,2020-05-16_13h39.07.981,ANTCPTp,2020.1.2,Win32,60,,,,,,,,,,,,,,,,,,,,space,1,0.4162,,,,,,W,,,,,,,,,,,,,0,7,7,21,1,,,,,
,,,,,,,,,,space,,2041,2020-05-16_13h39.07.981,ANTCPTp,2020.1.2,Win32,60,,,,,,,,,,,,,,,,,,,,space,1,0.3515,,,,,,U,,,,,,,,,,,,,0,8,8,19,1,,,,,
,,,,,,,,,,space,,2041,2020-05-16_13h39.07.981,ANTCPTp,2020.1.2,Win32,60,,,,,,,,,,,,,,,,,,,,space,1,0.2966,,,,,,G,,,,,,,,,,,,,0,9,9,6,1,,,,,
,,,,,,,,,,space,,2041,2020-05-16_13h39.07.981,ANTCPTp,2020.1.2,Win32,60,,,,,,,,,,,,,,,,,,,,space,1,0.4069,,,,,,B,,,,,,,,,,,,,0,10,10,1,1,,,,,
,,,,,,,,,,space,,2041,2020-05-16_13h39.07.981,ANTCPTp,2020.1.2,Win32,60,,,,,,,,,,,,,,,,,,,,space,1,0.4058,,,,,,K,,,,,,,,,,,,,0,11,11,10,1,,,,,
,,,,,,,,,,space,,2041,2020-05-16_13h39.07.981,ANTCPTp,2020.1.2,Win32,60,,,,,,,,,,,,,,,,,,,,space,1,0.3899,,,,,,L,,,,,,,,,,,,,0,12,12,11,1,,,,,
,,,,,,,,,,space,,2041,2020-05-16_13h39.07.981,ANTCPTp,2020.1.2,Win32,60,,,,,,,,,,,,,,,,,,,,space,1,0.4127,,,,,,F,,,,,,,,,,,,,0,13,13,5,1,,,,,
,,,,,,,,,,space,,2041,2020-05-16_13h39.07.981,ANTCPTp,2020.1.2,Win32,60,,,,,,,,,,,,,,,,,,,,space,1,0.5153,,,,,,I,,,,,,,,,,,,,0,14,14,8,1,,,,,
,,,,,,,,,,space,,2041,2020-05-16_13h39.07.981,ANTCPTp,2020.1.2,Win32,60,,,,,,,,,,,,,,,,,,,,space,1,0.4632,,,,,,O,,,,,,,,,,,,,0,15,15,14,1,,,,,
,,,,,,,,,,space,,2041,2020-05-16_13h39.07.981,ANTCPTp,2020.1.2,Win32,60,,,,,,,,,,,,,,,,,,,,space,1,0.4048,,,,,,M,,,,,,,,,,,,,0,16,16,12,1,,,,,
,,,,,,,,,,space,,2041,2020-05-16_13h39.07.981,ANTCPTp,2020.1.2,Win32,60,,,,,,,,,,,,,,,,,,,,space,1,0.4471,,,,,,V,,,,,,,,,,,,,0,17,17,20,1,,,,,
,,,,,,,,,,space,,2041,2020-05-16_13h39.07.981,ANTCPTp,2020.1.2,Win32,60,,,,,,,,,,,,,,,,,,,,space,1,0.4164,,,,,,R,,,,,,,,,,,,,0,18,18,17,1,,,,,
,,,,,,,,,,space,,2041,2020-05-16_13h39.07.981,ANTCPTp,2020.1.2,Win32,60,,,,,,,,,,,,,,,,,,,,space,1,0.44,,,,,,E,,,,,,,,,,,,,0,19,19,4,1,,,,,
,,,,,,,,,,space,,2041,2020-05-16_13h39.07.981,ANTCPTp,2020.1.2,Win32,60,,,,,,,,,,,,,,,,,,,,space,1,0.4176,,,,,,J,,,,,,,,,,,,,0,20,20,9,1,,,,,
,,,,,,,,,,space,,2041,2020-05-16_13h39.07.981,ANTCPTp,2020.1.2,Win32,60,,,,,,,,,,,,,,,,,,,,space,1,0.4838,,,,,,H,,,,,,,,,,,,,0,21,21,7,1,,,,,
,,,,,,,,,,space,,2041,2020-05-16_13h39.07.981,ANTCPTp,2020.1.2,Win32,60,,,,,,,,,,,,,,,,,,,,space,1,0.4518,,,,,,S,,,,,,,,,,,,,0,22,22,18,1,,,,,
,,,,,,,,,,space,,2041,2020-05-16_13h39.07.981,ANTCPTp,2020.1.2,Win32,60,,,,,,,,,,,,,,,,,,,,space,1,0.4444,,,,,,P,,,,,,,,,,,,,0,23,23,15,1,,,,,
,,,,,,,,,,,,2041,2020-05-16_13h39.07.981,ANTCPTp,2020.1.2,Win32,60,,,,,,,,,,,,,,,,,,,,,1,,,,,,,X,,,,,,,,,,,,,0,24,24,25,1,,,,,
,,,,,,,,,,,,2041,2020-05-16_13h39.07.981,ANTCPTp,2020.1.2,Win32,60,,,,,,,,,,,,,,,,,,,,space,0,0.3598,,,,,,X,,,,,,,,,,,,,0,25,25,26,1,,,,,
,,,,,,,,,,space,,2041,2020-05-16_13h39.07.981,ANTCPTp,2020.1.2,Win32,60,,,,,,,,,,,,,,,,,,,,space,1,0.5361,,,,,,Z,,,,,,,,,,,,,0,26,26,23,1,,,,,
,,,,,,,,,,,,2041,2020-05-16_13h39.07.981,ANTCPTp,2020.1.2,Win32,60,,,,,,,,,,,,,,,,,,,,,,,,,,,,,2,6.0615,,,,,,,,,,,,,,,,1,0,1,0,1
,,,,,,,,,,space,,2041,2020-05-16_13h39.07.981,ANTCPTp,2020.1.2,Win32,60,,,,,,,,,,,,,,,,,,,,space,1,0.5018,0,0,0,1,1,B,,,,,,,,,,,,,,,,,,,,,,
,,,,,,,,,,space,,2041,2020-05-16_13h39.07.981,ANTCPTp,2020.1.2,Win32,60,,,,,,,,,,,,,,,,,,,,space,1,0.3135,0,1,1,7,1,N,,,,,,,,,,,,,,,,,,,,,,
,,,,,,,,,,space,,2041,2020-05-16_13h39.07.981,ANTCPTp,2020.1.2,Win32,60,,,,,,,,,,,,,,,,,,,,space,1,0.3342,0,2,2,12,1,V,,,,,,,,,,,,,,,,,,,,,,
,,,,,,,,,,space,,2041,2020-05-16_13h39.07.981,ANTCPTp,2020.1.2,Win32,60,,,,,,,,,,,,,,,,,,,,space,1,0.3711,0,3,3,10,1,Q,,,,,,,,,,,,,,,,,,,,,,
,,,,,,,,,,space,,2041,2020-05-16_13h39.07.981,ANTCPTp,2020.1.2,Win32,60,,,,,,,,,,,,,,,,,,,,space,1,0.3647,0,4,4,4,1,E,,,,,,,,,,,,,,,,,,,,,,
,,,,,,,,,,,,2041,2020-05-16_13h39.07.981,ANTCPTp,2020.1.2,Win32,60,,,,,,,,,,,,,,,,,,,,space,0,0.3547,0,5,5,16,1,X,,,,,,,,,,,,,,,,,,,,,,
,,,,,,,,,,space,,2041,2020-05-16_13h39.07.981,ANTCPTp,2020.1.2,Win32,60,,,,,,,,,,,,,,,,,,,,space,1,0.4262,0,6,6,0,1,A,,,,,,,,,,,,,,,,,,,,,,
,,,,,,,,,,space,,2041,2020-05-16_13h39.07.981,ANTCPTp,2020.1.2,Win32,60,,,,,,,,,,,,,,,,,,,,space,1,0.4232,0,7,7,6,1,J,,,,,,,,,,,,,,,,,,,,,,
,,,,,,,,,,space,,2041,2020-05-16_13h39.07.981,ANTCPTp,2020.1.2,Win32,60,,,,,,,,,,,,,,,,,,,,space,1,0.3858,0,8,8,9,1,P,,,,,,,,,,,,,,,,,,,,,,
,,,,,,,,,,space,,2041,2020-05-16_13h39.07.981,ANTCPTp,2020.1.2,Win32,60,,,,,,,,,,,,,,,,,,,,space,1,0.418,0,9,9,8,1,O,,,,,,,,,,,,,,,,,,,,,,
,,,,,,,,,,space,,2041,2020-05-16_13h39.07.981,ANTCPTp,2020.1.2,Win32,60,,,,,,,,,,,,,,,,,,,,space,1,0.4044,0,10,10,3,1,D,,,,,,,,,,,,,,,,,,,,,,
,,,,,,,,,,space,,2041,2020-05-16_13h39.07.981,ANTCPTp,2020.1.2,Win32,60,,,,,,,,,,,,,,,,,,,,space,1,0.3824,0,11,11,2,1,C,,,,,,,,,,,,,,,,,,,,,,
,,,,,,,,,,space,,2041,2020-05-16_13h39.07.981,ANTCPTp,2020.1.2,Win32,60,,,,,,,,,,,,,,,,,,,,space,1,0.3684,0,12,12,11,1,U,,,,,,,,,,,,,,,,,,,,,,
,,,,,,,,,,space,,2041,2020-05-16_13h39.07.981,ANTCPTp,2020.1.2,Win32,60,,,,,,,,,,,,,,,,,,,,space,1,0.3731,0,13,13,13,1,W,,,,,,,,,,,,,,,,,,,,,,
,,,,,,,,,,space,,2041,2020-05-16_13h39.07.981,ANTCPTp,2020.1.2,Win32,60,,,,,,,,,,,,,,,,,,,,space,1,0.3962,0,14,14,14,1,Y,,,,,,,,,,,,,,,,,,,,,,
,,,,,,,,,,space,,2041,2020-05-16_13h39.07.981,ANTCPTp,2020.1.2,Win32,60,,,,,,,,,,,,,,,,,,,,space,1,0.4525,0,15,15,5,1,F,,,,,,,,,,,,,,,,,,,,,,
,,,,,,,,,,,,2041,2020-05-16_13h39.07.981,ANTCPTp,2020.1.2,Win32,60,,,,,,,,,,,,,,,,,,,,,1,,0,16,16,15,1,X,,,,,,,,,,,,,,,,,,,,,,
,,,,,,,,,,space,,2041,2020-05-16_13h39.07.981,ANTCPTp,2020.1.2,Win32,60,,,,,,,,,,,,,,,,,,,,space,1,0.5016,,,,,,Z,2,5.8452,0,0,0,24,1,,,,,,,,,,,,,,,
,,,,,,,,,,,,2041,2020-05-16_13h39.07.981,ANTCPTp,2020.1.2,Win32,60,,,,,,,,,,,,,,,,,,,,space,0,0.4231,,,,,,X,,,0,1,1,27,1,,,,,,,,,,,,,,,
,,,,,,,,,,space,,2041,2020-05-16_13h39.07.981,ANTCPTp,2020.1.2,Win32,60,,,,,,,,,,,,,,,,,,,,space,1,0.4511,,,,,,T,,,0,2,2,19,1,,,,,,,,,,,,,,,
,,,,,,,,,,,,2041,2020-05-16_13h39.07.981,ANTCPTp,2020.1.2,Win32,60,,,,,,,,,,,,,,,,,,,,,1,,,,,,,X,,,0,3,3,28,1,,,,,,,,,,,,,,,
,,,,,,,,,,space,,2041,2020-05-16_13h39.07.981,ANTCPTp,2020.1.2,Win32,60,,,,,,,,,,,,,,,,,,,,space,1,0.3644,,,,,,L,,,0,4,4,11,1,,,,,,,,,,,,,,,
,,,,,,,,,,space,,2041,2020-05-16_13h39.07.981,ANTCPTp,2020.1.2,Win32,60,,,,,,,,,,,,,,,,,,,,space,1,0.4334,,,,,,N,,,0,5,5,13,1,,,,,,,,,,,,,,,
,,,,,,,,,,space,,2041,2020-05-16_13h39.07.981,ANTCPTp,2020.1.2,Win32,60,,,,,,,,,,,,,,,,,,,,space,1,0.435,,,,,,V,,,0,6,6,21,1,,,,,,,,,,,,,,,
,,,,,,,,,,space,,2041,2020-05-16_13h39.07.981,ANTCPTp,2020.1.2,Win32,60,,,,,,,,,,,,,,,,,,,,space,1,0.5213,,,,,,I,,,0,7,7,8,1,,,,,,,,,,,,,,,
,,,,,,,,,,,,2041,2020-05-16_13h39.07.981,ANTCPTp,2020.1.2,Win32,60,,,,,,,,,,,,,,,,,,,,,1,,,,,,,X,,,0,8,8,29,1,,,,,,,,,,,,,,,
,,,,,,,,,,space,,2041,2020-05-16_13h39.07.981,ANTCPTp,2020.1.2,Win32,60,,,,,,,,,,,,,,,,,,,,space,1,0.4535,,,,,,F,,,0,9,9,5,1,,,,,,,,,,,,,,,
,,,,,,,,,,space,,2041,2020-05-16_13h39.07.981,ANTCPTp,2020.1.2,Win32,60,,,,,,,,,,,,,,,,,,,,space,1,0.4244,,,,,,B,,,0,10,10,1,1,,,,,,,,,,,,,,,
,,,,,,,,,,space,,2041,2020-05-16_13h39.07.981,ANTCPTp,2020.1.2,Win32,60,,,,,,,,,,,,,,,,,,,,space,1,0.5177,,,,,,W,,,0,11,11,22,1,,,,,,,,,,,,,,,
,,,,,,,,,,space,,2041,2020-05-16_13h39.07.981,ANTCPTp,2020.1.2,Win32,60,,,,,,,,,,,,,,,,,,,,space,1,0.4839,,,,,,A,,,0,12,12,25,1,,,,,,,,,,,,,,,
,,,,,,,,,,space,,2041,2020-05-16_13h39.07.981,ANTCPTp,2020.1.2,Win32,60,,,,,,,,,,,,,,,,,,,,space,1,0.4496,,,,,,D,,,0,13,13,3,1,,,,,,,,,,,,,,,
,,,,,,,,,,,,2041,2020-05-16_13h39.07.981,ANTCPTp,2020.1.2,Win32,60,,,,,,,,,,,,,,,,,,,,,1,,,,,,,X,,,0,14,14,26,1,,,,,,,,,,,,,,,
,,,,,,,,,,space,,2041,2020-05-16_13h39.07.981,ANTCPTp,2020.1.2,Win32,60,,,,,,,,,,,,,,,,,,,,space,1,0.3832,,,,,,J,,,0,15,15,9,1,,,,,,,,,,,,,,,
,,,,,,,,,,space,,2041,2020-05-16_13h39.07.981,ANTCPTp,2020.1.2,Win32,60,,,,,,,,,,,,,,,,,,,,space,1,0.4212,,,,,,M,,,0,16,16,12,1,,,,,,,,,,,,,,,
,,,,,,,,,,space,,2041,2020-05-16_13h39.07.981,ANTCPTp,2020.1.2,Win32,60,,,,,,,,,,,,,,,,,,,,space,1,0.4195,,,,,,P,,,0,17,17,15,1,,,,,,,,,,,,,,,
,,,,,,,,,,space,,2041,2020-05-16_13h39.07.981,ANTCPTp,2020.1.2,Win32,60,,,,,,,,,,,,,,,,,,,,space,1,0.3996,,,,,,O,,,0,18,18,14,1,,,,,,,,,,,,,,,
,,,,,,,,,,space,,2041,2020-05-16_13h39.07.981,ANTCPTp,2020.1.2,Win32,60,,,,,,,,,,,,,,,,,,,,space,1,0.3835,,,,,,Q,,,0,19,19,16,1,,,,,,,,,,,,,,,
,,,,,,,,,,space,,2041,2020-05-16_13h39.07.981,ANTCPTp,2020.1.2,Win32,60,,,,,,,,,,,,,,,,,,,,space,1,0.4533,,,,,,H,,,0,20,20,7,1,,,,,,,,,,,,,,,
,,,,,,,,,,space,,2041,2020-05-16_13h39.07.981,ANTCPTp,2020.1.2,Win32,60,,,,,,,,,,,,,,,,,,,,space,1,0.3896,,,,,,C,,,0,21,21,2,1,,,,,,,,,,,,,,,
,,,,,,,,,,space,,2041,2020-05-16_13h39.07.981,ANTCPTp,2020.1.2,Win32,60,,,,,,,,,,,,,,,,,,,,space,1,0.4703,,,,,,U,,,0,22,22,20,1,,,,,,,,,,,,,,,
,,,,,,,,,,space,,2041,2020-05-16_13h39.07.981,ANTCPTp,2020.1.2,Win32,60,,,,,,,,,,,,,,,,,,,,space,1,0.4538,,,,,,K,,,0,23,23,10,1,,,,,,,,,,,,,,,
,,,,,,,,,,space,,2041,2020-05-16_13h39.07.981,ANTCPTp,2020.1.2,Win32,60,,,,,,,,,,,,,,,,,,,,space,1,0.4191,,,,,,Y,,,0,24,24,23,1,,,,,,,,,,,,,,,
,,,,,,,,,,space,,2041,2020-05-16_13h39.07.981,ANTCPTp,2020.1.2,Win32,60,,,,,,,,,,,,,,,,,,,,space,1,0.4233,,,,,,R,,,0,25,25,17,1,,,,,,,,,,,,,,,
,,,,,,,,,,space,,2041,2020-05-16_13h39.07.981,ANTCPTp,2020.1.2,Win32,60,,,,,,,,,,,,,,,,,,,,space,1,0.4193,,,,,,A,,,0,26,26,0,1,,,,,,,,,,,,,,,
,,,,,,,,,,space,,2041,2020-05-16_13h39.07.981,ANTCPTp,2020.1.2,Win32,60,,,,,,,,,,,,,,,,,,,,space,1,0.4365,,,,,,E,,,0,27,27,4,1,,,,,,,,,,,,,,,
,,,,,,,,,,space,,2041,2020-05-16_13h39.07.981,ANTCPTp,2020.1.2,Win32,60,,,,,,,,,,,,,,,,,,,,space,1,0.4002,,,,,,S,,,0,28,28,18,1,,,,,,,,,,,,,,,
,,,,,,,,,,space,,2041,2020-05-16_13h39.07.981,ANTCPTp,2020.1.2,Win32,60,,,,,,,,,,,,,,,,,,,,space,1,0.354,,,,,,G,,,0,29,29,6,1,,,,,,,,,,,,,,,
,,,,,,,,,,space,,2041,2020-05-16_13h39.07.981,ANTCPTp,2020.1.2,Win32,60,,,,,,,,,,,,,,,,,,,,space,1,0.5048,,,,,,M,2,8.8975,,,,,,0,0,0,8,1,,,,,,,,,,
,,,,,,,,,,space,,2041,2020-05-16_13h39.07.981,ANTCPTp,2020.1.2,Win32,60,,,,,,,,,,,,,,,,,,,,space,1,0.3556,,,,,,L,,,,,,,,0,1,1,7,1,,,,,,,,,,
,,,,,,,,,,space,,2041,2020-05-16_13h39.07.981,ANTCPTp,2020.1.2,Win32,60,,,,,,,,,,,,,,,,,,,,space,1,0.41,,,,,,T,,,,,,,,0,2,2,14,1,,,,,,,,,,
,,,,,,,,,,space,,2041,2020-05-16_13h39.07.981,ANTCPTp,2020.1.2,Win32,60,,,,,,,,,,,,,,,,,,,,space,1,0.518,,,,,,W,,,,,,,,0,3,3,16,1,,,,,,,,,,
,,,,,,,,,,space,,2041,2020-05-16_13h39.07.981,ANTCPTp,2020.1.2,Win32,60,,,,,,,,,,,,,,,,,,,,space,1,0.3657,,,,,,D,,,,,,,,0,4,4,1,1,,,,,,,,,,
,,,,,,,,,,space,,2041,2020-05-16_13h39.07.981,ANTCPTp,2020.1.2,Win32,60,,,,,,,,,,,,,,,,,,,,space,1,0.4344,,,,,,F,,,,,,,,0,5,5,3,1,,,,,,,,,,
,,,,,,,,,,space,,2041,2020-05-16_13h39.07.981,ANTCPTp,2020.1.2,Win32,60,,,,,,,,,,,,,,,,,,,,space,1,0.4158,,,,,,K,,,,,,,,0,6,6,6,1,,,,,,,,,,
,,,,,,,,,,space,,2041,2020-05-16_13h39.07.981,ANTCPTp,2020.1.2,Win32,60,,,,,,,,,,,,,,,,,,,,space,1,0.427,,,,,,R,,,,,,,,0,7,7,12,1,,,,,,,,,,
,,,,,,,,,,,,2041,2020-05-16_13h39.07.981,ANTCPTp,2020.1.2,Win32,60,,,,,,,,,,,,,,,,,,,,,1,,,,,,,X,,,,,,,,0,8,8,20,1,,,,,,,,,,
,,,,,,,,,,space,,2041,2020-05-16_13h39.07.981,ANTCPTp,2020.1.2,Win32,60,,,,,,,,,,,,,,,,,,,,space,1,0.4525,,,,,,O,,,,,,,,0,9,9,10,1,,,,,,,,,,
,,,,,,,,,,space,,2041,2020-05-16_13h39.07.981,ANTCPTp,2020.1.2,Win32,60,,,,,,,,,,,,,,,,,,,,space,1,0.4158,,,,,,Y,,,,,,,,0,10,10,17,1,,,,,,,,,,
,,,,,,,,,,space,,2041,2020-05-16_13h39.07.981,ANTCPTp,2020.1.2,Win32,60,,,,,,,,,,,,,,,,,,,,space,1,0.4059,,,,,,Q,,,,,,,,0,11,11,11,1,,,,,,,,,,
,,,,,,,,,,space,,2041,2020-05-16_13h39.07.981,ANTCPTp,2020.1.2,Win32,60,,,,,,,,,,,,,,,,,,,,space,1,0.4188,,,,,,E,,,,,,,,0,12,12,2,1,,,,,,,,,,
,,,,,,,,,,,,2041,2020-05-16_13h39.07.981,ANTCPTp,2020.1.2,Win32,60,,,,,,,,,,,,,,,,,,,,,1,,,,,,,X,,,,,,,,0,13,13,21,1,,,,,,,,,,
,,,,,,,,,,space,,2041,2020-05-16_13h39.07.981,ANTCPTp,2020.1.2,Win32,60,,,,,,,,,,,,,,,,,,,,space,1,0.4032,,,,,,U,,,,,,,,0,14,14,15,1,,,,,,,,,,
,,,,,,,,,,space,,2041,2020-05-16_13h39.07.981,ANTCPTp,2020.1.2,Win32,60,,,,,,,,,,,,,,,,,,,,space,1,0.3913,,,,,,H,,,,,,,,0,15,15,5,1,,,,,,,,,,
,,,,,,,,,,space,,2041,2020-05-16_13h39.07.981,ANTCPTp,2020.1.2,Win32,60,,,,,,,,,,,,,,,,,,,,space,1,0.7687,,,,,,Z,,,,,,,,0,16,16,18,1,,,,,,,,,,
,,,,,,,,,,space,,2041,2020-05-16_13h39.07.981,ANTCPTp,2020.1.2,Win32,60,,,,,,,,,,,,,,,,,,,,space,1,0.4104,,,,,,S,,,,,,,,0,17,17,13,1,,,,,,,,,,
,,,,,,,,,,space,,2041,2020-05-16_13h39.07.981,ANTCPTp,2020.1.2,Win32,60,,,,,,,,,,,,,,,,,,,,space,1,0.4246,,,,,,G,,,,,,,,0,18,18,4,1,,,,,,,,,,
,,,,,,,,,,space,,2041,2020-05-16_13h39.07.981,ANTCPTp,2020.1.2,Win32,60,,,,,,,,,,,,,,,,,,,,space,1,0.3712,,,,,,N,,,,,,,,0,19,19,9,1,,,,,,,,,,
,,,,,,,,,,space,,2041,2020-05-16_13h39.07.981,ANTCPTp,2020.1.2,Win32,60,,,,,,,,,,,,,,,,,,,,space,1,0.4038,,,,,,A,,,,,,,,0,20,20,19,1,,,,,,,,,,
,,,,,,,,,,space,,2041,2020-05-16_13h39.07.981,ANTCPTp,2020.1.2,Win32,60,,,,,,,,,,,,,,,,,,,,space,1,0.3902,,,,,,B,,,,,,,,0,21,21,0,1,,,,,,,,,,
,,,,,,,,,,space,,2041,2020-05-16_13h39.07.981,ANTCPTp,2020.1.2,Win32,60,,,,,,,,,,,,,,,,,,,,space,1,0.6189,,,,,,A,2,3.4083,,,,,,,,,,,0,0,0,0,1,,,,,
,,,,,,,,,,space,,2041,2020-05-16_13h39.07.981,ANTCPTp,2020.1.2,Win32,60,,,,,,,,,,,,,,,,,,,,space,1,0.438,,,,,,N,,,,,,,,,,,,,0,1,1,13,1,,,,,
,,,,,,,,,,space,,2041,2020-05-16_13h39.07.981,ANTCPTp,2020.1.2,Win32,60,,,,,,,,,,,,,,,,,,,,space,1,0.3984,,,,,,L,,,,,,,,,,,,,0,2,2,11,1,,,,,
,,,,,,,,,,space,,2041,2020-05-16_13h39.07.981,ANTCPTp,2020.1.2,Win32,60,,,,,,,,,,,,,,,,,,,,space,1,0.4342,,,,,,F,,,,,,,,,,,,,0,3,3,5,1,,,,,
,,,,,,,,,,space,,2041,2020-05-16_13h39.07.981,ANTCPTp,2020.1.2,Win32,60,,,,,,,,,,,,,,,,,,,,space,1,0.4188,,,,,,J,,,,,,,,,,,,,0,4,4,9,1,,,,,
,,,,,,,,,,space,,2041,2020-05-16_13h39.07.981,ANTCPTp,2020.1.2,Win32,60,,,,,,,,,,,,,,,,,,,,space,1,0.3266,,,,,,D,,,,,,,,,,,,,0,5,5,3,1,,,,,
,,,,,,,,,,space,,2041,2020-05-16_13h39.07.981,ANTCPTp,2020.1.2,Win32,60,,,,,,,,,,,,,,,,,,,,space,1,0.318,,,,,,E,,,,,,,,,,,,,0,6,6,4,1,,,,,
,,,,,,,,,,space,,2041,2020-05-16_13h39.07.981,ANTCPTp,2020.1.2,Win32,60,,,,,,,,,,,,,,,,,,,,space,1,0.3699,,,,,,M,,,,,,,,,,,,,0,7,7,12,1,,,,,
,,,,,,,,,,space,,2041,2020-05-16_13h39.07.981,ANTCPTp,2020.1.2,Win32,60,,,,,,,,,,,,,,,,,,,,space,1,0.3713,,,,,,R,,,,,,,,,,,,,0,8,8,17,1,,,,,
,,,,,,,,,,space,,2041,2020-05-16_13h39.07.981,ANTCPTp,2020.1.2,Win32,60,,,,,,,,,,,,,,,,,,,,space,1,0.3324,,,,,,B,,,,,,,,,,,,,0,9,9,1,1,,,,,
,,,,,,,,,,,,2041,2020-05-16_13h39.07.981,ANTCPTp,2020.1.2,Win32,60,,,,,,,,,,,,,,,,,,,,space,0,0.3485,,,,,,X,,,,,,,,,,,,,0,10,10,26,1,,,,,
,,,,,,,,,,space,,2041,2020-05-16_13h39.07.981,ANTCPTp,2020.1.2,Win32,60,,,,,,,,,,,,,,,,,,,,space,1,0.3638,,,,,,V,,,,,,,,,,,,,0,11,11,20,1,,,,,
,,,,,,,,,,,,2041,2020-05-16_13h39.07.981,ANTCPTp,2020.1.2,Win32,60,,,,,,,,,,,,,,,,,,,,space,0,0.367,,,,,,X,,,,,,,,,,,,,0,12,12,25,1,,,,,
,,,,,,,,,,space,,2041,2020-05-16_13h39.07.981,ANTCPTp,2020.1.2,Win32,60,,,,,,,,,,,,,,,,,,,,space,1,0.4472,,,,,,H,,,,,,,,,,,,,0,13,13,7,1,,,,,
,,,,,,,,,,space,,2041,2020-05-16_13h39.07.981,ANTCPTp,2020.1.2,Win32,60,,,,,,,,,,,,,,,,,,,,space,1,0.4563,,,,,,Y,,,,,,,,,,,,,0,14,14,22,1,,,,,
,,,,,,,,,,space,,2041,2020-05-16_13h39.07.981,ANTCPTp,2020.1.2,Win32,60,,,,,,,,,,,,,,,,,,,,space,1,0.3675,,,,,,G,,,,,,,,,,,,,0,15,15,6,1,,,,,
,,,,,,,,,,space,,2041,2020-05-16_13h39.07.981,ANTCPTp,2020.1.2,Win32,60,,,,,,,,,,,,,,,,,,,,space,1,0.3731,,,,,,O,,,,,,,,,,,,,0,16,16,14,1,,,,,
,,,,,,,,,,space,,2041,2020-05-16_13h39.07.981,ANTCPTp,2020.1.2,Win32,60,,,,,,,,,,,,,,,,,,,,space,1,0.3559,,,,,,Q,,,,,,,,,,,,,0,17,17,16,1,,,,,
,,,,,,,,,,space,,2041,2020-05-16_13h39.07.981,ANTCPTp,2020.1.2,Win32,60,,,,,,,,,,,,,,,,,,,,space,1,0.3964,,,,,,C,,,,,,,,,,,,,0,18,18,2,1,,,,,
,,,,,,,,,,space,,2041,2020-05-16_13h39.07.981,ANTCPTp,2020.1.2,Win32,60,,,,,,,,,,,,,,,,,,,,space,1,0.4413,,,,,,I,,,,,,,,,,,,,0,19,19,8,1,,,,,
,,,,,,,,,,space,,2041,2020-05-16_13h39.07.981,ANTCPTp,2020.1.2,Win32,60,,,,,,,,,,,,,,,,,,,,space,1,0.4166,,,,,,W,,,,,,,,,,,,,0,20,20,21,1,,,,,
,,,,,,,,,,space,,2041,2020-05-16_13h39.07.981,ANTCPTp,2020.1.2,Win32,60,,,,,,,,,,,,,,,,,,,,space,1,0.4274,,,,,,S,,,,,,,,,,,,,0,21,21,18,1,,,,,
,,,,,,,,,,space,,2041,2020-05-16_13h39.07.981,ANTCPTp,2020.1.2,Win32,60,,,,,,,,,,,,,,,,,,,,space,1,0.3733,,,,,,P,,,,,,,,,,,,,0,22,22,15,1,,,,,
,,,,,,,,,,space,,2041,2020-05-16_13h39.07.981,ANTCPTp,2020.1.2,Win32,60,,,,,,,,,,,,,,,,,,,,space,1,0.4531,,,,,,K,,,,,,,,,,,,,0,23,23,10,1,,,,,
,,,,,,,,,,,,2041,2020-05-16_13h39.07.981,ANTCPTp,2020.1.2,Win32,60,,,,,,,,,,,,,,,,,,,,,1,,,,,,,X,,,,,,,,,,,,,0,24,24,24,1,,,,,
,,,,,,,,,,space,,2041,2020-05-16_13h39.07.981,ANTCPTp,2020.1.2,Win32,60,,,,,,,,,,,,,,,,,,,,space,1,0.3733,,,,,,U,,,,,,,,,,,,,0,25,25,19,1,,,,,
,,,,,,,,,,space,,2041,2020-05-16_13h39.07.981,ANTCPTp,2020.1.2,Win32,60,,,,,,,,,,,,,,,,,,,,space,1,0.4873,,,,,,Z,,,,,,,,,,,,,0,26,26,23,1,,,,,
,,,,,,,,,,,,2041,2020-05-16_13h39.07.981,ANTCPTp,2020.1.2,Win32,60,,,,,,,,,,,,,,,,,,,,,,,,,,,,,2,3.1293,,,,,,,,,,,,,,,,2,0,2,0,1
