fixDuration,resp.keys,resp.corr,resp.rt,pracLoop.thisRepN,pracLoop.thisTrialN,pracLoop.thisN,pracLoop.thisIndex,pracLoop.ran,cue,tar,corrAns,targOrientation,Please enter your Participant ID,date,expName,psychopyVersion,OS,frameRate,instResp.keys,instResp.rt,mainLoop.thisRepN,mainLoop.thisTrialN,mainLoop.thisN,mainLoop.thisIndex,mainLoop.ran,blockLoop.thisRepN,blockLoop.thisTrialN,blockLoop.thisN,blockLoop.thisIndex,blockLoop.ran,key_resp.keys,key_resp.rt,probe_response3.keys,probe_response3.rt,getready_resp.keys,getready_resp.rt,response.keys,response.corr,response.rt,trials.thisRepN,trials.thisTrialN,trials.thisN,trials.thisIndex,trials.ran,letter,probe_response.keys,probe_response.rt,trials_2.thisRepN,trials_2.thisTrialN,trials_2.thisN,trials_2.thisIndex,trials_2.ran,trials_3.thisRepN,trials_3.thisTrialN,trials_3.thisN,trials_3.thisIndex,trials_3.ran,trials_4.thisRepN,trials_4.thisTrialN,trials_4.thisN,trials_4.thisIndex,trials_4.ran,trials_5.thisRepN,trials_5.thisTrialN,trials_5.thisN,trials_5.thisIndex,trials_5.ran
0.75,right,1,0.90906,0,0,0,9,1,stim/both.png,stim/congRight.png,right,0,2018,2020-05-14_11h56.10.074,ANTCPTp,2020.1.2,Win32,60,,,,,,,,,,,,,,,,,,,,,,,,,,,,,,,,,,,,,,,,,,,,,,,,,
0.6,left,1,0.72956,0,1,1,15,1,stim/blank.png,stim/congRight.png,left,180,2018,2020-05-14_11h56.10.074,ANTCPTp,2020.1.2,Win32,60,,,,,,,,,,,,,,,,,,,,,,,,,,,,,,,,,,,,,,,,,,,,,,,,,
1.05,,0,,0,2,2,20,1,stim/lower.png,stim/incongLeft.png,right,180,2018,2020-05-14_11h56.10.074,ANTCPTp,2020.1.2,Win32,60,,,,,,,,,,,,,,,,,,,,,,,,,,,,,,,,,,,,,,,,,,,,,,,,,
0.5,left,1,0.646325,0,3,3,14,1,stim/centre.png,stim/congRight.png,left,180,2018,2020-05-14_11h56.10.074,ANTCPTp,2020.1.2,Win32,60,,,,,,,,,,,,,,,,,,,,,,,,,,,,,,,,,,,,,,,,,,,,,,,,,
0.95,right,1,0.775635,0,4,4,5,1,stim/both.png,stim/congLeft.png,right,180,2018,2020-05-14_11h56.10.074,ANTCPTp,2020.1.2,Win32,60,,,,,,,,,,,,,,,,,,,,,,,,,,,,,,,,,,,,,,,,,,,,,,,,,
0.65,right,1,0.608895,0,5,5,4,1,stim/lower.png,stim/congLeft.png,right,180,2018,2020-05-14_11h56.10.074,ANTCPTp,2020.1.2,Win32,60,,,,,,,,,,,,,,,,,,,,,,,,,,,,,,,,,,,,,,,,,,,,,,,,,
1.05,left,1,0.775945,0,6,6,16,1,stim/upper.png,stim/incongLeft.png,left,0,2018,2020-05-14_11h56.10.074,ANTCPTp,2020.1.2,Win32,60,,,,,,,,,,,,,,,,,,,,,,,,,,,,,,,,,,,,,,,,,,,,,,,,,
0.6,right,1,0.699065,0,7,7,7,1,stim/blank.png,stim/congLeft.png,right,180,2018,2020-05-14_11h56.10.074,ANTCPTp,2020.1.2,Win32,60,,,,,,,,,,,,,,,,,,,,,,,,,,,,,,,,,,,,,,,,,,,,,,,,,
1.35,left,1,0.84124,0,8,8,19,1,stim/blank.png,stim/incongLeft.png,left,0,2018,2020-05-14_11h56.10.074,ANTCPTp,2020.1.2,Win32,60,,,,,,,,,,,,,,,,,,,,,,,,,,,,,,,,,,,,,,,,,,,,,,,,,
0.7,left,1,0.852995,0,9,9,18,1,stim/centre.png,stim/incongLeft.png,left,0,2018,2020-05-14_11h56.10.074,ANTCPTp,2020.1.2,Win32,60,,,,,,,,,,,,,,,,,,,,,,,,,,,,,,,,,,,,,,,,,,,,,,,,,
0.75,left,0,0.82205,0,10,10,23,1,stim/blank.png,stim/incongLeft.png,right,180,2018,2020-05-14_11h56.10.074,ANTCPTp,2020.1.2,Win32,60,,,,,,,,,,,,,,,,,,,,,,,,,,,,,,,,,,,,,,,,,,,,,,,,,
0.8,left,1,0.57461,0,11,11,1,1,stim/both.png,stim/congLeft.png,left,0,2018,2020-05-14_11h56.10.074,ANTCPTp,2020.1.2,Win32,60,,,,,,,,,,,,,,,,,,,,,,,,,,,,,,,,,,,,,,,,,,,,,,,,,
0.8,right,1,0.5445,0,12,12,8,1,stim/upper.png,stim/congRight.png,right,0,2018,2020-05-14_11h56.10.074,ANTCPTp,2020.1.2,Win32,60,,,,,,,,,,,,,,,,,,,,,,,,,,,,,,,,,,,,,,,,,,,,,,,,,
1.1,right,1,0.745145,0,13,13,11,1,stim/blank.png,stim/congRight.png,right,0,2018,2020-05-14_11h56.10.074,ANTCPTp,2020.1.2,Win32,60,,,,,,,,,,,,,,,,,,,,,,,,,,,,,,,,,,,,,,,,,,,,,,,,,
1.5,left,1,0.518695,0,14,14,12,1,stim/lower.png,stim/congRight.png,left,180,2018,2020-05-14_11h56.10.074,ANTCPTp,2020.1.2,Win32,60,,,,,,,,,,,,,,,,,,,,,,,,,,,,,,,,,,,,,,,,,,,,,,,,,
0.95,left,1,0.679405,0,15,15,2,1,stim/centre.png,stim/congLeft.png,left,0,2018,2020-05-14_11h56.10.074,ANTCPTp,2020.1.2,Win32,60,,,,,,,,,,,,,,,,,,,,,,,,,,,,,,,,,,,,,,,,,,,,,,,,,
0.55,left,1,0.503285,0,16,16,0,1,stim/upper.png,stim/congLeft.png,left,0,2018,2020-05-14_11h56.10.074,ANTCPTp,2020.1.2,Win32,60,,,,,,,,,,,,,,,,,,,,,,,,,,,,,,,,,,,,,,,,,,,,,,,,,
0.95,left,0,0.98229,0,17,17,21,1,stim/both.png,stim/incongLeft.png,right,180,2018,2020-05-14_11h56.10.074,ANTCPTp,2020.1.2,Win32,60,,,,,,,,,,,,,,,,,,,,,,,,,,,,,,,,,,,,,,,,,,,,,,,,,
0.85,right,1,0.78234,0,18,18,10,1,stim/centre.png,stim/congRight.png,right,0,2018,2020-05-14_11h56.10.074,ANTCPTp,2020.1.2,Win32,60,,,,,,,,,,,,,,,,,,,,,,,,,,,,,,,,,,,,,,,,,,,,,,,,,
1,left,1,0.624565,0,19,19,3,1,stim/blank.png,stim/congLeft.png,left,0,2018,2020-05-14_11h56.10.074,ANTCPTp,2020.1.2,Win32,60,,,,,,,,,,,,,,,,,,,,,,,,,,,,,,,,,,,,,,,,,,,,,,,,,
0.45,,0,,0,20,20,22,1,stim/centre.png,stim/incongLeft.png,right,180,2018,2020-05-14_11h56.10.074,ANTCPTp,2020.1.2,Win32,60,,,,,,,,,,,,,,,,,,,,,,,,,,,,,,,,,,,,,,,,,,,,,,,,,
1.5,,0,,0,21,21,17,1,stim/both.png,stim/incongLeft.png,left,0,2018,2020-05-14_11h56.10.074,ANTCPTp,2020.1.2,Win32,60,,,,,,,,,,,,,,,,,,,,,,,,,,,,,,,,,,,,,,,,,,,,,,,,,
0.9,right,1,0.62485,0,22,22,6,1,stim/centre.png,stim/congLeft.png,right,180,2018,2020-05-14_11h56.10.074,ANTCPTp,2020.1.2,Win32,60,,,,,,,,,,,,,,,,,,,,,,,,,,,,,,,,,,,,,,,,,,,,,,,,,
1.05,left,1,0.63115,0,23,23,13,1,stim/both.png,stim/congRight.png,left,180,2018,2020-05-14_11h56.10.074,ANTCPTp,2020.1.2,Win32,60,,,,,,,,,,,,,,,,,,,,,,,,,,,,,,,,,,,,,,,,,,,,,,,,,
0.5,right,0,1.62524,,,,,,stim/upper.png,stim/incongLeft.png,left,0,2018,2020-05-14_11h56.10.074,ANTCPTp,2020.1.2,Win32,60,space,8.11929,0,0,0,16,1,,,,,,,,,,,,,,,,,,,,,,,,,,,,,,,,,,,,,,,,,,
0.6,left,1,1.31346,,,,,,stim/upper.png,stim/neutralLeft.png,left,0,2018,2020-05-14_11h56.10.074,ANTCPTp,2020.1.2,Win32,60,,,0,1,1,32,1,,,,,,,,,,,,,,,,,,,,,,,,,,,,,,,,,,,,,,,,,,
1.2,right,1,0.53489,,,,,,stim/both.png,stim/congRight.png,right,0,2018,2020-05-14_11h56.10.074,ANTCPTp,2020.1.2,Win32,60,,,0,2,2,9,1,,,,,,,,,,,,,,,,,,,,,,,,,,,,,,,,,,,,,,,,,,
0.75,left,1,1.07751,,,,,,stim/both.png,stim/neutralRight.png,left,180,2018,2020-05-14_11h56.10.074,ANTCPTp,2020.1.2,Win32,60,,,0,3,3,45,1,,,,,,,,,,,,,,,,,,,,,,,,,,,,,,,,,,,,,,,,,,
0.6,right,1,0.86889,,,,,,stim/blank.png,stim/congLeft.png,right,180,2018,2020-05-14_11h56.10.074,ANTCPTp,2020.1.2,Win32,60,,,0,4,4,7,1,,,,,,,,,,,,,,,,,,,,,,,,,,,,,,,,,,,,,,,,,,
1.5,left,1,0.55966,,,,,,stim/both.png,stim/neutralLeft.png,left,0,2018,2020-05-14_11h56.10.074,ANTCPTp,2020.1.2,Win32,60,,,0,5,5,33,1,,,,,,,,,,,,,,,,,,,,,,,,,,,,,,,,,,,,,,,,,,
0.7,right,1,0.847385,,,,,,stim/lower.png,stim/neutralLeft.png,right,180,2018,2020-05-14_11h56.10.074,ANTCPTp,2020.1.2,Win32,60,,,0,6,6,36,1,,,,,,,,,,,,,,,,,,,,,,,,,,,,,,,,,,,,,,,,,,
0.4,left,1,1.23357,,,,,,stim/centre.png,stim/incongRight.png,left,180,2018,2020-05-14_11h56.10.074,ANTCPTp,2020.1.2,Win32,60,,,0,7,7,30,1,,,,,,,,,,,,,,,,,,,,,,,,,,,,,,,,,,,,,,,,,,
0.6,left,1,0.664705,,,,,,stim/blank.png,stim/neutralLeft.png,left,0,2018,2020-05-14_11h56.10.074,ANTCPTp,2020.1.2,Win32,60,,,0,8,8,35,1,,,,,,,,,,,,,,,,,,,,,,,,,,,,,,,,,,,,,,,,,,
0.55,left,1,0.522835,,,,,,stim/both.png,stim/congLeft.png,left,0,2018,2020-05-14_11h56.10.074,ANTCPTp,2020.1.2,Win32,60,,,0,9,9,1,1,,,,,,,,,,,,,,,,,,,,,,,,,,,,,,,,,,,,,,,,,,
1.3,right,1,0.931735,,,,,,stim/centre.png,stim/incongLeft.png,right,180,2018,2020-05-14_11h56.10.074,ANTCPTp,2020.1.2,Win32,60,,,0,10,10,22,1,,,,,,,,,,,,,,,,,,,,,,,,,,,,,,,,,,,,,,,,,,
1.25,right,1,0.81486,,,,,,stim/lower.png,stim/incongLeft.png,right,180,2018,2020-05-14_11h56.10.074,ANTCPTp,2020.1.2,Win32,60,,,0,11,11,20,1,,,,,,,,,,,,,,,,,,,,,,,,,,,,,,,,,,,,,,,,,,
1.25,left,1,0.662395,,,,,,stim/centre.png,stim/neutralLeft.png,left,0,2018,2020-05-14_11h56.10.074,ANTCPTp,2020.1.2,Win32,60,,,0,12,12,34,1,,,,,,,,,,,,,,,,,,,,,,,,,,,,,,,,,,,,,,,,,,
0.4,left,1,0.598635,,,,,,stim/blank.png,stim/congLeft.png,left,0,2018,2020-05-14_11h56.10.074,ANTCPTp,2020.1.2,Win32,60,,,0,13,13,3,1,,,,,,,,,,,,,,,,,,,,,,,,,,,,,,,,,,,,,,,,,,
1.4,right,1,0.856825,,,,,,stim/blank.png,stim/incongRight.png,right,0,2018,2020-05-14_11h56.10.074,ANTCPTp,2020.1.2,Win32,60,,,0,14,14,27,1,,,,,,,,,,,,,,,,,,,,,,,,,,,,,,,,,,,,,,,,,,
0.6,right,1,0.880605,,,,,,stim/both.png,stim/incongLeft.png,right,180,2018,2020-05-14_11h56.10.074,ANTCPTp,2020.1.2,Win32,60,,,0,15,15,21,1,,,,,,,,,,,,,,,,,,,,,,,,,,,,,,,,,,,,,,,,,,
0.4,left,1,0.951835,,,,,,stim/lower.png,stim/incongRight.png,left,180,2018,2020-05-14_11h56.10.074,ANTCPTp,2020.1.2,Win32,60,,,0,16,16,28,1,,,,,,,,,,,,,,,,,,,,,,,,,,,,,,,,,,,,,,,,,,
0.5,right,1,0.63967,,,,,,stim/lower.png,stim/congLeft.png,right,180,2018,2020-05-14_11h56.10.074,ANTCPTp,2020.1.2,Win32,60,,,0,17,17,4,1,,,,,,,,,,,,,,,,,,,,,,,,,,,,,,,,,,,,,,,,,,
1.35,left,1,0.78677,,,,,,stim/both.png,stim/incongRight.png,left,180,2018,2020-05-14_11h56.10.074,ANTCPTp,2020.1.2,Win32,60,,,0,18,18,29,1,,,,,,,,,,,,,,,,,,,,,,,,,,,,,,,,,,,,,,,,,,
1.35,right,1,0.550455,,,,,,stim/both.png,stim/neutralRight.png,right,0,2018,2020-05-14_11h56.10.074,ANTCPTp,2020.1.2,Win32,60,,,0,19,19,41,1,,,,,,,,,,,,,,,,,,,,,,,,,,,,,,,,,,,,,,,,,,
1.2,right,1,0.93005,,,,,,stim/blank.png,stim/incongLeft.png,right,180,2018,2020-05-14_11h56.10.074,ANTCPTp,2020.1.2,Win32,60,,,0,20,20,23,1,,,,,,,,,,,,,,,,,,,,,,,,,,,,,,,,,,,,,,,,,,
0.45,right,1,0.613445,,,,,,stim/upper.png,stim/neutralRight.png,right,0,2018,2020-05-14_11h56.10.074,ANTCPTp,2020.1.2,Win32,60,,,0,21,21,40,1,,,,,,,,,,,,,,,,,,,,,,,,,,,,,,,,,,,,,,,,,,
0.9,left,1,0.5788,,,,,,stim/upper.png,stim/congLeft.png,left,0,2018,2020-05-14_11h56.10.074,ANTCPTp,2020.1.2,Win32,60,,,0,22,22,0,1,,,,,,,,,,,,,,,,,,,,,,,,,,,,,,,,,,,,,,,,,,
1.05,right,1,0.612365,,,,,,stim/centre.png,stim/incongRight.png,right,0,2018,2020-05-14_11h56.10.074,ANTCPTp,2020.1.2,Win32,60,,,0,23,23,26,1,,,,,,,,,,,,,,,,,,,,,,,,,,,,,,,,,,,,,,,,,,
0.7,left,1,0.754615,,,,,,stim/lower.png,stim/neutralRight.png,left,180,2018,2020-05-14_11h56.10.074,ANTCPTp,2020.1.2,Win32,60,,,0,24,24,44,1,,,,,,,,,,,,,,,,,,,,,,,,,,,,,,,,,,,,,,,,,,
0.55,right,1,0.69629,,,,,,stim/centre.png,stim/congLeft.png,right,180,2018,2020-05-14_11h56.10.074,ANTCPTp,2020.1.2,Win32,60,,,0,25,25,6,1,,,,,,,,,,,,,,,,,,,,,,,,,,,,,,,,,,,,,,,,,,
0.7,left,1,0.723065,,,,,,stim/lower.png,stim/congRight.png,left,180,2018,2020-05-14_11h56.10.074,ANTCPTp,2020.1.2,Win32,60,,,0,26,26,12,1,,,,,,,,,,,,,,,,,,,,,,,,,,,,,,,,,,,,,,,,,,
1,right,1,0.52096,,,,,,stim/centre.png,stim/neutralRight.png,right,0,2018,2020-05-14_11h56.10.074,ANTCPTp,2020.1.2,Win32,60,,,0,27,27,42,1,,,,,,,,,,,,,,,,,,,,,,,,,,,,,,,,,,,,,,,,,,
1.2,right,1,0.67753,,,,,,stim/both.png,stim/neutralLeft.png,right,180,2018,2020-05-14_11h56.10.074,ANTCPTp,2020.1.2,Win32,60,,,0,28,28,37,1,,,,,,,,,,,,,,,,,,,,,,,,,,,,,,,,,,,,,,,,,,
0.55,left,1,0.678265,,,,,,stim/blank.png,stim/congRight.png,left,180,2018,2020-05-14_11h56.10.074,ANTCPTp,2020.1.2,Win32,60,,,0,29,29,15,1,,,,,,,,,,,,,,,,,,,,,,,,,,,,,,,,,,,,,,,,,,
0.65,left,1,0.6283,,,,,,stim/centre.png,stim/congLeft.png,left,0,2018,2020-05-14_11h56.10.074,ANTCPTp,2020.1.2,Win32,60,,,0,30,30,2,1,,,,,,,,,,,,,,,,,,,,,,,,,,,,,,,,,,,,,,,,,,
0.6,left,1,0.701785,,,,,,stim/blank.png,stim/incongRight.png,left,180,2018,2020-05-14_11h56.10.074,ANTCPTp,2020.1.2,Win32,60,,,0,31,31,31,1,,,,,,,,,,,,,,,,,,,,,,,,,,,,,,,,,,,,,,,,,,
0.95,left,1,0.71803,,,,,,stim/both.png,stim/incongLeft.png,left,0,2018,2020-05-14_11h56.10.074,ANTCPTp,2020.1.2,Win32,60,,,0,32,32,17,1,,,,,,,,,,,,,,,,,,,,,,,,,,,,,,,,,,,,,,,,,,
0.9,left,1,0.58275,,,,,,stim/both.png,stim/congRight.png,left,180,2018,2020-05-14_11h56.10.074,ANTCPTp,2020.1.2,Win32,60,,,0,33,33,13,1,,,,,,,,,,,,,,,,,,,,,,,,,,,,,,,,,,,,,,,,,,
0.7,left,1,0.557005,,,,,,stim/centre.png,stim/neutralRight.png,left,180,2018,2020-05-14_11h56.10.074,ANTCPTp,2020.1.2,Win32,60,,,0,34,34,46,1,,,,,,,,,,,,,,,,,,,,,,,,,,,,,,,,,,,,,,,,,,
0.95,right,1,0.707415,,,,,,stim/upper.png,stim/incongRight.png,right,0,2018,2020-05-14_11h56.10.074,ANTCPTp,2020.1.2,Win32,60,,,0,35,35,24,1,,,,,,,,,,,,,,,,,,,,,,,,,,,,,,,,,,,,,,,,,,
1.4,left,1,0.768905,,,,,,stim/centre.png,stim/incongLeft.png,left,0,2018,2020-05-14_11h56.10.074,ANTCPTp,2020.1.2,Win32,60,,,0,36,36,18,1,,,,,,,,,,,,,,,,,,,,,,,,,,,,,,,,,,,,,,,,,,
1.2,right,1,0.683835,,,,,,stim/blank.png,stim/neutralLeft.png,right,180,2018,2020-05-14_11h56.10.074,ANTCPTp,2020.1.2,Win32,60,,,0,37,37,39,1,,,,,,,,,,,,,,,,,,,,,,,,,,,,,,,,,,,,,,,,,,
0.75,right,1,0.548225,,,,,,stim/blank.png,stim/congRight.png,right,0,2018,2020-05-14_11h56.10.074,ANTCPTp,2020.1.2,Win32,60,,,0,38,38,11,1,,,,,,,,,,,,,,,,,,,,,,,,,,,,,,,,,,,,,,,,,,
1.05,right,1,0.534845,,,,,,stim/centre.png,stim/congRight.png,right,0,2018,2020-05-14_11h56.10.074,ANTCPTp,2020.1.2,Win32,60,,,0,39,39,10,1,,,,,,,,,,,,,,,,,,,,,,,,,,,,,,,,,,,,,,,,,,
1.15,right,1,0.781235,,,,,,stim/both.png,stim/incongRight.png,right,0,2018,2020-05-14_11h56.10.074,ANTCPTp,2020.1.2,Win32,60,,,0,40,40,25,1,,,,,,,,,,,,,,,,,,,,,,,,,,,,,,,,,,,,,,,,,,
0.75,left,1,0.579115,,,,,,stim/blank.png,stim/incongLeft.png,left,0,2018,2020-05-14_11h56.10.074,ANTCPTp,2020.1.2,Win32,60,,,0,41,41,19,1,,,,,,,,,,,,,,,,,,,,,,,,,,,,,,,,,,,,,,,,,,
1.05,right,1,0.675795,,,,,,stim/centre.png,stim/neutralLeft.png,right,180,2018,2020-05-14_11h56.10.074,ANTCPTp,2020.1.2,Win32,60,,,0,42,42,38,1,,,,,,,,,,,,,,,,,,,,,,,,,,,,,,,,,,,,,,,,,,
1.5,left,1,0.58284,,,,,,stim/blank.png,stim/neutralRight.png,left,180,2018,2020-05-14_11h56.10.074,ANTCPTp,2020.1.2,Win32,60,,,0,43,43,47,1,,,,,,,,,,,,,,,,,,,,,,,,,,,,,,,,,,,,,,,,,,
0.8,right,1,0.59329,,,,,,stim/blank.png,stim/neutralRight.png,right,0,2018,2020-05-14_11h56.10.074,ANTCPTp,2020.1.2,Win32,60,,,0,44,44,43,1,,,,,,,,,,,,,,,,,,,,,,,,,,,,,,,,,,,,,,,,,,
0.95,left,1,0.621395,,,,,,stim/centre.png,stim/congRight.png,left,180,2018,2020-05-14_11h56.10.074,ANTCPTp,2020.1.2,Win32,60,,,0,45,45,14,1,,,,,,,,,,,,,,,,,,,,,,,,,,,,,,,,,,,,,,,,,,
1.1,right,1,0.594795,,,,,,stim/both.png,stim/congLeft.png,right,180,2018,2020-05-14_11h56.10.074,ANTCPTp,2020.1.2,Win32,60,,,0,46,46,5,1,,,,,,,,,,,,,,,,,,,,,,,,,,,,,,,,,,,,,,,,,,
0.45,right,1,0.499445,,,,,,stim/upper.png,stim/congRight.png,right,0,2018,2020-05-14_11h56.10.074,ANTCPTp,2020.1.2,Win32,60,,,0,47,47,8,1,,,,,,,,,,,,,,,,,,,,,,,,,,,,,,,,,,,,,,,,,,
0.4,left,1,0.625395,,,,,,stim/both.png,stim/neutralLeft.png,left,0,2018,2020-05-14_11h56.10.074,ANTCPTp,2020.1.2,Win32,60,,,1,0,48,33,1,,,,,,,,,,,,,,,,,,,,,,,,,,,,,,,,,,,,,,,,,,
0.85,left,1,0.584495,,,,,,stim/upper.png,stim/incongLeft.png,left,0,2018,2020-05-14_11h56.10.074,ANTCPTp,2020.1.2,Win32,60,,,1,1,49,16,1,,,,,,,,,,,,,,,,,,,,,,,,,,,,,,,,,,,,,,,,,,
1.55,right,1,0.63663,,,,,,stim/centre.png,stim/congRight.png,right,0,2018,2020-05-14_11h56.10.074,ANTCPTp,2020.1.2,Win32,60,,,1,2,50,10,1,,,,,,,,,,,,,,,,,,,,,,,,,,,,,,,,,,,,,,,,,,
1.5,right,0,0.51338,,,,,,stim/blank.png,stim/incongRight.png,left,180,2018,2020-05-14_11h56.10.074,ANTCPTp,2020.1.2,Win32,60,,,1,3,51,31,1,,,,,,,,,,,,,,,,,,,,,,,,,,,,,,,,,,,,,,,,,,
0.4,right,1,0.8314,,,,,,stim/both.png,stim/incongLeft.png,right,180,2018,2020-05-14_11h56.10.074,ANTCPTp,2020.1.2,Win32,60,,,1,4,52,21,1,,,,,,,,,,,,,,,,,,,,,,,,,,,,,,,,,,,,,,,,,,
1.45,right,1,0.68574,,,,,,stim/lower.png,stim/congLeft.png,right,180,2018,2020-05-14_11h56.10.074,ANTCPTp,2020.1.2,Win32,60,,,1,5,53,4,1,,,,,,,,,,,,,,,,,,,,,,,,,,,,,,,,,,,,,,,,,,
0.4,left,1,0.668895,,,,,,stim/blank.png,stim/neutralRight.png,left,180,2018,2020-05-14_11h56.10.074,ANTCPTp,2020.1.2,Win32,60,,,1,6,54,47,1,,,,,,,,,,,,,,,,,,,,,,,,,,,,,,,,,,,,,,,,,,
0.95,right,1,0.76584,,,,,,stim/both.png,stim/incongRight.png,right,0,2018,2020-05-14_11h56.10.074,ANTCPTp,2020.1.2,Win32,60,,,1,7,55,25,1,,,,,,,,,,,,,,,,,,,,,,,,,,,,,,,,,,,,,,,,,,
1.35,right,1,0.67503,,,,,,stim/blank.png,stim/congLeft.png,right,180,2018,2020-05-14_11h56.10.074,ANTCPTp,2020.1.2,Win32,60,,,1,8,56,7,1,,,,,,,,,,,,,,,,,,,,,,,,,,,,,,,,,,,,,,,,,,
0.7,right,1,0.7499,,,,,,stim/blank.png,stim/incongRight.png,right,0,2018,2020-05-14_11h56.10.074,ANTCPTp,2020.1.2,Win32,60,,,1,9,57,27,1,,,,,,,,,,,,,,,,,,,,,,,,,,,,,,,,,,,,,,,,,,
1.5,right,1,0.701345,,,,,,stim/centre.png,stim/incongRight.png,right,0,2018,2020-05-14_11h56.10.074,ANTCPTp,2020.1.2,Win32,60,,,1,10,58,26,1,,,,,,,,,,,,,,,,,,,,,,,,,,,,,,,,,,,,,,,,,,
1.45,right,1,0.544905,,,,,,stim/both.png,stim/neutralRight.png,right,0,2018,2020-05-14_11h56.10.074,ANTCPTp,2020.1.2,Win32,60,,,1,11,59,41,1,,,,,,,,,,,,,,,,,,,,,,,,,,,,,,,,,,,,,,,,,,
1.55,left,1,0.81523,,,,,,stim/centre.png,stim/incongLeft.png,left,0,2018,2020-05-14_11h56.10.074,ANTCPTp,2020.1.2,Win32,60,,,1,12,60,18,1,,,,,,,,,,,,,,,,,,,,,,,,,,,,,,,,,,,,,,,,,,
1.3,left,1,0.749475,,,,,,stim/both.png,stim/incongRight.png,left,180,2018,2020-05-14_11h56.10.074,ANTCPTp,2020.1.2,Win32,60,,,1,13,61,29,1,,,,,,,,,,,,,,,,,,,,,,,,,,,,,,,,,,,,,,,,,,
1.35,right,1,0.7062,,,,,,stim/centre.png,stim/neutralLeft.png,right,180,2018,2020-05-14_11h56.10.074,ANTCPTp,2020.1.2,Win32,60,,,1,14,62,38,1,,,,,,,,,,,,,,,,,,,,,,,,,,,,,,,,,,,,,,,,,,
1.25,right,1,0.566385,,,,,,stim/both.png,stim/congRight.png,right,0,2018,2020-05-14_11h56.10.074,ANTCPTp,2020.1.2,Win32,60,,,1,15,63,9,1,,,,,,,,,,,,,,,,,,,,,,,,,,,,,,,,,,,,,,,,,,
0.85,left,1,0.590865,,,,,,stim/upper.png,stim/neutralLeft.png,left,0,2018,2020-05-14_11h56.10.074,ANTCPTp,2020.1.2,Win32,60,,,1,16,64,32,1,,,,,,,,,,,,,,,,,,,,,,,,,,,,,,,,,,,,,,,,,,
1.5,right,1,0.645495,,,,,,stim/blank.png,stim/congRight.png,right,0,2018,2020-05-14_11h56.10.074,ANTCPTp,2020.1.2,Win32,60,,,1,17,65,11,1,,,,,,,,,,,,,,,,,,,,,,,,,,,,,,,,,,,,,,,,,,
1.25,right,1,0.668055,,,,,,stim/upper.png,stim/incongRight.png,right,0,2018,2020-05-14_11h56.10.074,ANTCPTp,2020.1.2,Win32,60,,,1,18,66,24,1,,,,,,,,,,,,,,,,,,,,,,,,,,,,,,,,,,,,,,,,,,
1.15,right,1,0.67655,,,,,,stim/lower.png,stim/neutralLeft.png,right,180,2018,2020-05-14_11h56.10.074,ANTCPTp,2020.1.2,Win32,60,,,1,19,67,36,1,,,,,,,,,,,,,,,,,,,,,,,,,,,,,,,,,,,,,,,,,,
0.75,right,1,0.66169,,,,,,stim/blank.png,stim/incongLeft.png,right,180,2018,2020-05-14_11h56.10.074,ANTCPTp,2020.1.2,Win32,60,,,1,20,68,23,1,,,,,,,,,,,,,,,,,,,,,,,,,,,,,,,,,,,,,,,,,,
1.35,left,1,0.551645,,,,,,stim/upper.png,stim/congLeft.png,left,0,2018,2020-05-14_11h56.10.074,ANTCPTp,2020.1.2,Win32,60,,,1,21,69,0,1,,,,,,,,,,,,,,,,,,,,,,,,,,,,,,,,,,,,,,,,,,
0.55,right,1,0.62974,,,,,,stim/both.png,stim/congLeft.png,right,180,2018,2020-05-14_11h56.10.074,ANTCPTp,2020.1.2,Win32,60,,,1,22,70,5,1,,,,,,,,,,,,,,,,,,,,,,,,,,,,,,,,,,,,,,,,,,
0.7,right,1,0.658895,,,,,,stim/centre.png,stim/incongLeft.png,right,180,2018,2020-05-14_11h56.10.074,ANTCPTp,2020.1.2,Win32,60,,,1,23,71,22,1,,,,,,,,,,,,,,,,,,,,,,,,,,,,,,,,,,,,,,,,,,
0.45,left,1,0.752415,,,,,,stim/blank.png,stim/incongLeft.png,left,0,2018,2020-05-14_11h56.10.074,ANTCPTp,2020.1.2,Win32,60,,,1,24,72,19,1,,,,,,,,,,,,,,,,,,,,,,,,,,,,,,,,,,,,,,,,,,
0.55,right,1,0.590425,,,,,,stim/centre.png,stim/neutralRight.png,right,0,2018,2020-05-14_11h56.10.074,ANTCPTp,2020.1.2,Win32,60,,,1,25,73,42,1,,,,,,,,,,,,,,,,,,,,,,,,,,,,,,,,,,,,,,,,,,
1.45,right,1,0.55924,,,,,,stim/blank.png,stim/neutralRight.png,right,0,2018,2020-05-14_11h56.10.074,ANTCPTp,2020.1.2,Win32,60,,,1,26,74,43,1,,,,,,,,,,,,,,,,,,,,,,,,,,,,,,,,,,,,,,,,,,
0.5,right,1,0.750945,,,,,,stim/centre.png,stim/congLeft.png,right,180,2018,2020-05-14_11h56.10.074,ANTCPTp,2020.1.2,Win32,60,,,1,27,75,6,1,,,,,,,,,,,,,,,,,,,,,,,,,,,,,,,,,,,,,,,,,,
1.3,left,1,0.702325,,,,,,stim/both.png,stim/incongLeft.png,left,0,2018,2020-05-14_11h56.10.074,ANTCPTp,2020.1.2,Win32,60,,,1,28,76,17,1,,,,,,,,,,,,,,,,,,,,,,,,,,,,,,,,,,,,,,,,,,
0.85,left,1,0.618275,,,,,,stim/both.png,stim/congLeft.png,left,0,2018,2020-05-14_11h56.10.074,ANTCPTp,2020.1.2,Win32,60,,,1,29,77,1,1,,,,,,,,,,,,,,,,,,,,,,,,,,,,,,,,,,,,,,,,,,
0.55,left,1,0.669955,,,,,,stim/centre.png,stim/congRight.png,left,180,2018,2020-05-14_11h56.10.074,ANTCPTp,2020.1.2,Win32,60,,,1,30,78,14,1,,,,,,,,,,,,,,,,,,,,,,,,,,,,,,,,,,,,,,,,,,
0.75,right,1,0.5508,,,,,,stim/upper.png,stim/neutralRight.png,right,0,2018,2020-05-14_11h56.10.074,ANTCPTp,2020.1.2,Win32,60,,,1,31,79,40,1,,,,,,,,,,,,,,,,,,,,,,,,,,,,,,,,,,,,,,,,,,
1.3,left,1,0.7189,,,,,,stim/centre.png,stim/neutralRight.png,left,180,2018,2020-05-14_11h56.10.074,ANTCPTp,2020.1.2,Win32,60,,,1,32,80,46,1,,,,,,,,,,,,,,,,,,,,,,,,,,,,,,,,,,,,,,,,,,
0.55,left,1,0.65434,,,,,,stim/centre.png,stim/neutralLeft.png,left,0,2018,2020-05-14_11h56.10.074,ANTCPTp,2020.1.2,Win32,60,,,1,33,81,34,1,,,,,,,,,,,,,,,,,,,,,,,,,,,,,,,,,,,,,,,,,,
0.5,left,1,0.586985,,,,,,stim/blank.png,stim/congLeft.png,left,0,2018,2020-05-14_11h56.10.074,ANTCPTp,2020.1.2,Win32,60,,,1,34,82,3,1,,,,,,,,,,,,,,,,,,,,,,,,,,,,,,,,,,,,,,,,,,
1.35,left,1,0.806585,,,,,,stim/centre.png,stim/incongRight.png,left,180,2018,2020-05-14_11h56.10.074,ANTCPTp,2020.1.2,Win32,60,,,1,35,83,30,1,,,,,,,,,,,,,,,,,,,,,,,,,,,,,,,,,,,,,,,,,,
1.2,right,1,0.7764,,,,,,stim/blank.png,stim/neutralLeft.png,right,180,2018,2020-05-14_11h56.10.074,ANTCPTp,2020.1.2,Win32,60,,,1,36,84,39,1,,,,,,,,,,,,,,,,,,,,,,,,,,,,,,,,,,,,,,,,,,
1.05,left,1,0.553515,,,,,,stim/both.png,stim/neutralRight.png,left,180,2018,2020-05-14_11h56.10.074,ANTCPTp,2020.1.2,Win32,60,,,1,37,85,45,1,,,,,,,,,,,,,,,,,,,,,,,,,,,,,,,,,,,,,,,,,,
0.6,left,1,0.597045,,,,,,stim/both.png,stim/congRight.png,left,180,2018,2020-05-14_11h56.10.074,ANTCPTp,2020.1.2,Win32,60,,,1,38,86,13,1,,,,,,,,,,,,,,,,,,,,,,,,,,,,,,,,,,,,,,,,,,
0.75,left,1,0.633795,,,,,,stim/centre.png,stim/congLeft.png,left,0,2018,2020-05-14_11h56.10.074,ANTCPTp,2020.1.2,Win32,60,,,1,39,87,2,1,,,,,,,,,,,,,,,,,,,,,,,,,,,,,,,,,,,,,,,,,,
0.6,right,1,0.5948,,,,,,stim/upper.png,stim/congRight.png,right,0,2018,2020-05-14_11h56.10.074,ANTCPTp,2020.1.2,Win32,60,,,1,40,88,8,1,,,,,,,,,,,,,,,,,,,,,,,,,,,,,,,,,,,,,,,,,,
0.9,left,1,0.513555,,,,,,stim/lower.png,stim/neutralRight.png,left,180,2018,2020-05-14_11h56.10.074,ANTCPTp,2020.1.2,Win32,60,,,1,41,89,44,1,,,,,,,,,,,,,,,,,,,,,,,,,,,,,,,,,,,,,,,,,,
1.45,right,1,0.556995,,,,,,stim/both.png,stim/neutralLeft.png,right,180,2018,2020-05-14_11h56.10.074,ANTCPTp,2020.1.2,Win32,60,,,1,42,90,37,1,,,,,,,,,,,,,,,,,,,,,,,,,,,,,,,,,,,,,,,,,,
1.2,left,1,0.55331,,,,,,stim/blank.png,stim/congRight.png,left,180,2018,2020-05-14_11h56.10.074,ANTCPTp,2020.1.2,Win32,60,,,1,43,91,15,1,,,,,,,,,,,,,,,,,,,,,,,,,,,,,,,,,,,,,,,,,,
0.8,left,1,0.60495,,,,,,stim/blank.png,stim/neutralLeft.png,left,0,2018,2020-05-14_11h56.10.074,ANTCPTp,2020.1.2,Win32,60,,,1,44,92,35,1,,,,,,,,,,,,,,,,,,,,,,,,,,,,,,,,,,,,,,,,,,
0.75,right,1,0.784565,,,,,,stim/lower.png,stim/incongLeft.png,right,180,2018,2020-05-14_11h56.10.074,ANTCPTp,2020.1.2,Win32,60,,,1,45,93,20,1,,,,,,,,,,,,,,,,,,,,,,,,,,,,,,,,,,,,,,,,,,
1.35,left,1,0.71667,,,,,,stim/lower.png,stim/incongRight.png,left,180,2018,2020-05-14_11h56.10.074,ANTCPTp,2020.1.2,Win32,60,,,1,46,94,28,1,,,,,,,,,,,,,,,,,,,,,,,,,,,,,,,,,,,,,,,,,,
0.7,left,1,0.46204,,,,,,stim/lower.png,stim/congRight.png,left,180,2018,2020-05-14_11h56.10.074,ANTCPTp,2020.1.2,Win32,60,,,1,47,95,12,1,,,,,,,,,,,,,,,,,,,,,,,,,,,,,,,,,,,,,,,,,,
,,,,,,,,,,,,,2018,2020-05-14_11h56.10.074,ANTCPTp,2020.1.2,Win32,60,,,,,,,,0,0,0,0,1,,,,,,,,,,,,,,,,,,,,,,,,,,,,,,,,,,,,,
1.35,right,1,0.820695,,,,,,stim/blank.png,stim/incongLeft.png,right,180,2018,2020-05-14_11h56.10.074,ANTCPTp,2020.1.2,Win32,60,,,0,0,0,23,1,,,,,,,,,,,,,,,,,,,,,,,,,,,,,,,,,,,,,,,,,,
1,right,1,0.61379,,,,,,stim/both.png,stim/neutralRight.png,right,0,2018,2020-05-14_11h56.10.074,ANTCPTp,2020.1.2,Win32,60,,,0,1,1,41,1,,,,,,,,,,,,,,,,,,,,,,,,,,,,,,,,,,,,,,,,,,
1,left,1,0.719585,,,,,,stim/both.png,stim/incongLeft.png,left,0,2018,2020-05-14_11h56.10.074,ANTCPTp,2020.1.2,Win32,60,,,0,2,2,17,1,,,,,,,,,,,,,,,,,,,,,,,,,,,,,,,,,,,,,,,,,,
1.25,left,1,0.65059,,,,,,stim/both.png,stim/congLeft.png,left,0,2018,2020-05-14_11h56.10.074,ANTCPTp,2020.1.2,Win32,60,,,0,3,3,1,1,,,,,,,,,,,,,,,,,,,,,,,,,,,,,,,,,,,,,,,,,,
0.8,left,1,0.59447,,,,,,stim/both.png,stim/congRight.png,left,180,2018,2020-05-14_11h56.10.074,ANTCPTp,2020.1.2,Win32,60,,,0,4,4,13,1,,,,,,,,,,,,,,,,,,,,,,,,,,,,,,,,,,,,,,,,,,
1.55,right,1,0.57455,,,,,,stim/lower.png,stim/congLeft.png,right,180,2018,2020-05-14_11h56.10.074,ANTCPTp,2020.1.2,Win32,60,,,0,5,5,4,1,,,,,,,,,,,,,,,,,,,,,,,,,,,,,,,,,,,,,,,,,,
0.4,right,1,0.54622,,,,,,stim/centre.png,stim/congLeft.png,right,180,2018,2020-05-14_11h56.10.074,ANTCPTp,2020.1.2,Win32,60,,,0,6,6,6,1,,,,,,,,,,,,,,,,,,,,,,,,,,,,,,,,,,,,,,,,,,
0.7,left,1,0.57952,,,,,,stim/upper.png,stim/neutralLeft.png,left,0,2018,2020-05-14_11h56.10.074,ANTCPTp,2020.1.2,Win32,60,,,0,7,7,32,1,,,,,,,,,,,,,,,,,,,,,,,,,,,,,,,,,,,,,,,,,,
0.75,left,1,0.696445,,,,,,stim/centre.png,stim/incongLeft.png,left,0,2018,2020-05-14_11h56.10.074,ANTCPTp,2020.1.2,Win32,60,,,0,8,8,18,1,,,,,,,,,,,,,,,,,,,,,,,,,,,,,,,,,,,,,,,,,,
1.1,left,1,0.54684,,,,,,stim/upper.png,stim/congLeft.png,left,0,2018,2020-05-14_11h56.10.074,ANTCPTp,2020.1.2,Win32,60,,,0,9,9,0,1,,,,,,,,,,,,,,,,,,,,,,,,,,,,,,,,,,,,,,,,,,
0.85,right,1,0.69351,,,,,,stim/blank.png,stim/congRight.png,right,0,2018,2020-05-14_11h56.10.074,ANTCPTp,2020.1.2,Win32,60,,,0,10,10,11,1,,,,,,,,,,,,,,,,,,,,,,,,,,,,,,,,,,,,,,,,,,
1.1,left,1,0.816485,,,,,,stim/centre.png,stim/incongRight.png,left,180,2018,2020-05-14_11h56.10.074,ANTCPTp,2020.1.2,Win32,60,,,0,11,11,30,1,,,,,,,,,,,,,,,,,,,,,,,,,,,,,,,,,,,,,,,,,,
0.9,right,1,0.620785,,,,,,stim/lower.png,stim/incongLeft.png,right,180,2018,2020-05-14_11h56.10.074,ANTCPTp,2020.1.2,Win32,60,,,0,12,12,20,1,,,,,,,,,,,,,,,,,,,,,,,,,,,,,,,,,,,,,,,,,,
0.9,right,1,0.82618,,,,,,stim/blank.png,stim/incongRight.png,right,0,2018,2020-05-14_11h56.10.074,ANTCPTp,2020.1.2,Win32,60,,,0,13,13,27,1,,,,,,,,,,,,,,,,,,,,,,,,,,,,,,,,,,,,,,,,,,
0.45,right,1,0.64172,,,,,,stim/upper.png,stim/incongRight.png,right,0,2018,2020-05-14_11h56.10.074,ANTCPTp,2020.1.2,Win32,60,,,0,14,14,24,1,,,,,,,,,,,,,,,,,,,,,,,,,,,,,,,,,,,,,,,,,,
1,right,1,0.73037,,,,,,stim/centre.png,stim/incongRight.png,right,0,2018,2020-05-14_11h56.10.074,ANTCPTp,2020.1.2,Win32,60,,,0,15,15,26,1,,,,,,,,,,,,,,,,,,,,,,,,,,,,,,,,,,,,,,,,,,
1.55,left,1,0.600665,,,,,,stim/lower.png,stim/congRight.png,left,180,2018,2020-05-14_11h56.10.074,ANTCPTp,2020.1.2,Win32,60,,,0,16,16,12,1,,,,,,,,,,,,,,,,,,,,,,,,,,,,,,,,,,,,,,,,,,
1,left,1,0.667195,,,,,,stim/blank.png,stim/neutralLeft.png,left,0,2018,2020-05-14_11h56.10.074,ANTCPTp,2020.1.2,Win32,60,,,0,17,17,35,1,,,,,,,,,,,,,,,,,,,,,,,,,,,,,,,,,,,,,,,,,,
0.4,left,1,0.52201,,,,,,stim/both.png,stim/neutralRight.png,left,180,2018,2020-05-14_11h56.10.074,ANTCPTp,2020.1.2,Win32,60,,,0,18,18,45,1,,,,,,,,,,,,,,,,,,,,,,,,,,,,,,,,,,,,,,,,,,
1.3,left,1,0.53915,,,,,,stim/centre.png,stim/congRight.png,left,180,2018,2020-05-14_11h56.10.074,ANTCPTp,2020.1.2,Win32,60,,,0,19,19,14,1,,,,,,,,,,,,,,,,,,,,,,,,,,,,,,,,,,,,,,,,,,
0.4,right,1,0.664365,,,,,,stim/blank.png,stim/congLeft.png,right,180,2018,2020-05-14_11h56.10.074,ANTCPTp,2020.1.2,Win32,60,,,0,20,20,7,1,,,,,,,,,,,,,,,,,,,,,,,,,,,,,,,,,,,,,,,,,,
1.2,left,1,0.759585,,,,,,stim/blank.png,stim/incongRight.png,left,180,2018,2020-05-14_11h56.10.074,ANTCPTp,2020.1.2,Win32,60,,,0,21,21,31,1,,,,,,,,,,,,,,,,,,,,,,,,,,,,,,,,,,,,,,,,,,
1.35,right,1,0.71739,,,,,,stim/blank.png,stim/neutralLeft.png,right,180,2018,2020-05-14_11h56.10.074,ANTCPTp,2020.1.2,Win32,60,,,0,22,22,39,1,,,,,,,,,,,,,,,,,,,,,,,,,,,,,,,,,,,,,,,,,,
0.8,right,1,0.634425,,,,,,stim/upper.png,stim/congRight.png,right,0,2018,2020-05-14_11h56.10.074,ANTCPTp,2020.1.2,Win32,60,,,0,23,23,8,1,,,,,,,,,,,,,,,,,,,,,,,,,,,,,,,,,,,,,,,,,,
0.9,right,1,0.63892,,,,,,stim/blank.png,stim/neutralRight.png,right,0,2018,2020-05-14_11h56.10.074,ANTCPTp,2020.1.2,Win32,60,,,0,24,24,43,1,,,,,,,,,,,,,,,,,,,,,,,,,,,,,,,,,,,,,,,,,,
0.75,left,1,0.633365,,,,,,stim/upper.png,stim/incongLeft.png,left,0,2018,2020-05-14_11h56.10.074,ANTCPTp,2020.1.2,Win32,60,,,0,25,25,16,1,,,,,,,,,,,,,,,,,,,,,,,,,,,,,,,,,,,,,,,,,,
1.4,right,1,0.84186,,,,,,stim/both.png,stim/incongLeft.png,right,180,2018,2020-05-14_11h56.10.074,ANTCPTp,2020.1.2,Win32,60,,,0,26,26,21,1,,,,,,,,,,,,,,,,,,,,,,,,,,,,,,,,,,,,,,,,,,
0.75,right,1,0.90074,,,,,,stim/centre.png,stim/incongLeft.png,right,180,2018,2020-05-14_11h56.10.074,ANTCPTp,2020.1.2,Win32,60,,,0,27,27,22,1,,,,,,,,,,,,,,,,,,,,,,,,,,,,,,,,,,,,,,,,,,
1.5,right,1,0.62097,,,,,,stim/both.png,stim/congLeft.png,right,180,2018,2020-05-14_11h56.10.074,ANTCPTp,2020.1.2,Win32,60,,,0,28,28,5,1,,,,,,,,,,,,,,,,,,,,,,,,,,,,,,,,,,,,,,,,,,
1.2,left,1,0.574815,,,,,,stim/blank.png,stim/congRight.png,left,180,2018,2020-05-14_11h56.10.074,ANTCPTp,2020.1.2,Win32,60,,,0,29,29,15,1,,,,,,,,,,,,,,,,,,,,,,,,,,,,,,,,,,,,,,,,,,
0.75,left,1,0.73989,,,,,,stim/centre.png,stim/neutralLeft.png,left,0,2018,2020-05-14_11h56.10.074,ANTCPTp,2020.1.2,Win32,60,,,0,30,30,34,1,,,,,,,,,,,,,,,,,,,,,,,,,,,,,,,,,,,,,,,,,,
1.4,left,1,0.64026,,,,,,stim/both.png,stim/neutralLeft.png,left,0,2018,2020-05-14_11h56.10.074,ANTCPTp,2020.1.2,Win32,60,,,0,31,31,33,1,,,,,,,,,,,,,,,,,,,,,,,,,,,,,,,,,,,,,,,,,,
1.3,right,1,0.604565,,,,,,stim/both.png,stim/neutralLeft.png,right,180,2018,2020-05-14_11h56.10.074,ANTCPTp,2020.1.2,Win32,60,,,0,32,32,37,1,,,,,,,,,,,,,,,,,,,,,,,,,,,,,,,,,,,,,,,,,,
0.95,right,1,0.57603,,,,,,stim/centre.png,stim/congRight.png,right,0,2018,2020-05-14_11h56.10.074,ANTCPTp,2020.1.2,Win32,60,,,0,33,33,10,1,,,,,,,,,,,,,,,,,,,,,,,,,,,,,,,,,,,,,,,,,,
0.5,left,1,0.78414,,,,,,stim/blank.png,stim/congLeft.png,left,0,2018,2020-05-14_11h56.10.074,ANTCPTp,2020.1.2,Win32,60,,,0,34,34,3,1,,,,,,,,,,,,,,,,,,,,,,,,,,,,,,,,,,,,,,,,,,
0.75,left,1,0.596605,,,,,,stim/centre.png,stim/congLeft.png,left,0,2018,2020-05-14_11h56.10.074,ANTCPTp,2020.1.2,Win32,60,,,0,35,35,2,1,,,,,,,,,,,,,,,,,,,,,,,,,,,,,,,,,,,,,,,,,,
0.75,right,1,0.497325,,,,,,stim/upper.png,stim/neutralRight.png,right,0,2018,2020-05-14_11h56.10.074,ANTCPTp,2020.1.2,Win32,60,,,0,36,36,40,1,,,,,,,,,,,,,,,,,,,,,,,,,,,,,,,,,,,,,,,,,,
1.1,left,1,0.771405,,,,,,stim/blank.png,stim/incongLeft.png,left,0,2018,2020-05-14_11h56.10.074,ANTCPTp,2020.1.2,Win32,60,,,0,37,37,19,1,,,,,,,,,,,,,,,,,,,,,,,,,,,,,,,,,,,,,,,,,,
0.6,left,1,0.6076,,,,,,stim/blank.png,stim/neutralRight.png,left,180,2018,2020-05-14_11h56.10.074,ANTCPTp,2020.1.2,Win32,60,,,0,38,38,47,1,,,,,,,,,,,,,,,,,,,,,,,,,,,,,,,,,,,,,,,,,,
1,right,1,0.577455,,,,,,stim/lower.png,stim/neutralLeft.png,right,180,2018,2020-05-14_11h56.10.074,ANTCPTp,2020.1.2,Win32,60,,,0,39,39,36,1,,,,,,,,,,,,,,,,,,,,,,,,,,,,,,,,,,,,,,,,,,
1.55,left,1,0.75805,,,,,,stim/lower.png,stim/incongRight.png,left,180,2018,2020-05-14_11h56.10.074,ANTCPTp,2020.1.2,Win32,60,,,0,40,40,28,1,,,,,,,,,,,,,,,,,,,,,,,,,,,,,,,,,,,,,,,,,,
0.8,right,1,0.545625,,,,,,stim/both.png,stim/congRight.png,right,0,2018,2020-05-14_11h56.10.074,ANTCPTp,2020.1.2,Win32,60,,,0,41,41,9,1,,,,,,,,,,,,,,,,,,,,,,,,,,,,,,,,,,,,,,,,,,
0.5,right,1,0.52253,,,,,,stim/centre.png,stim/neutralLeft.png,right,180,2018,2020-05-14_11h56.10.074,ANTCPTp,2020.1.2,Win32,60,,,0,42,42,38,1,,,,,,,,,,,,,,,,,,,,,,,,,,,,,,,,,,,,,,,,,,
0.95,right,1,0.52984,,,,,,stim/centre.png,stim/neutralRight.png,right,0,2018,2020-05-14_11h56.10.074,ANTCPTp,2020.1.2,Win32,60,,,0,43,43,42,1,,,,,,,,,,,,,,,,,,,,,,,,,,,,,,,,,,,,,,,,,,
0.6,left,1,0.49579,,,,,,stim/lower.png,stim/neutralRight.png,left,180,2018,2020-05-14_11h56.10.074,ANTCPTp,2020.1.2,Win32,60,,,0,44,44,44,1,,,,,,,,,,,,,,,,,,,,,,,,,,,,,,,,,,,,,,,,,,
0.55,left,1,0.888205,,,,,,stim/both.png,stim/incongRight.png,left,180,2018,2020-05-14_11h56.10.074,ANTCPTp,2020.1.2,Win32,60,,,0,45,45,29,1,,,,,,,,,,,,,,,,,,,,,,,,,,,,,,,,,,,,,,,,,,
1.4,right,1,0.59798,,,,,,stim/both.png,stim/incongRight.png,right,0,2018,2020-05-14_11h56.10.074,ANTCPTp,2020.1.2,Win32,60,,,0,46,46,25,1,,,,,,,,,,,,,,,,,,,,,,,,,,,,,,,,,,,,,,,,,,
0.6,left,1,0.73733,,,,,,stim/centre.png,stim/neutralRight.png,left,180,2018,2020-05-14_11h56.10.074,ANTCPTp,2020.1.2,Win32,60,,,0,47,47,46,1,,,,,,,,,,,,,,,,,,,,,,,,,,,,,,,,,,,,,,,,,,
1.4,right,1,0.95013,,,,,,stim/both.png,stim/neutralLeft.png,right,180,2018,2020-05-14_11h56.10.074,ANTCPTp,2020.1.2,Win32,60,,,1,0,48,37,1,,,,,,,,,,,,,,,,,,,,,,,,,,,,,,,,,,,,,,,,,,
1,left,1,0.536625,,,,,,stim/centre.png,stim/neutralLeft.png,left,0,2018,2020-05-14_11h56.10.074,ANTCPTp,2020.1.2,Win32,60,,,1,1,49,34,1,,,,,,,,,,,,,,,,,,,,,,,,,,,,,,,,,,,,,,,,,,
0.9,right,1,0.585385,,,,,,stim/upper.png,stim/congRight.png,right,0,2018,2020-05-14_11h56.10.074,ANTCPTp,2020.1.2,Win32,60,,,1,2,50,8,1,,,,,,,,,,,,,,,,,,,,,,,,,,,,,,,,,,,,,,,,,,
0.45,right,1,1.02647,,,,,,stim/both.png,stim/incongLeft.png,right,180,2018,2020-05-14_11h56.10.074,ANTCPTp,2020.1.2,Win32,60,,,1,3,51,21,1,,,,,,,,,,,,,,,,,,,,,,,,,,,,,,,,,,,,,,,,,,
1.5,right,1,0.654905,,,,,,stim/centre.png,stim/congLeft.png,right,180,2018,2020-05-14_11h56.10.074,ANTCPTp,2020.1.2,Win32,60,,,1,4,52,6,1,,,,,,,,,,,,,,,,,,,,,,,,,,,,,,,,,,,,,,,,,,
0.9,left,1,0.610425,,,,,,stim/upper.png,stim/incongLeft.png,left,0,2018,2020-05-14_11h56.10.074,ANTCPTp,2020.1.2,Win32,60,,,1,5,53,16,1,,,,,,,,,,,,,,,,,,,,,,,,,,,,,,,,,,,,,,,,,,
0.5,right,1,0.657405,,,,,,stim/both.png,stim/incongRight.png,right,0,2018,2020-05-14_11h56.10.074,ANTCPTp,2020.1.2,Win32,60,,,1,6,54,25,1,,,,,,,,,,,,,,,,,,,,,,,,,,,,,,,,,,,,,,,,,,
0.4,right,1,0.649915,,,,,,stim/blank.png,stim/congRight.png,right,0,2018,2020-05-14_11h56.10.074,ANTCPTp,2020.1.2,Win32,60,,,1,7,55,11,1,,,,,,,,,,,,,,,,,,,,,,,,,,,,,,,,,,,,,,,,,,
0.55,left,1,0.55498,,,,,,stim/upper.png,stim/neutralLeft.png,left,0,2018,2020-05-14_11h56.10.074,ANTCPTp,2020.1.2,Win32,60,,,1,8,56,32,1,,,,,,,,,,,,,,,,,,,,,,,,,,,,,,,,,,,,,,,,,,
0.55,left,1,0.905525,,,,,,stim/centre.png,stim/congLeft.png,left,0,2018,2020-05-14_11h56.10.074,ANTCPTp,2020.1.2,Win32,60,,,1,9,57,2,1,,,,,,,,,,,,,,,,,,,,,,,,,,,,,,,,,,,,,,,,,,
0.75,right,1,0.577285,,,,,,stim/lower.png,stim/congLeft.png,right,180,2018,2020-05-14_11h56.10.074,ANTCPTp,2020.1.2,Win32,60,,,1,10,58,4,1,,,,,,,,,,,,,,,,,,,,,,,,,,,,,,,,,,,,,,,,,,
1.2,left,1,0.77974,,,,,,stim/lower.png,stim/incongRight.png,left,180,2018,2020-05-14_11h56.10.074,ANTCPTp,2020.1.2,Win32,60,,,1,11,59,28,1,,,,,,,,,,,,,,,,,,,,,,,,,,,,,,,,,,,,,,,,,,
0.6,left,1,0.55964,,,,,,stim/centre.png,stim/congRight.png,left,180,2018,2020-05-14_11h56.10.074,ANTCPTp,2020.1.2,Win32,60,,,1,12,60,14,1,,,,,,,,,,,,,,,,,,,,,,,,,,,,,,,,,,,,,,,,,,
0.45,right,1,0.745855,,,,,,stim/centre.png,stim/incongLeft.png,right,180,2018,2020-05-14_11h56.10.074,ANTCPTp,2020.1.2,Win32,60,,,1,13,61,22,1,,,,,,,,,,,,,,,,,,,,,,,,,,,,,,,,,,,,,,,,,,
1.45,right,1,0.484235,,,,,,stim/upper.png,stim/neutralRight.png,right,0,2018,2020-05-14_11h56.10.074,ANTCPTp,2020.1.2,Win32,60,,,1,14,62,40,1,,,,,,,,,,,,,,,,,,,,,,,,,,,,,,,,,,,,,,,,,,
1.05,right,1,0.72812,,,,,,stim/both.png,stim/congLeft.png,right,180,2018,2020-05-14_11h56.10.074,ANTCPTp,2020.1.2,Win32,60,,,1,15,63,5,1,,,,,,,,,,,,,,,,,,,,,,,,,,,,,,,,,,,,,,,,,,
0.65,left,1,0.827795,,,,,,stim/blank.png,stim/neutralLeft.png,left,0,2018,2020-05-14_11h56.10.074,ANTCPTp,2020.1.2,Win32,60,,,1,16,64,35,1,,,,,,,,,,,,,,,,,,,,,,,,,,,,,,,,,,,,,,,,,,
0.75,left,1,0.54309,,,,,,stim/both.png,stim/neutralLeft.png,left,0,2018,2020-05-14_11h56.10.074,ANTCPTp,2020.1.2,Win32,60,,,1,17,65,33,1,,,,,,,,,,,,,,,,,,,,,,,,,,,,,,,,,,,,,,,,,,
1.2,right,0,0.547465,,,,,,stim/blank.png,stim/incongRight.png,left,180,2018,2020-05-14_11h56.10.074,ANTCPTp,2020.1.2,Win32,60,,,1,18,66,31,1,,,,,,,,,,,,,,,,,,,,,,,,,,,,,,,,,,,,,,,,,,
1.55,right,1,0.73803,,,,,,stim/both.png,stim/neutralRight.png,right,0,2018,2020-05-14_11h56.10.074,ANTCPTp,2020.1.2,Win32,60,,,1,19,67,41,1,,,,,,,,,,,,,,,,,,,,,,,,,,,,,,,,,,,,,,,,,,
0.85,right,1,0.56426,,,,,,stim/both.png,stim/congRight.png,right,0,2018,2020-05-14_11h56.10.074,ANTCPTp,2020.1.2,Win32,60,,,1,20,68,9,1,,,,,,,,,,,,,,,,,,,,,,,,,,,,,,,,,,,,,,,,,,
1.45,left,1,0.62986,,,,,,stim/centre.png,stim/neutralRight.png,left,180,2018,2020-05-14_11h56.10.074,ANTCPTp,2020.1.2,Win32,60,,,1,21,69,46,1,,,,,,,,,,,,,,,,,,,,,,,,,,,,,,,,,,,,,,,,,,
1.35,left,1,0.552715,,,,,,stim/lower.png,stim/neutralRight.png,left,180,2018,2020-05-14_11h56.10.074,ANTCPTp,2020.1.2,Win32,60,,,1,22,70,44,1,,,,,,,,,,,,,,,,,,,,,,,,,,,,,,,,,,,,,,,,,,
0.75,left,1,0.63057,,,,,,stim/both.png,stim/congRight.png,left,180,2018,2020-05-14_11h56.10.074,ANTCPTp,2020.1.2,Win32,60,,,1,23,71,13,1,,,,,,,,,,,,,,,,,,,,,,,,,,,,,,,,,,,,,,,,,,
0.6,left,1,0.7526,,,,,,stim/centre.png,stim/incongLeft.png,left,0,2018,2020-05-14_11h56.10.074,ANTCPTp,2020.1.2,Win32,60,,,1,24,72,18,1,,,,,,,,,,,,,,,,,,,,,,,,,,,,,,,,,,,,,,,,,,
0.65,right,1,0.79395,,,,,,stim/blank.png,stim/incongRight.png,right,0,2018,2020-05-14_11h56.10.074,ANTCPTp,2020.1.2,Win32,60,,,1,25,73,27,1,,,,,,,,,,,,,,,,,,,,,,,,,,,,,,,,,,,,,,,,,,
1.35,left,1,0.614235,,,,,,stim/blank.png,stim/congRight.png,left,180,2018,2020-05-14_11h56.10.074,ANTCPTp,2020.1.2,Win32,60,,,1,26,74,15,1,,,,,,,,,,,,,,,,,,,,,,,,,,,,,,,,,,,,,,,,,,
1.4,right,1,0.52786,,,,,,stim/upper.png,stim/incongRight.png,right,0,2018,2020-05-14_11h56.10.074,ANTCPTp,2020.1.2,Win32,60,,,1,27,75,24,1,,,,,,,,,,,,,,,,,,,,,,,,,,,,,,,,,,,,,,,,,,
0.7,left,1,0.577035,,,,,,stim/lower.png,stim/congRight.png,left,180,2018,2020-05-14_11h56.10.074,ANTCPTp,2020.1.2,Win32,60,,,1,28,76,12,1,,,,,,,,,,,,,,,,,,,,,,,,,,,,,,,,,,,,,,,,,,
1,right,1,0.749505,,,,,,stim/blank.png,stim/neutralRight.png,right,0,2018,2020-05-14_11h56.10.074,ANTCPTp,2020.1.2,Win32,60,,,1,29,77,43,1,,,,,,,,,,,,,,,,,,,,,,,,,,,,,,,,,,,,,,,,,,
1.3,right,1,0.692065,,,,,,stim/centre.png,stim/neutralLeft.png,right,180,2018,2020-05-14_11h56.10.074,ANTCPTp,2020.1.2,Win32,60,,,1,30,78,38,1,,,,,,,,,,,,,,,,,,,,,,,,,,,,,,,,,,,,,,,,,,
1.5,left,1,0.557815,,,,,,stim/both.png,stim/congLeft.png,left,0,2018,2020-05-14_11h56.10.074,ANTCPTp,2020.1.2,Win32,60,,,1,31,79,1,1,,,,,,,,,,,,,,,,,,,,,,,,,,,,,,,,,,,,,,,,,,
0.4,left,1,0.650335,,,,,,stim/both.png,stim/incongLeft.png,left,0,2018,2020-05-14_11h56.10.074,ANTCPTp,2020.1.2,Win32,60,,,1,32,80,17,1,,,,,,,,,,,,,,,,,,,,,,,,,,,,,,,,,,,,,,,,,,
0.85,right,1,0.760225,,,,,,stim/blank.png,stim/neutralLeft.png,right,180,2018,2020-05-14_11h56.10.074,ANTCPTp,2020.1.2,Win32,60,,,1,33,81,39,1,,,,,,,,,,,,,,,,,,,,,,,,,,,,,,,,,,,,,,,,,,
1.5,right,1,0.736665,,,,,,stim/blank.png,stim/incongLeft.png,right,180,2018,2020-05-14_11h56.10.074,ANTCPTp,2020.1.2,Win32,60,,,1,34,82,23,1,,,,,,,,,,,,,,,,,,,,,,,,,,,,,,,,,,,,,,,,,,
0.75,left,1,0.702255,,,,,,stim/blank.png,stim/neutralRight.png,left,180,2018,2020-05-14_11h56.10.074,ANTCPTp,2020.1.2,Win32,60,,,1,35,83,47,1,,,,,,,,,,,,,,,,,,,,,,,,,,,,,,,,,,,,,,,,,,
1.25,right,1,0.834045,,,,,,stim/centre.png,stim/incongRight.png,right,0,2018,2020-05-14_11h56.10.074,ANTCPTp,2020.1.2,Win32,60,,,1,36,84,26,1,,,,,,,,,,,,,,,,,,,,,,,,,,,,,,,,,,,,,,,,,,
1.35,left,1,0.724055,,,,,,stim/centre.png,stim/incongRight.png,left,180,2018,2020-05-14_11h56.10.074,ANTCPTp,2020.1.2,Win32,60,,,1,37,85,30,1,,,,,,,,,,,,,,,,,,,,,,,,,,,,,,,,,,,,,,,,,,
0.65,right,1,0.591145,,,,,,stim/centre.png,stim/congRight.png,right,0,2018,2020-05-14_11h56.10.074,ANTCPTp,2020.1.2,Win32,60,,,1,38,86,10,1,,,,,,,,,,,,,,,,,,,,,,,,,,,,,,,,,,,,,,,,,,
0.75,right,1,0.564255,,,,,,stim/centre.png,stim/neutralRight.png,right,0,2018,2020-05-14_11h56.10.074,ANTCPTp,2020.1.2,Win32,60,,,1,39,87,42,1,,,,,,,,,,,,,,,,,,,,,,,,,,,,,,,,,,,,,,,,,,
1,right,1,0.74377,,,,,,stim/lower.png,stim/incongLeft.png,right,180,2018,2020-05-14_11h56.10.074,ANTCPTp,2020.1.2,Win32,60,,,1,40,88,20,1,,,,,,,,,,,,,,,,,,,,,,,,,,,,,,,,,,,,,,,,,,
1.1,right,1,0.52026,,,,,,stim/lower.png,stim/neutralLeft.png,right,180,2018,2020-05-14_11h56.10.074,ANTCPTp,2020.1.2,Win32,60,,,1,41,89,36,1,,,,,,,,,,,,,,,,,,,,,,,,,,,,,,,,,,,,,,,,,,
1.25,right,1,0.53919,,,,,,stim/blank.png,stim/congLeft.png,right,180,2018,2020-05-14_11h56.10.074,ANTCPTp,2020.1.2,Win32,60,,,1,42,90,7,1,,,,,,,,,,,,,,,,,,,,,,,,,,,,,,,,,,,,,,,,,,
0.65,left,1,0.71792,,,,,,stim/both.png,stim/neutralRight.png,left,180,2018,2020-05-14_11h56.10.074,ANTCPTp,2020.1.2,Win32,60,,,1,43,91,45,1,,,,,,,,,,,,,,,,,,,,,,,,,,,,,,,,,,,,,,,,,,
0.65,left,1,0.71328,,,,,,stim/blank.png,stim/incongLeft.png,left,0,2018,2020-05-14_11h56.10.074,ANTCPTp,2020.1.2,Win32,60,,,1,44,92,19,1,,,,,,,,,,,,,,,,,,,,,,,,,,,,,,,,,,,,,,,,,,
1.35,left,1,0.55249,,,,,,stim/upper.png,stim/congLeft.png,left,0,2018,2020-05-14_11h56.10.074,ANTCPTp,2020.1.2,Win32,60,,,1,45,93,0,1,,,,,,,,,,,,,,,,,,,,,,,,,,,,,,,,,,,,,,,,,,
1,left,1,1.228995,,,,,,stim/both.png,stim/incongRight.png,left,180,2018,2020-05-14_11h56.10.074,ANTCPTp,2020.1.2,Win32,60,,,1,46,94,29,1,,,,,,,,,,,,,,,,,,,,,,,,,,,,,,,,,,,,,,,,,,
0.6,left,1,0.702075,,,,,,stim/blank.png,stim/congLeft.png,left,0,2018,2020-05-14_11h56.10.074,ANTCPTp,2020.1.2,Win32,60,,,1,47,95,3,1,,,,,,,,,,,,,,,,,,,,,,,,,,,,,,,,,,,,,,,,,,
,,,,,,,,,,,,,2018,2020-05-14_11h56.10.074,ANTCPTp,2020.1.2,Win32,60,,,,,,,,1,0,1,0,1,,,,,,,,,,,,,,,,,,,,,,,,,,,,,,,,,,,,,
0.7,left,1,0.79053,,,,,,stim/both.png,stim/incongLeft.png,left,0,2018,2020-05-14_11h56.10.074,ANTCPTp,2020.1.2,Win32,60,,,0,0,0,17,1,,,,,,,,,,,,,,,,,,,,,,,,,,,,,,,,,,,,,,,,,,
0.85,left,1,0.615555,,,,,,stim/centre.png,stim/neutralRight.png,left,180,2018,2020-05-14_11h56.10.074,ANTCPTp,2020.1.2,Win32,60,,,0,1,1,46,1,,,,,,,,,,,,,,,,,,,,,,,,,,,,,,,,,,,,,,,,,,
0.6,left,1,0.54493,,,,,,stim/both.png,stim/neutralLeft.png,left,0,2018,2020-05-14_11h56.10.074,ANTCPTp,2020.1.2,Win32,60,,,0,2,2,33,1,,,,,,,,,,,,,,,,,,,,,,,,,,,,,,,,,,,,,,,,,,
1.55,left,1,0.55116,,,,,,stim/both.png,stim/congLeft.png,left,0,2018,2020-05-14_11h56.10.074,ANTCPTp,2020.1.2,Win32,60,,,0,3,3,1,1,,,,,,,,,,,,,,,,,,,,,,,,,,,,,,,,,,,,,,,,,,
0.65,left,1,0.56945,,,,,,stim/centre.png,stim/congLeft.png,left,0,2018,2020-05-14_11h56.10.074,ANTCPTp,2020.1.2,Win32,60,,,0,4,4,2,1,,,,,,,,,,,,,,,,,,,,,,,,,,,,,,,,,,,,,,,,,,
0.65,left,1,0.642785,,,,,,stim/blank.png,stim/neutralLeft.png,left,0,2018,2020-05-14_11h56.10.074,ANTCPTp,2020.1.2,Win32,60,,,0,5,5,35,1,,,,,,,,,,,,,,,,,,,,,,,,,,,,,,,,,,,,,,,,,,
1.05,left,1,0.7613,,,,,,stim/blank.png,stim/incongLeft.png,left,0,2018,2020-05-14_11h56.10.074,ANTCPTp,2020.1.2,Win32,60,,,0,6,6,19,1,,,,,,,,,,,,,,,,,,,,,,,,,,,,,,,,,,,,,,,,,,
0.7,right,1,0.784955,,,,,,stim/upper.png,stim/incongRight.png,right,0,2018,2020-05-14_11h56.10.074,ANTCPTp,2020.1.2,Win32,60,,,0,7,7,24,1,,,,,,,,,,,,,,,,,,,,,,,,,,,,,,,,,,,,,,,,,,
0.6,right,1,0.540115,,,,,,stim/upper.png,stim/neutralRight.png,right,0,2018,2020-05-14_11h56.10.074,ANTCPTp,2020.1.2,Win32,60,,,0,8,8,40,1,,,,,,,,,,,,,,,,,,,,,,,,,,,,,,,,,,,,,,,,,,
1.5,right,1,0.76424,,,,,,stim/centre.png,stim/congLeft.png,right,180,2018,2020-05-14_11h56.10.074,ANTCPTp,2020.1.2,Win32,60,,,0,9,9,6,1,,,,,,,,,,,,,,,,,,,,,,,,,,,,,,,,,,,,,,,,,,
0.6,left,1,0.85639,,,,,,stim/both.png,stim/neutralRight.png,left,180,2018,2020-05-14_11h56.10.074,ANTCPTp,2020.1.2,Win32,60,,,0,10,10,45,1,,,,,,,,,,,,,,,,,,,,,,,,,,,,,,,,,,,,,,,,,,
1.45,right,1,0.869645,,,,,,stim/lower.png,stim/incongLeft.png,right,180,2018,2020-05-14_11h56.10.074,ANTCPTp,2020.1.2,Win32,60,,,0,11,11,20,1,,,,,,,,,,,,,,,,,,,,,,,,,,,,,,,,,,,,,,,,,,
1.15,right,1,0.606395,,,,,,stim/both.png,stim/incongRight.png,right,0,2018,2020-05-14_11h56.10.074,ANTCPTp,2020.1.2,Win32,60,,,0,12,12,25,1,,,,,,,,,,,,,,,,,,,,,,,,,,,,,,,,,,,,,,,,,,
0.95,left,1,0.70594,,,,,,stim/lower.png,stim/congRight.png,left,180,2018,2020-05-14_11h56.10.074,ANTCPTp,2020.1.2,Win32,60,,,0,13,13,12,1,,,,,,,,,,,,,,,,,,,,,,,,,,,,,,,,,,,,,,,,,,
0.9,right,1,0.659795,,,,,,stim/centre.png,stim/neutralRight.png,right,0,2018,2020-05-14_11h56.10.074,ANTCPTp,2020.1.2,Win32,60,,,0,14,14,42,1,,,,,,,,,,,,,,,,,,,,,,,,,,,,,,,,,,,,,,,,,,
1.5,left,1,0.663615,,,,,,stim/upper.png,stim/congLeft.png,left,0,2018,2020-05-14_11h56.10.074,ANTCPTp,2020.1.2,Win32,60,,,0,15,15,0,1,,,,,,,,,,,,,,,,,,,,,,,,,,,,,,,,,,,,,,,,,,
1.1,right,1,0.73115,,,,,,stim/both.png,stim/congLeft.png,right,180,2018,2020-05-14_11h56.10.074,ANTCPTp,2020.1.2,Win32,60,,,0,16,16,5,1,,,,,,,,,,,,,,,,,,,,,,,,,,,,,,,,,,,,,,,,,,
1.45,right,1,0.621925,,,,,,stim/blank.png,stim/neutralLeft.png,right,180,2018,2020-05-14_11h56.10.074,ANTCPTp,2020.1.2,Win32,60,,,0,17,17,39,1,,,,,,,,,,,,,,,,,,,,,,,,,,,,,,,,,,,,,,,,,,
0.45,right,1,0.501585,,,,,,stim/lower.png,stim/neutralLeft.png,right,180,2018,2020-05-14_11h56.10.074,ANTCPTp,2020.1.2,Win32,60,,,0,18,18,36,1,,,,,,,,,,,,,,,,,,,,,,,,,,,,,,,,,,,,,,,,,,
0.45,left,1,0.706325,,,,,,stim/blank.png,stim/congLeft.png,left,0,2018,2020-05-14_11h56.10.074,ANTCPTp,2020.1.2,Win32,60,,,0,19,19,3,1,,,,,,,,,,,,,,,,,,,,,,,,,,,,,,,,,,,,,,,,,,
0.4,right,1,0.768065,,,,,,stim/blank.png,stim/incongRight.png,right,0,2018,2020-05-14_11h56.10.074,ANTCPTp,2020.1.2,Win32,60,,,0,20,20,27,1,,,,,,,,,,,,,,,,,,,,,,,,,,,,,,,,,,,,,,,,,,
1.35,left,1,0.876935,,,,,,stim/centre.png,stim/incongLeft.png,left,0,2018,2020-05-14_11h56.10.074,ANTCPTp,2020.1.2,Win32,60,,,0,21,21,18,1,,,,,,,,,,,,,,,,,,,,,,,,,,,,,,,,,,,,,,,,,,
1.3,right,1,0.72014,,,,,,stim/blank.png,stim/neutralRight.png,right,0,2018,2020-05-14_11h56.10.074,ANTCPTp,2020.1.2,Win32,60,,,0,22,22,43,1,,,,,,,,,,,,,,,,,,,,,,,,,,,,,,,,,,,,,,,,,,
1.15,right,1,0.862005,,,,,,stim/blank.png,stim/incongLeft.png,right,180,2018,2020-05-14_11h56.10.074,ANTCPTp,2020.1.2,Win32,60,,,0,23,23,23,1,,,,,,,,,,,,,,,,,,,,,,,,,,,,,,,,,,,,,,,,,,
0.55,left,1,0.86413,,,,,,stim/blank.png,stim/neutralRight.png,left,180,2018,2020-05-14_11h56.10.074,ANTCPTp,2020.1.2,Win32,60,,,0,24,24,47,1,,,,,,,,,,,,,,,,,,,,,,,,,,,,,,,,,,,,,,,,,,
1.3,right,1,0.78018,,,,,,stim/centre.png,stim/incongLeft.png,right,180,2018,2020-05-14_11h56.10.074,ANTCPTp,2020.1.2,Win32,60,,,0,25,25,22,1,,,,,,,,,,,,,,,,,,,,,,,,,,,,,,,,,,,,,,,,,,
0.9,right,1,0.58682,,,,,,stim/upper.png,stim/congRight.png,right,0,2018,2020-05-14_11h56.10.074,ANTCPTp,2020.1.2,Win32,60,,,0,26,26,8,1,,,,,,,,,,,,,,,,,,,,,,,,,,,,,,,,,,,,,,,,,,
0.55,right,1,0.65626,,,,,,stim/centre.png,stim/congRight.png,right,0,2018,2020-05-14_11h56.10.074,ANTCPTp,2020.1.2,Win32,60,,,0,27,27,10,1,,,,,,,,,,,,,,,,,,,,,,,,,,,,,,,,,,,,,,,,,,
0.45,left,1,0.87759,,,,,,stim/both.png,stim/incongRight.png,left,180,2018,2020-05-14_11h56.10.074,ANTCPTp,2020.1.2,Win32,60,,,0,28,28,29,1,,,,,,,,,,,,,,,,,,,,,,,,,,,,,,,,,,,,,,,,,,
0.75,left,1,0.695635,,,,,,stim/centre.png,stim/neutralLeft.png,left,0,2018,2020-05-14_11h56.10.074,ANTCPTp,2020.1.2,Win32,60,,,0,29,29,34,1,,,,,,,,,,,,,,,,,,,,,,,,,,,,,,,,,,,,,,,,,,
1.3,right,1,0.777875,,,,,,stim/centre.png,stim/incongRight.png,right,0,2018,2020-05-14_11h56.10.074,ANTCPTp,2020.1.2,Win32,60,,,0,30,30,26,1,,,,,,,,,,,,,,,,,,,,,,,,,,,,,,,,,,,,,,,,,,
0.65,right,1,0.627445,,,,,,stim/both.png,stim/neutralLeft.png,right,180,2018,2020-05-14_11h56.10.074,ANTCPTp,2020.1.2,Win32,60,,,0,31,31,37,1,,,,,,,,,,,,,,,,,,,,,,,,,,,,,,,,,,,,,,,,,,
1.55,right,1,0.59802,,,,,,stim/both.png,stim/congRight.png,right,0,2018,2020-05-14_11h56.10.074,ANTCPTp,2020.1.2,Win32,60,,,0,32,32,9,1,,,,,,,,,,,,,,,,,,,,,,,,,,,,,,,,,,,,,,,,,,
0.6,right,1,0.58444,,,,,,stim/lower.png,stim/congLeft.png,right,180,2018,2020-05-14_11h56.10.074,ANTCPTp,2020.1.2,Win32,60,,,0,33,33,4,1,,,,,,,,,,,,,,,,,,,,,,,,,,,,,,,,,,,,,,,,,,
1.25,right,1,0.74505,,,,,,stim/centre.png,stim/neutralLeft.png,right,180,2018,2020-05-14_11h56.10.074,ANTCPTp,2020.1.2,Win32,60,,,0,34,34,38,1,,,,,,,,,,,,,,,,,,,,,,,,,,,,,,,,,,,,,,,,,,
1.2,left,1,0.900955,,,,,,stim/lower.png,stim/incongRight.png,left,180,2018,2020-05-14_11h56.10.074,ANTCPTp,2020.1.2,Win32,60,,,0,35,35,28,1,,,,,,,,,,,,,,,,,,,,,,,,,,,,,,,,,,,,,,,,,,
0.8,left,1,0.55479,,,,,,stim/lower.png,stim/neutralRight.png,left,180,2018,2020-05-14_11h56.10.074,ANTCPTp,2020.1.2,Win32,60,,,0,36,36,44,1,,,,,,,,,,,,,,,,,,,,,,,,,,,,,,,,,,,,,,,,,,
0.75,right,1,0.625275,,,,,,stim/blank.png,stim/congLeft.png,right,180,2018,2020-05-14_11h56.10.074,ANTCPTp,2020.1.2,Win32,60,,,0,37,37,7,1,,,,,,,,,,,,,,,,,,,,,,,,,,,,,,,,,,,,,,,,,,
0.45,left,1,0.64859,,,,,,stim/upper.png,stim/incongLeft.png,left,0,2018,2020-05-14_11h56.10.074,ANTCPTp,2020.1.2,Win32,60,,,0,38,38,16,1,,,,,,,,,,,,,,,,,,,,,,,,,,,,,,,,,,,,,,,,,,
1,left,1,0.56876,,,,,,stim/upper.png,stim/neutralLeft.png,left,0,2018,2020-05-14_11h56.10.074,ANTCPTp,2020.1.2,Win32,60,,,0,39,39,32,1,,,,,,,,,,,,,,,,,,,,,,,,,,,,,,,,,,,,,,,,,,
0.55,right,1,0.71023,,,,,,stim/both.png,stim/neutralRight.png,right,0,2018,2020-05-14_11h56.10.074,ANTCPTp,2020.1.2,Win32,60,,,0,40,40,41,1,,,,,,,,,,,,,,,,,,,,,,,,,,,,,,,,,,,,,,,,,,
0.7,left,1,0.688465,,,,,,stim/both.png,stim/congRight.png,left,180,2018,2020-05-14_11h56.10.074,ANTCPTp,2020.1.2,Win32,60,,,0,41,41,13,1,,,,,,,,,,,,,,,,,,,,,,,,,,,,,,,,,,,,,,,,,,
1.3,right,1,0.65823,,,,,,stim/blank.png,stim/congRight.png,right,0,2018,2020-05-14_11h56.10.074,ANTCPTp,2020.1.2,Win32,60,,,0,42,42,11,1,,,,,,,,,,,,,,,,,,,,,,,,,,,,,,,,,,,,,,,,,,
0.55,left,1,0.80452,,,,,,stim/centre.png,stim/incongRight.png,left,180,2018,2020-05-14_11h56.10.074,ANTCPTp,2020.1.2,Win32,60,,,0,43,43,30,1,,,,,,,,,,,,,,,,,,,,,,,,,,,,,,,,,,,,,,,,,,
1.55,right,1,0.96826,,,,,,stim/both.png,stim/incongLeft.png,right,180,2018,2020-05-14_11h56.10.074,ANTCPTp,2020.1.2,Win32,60,,,0,44,44,21,1,,,,,,,,,,,,,,,,,,,,,,,,,,,,,,,,,,,,,,,,,,
1.45,left,1,0.920525,,,,,,stim/blank.png,stim/incongRight.png,left,180,2018,2020-05-14_11h56.10.074,ANTCPTp,2020.1.2,Win32,60,,,0,45,45,31,1,,,,,,,,,,,,,,,,,,,,,,,,,,,,,,,,,,,,,,,,,,
1.4,left,1,0.65286,,,,,,stim/blank.png,stim/congRight.png,left,180,2018,2020-05-14_11h56.10.074,ANTCPTp,2020.1.2,Win32,60,,,0,46,46,15,1,,,,,,,,,,,,,,,,,,,,,,,,,,,,,,,,,,,,,,,,,,
0.9,left,1,0.608975,,,,,,stim/centre.png,stim/congRight.png,left,180,2018,2020-05-14_11h56.10.074,ANTCPTp,2020.1.2,Win32,60,,,0,47,47,14,1,,,,,,,,,,,,,,,,,,,,,,,,,,,,,,,,,,,,,,,,,,
0.45,right,1,0.82524,,,,,,stim/blank.png,stim/incongRight.png,right,0,2018,2020-05-14_11h56.10.074,ANTCPTp,2020.1.2,Win32,60,,,1,0,48,27,1,,,,,,,,,,,,,,,,,,,,,,,,,,,,,,,,,,,,,,,,,,
1.3,left,1,0.622075,,,,,,stim/centre.png,stim/congRight.png,left,180,2018,2020-05-14_11h56.10.074,ANTCPTp,2020.1.2,Win32,60,,,1,1,49,14,1,,,,,,,,,,,,,,,,,,,,,,,,,,,,,,,,,,,,,,,,,,
1.4,right,1,0.615955,,,,,,stim/centre.png,stim/congRight.png,right,0,2018,2020-05-14_11h56.10.074,ANTCPTp,2020.1.2,Win32,60,,,1,2,50,10,1,,,,,,,,,,,,,,,,,,,,,,,,,,,,,,,,,,,,,,,,,,
1,left,1,0.8162,,,,,,stim/lower.png,stim/incongRight.png,left,180,2018,2020-05-14_11h56.10.074,ANTCPTp,2020.1.2,Win32,60,,,1,3,51,28,1,,,,,,,,,,,,,,,,,,,,,,,,,,,,,,,,,,,,,,,,,,
1.55,right,1,0.62702,,,,,,stim/both.png,stim/congRight.png,right,0,2018,2020-05-14_11h56.10.074,ANTCPTp,2020.1.2,Win32,60,,,1,4,52,9,1,,,,,,,,,,,,,,,,,,,,,,,,,,,,,,,,,,,,,,,,,,
1.45,right,1,0.505695,,,,,,stim/lower.png,stim/congLeft.png,right,180,2018,2020-05-14_11h56.10.074,ANTCPTp,2020.1.2,Win32,60,,,1,5,53,4,1,,,,,,,,,,,,,,,,,,,,,,,,,,,,,,,,,,,,,,,,,,
1.4,right,1,0.855215,,,,,,stim/blank.png,stim/incongLeft.png,right,180,2018,2020-05-14_11h56.10.074,ANTCPTp,2020.1.2,Win32,60,,,1,6,54,23,1,,,,,,,,,,,,,,,,,,,,,,,,,,,,,,,,,,,,,,,,,,
0.85,right,1,0.51729,,,,,,stim/lower.png,stim/incongLeft.png,right,180,2018,2020-05-14_11h56.10.074,ANTCPTp,2020.1.2,Win32,60,,,1,7,55,20,1,,,,,,,,,,,,,,,,,,,,,,,,,,,,,,,,,,,,,,,,,,
0.4,left,1,0.570495,,,,,,stim/upper.png,stim/congLeft.png,left,0,2018,2020-05-14_11h56.10.074,ANTCPTp,2020.1.2,Win32,60,,,1,8,56,0,1,,,,,,,,,,,,,,,,,,,,,,,,,,,,,,,,,,,,,,,,,,
1.3,right,1,0.58542,,,,,,stim/blank.png,stim/neutralLeft.png,right,180,2018,2020-05-14_11h56.10.074,ANTCPTp,2020.1.2,Win32,60,,,1,9,57,39,1,,,,,,,,,,,,,,,,,,,,,,,,,,,,,,,,,,,,,,,,,,
0.6,right,1,0.876725,,,,,,stim/centre.png,stim/incongLeft.png,right,180,2018,2020-05-14_11h56.10.074,ANTCPTp,2020.1.2,Win32,60,,,1,10,58,22,1,,,,,,,,,,,,,,,,,,,,,,,,,,,,,,,,,,,,,,,,,,
0.5,left,1,0.575555,,,,,,stim/lower.png,stim/congRight.png,left,180,2018,2020-05-14_11h56.10.074,ANTCPTp,2020.1.2,Win32,60,,,1,11,59,12,1,,,,,,,,,,,,,,,,,,,,,,,,,,,,,,,,,,,,,,,,,,
1.35,right,1,0.66924,,,,,,stim/both.png,stim/incongRight.png,right,0,2018,2020-05-14_11h56.10.074,ANTCPTp,2020.1.2,Win32,60,,,1,12,60,25,1,,,,,,,,,,,,,,,,,,,,,,,,,,,,,,,,,,,,,,,,,,
1.3,left,1,0.575785,,,,,,stim/blank.png,stim/congLeft.png,left,0,2018,2020-05-14_11h56.10.074,ANTCPTp,2020.1.2,Win32,60,,,1,13,61,3,1,,,,,,,,,,,,,,,,,,,,,,,,,,,,,,,,,,,,,,,,,,
1.15,left,1,0.549235,,,,,,stim/upper.png,stim/neutralLeft.png,left,0,2018,2020-05-14_11h56.10.074,ANTCPTp,2020.1.2,Win32,60,,,1,14,62,32,1,,,,,,,,,,,,,,,,,,,,,,,,,,,,,,,,,,,,,,,,,,
0.7,right,1,0.684115,,,,,,stim/both.png,stim/neutralLeft.png,right,180,2018,2020-05-14_11h56.10.074,ANTCPTp,2020.1.2,Win32,60,,,1,15,63,37,1,,,,,,,,,,,,,,,,,,,,,,,,,,,,,,,,,,,,,,,,,,
0.65,left,1,0.65711,,,,,,stim/centre.png,stim/congLeft.png,left,0,2018,2020-05-14_11h56.10.074,ANTCPTp,2020.1.2,Win32,60,,,1,16,64,2,1,,,,,,,,,,,,,,,,,,,,,,,,,,,,,,,,,,,,,,,,,,
1.5,right,1,0.516445,,,,,,stim/lower.png,stim/neutralLeft.png,right,180,2018,2020-05-14_11h56.10.074,ANTCPTp,2020.1.2,Win32,60,,,1,17,65,36,1,,,,,,,,,,,,,,,,,,,,,,,,,,,,,,,,,,,,,,,,,,
1.45,right,1,0.60723,,,,,,stim/blank.png,stim/neutralRight.png,right,0,2018,2020-05-14_11h56.10.074,ANTCPTp,2020.1.2,Win32,60,,,1,18,66,43,1,,,,,,,,,,,,,,,,,,,,,,,,,,,,,,,,,,,,,,,,,,
1.5,left,1,0.717405,,,,,,stim/blank.png,stim/incongLeft.png,left,0,2018,2020-05-14_11h56.10.074,ANTCPTp,2020.1.2,Win32,60,,,1,19,67,19,1,,,,,,,,,,,,,,,,,,,,,,,,,,,,,,,,,,,,,,,,,,
1.55,left,1,0.57137,,,,,,stim/both.png,stim/neutralLeft.png,left,0,2018,2020-05-14_11h56.10.074,ANTCPTp,2020.1.2,Win32,60,,,1,20,68,33,1,,,,,,,,,,,,,,,,,,,,,,,,,,,,,,,,,,,,,,,,,,
0.5,right,1,0.715835,,,,,,stim/blank.png,stim/congLeft.png,right,180,2018,2020-05-14_11h56.10.074,ANTCPTp,2020.1.2,Win32,60,,,1,21,69,7,1,,,,,,,,,,,,,,,,,,,,,,,,,,,,,,,,,,,,,,,,,,
1.3,right,1,0.60378,,,,,,stim/upper.png,stim/neutralRight.png,right,0,2018,2020-05-14_11h56.10.074,ANTCPTp,2020.1.2,Win32,60,,,1,22,70,40,1,,,,,,,,,,,,,,,,,,,,,,,,,,,,,,,,,,,,,,,,,,
0.55,right,1,0.528085,,,,,,stim/upper.png,stim/congRight.png,right,0,2018,2020-05-14_11h56.10.074,ANTCPTp,2020.1.2,Win32,60,,,1,23,71,8,1,,,,,,,,,,,,,,,,,,,,,,,,,,,,,,,,,,,,,,,,,,
1.4,left,1,0.766375,,,,,,stim/both.png,stim/incongRight.png,left,180,2018,2020-05-14_11h56.10.074,ANTCPTp,2020.1.2,Win32,60,,,1,24,72,29,1,,,,,,,,,,,,,,,,,,,,,,,,,,,,,,,,,,,,,,,,,,
1.35,left,1,0.626535,,,,,,stim/blank.png,stim/neutralLeft.png,left,0,2018,2020-05-14_11h56.10.074,ANTCPTp,2020.1.2,Win32,60,,,1,25,73,35,1,,,,,,,,,,,,,,,,,,,,,,,,,,,,,,,,,,,,,,,,,,
1.05,left,1,0.52907,,,,,,stim/centre.png,stim/neutralLeft.png,left,0,2018,2020-05-14_11h56.10.074,ANTCPTp,2020.1.2,Win32,60,,,1,26,74,34,1,,,,,,,,,,,,,,,,,,,,,,,,,,,,,,,,,,,,,,,,,,
1.05,right,0,0.53982,,,,,,stim/blank.png,stim/incongRight.png,left,180,2018,2020-05-14_11h56.10.074,ANTCPTp,2020.1.2,Win32,60,,,1,27,75,31,1,,,,,,,,,,,,,,,,,,,,,,,,,,,,,,,,,,,,,,,,,,
1.5,right,1,0.724675,,,,,,stim/blank.png,stim/congRight.png,right,0,2018,2020-05-14_11h56.10.074,ANTCPTp,2020.1.2,Win32,60,,,1,28,76,11,1,,,,,,,,,,,,,,,,,,,,,,,,,,,,,,,,,,,,,,,,,,
0.55,left,1,0.756725,,,,,,stim/blank.png,stim/congRight.png,left,180,2018,2020-05-14_11h56.10.074,ANTCPTp,2020.1.2,Win32,60,,,1,29,77,15,1,,,,,,,,,,,,,,,,,,,,,,,,,,,,,,,,,,,,,,,,,,
0.65,right,1,0.89411,,,,,,stim/both.png,stim/incongLeft.png,right,180,2018,2020-05-14_11h56.10.074,ANTCPTp,2020.1.2,Win32,60,,,1,30,78,21,1,,,,,,,,,,,,,,,,,,,,,,,,,,,,,,,,,,,,,,,,,,
0.85,left,1,0.682825,,,,,,stim/both.png,stim/congRight.png,left,180,2018,2020-05-14_11h56.10.074,ANTCPTp,2020.1.2,Win32,60,,,1,31,79,13,1,,,,,,,,,,,,,,,,,,,,,,,,,,,,,,,,,,,,,,,,,,
1.05,left,1,0.6312,,,,,,stim/blank.png,stim/neutralRight.png,left,180,2018,2020-05-14_11h56.10.074,ANTCPTp,2020.1.2,Win32,60,,,1,32,80,47,1,,,,,,,,,,,,,,,,,,,,,,,,,,,,,,,,,,,,,,,,,,
0.5,left,1,0.533055,,,,,,stim/lower.png,stim/neutralRight.png,left,180,2018,2020-05-14_11h56.10.074,ANTCPTp,2020.1.2,Win32,60,,,1,33,81,44,1,,,,,,,,,,,,,,,,,,,,,,,,,,,,,,,,,,,,,,,,,,
1.35,left,1,0.6108,,,,,,stim/upper.png,stim/incongLeft.png,left,0,2018,2020-05-14_11h56.10.074,ANTCPTp,2020.1.2,Win32,60,,,1,34,82,16,1,,,,,,,,,,,,,,,,,,,,,,,,,,,,,,,,,,,,,,,,,,
0.55,right,1,0.59063,,,,,,stim/both.png,stim/congLeft.png,right,180,2018,2020-05-14_11h56.10.074,ANTCPTp,2020.1.2,Win32,60,,,1,35,83,5,1,,,,,,,,,,,,,,,,,,,,,,,,,,,,,,,,,,,,,,,,,,
1.2,right,1,0.785125,,,,,,stim/centre.png,stim/incongRight.png,right,0,2018,2020-05-14_11h56.10.074,ANTCPTp,2020.1.2,Win32,60,,,1,36,84,26,1,,,,,,,,,,,,,,,,,,,,,,,,,,,,,,,,,,,,,,,,,,
1.25,right,1,0.666025,,,,,,stim/centre.png,stim/neutralLeft.png,right,180,2018,2020-05-14_11h56.10.074,ANTCPTp,2020.1.2,Win32,60,,,1,37,85,38,1,,,,,,,,,,,,,,,,,,,,,,,,,,,,,,,,,,,,,,,,,,
1.05,right,1,0.65452,,,,,,stim/upper.png,stim/incongRight.png,right,0,2018,2020-05-14_11h56.10.074,ANTCPTp,2020.1.2,Win32,60,,,1,38,86,24,1,,,,,,,,,,,,,,,,,,,,,,,,,,,,,,,,,,,,,,,,,,
1.05,right,1,0.63646,,,,,,stim/centre.png,stim/neutralRight.png,right,0,2018,2020-05-14_11h56.10.074,ANTCPTp,2020.1.2,Win32,60,,,1,39,87,42,1,,,,,,,,,,,,,,,,,,,,,,,,,,,,,,,,,,,,,,,,,,
1.25,left,1,0.70632,,,,,,stim/both.png,stim/incongLeft.png,left,0,2018,2020-05-14_11h56.10.074,ANTCPTp,2020.1.2,Win32,60,,,1,40,88,17,1,,,,,,,,,,,,,,,,,,,,,,,,,,,,,,,,,,,,,,,,,,
0.65,left,1,0.78263,,,,,,stim/centre.png,stim/incongLeft.png,left,0,2018,2020-05-14_11h56.10.074,ANTCPTp,2020.1.2,Win32,60,,,1,41,89,18,1,,,,,,,,,,,,,,,,,,,,,,,,,,,,,,,,,,,,,,,,,,
0.6,left,1,0.6015,,,,,,stim/centre.png,stim/neutralRight.png,left,180,2018,2020-05-14_11h56.10.074,ANTCPTp,2020.1.2,Win32,60,,,1,42,90,46,1,,,,,,,,,,,,,,,,,,,,,,,,,,,,,,,,,,,,,,,,,,
0.85,right,1,0.632545,,,,,,stim/both.png,stim/neutralRight.png,right,0,2018,2020-05-14_11h56.10.074,ANTCPTp,2020.1.2,Win32,60,,,1,43,91,41,1,,,,,,,,,,,,,,,,,,,,,,,,,,,,,,,,,,,,,,,,,,
1.3,right,1,0.70184,,,,,,stim/centre.png,stim/congLeft.png,right,180,2018,2020-05-14_11h56.10.074,ANTCPTp,2020.1.2,Win32,60,,,1,44,92,6,1,,,,,,,,,,,,,,,,,,,,,,,,,,,,,,,,,,,,,,,,,,
1.4,left,1,0.85945,,,,,,stim/both.png,stim/neutralRight.png,left,180,2018,2020-05-14_11h56.10.074,ANTCPTp,2020.1.2,Win32,60,,,1,45,93,45,1,,,,,,,,,,,,,,,,,,,,,,,,,,,,,,,,,,,,,,,,,,
0.7,left,1,0.766735,,,,,,stim/centre.png,stim/incongRight.png,left,180,2018,2020-05-14_11h56.10.074,ANTCPTp,2020.1.2,Win32,60,,,1,46,94,30,1,,,,,,,,,,,,,,,,,,,,,,,,,,,,,,,,,,,,,,,,,,
1.3,left,1,0.65364,,,,,,stim/both.png,stim/congLeft.png,left,0,2018,2020-05-14_11h56.10.074,ANTCPTp,2020.1.2,Win32,60,,,1,47,95,1,1,,,,,,,,,,,,,,,,,,,,,,,,,,,,,,,,,,,,,,,,,,
,,,,,,,,,,,space,,2018,2020-05-14_11h56.10.074,ANTCPTp,2020.1.2,Win32,60,,,,,,,,,,,,,space,15.013095,space,45.158255,space,4.20733,space,1,0.59446,0,0,0,3,1,D,,,,,,,,,,,,,,,,,,,,,,
,,,,,,,,,,,,,2018,2020-05-14_11h56.10.074,ANTCPTp,2020.1.2,Win32,60,,,,,,,,,,,,,,,,,,,,1,,0,1,1,15,1,X,,,,,,,,,,,,,,,,,,,,,,
,,,,,,,,,,,space,,2018,2020-05-14_11h56.10.074,ANTCPTp,2020.1.2,Win32,60,,,,,,,,,,,,,,,,,,,space,1,0.47437,0,2,2,11,1,U,,,,,,,,,,,,,,,,,,,,,,
,,,,,,,,,,,space,,2018,2020-05-14_11h56.10.074,ANTCPTp,2020.1.2,Win32,60,,,,,,,,,,,,,,,,,,,space,1,0.51414,0,3,3,2,1,C,,,,,,,,,,,,,,,,,,,,,,
,,,,,,,,,,,space,,2018,2020-05-14_11h56.10.074,ANTCPTp,2020.1.2,Win32,60,,,,,,,,,,,,,,,,,,,space,1,0.53633,0,4,4,10,1,Q,,,,,,,,,,,,,,,,,,,,,,
,,,,,,,,,,,space,,2018,2020-05-14_11h56.10.074,ANTCPTp,2020.1.2,Win32,60,,,,,,,,,,,,,,,,,,,space,1,0.488395,0,5,5,6,1,J,,,,,,,,,,,,,,,,,,,,,,
,,,,,,,,,,,space,,2018,2020-05-14_11h56.10.074,ANTCPTp,2020.1.2,Win32,60,,,,,,,,,,,,,,,,,,,space,1,0.581885,0,6,6,4,1,E,,,,,,,,,,,,,,,,,,,,,,
,,,,,,,,,,,space,,2018,2020-05-14_11h56.10.074,ANTCPTp,2020.1.2,Win32,60,,,,,,,,,,,,,,,,,,,space,1,0.66861,0,7,7,9,1,P,,,,,,,,,,,,,,,,,,,,,,
,,,,,,,,,,,space,,2018,2020-05-14_11h56.10.074,ANTCPTp,2020.1.2,Win32,60,,,,,,,,,,,,,,,,,,,space,1,0.48284,0,8,8,12,1,V,,,,,,,,,,,,,,,,,,,,,,
,,,,,,,,,,,space,,2018,2020-05-14_11h56.10.074,ANTCPTp,2020.1.2,Win32,60,,,,,,,,,,,,,,,,,,,space,1,0.61773,0,9,9,13,1,W,,,,,,,,,,,,,,,,,,,,,,
,,,,,,,,,,,,,2018,2020-05-14_11h56.10.074,ANTCPTp,2020.1.2,Win32,60,,,,,,,,,,,,,,,,,,,,1,,0,10,10,16,1,X,,,,,,,,,,,,,,,,,,,,,,
,,,,,,,,,,,space,,2018,2020-05-14_11h56.10.074,ANTCPTp,2020.1.2,Win32,60,,,,,,,,,,,,,,,,,,,space,1,0.448235,0,11,11,5,1,F,,,,,,,,,,,,,,,,,,,,,,
,,,,,,,,,,,space,,2018,2020-05-14_11h56.10.074,ANTCPTp,2020.1.2,Win32,60,,,,,,,,,,,,,,,,,,,space,1,0.45396,0,12,12,0,1,A,,,,,,,,,,,,,,,,,,,,,,
,,,,,,,,,,,space,,2018,2020-05-14_11h56.10.074,ANTCPTp,2020.1.2,Win32,60,,,,,,,,,,,,,,,,,,,space,1,0.516285,0,13,13,1,1,B,,,,,,,,,,,,,,,,,,,,,,
,,,,,,,,,,,space,,2018,2020-05-14_11h56.10.074,ANTCPTp,2020.1.2,Win32,60,,,,,,,,,,,,,,,,,,,space,1,0.451015,0,14,14,14,1,Y,,,,,,,,,,,,,,,,,,,,,,
,,,,,,,,,,,space,,2018,2020-05-14_11h56.10.074,ANTCPTp,2020.1.2,Win32,60,,,,,,,,,,,,,,,,,,,space,1,0.57762,0,15,15,7,1,N,,,,,,,,,,,,,,,,,,,,,,
,,,,,,,,,,,space,,2018,2020-05-14_11h56.10.074,ANTCPTp,2020.1.2,Win32,60,,,,,,,,,,,,,,,,,,,space,1,0.583235,0,16,16,8,1,O,,,,,,,,,,,,,,,,,,,,,,
,,,,,,,,,,,space,,2018,2020-05-14_11h56.10.074,ANTCPTp,2020.1.2,Win32,60,,,,,,,,,,,,,,,,,,,space,1,0.599695,,,,,,M,1,2.469745,0,0,0,12,1,,,,,,,,,,,,,,,
,,,,,,,,,,,space,,2018,2020-05-14_11h56.10.074,ANTCPTp,2020.1.2,Win32,60,,,,,,,,,,,,,,,,,,,space,1,0.472845,,,,,,B,,,0,1,1,1,1,,,,,,,,,,,,,,,
,,,,,,,,,,,,,2018,2020-05-14_11h56.10.074,ANTCPTp,2020.1.2,Win32,60,,,,,,,,,,,,,,,,,,,,1,,,,,,,X,,,0,2,2,28,1,,,,,,,,,,,,,,,
,,,,,,,,,,,space,,2018,2020-05-14_11h56.10.074,ANTCPTp,2020.1.2,Win32,60,,,,,,,,,,,,,,,,,,,space,1,0.57444,,,,,,T,,,0,3,3,19,1,,,,,,,,,,,,,,,
,,,,,,,,,,,space,,2018,2020-05-14_11h56.10.074,ANTCPTp,2020.1.2,Win32,60,,,,,,,,,,,,,,,,,,,space,1,0.532555,,,,,,A,,,0,4,4,0,1,,,,,,,,,,,,,,,
,,,,,,,,,,,space,,2018,2020-05-14_11h56.10.074,ANTCPTp,2020.1.2,Win32,60,,,,,,,,,,,,,,,,,,,space,1,0.4113,,,,,,D,,,0,5,5,3,1,,,,,,,,,,,,,,,
,,,,,,,,,,,space,,2018,2020-05-14_11h56.10.074,ANTCPTp,2020.1.2,Win32,60,,,,,,,,,,,,,,,,,,,space,1,0.482185,,,,,,W,,,0,6,6,22,1,,,,,,,,,,,,,,,
,,,,,,,,,,,space,,2018,2020-05-14_11h56.10.074,ANTCPTp,2020.1.2,Win32,60,,,,,,,,,,,,,,,,,,,space,1,0.446955,,,,,,Q,,,0,7,7,16,1,,,,,,,,,,,,,,,
,,,,,,,,,,,space,,2018,2020-05-14_11h56.10.074,ANTCPTp,2020.1.2,Win32,60,,,,,,,,,,,,,,,,,,,space,1,0.51047,,,,,,R,,,0,8,8,17,1,,,,,,,,,,,,,,,
,,,,,,,,,,,space,,2018,2020-05-14_11h56.10.074,ANTCPTp,2020.1.2,Win32,60,,,,,,,,,,,,,,,,,,,space,1,0.469405,,,,,,S,,,0,9,9,18,1,,,,,,,,,,,,,,,
,,,,,,,,,,,space,,2018,2020-05-14_11h56.10.074,ANTCPTp,2020.1.2,Win32,60,,,,,,,,,,,,,,,,,,,space,1,0.49138,,,,,,U,,,0,10,10,20,1,,,,,,,,,,,,,,,
,,,,,,,,,,,space,,2018,2020-05-14_11h56.10.074,ANTCPTp,2020.1.2,Win32,60,,,,,,,,,,,,,,,,,,,space,1,0.4269,,,,,,V,,,0,11,11,21,1,,,,,,,,,,,,,,,
,,,,,,,,,,,,,2018,2020-05-14_11h56.10.074,ANTCPTp,2020.1.2,Win32,60,,,,,,,,,,,,,,,,,,,,1,,,,,,,X,,,0,12,12,29,1,,,,,,,,,,,,,,,
,,,,,,,,,,,space,,2018,2020-05-14_11h56.10.074,ANTCPTp,2020.1.2,Win32,60,,,,,,,,,,,,,,,,,,,space,1,0.58541,,,,,,I,,,0,13,13,8,1,,,,,,,,,,,,,,,
,,,,,,,,,,,space,,2018,2020-05-14_11h56.10.074,ANTCPTp,2020.1.2,Win32,60,,,,,,,,,,,,,,,,,,,space,1,0.591325,,,,,,A,,,0,14,14,25,1,,,,,,,,,,,,,,,
,,,,,,,,,,,space,,2018,2020-05-14_11h56.10.074,ANTCPTp,2020.1.2,Win32,60,,,,,,,,,,,,,,,,,,,space,1,0.446035,,,,,,P,,,0,15,15,15,1,,,,,,,,,,,,,,,
,,,,,,,,,,,space,,2018,2020-05-14_11h56.10.074,ANTCPTp,2020.1.2,Win32,60,,,,,,,,,,,,,,,,,,,space,1,0.507005,,,,,,C,,,0,16,16,2,1,,,,,,,,,,,,,,,
,,,,,,,,,,,space,,2018,2020-05-14_11h56.10.074,ANTCPTp,2020.1.2,Win32,60,,,,,,,,,,,,,,,,,,,space,1,0.45055,,,,,,O,,,0,17,17,14,1,,,,,,,,,,,,,,,
,,,,,,,,,,,space,,2018,2020-05-14_11h56.10.074,ANTCPTp,2020.1.2,Win32,60,,,,,,,,,,,,,,,,,,,space,1,0.50414,,,,,,N,,,0,18,18,13,1,,,,,,,,,,,,,,,
,,,,,,,,,,,space,,2018,2020-05-14_11h56.10.074,ANTCPTp,2020.1.2,Win32,60,,,,,,,,,,,,,,,,,,,space,1,0.50323,,,,,,G,,,0,19,19,6,1,,,,,,,,,,,,,,,
,,,,,,,,,,,space,,2018,2020-05-14_11h56.10.074,ANTCPTp,2020.1.2,Win32,60,,,,,,,,,,,,,,,,,,,space,1,0.495785,,,,,,J,,,0,20,20,9,1,,,,,,,,,,,,,,,
,,,,,,,,,,,,,2018,2020-05-14_11h56.10.074,ANTCPTp,2020.1.2,Win32,60,,,,,,,,,,,,,,,,,,,space,0,0.52648,,,,,,X,,,0,21,21,26,1,,,,,,,,,,,,,,,
,,,,,,,,,,,space,,2018,2020-05-14_11h56.10.074,ANTCPTp,2020.1.2,Win32,60,,,,,,,,,,,,,,,,,,,space,1,0.556555,,,,,,K,,,0,22,22,10,1,,,,,,,,,,,,,,,
,,,,,,,,,,,space,,2018,2020-05-14_11h56.10.074,ANTCPTp,2020.1.2,Win32,60,,,,,,,,,,,,,,,,,,,space,1,0.61977,,,,,,Z,,,0,23,23,24,1,,,,,,,,,,,,,,,
,,,,,,,,,,,space,,2018,2020-05-14_11h56.10.074,ANTCPTp,2020.1.2,Win32,60,,,,,,,,,,,,,,,,,,,space,1,0.48188,,,,,,Y,,,0,24,24,23,1,,,,,,,,,,,,,,,
,,,,,,,,,,,space,,2018,2020-05-14_11h56.10.074,ANTCPTp,2020.1.2,Win32,60,,,,,,,,,,,,,,,,,,,space,1,0.4805,,,,,,E,,,0,25,25,4,1,,,,,,,,,,,,,,,
,,,,,,,,,,,,,2018,2020-05-14_11h56.10.074,ANTCPTp,2020.1.2,Win32,60,,,,,,,,,,,,,,,,,,,,1,,,,,,,X,,,0,26,26,27,1,,,,,,,,,,,,,,,
,,,,,,,,,,,space,,2018,2020-05-14_11h56.10.074,ANTCPTp,2020.1.2,Win32,60,,,,,,,,,,,,,,,,,,,space,1,0.542715,,,,,,F,,,0,27,27,5,1,,,,,,,,,,,,,,,
,,,,,,,,,,,space,,2018,2020-05-14_11h56.10.074,ANTCPTp,2020.1.2,Win32,60,,,,,,,,,,,,,,,,,,,space,1,0.62073,,,,,,L,,,0,28,28,11,1,,,,,,,,,,,,,,,
,,,,,,,,,,,space,,2018,2020-05-14_11h56.10.074,ANTCPTp,2020.1.2,Win32,60,,,,,,,,,,,,,,,,,,,space,1,0.608585,,,,,,H,,,0,29,29,7,1,,,,,,,,,,,,,,,
,,,,,,,,,,,space,,2018,2020-05-14_11h56.10.074,ANTCPTp,2020.1.2,Win32,60,,,,,,,,,,,,,,,,,,,space,1,0.584085,,,,,,Z,2,1.78787,,,,,,0,0,0,18,1,,,,,,,,,,
,,,,,,,,,,,space,,2018,2020-05-14_11h56.10.074,ANTCPTp,2020.1.2,Win32,60,,,,,,,,,,,,,,,,,,,space,1,0.613255,,,,,,M,,,,,,,,0,1,1,8,1,,,,,,,,,,
,,,,,,,,,,,space,,2018,2020-05-14_11h56.10.074,ANTCPTp,2020.1.2,Win32,60,,,,,,,,,,,,,,,,,,,space,1,0.492625,,,,,,U,,,,,,,,0,2,2,15,1,,,,,,,,,,
,,,,,,,,,,,space,,2018,2020-05-14_11h56.10.074,ANTCPTp,2020.1.2,Win32,60,,,,,,,,,,,,,,,,,,,space,1,0.490045,,,,,,H,,,,,,,,0,3,3,5,1,,,,,,,,,,
,,,,,,,,,,,,,2018,2020-05-14_11h56.10.074,ANTCPTp,2020.1.2,Win32,60,,,,,,,,,,,,,,,,,,,,1,,,,,,,X,,,,,,,,0,4,4,21,1,,,,,,,,,,
,,,,,,,,,,,,,2018,2020-05-14_11h56.10.074,ANTCPTp,2020.1.2,Win32,60,,,,,,,,,,,,,,,,,,,,1,,,,,,,X,,,,,,,,0,5,5,20,1,,,,,,,,,,
,,,,,,,,,,,space,,2018,2020-05-14_11h56.10.074,ANTCPTp,2020.1.2,Win32,60,,,,,,,,,,,,,,,,,,,space,1,0.48002,,,,,,Q,,,,,,,,0,6,6,11,1,,,,,,,,,,
,,,,,,,,,,,space,,2018,2020-05-14_11h56.10.074,ANTCPTp,2020.1.2,Win32,60,,,,,,,,,,,,,,,,,,,space,1,0.48609,,,,,,O,,,,,,,,0,7,7,10,1,,,,,,,,,,
,,,,,,,,,,,space,,2018,2020-05-14_11h56.10.074,ANTCPTp,2020.1.2,Win32,60,,,,,,,,,,,,,,,,,,,space,1,0.565755,,,,,,B,,,,,,,,0,8,8,0,1,,,,,,,,,,
,,,,,,,,,,,space,,2018,2020-05-14_11h56.10.074,ANTCPTp,2020.1.2,Win32,60,,,,,,,,,,,,,,,,,,,space,1,0.50857,,,,,,F,,,,,,,,0,9,9,3,1,,,,,,,,,,
,,,,,,,,,,,space,,2018,2020-05-14_11h56.10.074,ANTCPTp,2020.1.2,Win32,60,,,,,,,,,,,,,,,,,,,space,1,0.53752,,,,,,Y,,,,,,,,0,10,10,17,1,,,,,,,,,,
,,,,,,,,,,,space,,2018,2020-05-14_11h56.10.074,ANTCPTp,2020.1.2,Win32,60,,,,,,,,,,,,,,,,,,,space,1,0.577365,,,,,,K,,,,,,,,0,11,11,6,1,,,,,,,,,,
,,,,,,,,,,,space,,2018,2020-05-14_11h56.10.074,ANTCPTp,2020.1.2,Win32,60,,,,,,,,,,,,,,,,,,,space,1,0.582505,,,,,,G,,,,,,,,0,12,12,4,1,,,,,,,,,,
,,,,,,,,,,,space,,2018,2020-05-14_11h56.10.074,ANTCPTp,2020.1.2,Win32,60,,,,,,,,,,,,,,,,,,,space,1,0.52682,,,,,,S,,,,,,,,0,13,13,13,1,,,,,,,,,,
,,,,,,,,,,,space,,2018,2020-05-14_11h56.10.074,ANTCPTp,2020.1.2,Win32,60,,,,,,,,,,,,,,,,,,,space,1,0.4757,,,,,,D,,,,,,,,0,14,14,1,1,,,,,,,,,,
,,,,,,,,,,,space,,2018,2020-05-14_11h56.10.074,ANTCPTp,2020.1.2,Win32,60,,,,,,,,,,,,,,,,,,,space,1,0.52259,,,,,,N,,,,,,,,0,15,15,9,1,,,,,,,,,,
,,,,,,,,,,,space,,2018,2020-05-14_11h56.10.074,ANTCPTp,2020.1.2,Win32,60,,,,,,,,,,,,,,,,,,,space,1,0.57899,,,,,,L,,,,,,,,0,16,16,7,1,,,,,,,,,,
,,,,,,,,,,,space,,2018,2020-05-14_11h56.10.074,ANTCPTp,2020.1.2,Win32,60,,,,,,,,,,,,,,,,,,,space,1,0.46397,,,,,,R,,,,,,,,0,17,17,12,1,,,,,,,,,,
,,,,,,,,,,,space,,2018,2020-05-14_11h56.10.074,ANTCPTp,2020.1.2,Win32,60,,,,,,,,,,,,,,,,,,,space,1,0.51968,,,,,,A,,,,,,,,0,18,18,19,1,,,,,,,,,,
,,,,,,,,,,,space,,2018,2020-05-14_11h56.10.074,ANTCPTp,2020.1.2,Win32,60,,,,,,,,,,,,,,,,,,,space,1,0.44715,,,,,,T,,,,,,,,0,19,19,14,1,,,,,,,,,,
,,,,,,,,,,,space,,2018,2020-05-14_11h56.10.074,ANTCPTp,2020.1.2,Win32,60,,,,,,,,,,,,,,,,,,,space,1,0.477005,,,,,,E,,,,,,,,0,20,20,2,1,,,,,,,,,,
,,,,,,,,,,,space,,2018,2020-05-14_11h56.10.074,ANTCPTp,2020.1.2,Win32,60,,,,,,,,,,,,,,,,,,,space,1,0.468,,,,,,W,,,,,,,,0,21,21,16,1,,,,,,,,,,
,,,,,,,,,,,space,,2018,2020-05-14_11h56.10.074,ANTCPTp,2020.1.2,Win32,60,,,,,,,,,,,,,,,,,,,space,1,0.513785,,,,,,N,1,1.764925,,,,,,,,,,,0,0,0,13,1,,,,,
,,,,,,,,,,,space,,2018,2020-05-14_11h56.10.074,ANTCPTp,2020.1.2,Win32,60,,,,,,,,,,,,,,,,,,,space,1,0.45732,,,,,,Y,,,,,,,,,,,,,0,1,1,22,1,,,,,
,,,,,,,,,,,space,,2018,2020-05-14_11h56.10.074,ANTCPTp,2020.1.2,Win32,60,,,,,,,,,,,,,,,,,,,space,1,0.49669,,,,,,I,,,,,,,,,,,,,0,2,2,8,1,,,,,
,,,,,,,,,,,space,,2018,2020-05-14_11h56.10.074,ANTCPTp,2020.1.2,Win32,60,,,,,,,,,,,,,,,,,,,space,1,0.654665,,,,,,S,,,,,,,,,,,,,0,3,3,18,1,,,,,
,,,,,,,,,,,,,2018,2020-05-14_11h56.10.074,ANTCPTp,2020.1.2,Win32,60,,,,,,,,,,,,,,,,,,,,1,,,,,,,X,,,,,,,,,,,,,0,4,4,26,1,,,,,
,,,,,,,,,,,space,,2018,2020-05-14_11h56.10.074,ANTCPTp,2020.1.2,Win32,60,,,,,,,,,,,,,,,,,,,space,1,0.46844,,,,,,J,,,,,,,,,,,,,0,5,5,9,1,,,,,
,,,,,,,,,,,space,,2018,2020-05-14_11h56.10.074,ANTCPTp,2020.1.2,Win32,60,,,,,,,,,,,,,,,,,,,space,1,0.4984,,,,,,K,,,,,,,,,,,,,0,6,6,10,1,,,,,
,,,,,,,,,,,space,,2018,2020-05-14_11h56.10.074,ANTCPTp,2020.1.2,Win32,60,,,,,,,,,,,,,,,,,,,space,1,0.55244,,,,,,D,,,,,,,,,,,,,0,7,7,3,1,,,,,
,,,,,,,,,,,space,,2018,2020-05-14_11h56.10.074,ANTCPTp,2020.1.2,Win32,60,,,,,,,,,,,,,,,,,,,space,1,0.5922,,,,,,F,,,,,,,,,,,,,0,8,8,5,1,,,,,
,,,,,,,,,,,space,,2018,2020-05-14_11h56.10.074,ANTCPTp,2020.1.2,Win32,60,,,,,,,,,,,,,,,,,,,space,1,0.710375,,,,,,Z,,,,,,,,,,,,,0,9,9,23,1,,,,,
,,,,,,,,,,,space,,2018,2020-05-14_11h56.10.074,ANTCPTp,2020.1.2,Win32,60,,,,,,,,,,,,,,,,,,,space,1,0.555025,,,,,,H,,,,,,,,,,,,,0,10,10,7,1,,,,,
,,,,,,,,,,,space,,2018,2020-05-14_11h56.10.074,ANTCPTp,2020.1.2,Win32,60,,,,,,,,,,,,,,,,,,,space,1,0.54738,,,,,,W,,,,,,,,,,,,,0,11,11,21,1,,,,,
,,,,,,,,,,,,,2018,2020-05-14_11h56.10.074,ANTCPTp,2020.1.2,Win32,60,,,,,,,,,,,,,,,,,,,,1,,,,,,,X,,,,,,,,,,,,,0,12,12,24,1,,,,,
,,,,,,,,,,,space,,2018,2020-05-14_11h56.10.074,ANTCPTp,2020.1.2,Win32,60,,,,,,,,,,,,,,,,,,,space,1,0.52838,,,,,,O,,,,,,,,,,,,,0,13,13,14,1,,,,,
,,,,,,,,,,,space,,2018,2020-05-14_11h56.10.074,ANTCPTp,2020.1.2,Win32,60,,,,,,,,,,,,,,,,,,,space,1,0.54369,,,,,,B,,,,,,,,,,,,,0,14,14,1,1,,,,,
,,,,,,,,,,,space,,2018,2020-05-14_11h56.10.074,ANTCPTp,2020.1.2,Win32,60,,,,,,,,,,,,,,,,,,,space,1,0.588905,,,,,,U,,,,,,,,,,,,,0,15,15,19,1,,,,,
,,,,,,,,,,,space,,2018,2020-05-14_11h56.10.074,ANTCPTp,2020.1.2,Win32,60,,,,,,,,,,,,,,,,,,,space,1,0.56364,,,,,,G,,,,,,,,,,,,,0,16,16,6,1,,,,,
,,,,,,,,,,,space,,2018,2020-05-14_11h56.10.074,ANTCPTp,2020.1.2,Win32,60,,,,,,,,,,,,,,,,,,,space,1,0.64293,,,,,,A,,,,,,,,,,,,,0,17,17,0,1,,,,,
,,,,,,,,,,,space,,2018,2020-05-14_11h56.10.074,ANTCPTp,2020.1.2,Win32,60,,,,,,,,,,,,,,,,,,,space,1,0.52199,,,,,,V,,,,,,,,,,,,,0,18,18,20,1,,,,,
,,,,,,,,,,,space,,2018,2020-05-14_11h56.10.074,ANTCPTp,2020.1.2,Win32,60,,,,,,,,,,,,,,,,,,,space,1,0.63177,,,,,,M,,,,,,,,,,,,,0,19,19,12,1,,,,,
,,,,,,,,,,,space,,2018,2020-05-14_11h56.10.074,ANTCPTp,2020.1.2,Win32,60,,,,,,,,,,,,,,,,,,,space,1,0.503345,,,,,,L,,,,,,,,,,,,,0,20,20,11,1,,,,,
,,,,,,,,,,,space,,2018,2020-05-14_11h56.10.074,ANTCPTp,2020.1.2,Win32,60,,,,,,,,,,,,,,,,,,,space,1,0.4462,,,,,,E,,,,,,,,,,,,,0,21,21,4,1,,,,,
,,,,,,,,,,,,,2018,2020-05-14_11h56.10.074,ANTCPTp,2020.1.2,Win32,60,,,,,,,,,,,,,,,,,,,,1,,,,,,,X,,,,,,,,,,,,,0,22,22,25,1,,,,,
,,,,,,,,,,,space,,2018,2020-05-14_11h56.10.074,ANTCPTp,2020.1.2,Win32,60,,,,,,,,,,,,,,,,,,,space,1,0.50714,,,,,,Q,,,,,,,,,,,,,0,23,23,16,1,,,,,
,,,,,,,,,,,space,,2018,2020-05-14_11h56.10.074,ANTCPTp,2020.1.2,Win32,60,,,,,,,,,,,,,,,,,,,space,1,0.514095,,,,,,P,,,,,,,,,,,,,0,24,24,15,1,,,,,
,,,,,,,,,,,space,,2018,2020-05-14_11h56.10.074,ANTCPTp,2020.1.2,Win32,60,,,,,,,,,,,,,,,,,,,space,1,0.4949,,,,,,C,,,,,,,,,,,,,0,25,25,2,1,,,,,
,,,,,,,,,,,space,,2018,2020-05-14_11h56.10.074,ANTCPTp,2020.1.2,Win32,60,,,,,,,,,,,,,,,,,,,space,1,0.511505,,,,,,R,,,,,,,,,,,,,0,26,26,17,1,,,,,
,,,,,,,,,,,,,2018,2020-05-14_11h56.10.074,ANTCPTp,2020.1.2,Win32,60,,,,,,,,,,,,,,,,,,,,,,,,,,,,2,1.552345,,,,,,,,,,,,,,,,0,0,0,0,1
,,,,,,,,,,,space,,2018,2020-05-14_11h56.10.074,ANTCPTp,2020.1.2,Win32,60,,,,,,,,,,,,,,,,,,,space,1,0.597655,0,0,0,3,1,D,,,,,,,,,,,,,,,,,,,,,,
,,,,,,,,,,,space,,2018,2020-05-14_11h56.10.074,ANTCPTp,2020.1.2,Win32,60,,,,,,,,,,,,,,,,,,,space,1,0.540345,0,1,1,10,1,Q,,,,,,,,,,,,,,,,,,,,,,
,,,,,,,,,,,space,,2018,2020-05-14_11h56.10.074,ANTCPTp,2020.1.2,Win32,60,,,,,,,,,,,,,,,,,,,space,1,0.49147,0,2,2,4,1,E,,,,,,,,,,,,,,,,,,,,,,
,,,,,,,,,,,space,,2018,2020-05-14_11h56.10.074,ANTCPTp,2020.1.2,Win32,60,,,,,,,,,,,,,,,,,,,space,1,0.45794,0,3,3,13,1,W,,,,,,,,,,,,,,,,,,,,,,
,,,,,,,,,,,space,,2018,2020-05-14_11h56.10.074,ANTCPTp,2020.1.2,Win32,60,,,,,,,,,,,,,,,,,,,space,1,0.400885,0,4,4,5,1,F,,,,,,,,,,,,,,,,,,,,,,
,,,,,,,,,,,space,,2018,2020-05-14_11h56.10.074,ANTCPTp,2020.1.2,Win32,60,,,,,,,,,,,,,,,,,,,space,1,0.381545,0,5,5,8,1,O,,,,,,,,,,,,,,,,,,,,,,
,,,,,,,,,,,space,,2018,2020-05-14_11h56.10.074,ANTCPTp,2020.1.2,Win32,60,,,,,,,,,,,,,,,,,,,space,1,0.406505,0,6,6,6,1,J,,,,,,,,,,,,,,,,,,,,,,
,,,,,,,,,,,space,,2018,2020-05-14_11h56.10.074,ANTCPTp,2020.1.2,Win32,60,,,,,,,,,,,,,,,,,,,space,1,0.460265,0,7,7,14,1,Y,,,,,,,,,,,,,,,,,,,,,,
,,,,,,,,,,,space,,2018,2020-05-14_11h56.10.074,ANTCPTp,2020.1.2,Win32,60,,,,,,,,,,,,,,,,,,,space,1,0.457325,0,8,8,11,1,U,,,,,,,,,,,,,,,,,,,,,,
,,,,,,,,,,,,,2018,2020-05-14_11h56.10.074,ANTCPTp,2020.1.2,Win32,60,,,,,,,,,,,,,,,,,,,,1,,0,9,9,16,1,X,,,,,,,,,,,,,,,,,,,,,,
,,,,,,,,,,,space,,2018,2020-05-14_11h56.10.074,ANTCPTp,2020.1.2,Win32,60,,,,,,,,,,,,,,,,,,,space,1,0.496875,0,10,10,1,1,B,,,,,,,,,,,,,,,,,,,,,,
,,,,,,,,,,,space,,2018,2020-05-14_11h56.10.074,ANTCPTp,2020.1.2,Win32,60,,,,,,,,,,,,,,,,,,,space,1,0.527625,0,11,11,0,1,A,,,,,,,,,,,,,,,,,,,,,,
,,,,,,,,,,,space,,2018,2020-05-14_11h56.10.074,ANTCPTp,2020.1.2,Win32,60,,,,,,,,,,,,,,,,,,,space,1,0.46991,0,12,12,12,1,V,,,,,,,,,,,,,,,,,,,,,,
,,,,,,,,,,,space,,2018,2020-05-14_11h56.10.074,ANTCPTp,2020.1.2,Win32,60,,,,,,,,,,,,,,,,,,,space,1,0.64441,0,13,13,9,1,P,,,,,,,,,,,,,,,,,,,,,,
,,,,,,,,,,,space,,2018,2020-05-14_11h56.10.074,ANTCPTp,2020.1.2,Win32,60,,,,,,,,,,,,,,,,,,,space,1,0.53923,0,14,14,2,1,C,,,,,,,,,,,,,,,,,,,,,,
,,,,,,,,,,,space,,2018,2020-05-14_11h56.10.074,ANTCPTp,2020.1.2,Win32,60,,,,,,,,,,,,,,,,,,,space,1,0.481335,0,15,15,7,1,N,,,,,,,,,,,,,,,,,,,,,,
,,,,,,,,,,,,,2018,2020-05-14_11h56.10.074,ANTCPTp,2020.1.2,Win32,60,,,,,,,,,,,,,,,,,,,,1,,0,16,16,15,1,X,,,,,,,,,,,,,,,,,,,,,,
,,,,,,,,,,,space,,2018,2020-05-14_11h56.10.074,ANTCPTp,2020.1.2,Win32,60,,,,,,,,,,,,,,,,,,,space,1,0.95741,,,,,,P,1,1.76973,0,0,0,15,1,,,,,,,,,,,,,,,
,,,,,,,,,,,space,,2018,2020-05-14_11h56.10.074,ANTCPTp,2020.1.2,Win32,60,,,,,,,,,,,,,,,,,,,space,1,0.46058,,,,,,K,,,0,1,1,10,1,,,,,,,,,,,,,,,
,,,,,,,,,,,space,,2018,2020-05-14_11h56.10.074,ANTCPTp,2020.1.2,Win32,60,,,,,,,,,,,,,,,,,,,space,1,0.49963,,,,,,Q,,,0,2,2,16,1,,,,,,,,,,,,,,,
,,,,,,,,,,,space,,2018,2020-05-14_11h56.10.074,ANTCPTp,2020.1.2,Win32,60,,,,,,,,,,,,,,,,,,,space,1,0.528555,,,,,,U,,,0,3,3,20,1,,,,,,,,,,,,,,,
,,,,,,,,,,,space,,2018,2020-05-14_11h56.10.074,ANTCPTp,2020.1.2,Win32,60,,,,,,,,,,,,,,,,,,,space,1,0.54448,,,,,,B,,,0,4,4,1,1,,,,,,,,,,,,,,,
,,,,,,,,,,,space,,2018,2020-05-14_11h56.10.074,ANTCPTp,2020.1.2,Win32,60,,,,,,,,,,,,,,,,,,,space,1,0.43925,,,,,,S,,,0,5,5,18,1,,,,,,,,,,,,,,,
,,,,,,,,,,,space,,2018,2020-05-14_11h56.10.074,ANTCPTp,2020.1.2,Win32,60,,,,,,,,,,,,,,,,,,,space,1,0.4213,,,,,,C,,,0,6,6,2,1,,,,,,,,,,,,,,,
,,,,,,,,,,,space,,2018,2020-05-14_11h56.10.074,ANTCPTp,2020.1.2,Win32,60,,,,,,,,,,,,,,,,,,,space,1,0.46796,,,,,,W,,,0,7,7,22,1,,,,,,,,,,,,,,,
,,,,,,,,,,,space,,2018,2020-05-14_11h56.10.074,ANTCPTp,2020.1.2,Win32,60,,,,,,,,,,,,,,,,,,,space,1,0.50712,,,,,,A,,,0,8,8,0,1,,,,,,,,,,,,,,,
,,,,,,,,,,,space,,2018,2020-05-14_11h56.10.074,ANTCPTp,2020.1.2,Win32,60,,,,,,,,,,,,,,,,,,,space,1,0.448635,,,,,,N,,,0,9,9,13,1,,,,,,,,,,,,,,,
,,,,,,,,,,,space,,2018,2020-05-14_11h56.10.074,ANTCPTp,2020.1.2,Win32,60,,,,,,,,,,,,,,,,,,,space,1,0.439025,,,,,,O,,,0,10,10,14,1,,,,,,,,,,,,,,,
,,,,,,,,,,,space,,2018,2020-05-14_11h56.10.074,ANTCPTp,2020.1.2,Win32,60,,,,,,,,,,,,,,,,,,,space,1,0.398745,,,,,,G,,,0,11,11,6,1,,,,,,,,,,,,,,,
,,,,,,,,,,,space,,2018,2020-05-14_11h56.10.074,ANTCPTp,2020.1.2,Win32,60,,,,,,,,,,,,,,,,,,,space,1,0.44694,,,,,,F,,,0,12,12,5,1,,,,,,,,,,,,,,,
,,,,,,,,,,,,,2018,2020-05-14_11h56.10.074,ANTCPTp,2020.1.2,Win32,60,,,,,,,,,,,,,,,,,,,,1,,,,,,,X,,,0,13,13,29,1,,,,,,,,,,,,,,,
,,,,,,,,,,,space,,2018,2020-05-14_11h56.10.074,ANTCPTp,2020.1.2,Win32,60,,,,,,,,,,,,,,,,,,,space,1,0.475375,,,,,,A,,,0,14,14,25,1,,,,,,,,,,,,,,,
,,,,,,,,,,,space,,2018,2020-05-14_11h56.10.074,ANTCPTp,2020.1.2,Win32,60,,,,,,,,,,,,,,,,,,,space,1,0.600105,,,,,,R,,,0,15,15,17,1,,,,,,,,,,,,,,,
,,,,,,,,,,,space,,2018,2020-05-14_11h56.10.074,ANTCPTp,2020.1.2,Win32,60,,,,,,,,,,,,,,,,,,,space,1,0.513245,,,,,,I,,,0,16,16,8,1,,,,,,,,,,,,,,,
,,,,,,,,,,,space,,2018,2020-05-14_11h56.10.074,ANTCPTp,2020.1.2,Win32,60,,,,,,,,,,,,,,,,,,,space,1,0.46353,,,,,,Y,,,0,17,17,23,1,,,,,,,,,,,,,,,
,,,,,,,,,,,space,,2018,2020-05-14_11h56.10.074,ANTCPTp,2020.1.2,Win32,60,,,,,,,,,,,,,,,,,,,space,1,0.524595,,,,,,D,,,0,18,18,3,1,,,,,,,,,,,,,,,
,,,,,,,,,,,space,,2018,2020-05-14_11h56.10.074,ANTCPTp,2020.1.2,Win32,60,,,,,,,,,,,,,,,,,,,space,1,0.47707,,,,,,Z,,,0,19,19,24,1,,,,,,,,,,,,,,,
,,,,,,,,,,,space,,2018,2020-05-14_11h56.10.074,ANTCPTp,2020.1.2,Win32,60,,,,,,,,,,,,,,,,,,,space,1,0.427105,,,,,,E,,,0,20,20,4,1,,,,,,,,,,,,,,,
,,,,,,,,,,,space,,2018,2020-05-14_11h56.10.074,ANTCPTp,2020.1.2,Win32,60,,,,,,,,,,,,,,,,,,,space,1,0.506605,,,,,,V,,,0,21,21,21,1,,,,,,,,,,,,,,,
,,,,,,,,,,,,,2018,2020-05-14_11h56.10.074,ANTCPTp,2020.1.2,Win32,60,,,,,,,,,,,,,,,,,,,,1,,,,,,,X,,,0,22,22,28,1,,,,,,,,,,,,,,,
,,,,,,,,,,,,,2018,2020-05-14_11h56.10.074,ANTCPTp,2020.1.2,Win32,60,,,,,,,,,,,,,,,,,,,,1,,,,,,,X,,,0,23,23,27,1,,,,,,,,,,,,,,,
,,,,,,,,,,,space,,2018,2020-05-14_11h56.10.074,ANTCPTp,2020.1.2,Win32,60,,,,,,,,,,,,,,,,,,,space,1,0.454745,,,,,,L,,,0,24,24,11,1,,,,,,,,,,,,,,,
,,,,,,,,,,,space,,2018,2020-05-14_11h56.10.074,ANTCPTp,2020.1.2,Win32,60,,,,,,,,,,,,,,,,,,,space,1,0.51593,,,,,,M,,,0,25,25,12,1,,,,,,,,,,,,,,,
,,,,,,,,,,,space,,2018,2020-05-14_11h56.10.074,ANTCPTp,2020.1.2,Win32,60,,,,,,,,,,,,,,,,,,,space,1,0.46023,,,,,,J,,,0,26,26,9,1,,,,,,,,,,,,,,,
,,,,,,,,,,,space,,2018,2020-05-14_11h56.10.074,ANTCPTp,2020.1.2,Win32,60,,,,,,,,,,,,,,,,,,,space,1,0.442185,,,,,,T,,,0,27,27,19,1,,,,,,,,,,,,,,,
,,,,,,,,,,,,,2018,2020-05-14_11h56.10.074,ANTCPTp,2020.1.2,Win32,60,,,,,,,,,,,,,,,,,,,,1,,,,,,,X,,,0,28,28,26,1,,,,,,,,,,,,,,,
,,,,,,,,,,,space,,2018,2020-05-14_11h56.10.074,ANTCPTp,2020.1.2,Win32,60,,,,,,,,,,,,,,,,,,,space,1,0.525375,,,,,,H,,,0,29,29,7,1,,,,,,,,,,,,,,,
,,,,,,,,,,,space,,2018,2020-05-14_11h56.10.074,ANTCPTp,2020.1.2,Win32,60,,,,,,,,,,,,,,,,,,,space,1,0.83342,,,,,,A,1,2.031885,,,,,,0,0,0,19,1,,,,,,,,,,
,,,,,,,,,,,space,,2018,2020-05-14_11h56.10.074,ANTCPTp,2020.1.2,Win32,60,,,,,,,,,,,,,,,,,,,space,1,0.496405,,,,,,D,,,,,,,,0,1,1,1,1,,,,,,,,,,
,,,,,,,,,,,space,,2018,2020-05-14_11h56.10.074,ANTCPTp,2020.1.2,Win32,60,,,,,,,,,,,,,,,,,,,space,1,0.415405,,,,,,O,,,,,,,,0,2,2,10,1,,,,,,,,,,
,,,,,,,,,,,space,,2018,2020-05-14_11h56.10.074,ANTCPTp,2020.1.2,Win32,60,,,,,,,,,,,,,,,,,,,space,1,0.645415,,,,,,G,,,,,,,,0,3,3,4,1,,,,,,,,,,
,,,,,,,,,,,space,,2018,2020-05-14_11h56.10.074,ANTCPTp,2020.1.2,Win32,60,,,,,,,,,,,,,,,,,,,space,1,0.45873,,,,,,H,,,,,,,,0,4,4,5,1,,,,,,,,,,
,,,,,,,,,,,space,,2018,2020-05-14_11h56.10.074,ANTCPTp,2020.1.2,Win32,60,,,,,,,,,,,,,,,,,,,space,1,0.43638,,,,,,F,,,,,,,,0,5,5,3,1,,,,,,,,,,
,,,,,,,,,,,,,2018,2020-05-14_11h56.10.074,ANTCPTp,2020.1.2,Win32,60,,,,,,,,,,,,,,,,,,,,1,,,,,,,X,,,,,,,,0,6,6,21,1,,,,,,,,,,
,,,,,,,,,,,space,,2018,2020-05-14_11h56.10.074,ANTCPTp,2020.1.2,Win32,60,,,,,,,,,,,,,,,,,,,space,1,0.465145,,,,,,N,,,,,,,,0,7,7,9,1,,,,,,,,,,
,,,,,,,,,,,space,,2018,2020-05-14_11h56.10.074,ANTCPTp,2020.1.2,Win32,60,,,,,,,,,,,,,,,,,,,space,1,0.51664,,,,,,M,,,,,,,,0,8,8,8,1,,,,,,,,,,
,,,,,,,,,,,space,,2018,2020-05-14_11h56.10.074,ANTCPTp,2020.1.2,Win32,60,,,,,,,,,,,,,,,,,,,space,1,0.494115,,,,,,L,,,,,,,,0,9,9,7,1,,,,,,,,,,
,,,,,,,,,,,space,,2018,2020-05-14_11h56.10.074,ANTCPTp,2020.1.2,Win32,60,,,,,,,,,,,,,,,,,,,space,1,0.420025,,,,,,S,,,,,,,,0,10,10,13,1,,,,,,,,,,
,,,,,,,,,,,,,2018,2020-05-14_11h56.10.074,ANTCPTp,2020.1.2,Win32,60,,,,,,,,,,,,,,,,,,,,1,,,,,,,X,,,,,,,,0,11,11,20,1,,,,,,,,,,
,,,,,,,,,,,space,,2018,2020-05-14_11h56.10.074,ANTCPTp,2020.1.2,Win32,60,,,,,,,,,,,,,,,,,,,space,1,0.435445,,,,,,Z,,,,,,,,0,12,12,18,1,,,,,,,,,,
,,,,,,,,,,,space,,2018,2020-05-14_11h56.10.074,ANTCPTp,2020.1.2,Win32,60,,,,,,,,,,,,,,,,,,,space,1,0.48108,,,,,,Y,,,,,,,,0,13,13,17,1,,,,,,,,,,
,,,,,,,,,,,space,,2018,2020-05-14_11h56.10.074,ANTCPTp,2020.1.2,Win32,60,,,,,,,,,,,,,,,,,,,space,1,0.472475,,,,,,T,,,,,,,,0,14,14,14,1,,,,,,,,,,
,,,,,,,,,,,space,,2018,2020-05-14_11h56.10.074,ANTCPTp,2020.1.2,Win32,60,,,,,,,,,,,,,,,,,,,space,1,0.47784,,,,,,E,,,,,,,,0,15,15,2,1,,,,,,,,,,
,,,,,,,,,,,space,,2018,2020-05-14_11h56.10.074,ANTCPTp,2020.1.2,Win32,60,,,,,,,,,,,,,,,,,,,space,1,0.44351,,,,,,R,,,,,,,,0,16,16,12,1,,,,,,,,,,
,,,,,,,,,,,space,,2018,2020-05-14_11h56.10.074,ANTCPTp,2020.1.2,Win32,60,,,,,,,,,,,,,,,,,,,space,1,0.723095,,,,,,K,,,,,,,,0,17,17,6,1,,,,,,,,,,
,,,,,,,,,,,space,,2018,2020-05-14_11h56.10.074,ANTCPTp,2020.1.2,Win32,60,,,,,,,,,,,,,,,,,,,space,1,0.46501,,,,,,U,,,,,,,,0,18,18,15,1,,,,,,,,,,
,,,,,,,,,,,space,,2018,2020-05-14_11h56.10.074,ANTCPTp,2020.1.2,Win32,60,,,,,,,,,,,,,,,,,,,space,1,0.53476,,,,,,Q,,,,,,,,0,19,19,11,1,,,,,,,,,,
,,,,,,,,,,,space,,2018,2020-05-14_11h56.10.074,ANTCPTp,2020.1.2,Win32,60,,,,,,,,,,,,,,,,,,,space,1,0.39951,,,,,,B,,,,,,,,0,20,20,0,1,,,,,,,,,,
,,,,,,,,,,,space,,2018,2020-05-14_11h56.10.074,ANTCPTp,2020.1.2,Win32,60,,,,,,,,,,,,,,,,,,,space,1,0.39931,,,,,,W,,,,,,,,0,21,21,16,1,,,,,,,,,,
,,,,,,,,,,,space,,2018,2020-05-14_11h56.10.074,ANTCPTp,2020.1.2,Win32,60,,,,,,,,,,,,,,,,,,,space,1,0.533165,,,,,,J,1,1.783495,,,,,,,,,,,0,0,0,9,1,,,,,
,,,,,,,,,,,space,,2018,2020-05-14_11h56.10.074,ANTCPTp,2020.1.2,Win32,60,,,,,,,,,,,,,,,,,,,space,1,0.411305,,,,,,E,,,,,,,,,,,,,0,1,1,4,1,,,,,
,,,,,,,,,,,,,2018,2020-05-14_11h56.10.074,ANTCPTp,2020.1.2,Win32,60,,,,,,,,,,,,,,,,,,,,1,,,,,,,X,,,,,,,,,,,,,0,2,2,25,1,,,,,
,,,,,,,,,,,space,,2018,2020-05-14_11h56.10.074,ANTCPTp,2020.1.2,Win32,60,,,,,,,,,,,,,,,,,,,space,1,0.42221,,,,,,M,,,,,,,,,,,,,0,3,3,12,1,,,,,
,,,,,,,,,,,space,,2018,2020-05-14_11h56.10.074,ANTCPTp,2020.1.2,Win32,60,,,,,,,,,,,,,,,,,,,space,1,0.41524,,,,,,W,,,,,,,,,,,,,0,4,4,21,1,,,,,
,,,,,,,,,,,space,,2018,2020-05-14_11h56.10.074,ANTCPTp,2020.1.2,Win32,60,,,,,,,,,,,,,,,,,,,space,1,0.42242,,,,,,F,,,,,,,,,,,,,0,5,5,5,1,,,,,
,,,,,,,,,,,space,,2018,2020-05-14_11h56.10.074,ANTCPTp,2020.1.2,Win32,60,,,,,,,,,,,,,,,,,,,space,1,0.371035,,,,,,O,,,,,,,,,,,,,0,6,6,14,1,,,,,
,,,,,,,,,,,,,2018,2020-05-14_11h56.10.074,ANTCPTp,2020.1.2,Win32,60,,,,,,,,,,,,,,,,,,,,1,,,,,,,X,,,,,,,,,,,,,0,7,7,26,1,,,,,
,,,,,,,,,,,space,,2018,2020-05-14_11h56.10.074,ANTCPTp,2020.1.2,Win32,60,,,,,,,,,,,,,,,,,,,space,1,0.4584,,,,,,L,,,,,,,,,,,,,0,8,8,11,1,,,,,
,,,,,,,,,,,space,,2018,2020-05-14_11h56.10.074,ANTCPTp,2020.1.2,Win32,60,,,,,,,,,,,,,,,,,,,space,1,0.487715,,,,,,Y,,,,,,,,,,,,,0,9,9,22,1,,,,,
,,,,,,,,,,,space,,2018,2020-05-14_11h56.10.074,ANTCPTp,2020.1.2,Win32,60,,,,,,,,,,,,,,,,,,,space,1,0.460455,,,,,,G,,,,,,,,,,,,,0,10,10,6,1,,,,,
,,,,,,,,,,,space,,2018,2020-05-14_11h56.10.074,ANTCPTp,2020.1.2,Win32,60,,,,,,,,,,,,,,,,,,,space,1,0.501925,,,,,,V,,,,,,,,,,,,,0,11,11,20,1,,,,,
,,,,,,,,,,,space,,2018,2020-05-14_11h56.10.074,ANTCPTp,2020.1.2,Win32,60,,,,,,,,,,,,,,,,,,,space,1,0.426575,,,,,,Q,,,,,,,,,,,,,0,12,12,16,1,,,,,
,,,,,,,,,,,space,,2018,2020-05-14_11h56.10.074,ANTCPTp,2020.1.2,Win32,60,,,,,,,,,,,,,,,,,,,space,1,0.57975,,,,,,Z,,,,,,,,,,,,,0,13,13,23,1,,,,,
,,,,,,,,,,,space,,2018,2020-05-14_11h56.10.074,ANTCPTp,2020.1.2,Win32,60,,,,,,,,,,,,,,,,,,,space,1,0.5124,,,,,,C,,,,,,,,,,,,,0,14,14,2,1,,,,,
,,,,,,,,,,,space,,2018,2020-05-14_11h56.10.074,ANTCPTp,2020.1.2,Win32,60,,,,,,,,,,,,,,,,,,,space,1,0.494475,,,,,,H,,,,,,,,,,,,,0,15,15,7,1,,,,,
,,,,,,,,,,,space,,2018,2020-05-14_11h56.10.074,ANTCPTp,2020.1.2,Win32,60,,,,,,,,,,,,,,,,,,,space,1,0.437635,,,,,,D,,,,,,,,,,,,,0,16,16,3,1,,,,,
,,,,,,,,,,,space,,2018,2020-05-14_11h56.10.074,ANTCPTp,2020.1.2,Win32,60,,,,,,,,,,,,,,,,,,,space,1,0.42923,,,,,,K,,,,,,,,,,,,,0,17,17,10,1,,,,,
,,,,,,,,,,,space,,2018,2020-05-14_11h56.10.074,ANTCPTp,2020.1.2,Win32,60,,,,,,,,,,,,,,,,,,,space,1,0.451675,,,,,,S,,,,,,,,,,,,,0,18,18,18,1,,,,,
,,,,,,,,,,,space,,2018,2020-05-14_11h56.10.074,ANTCPTp,2020.1.2,Win32,60,,,,,,,,,,,,,,,,,,,space,1,0.38481,,,,,,N,,,,,,,,,,,,,0,19,19,13,1,,,,,
,,,,,,,,,,,,,2018,2020-05-14_11h56.10.074,ANTCPTp,2020.1.2,Win32,60,,,,,,,,,,,,,,,,,,,,1,,,,,,,X,,,,,,,,,,,,,0,20,20,24,1,,,,,
,,,,,,,,,,,space,,2018,2020-05-14_11h56.10.074,ANTCPTp,2020.1.2,Win32,60,,,,,,,,,,,,,,,,,,,space,1,0.502455,,,,,,R,,,,,,,,,,,,,0,21,21,17,1,,,,,
,,,,,,,,,,,space,,2018,2020-05-14_11h56.10.074,ANTCPTp,2020.1.2,Win32,60,,,,,,,,,,,,,,,,,,,space,1,0.462805,,,,,,A,,,,,,,,,,,,,0,22,22,0,1,,,,,
,,,,,,,,,,,space,,2018,2020-05-14_11h56.10.074,ANTCPTp,2020.1.2,Win32,60,,,,,,,,,,,,,,,,,,,space,1,0.460775,,,,,,P,,,,,,,,,,,,,0,23,23,15,1,,,,,
,,,,,,,,,,,space,,2018,2020-05-14_11h56.10.074,ANTCPTp,2020.1.2,Win32,60,,,,,,,,,,,,,,,,,,,space,1,0.444225,,,,,,B,,,,,,,,,,,,,0,24,24,1,1,,,,,
,,,,,,,,,,,space,,2018,2020-05-14_11h56.10.074,ANTCPTp,2020.1.2,Win32,60,,,,,,,,,,,,,,,,,,,space,1,0.635445,,,,,,I,,,,,,,,,,,,,0,25,25,8,1,,,,,
,,,,,,,,,,,space,,2018,2020-05-14_11h56.10.074,ANTCPTp,2020.1.2,Win32,60,,,,,,,,,,,,,,,,,,,space,1,0.46514,,,,,,U,,,,,,,,,,,,,0,26,26,19,1,,,,,
,,,,,,,,,,,,,2018,2020-05-14_11h56.10.074,ANTCPTp,2020.1.2,Win32,60,,,,,,,,,,,,,,,,,,,,,,,,,,,,2,3.22653,,,,,,,,,,,,,,,,1,0,1,0,1
,,,,,,,,,,,space,,2018,2020-05-14_11h56.10.074,ANTCPTp,2020.1.2,Win32,60,,,,,,,,,,,,,,,,,,,space,1,0.539285,0,0,0,1,1,B,,,,,,,,,,,,,,,,,,,,,,
,,,,,,,,,,,space,,2018,2020-05-14_11h56.10.074,ANTCPTp,2020.1.2,Win32,60,,,,,,,,,,,,,,,,,,,space,1,0.449275,0,1,1,11,1,U,,,,,,,,,,,,,,,,,,,,,,
,,,,,,,,,,,space,,2018,2020-05-14_11h56.10.074,ANTCPTp,2020.1.2,Win32,60,,,,,,,,,,,,,,,,,,,space,1,0.43247,0,2,2,8,1,O,,,,,,,,,,,,,,,,,,,,,,
,,,,,,,,,,,space,,2018,2020-05-14_11h56.10.074,ANTCPTp,2020.1.2,Win32,60,,,,,,,,,,,,,,,,,,,space,1,0.3673,0,3,3,4,1,E,,,,,,,,,,,,,,,,,,,,,,
,,,,,,,,,,,space,,2018,2020-05-14_11h56.10.074,ANTCPTp,2020.1.2,Win32,60,,,,,,,,,,,,,,,,,,,space,1,0.36526,0,4,4,10,1,Q,,,,,,,,,,,,,,,,,,,,,,
,,,,,,,,,,,space,,2018,2020-05-14_11h56.10.074,ANTCPTp,2020.1.2,Win32,60,,,,,,,,,,,,,,,,,,,space,1,0.413295,0,5,5,5,1,F,,,,,,,,,,,,,,,,,,,,,,
,,,,,,,,,,,,,2018,2020-05-14_11h56.10.074,ANTCPTp,2020.1.2,Win32,60,,,,,,,,,,,,,,,,,,,,1,,0,6,6,15,1,X,,,,,,,,,,,,,,,,,,,,,,
,,,,,,,,,,,space,,2018,2020-05-14_11h56.10.074,ANTCPTp,2020.1.2,Win32,60,,,,,,,,,,,,,,,,,,,space,1,0.481365,0,7,7,3,1,D,,,,,,,,,,,,,,,,,,,,,,
,,,,,,,,,,,space,,2018,2020-05-14_11h56.10.074,ANTCPTp,2020.1.2,Win32,60,,,,,,,,,,,,,,,,,,,space,1,0.457605,0,8,8,6,1,J,,,,,,,,,,,,,,,,,,,,,,
,,,,,,,,,,,space,,2018,2020-05-14_11h56.10.074,ANTCPTp,2020.1.2,Win32,60,,,,,,,,,,,,,,,,,,,space,1,0.51055,0,9,9,0,1,A,,,,,,,,,,,,,,,,,,,,,,
,,,,,,,,,,,space,,2018,2020-05-14_11h56.10.074,ANTCPTp,2020.1.2,Win32,60,,,,,,,,,,,,,,,,,,,space,1,0.47002,0,10,10,7,1,N,,,,,,,,,,,,,,,,,,,,,,
,,,,,,,,,,,space,,2018,2020-05-14_11h56.10.074,ANTCPTp,2020.1.2,Win32,60,,,,,,,,,,,,,,,,,,,space,1,0.485595,0,11,11,14,1,Y,,,,,,,,,,,,,,,,,,,,,,
,,,,,,,,,,,space,,2018,2020-05-14_11h56.10.074,ANTCPTp,2020.1.2,Win32,60,,,,,,,,,,,,,,,,,,,space,1,0.45986,0,12,12,9,1,P,,,,,,,,,,,,,,,,,,,,,,
,,,,,,,,,,,space,,2018,2020-05-14_11h56.10.074,ANTCPTp,2020.1.2,Win32,60,,,,,,,,,,,,,,,,,,,space,1,0.426445,0,13,13,12,1,V,,,,,,,,,,,,,,,,,,,,,,
,,,,,,,,,,,space,,2018,2020-05-14_11h56.10.074,ANTCPTp,2020.1.2,Win32,60,,,,,,,,,,,,,,,,,,,space,1,0.39197,0,14,14,2,1,C,,,,,,,,,,,,,,,,,,,,,,
,,,,,,,,,,,,,2018,2020-05-14_11h56.10.074,ANTCPTp,2020.1.2,Win32,60,,,,,,,,,,,,,,,,,,,,1,,0,15,15,16,1,X,,,,,,,,,,,,,,,,,,,,,,
,,,,,,,,,,,space,,2018,2020-05-14_11h56.10.074,ANTCPTp,2020.1.2,Win32,60,,,,,,,,,,,,,,,,,,,space,1,0.45432,0,16,16,13,1,W,,,,,,,,,,,,,,,,,,,,,,
,,,,,,,,,,,space,,2018,2020-05-14_11h56.10.074,ANTCPTp,2020.1.2,Win32,60,,,,,,,,,,,,,,,,,,,space,1,0.607825,,,,,,M,1,2.05531,0,0,0,12,1,,,,,,,,,,,,,,,
,,,,,,,,,,,space,,2018,2020-05-14_11h56.10.074,ANTCPTp,2020.1.2,Win32,60,,,,,,,,,,,,,,,,,,,space,1,0.430305,,,,,,D,,,0,1,1,3,1,,,,,,,,,,,,,,,
,,,,,,,,,,,space,,2018,2020-05-14_11h56.10.074,ANTCPTp,2020.1.2,Win32,60,,,,,,,,,,,,,,,,,,,space,1,0.421235,,,,,,U,,,0,2,2,20,1,,,,,,,,,,,,,,,
,,,,,,,,,,,space,,2018,2020-05-14_11h56.10.074,ANTCPTp,2020.1.2,Win32,60,,,,,,,,,,,,,,,,,,,space,1,0.38812,,,,,,Y,,,0,3,3,23,1,,,,,,,,,,,,,,,
,,,,,,,,,,,space,,2018,2020-05-14_11h56.10.074,ANTCPTp,2020.1.2,Win32,60,,,,,,,,,,,,,,,,,,,space,1,0.444135,,,,,,J,,,0,4,4,9,1,,,,,,,,,,,,,,,
,,,,,,,,,,,space,,2018,2020-05-14_11h56.10.074,ANTCPTp,2020.1.2,Win32,60,,,,,,,,,,,,,,,,,,,space,1,0.449835,,,,,,L,,,0,5,5,11,1,,,,,,,,,,,,,,,
,,,,,,,,,,,space,,2018,2020-05-14_11h56.10.074,ANTCPTp,2020.1.2,Win32,60,,,,,,,,,,,,,,,,,,,space,1,0.32796,,,,,,E,,,0,6,6,4,1,,,,,,,,,,,,,,,
,,,,,,,,,,,space,,2018,2020-05-14_11h56.10.074,ANTCPTp,2020.1.2,Win32,60,,,,,,,,,,,,,,,,,,,space,1,0.39991,,,,,,F,,,0,7,7,5,1,,,,,,,,,,,,,,,
,,,,,,,,,,,space,,2018,2020-05-14_11h56.10.074,ANTCPTp,2020.1.2,Win32,60,,,,,,,,,,,,,,,,,,,space,1,0.38098,,,,,,H,,,0,8,8,7,1,,,,,,,,,,,,,,,
,,,,,,,,,,,space,,2018,2020-05-14_11h56.10.074,ANTCPTp,2020.1.2,Win32,60,,,,,,,,,,,,,,,,,,,space,1,0.441715,,,,,,G,,,0,9,9,6,1,,,,,,,,,,,,,,,
,,,,,,,,,,,,,2018,2020-05-14_11h56.10.074,ANTCPTp,2020.1.2,Win32,60,,,,,,,,,,,,,,,,,,,,1,,,,,,,X,,,0,10,10,29,1,,,,,,,,,,,,,,,
,,,,,,,,,,,,,2018,2020-05-14_11h56.10.074,ANTCPTp,2020.1.2,Win32,60,,,,,,,,,,,,,,,,,,,,1,,,,,,,X,,,0,11,11,28,1,,,,,,,,,,,,,,,
,,,,,,,,,,,,,2018,2020-05-14_11h56.10.074,ANTCPTp,2020.1.2,Win32,60,,,,,,,,,,,,,,,,,,,,1,,,,,,,X,,,0,12,12,26,1,,,,,,,,,,,,,,,
,,,,,,,,,,,,,2018,2020-05-14_11h56.10.074,ANTCPTp,2020.1.2,Win32,60,,,,,,,,,,,,,,,,,,,,1,,,,,,,X,,,0,13,13,27,1,,,,,,,,,,,,,,,
,,,,,,,,,,,space,,2018,2020-05-14_11h56.10.074,ANTCPTp,2020.1.2,Win32,60,,,,,,,,,,,,,,,,,,,space,1,0.478125,,,,,,P,,,0,14,14,15,1,,,,,,,,,,,,,,,
,,,,,,,,,,,space,,2018,2020-05-14_11h56.10.074,ANTCPTp,2020.1.2,Win32,60,,,,,,,,,,,,,,,,,,,space,1,0.443745,,,,,,A,,,0,15,15,0,1,,,,,,,,,,,,,,,
,,,,,,,,,,,space,,2018,2020-05-14_11h56.10.074,ANTCPTp,2020.1.2,Win32,60,,,,,,,,,,,,,,,,,,,space,1,0.699535,,,,,,Z,,,0,16,16,24,1,,,,,,,,,,,,,,,
,,,,,,,,,,,space,,2018,2020-05-14_11h56.10.074,ANTCPTp,2020.1.2,Win32,60,,,,,,,,,,,,,,,,,,,space,1,0.464345,,,,,,R,,,0,17,17,17,1,,,,,,,,,,,,,,,
,,,,,,,,,,,space,,2018,2020-05-14_11h56.10.074,ANTCPTp,2020.1.2,Win32,60,,,,,,,,,,,,,,,,,,,space,1,0.431835,,,,,,O,,,0,18,18,14,1,,,,,,,,,,,,,,,
,,,,,,,,,,,space,,2018,2020-05-14_11h56.10.074,ANTCPTp,2020.1.2,Win32,60,,,,,,,,,,,,,,,,,,,space,1,0.511135,,,,,,I,,,0,19,19,8,1,,,,,,,,,,,,,,,
,,,,,,,,,,,space,,2018,2020-05-14_11h56.10.074,ANTCPTp,2020.1.2,Win32,60,,,,,,,,,,,,,,,,,,,space,1,0.54112,,,,,,S,,,0,20,20,18,1,,,,,,,,,,,,,,,
,,,,,,,,,,,space,,2018,2020-05-14_11h56.10.074,ANTCPTp,2020.1.2,Win32,60,,,,,,,,,,,,,,,,,,,space,1,0.540295,,,,,,A,,,0,21,21,25,1,,,,,,,,,,,,,,,
,,,,,,,,,,,space,,2018,2020-05-14_11h56.10.074,ANTCPTp,2020.1.2,Win32,60,,,,,,,,,,,,,,,,,,,space,1,0.507165,,,,,,B,,,0,22,22,1,1,,,,,,,,,,,,,,,
,,,,,,,,,,,space,,2018,2020-05-14_11h56.10.074,ANTCPTp,2020.1.2,Win32,60,,,,,,,,,,,,,,,,,,,space,1,0.537105,,,,,,V,,,0,23,23,21,1,,,,,,,,,,,,,,,
,,,,,,,,,,,space,,2018,2020-05-14_11h56.10.074,ANTCPTp,2020.1.2,Win32,60,,,,,,,,,,,,,,,,,,,space,1,0.49514,,,,,,Q,,,0,24,24,16,1,,,,,,,,,,,,,,,
,,,,,,,,,,,space,,2018,2020-05-14_11h56.10.074,ANTCPTp,2020.1.2,Win32,60,,,,,,,,,,,,,,,,,,,space,1,0.487495,,,,,,T,,,0,25,25,19,1,,,,,,,,,,,,,,,
,,,,,,,,,,,space,,2018,2020-05-14_11h56.10.074,ANTCPTp,2020.1.2,Win32,60,,,,,,,,,,,,,,,,,,,space,1,0.50933,,,,,,W,,,0,26,26,22,1,,,,,,,,,,,,,,,
,,,,,,,,,,,space,,2018,2020-05-14_11h56.10.074,ANTCPTp,2020.1.2,Win32,60,,,,,,,,,,,,,,,,,,,space,1,0.37053,,,,,,N,,,0,27,27,13,1,,,,,,,,,,,,,,,
,,,,,,,,,,,space,,2018,2020-05-14_11h56.10.074,ANTCPTp,2020.1.2,Win32,60,,,,,,,,,,,,,,,,,,,space,1,0.562705,,,,,,K,,,0,28,28,10,1,,,,,,,,,,,,,,,
,,,,,,,,,,,space,,2018,2020-05-14_11h56.10.074,ANTCPTp,2020.1.2,Win32,60,,,,,,,,,,,,,,,,,,,space,1,0.424985,,,,,,C,,,0,29,29,2,1,,,,,,,,,,,,,,,
,,,,,,,,,,,,,2018,2020-05-14_11h56.10.074,ANTCPTp,2020.1.2,Win32,60,,,,,,,,,,,,,,,,,,,space,0,0.454665,,,,,,X,2,4.530635,,,,,,0,0,0,20,1,,,,,,,,,,
,,,,,,,,,,,space,,2018,2020-05-14_11h56.10.074,ANTCPTp,2020.1.2,Win32,60,,,,,,,,,,,,,,,,,,,space,1,0.53202,,,,,,Q,,,,,,,,0,1,1,11,1,,,,,,,,,,
,,,,,,,,,,,space,,2018,2020-05-14_11h56.10.074,ANTCPTp,2020.1.2,Win32,60,,,,,,,,,,,,,,,,,,,space,1,0.4774,,,,,,L,,,,,,,,0,2,2,7,1,,,,,,,,,,
,,,,,,,,,,,space,,2018,2020-05-14_11h56.10.074,ANTCPTp,2020.1.2,Win32,60,,,,,,,,,,,,,,,,,,,space,1,0.45022,,,,,,O,,,,,,,,0,3,3,10,1,,,,,,,,,,
,,,,,,,,,,,space,,2018,2020-05-14_11h56.10.074,ANTCPTp,2020.1.2,Win32,60,,,,,,,,,,,,,,,,,,,space,1,0.465375,,,,,,N,,,,,,,,0,4,4,9,1,,,,,,,,,,
,,,,,,,,,,,space,,2018,2020-05-14_11h56.10.074,ANTCPTp,2020.1.2,Win32,60,,,,,,,,,,,,,,,,,,,space,1,0.520415,,,,,,H,,,,,,,,0,5,5,5,1,,,,,,,,,,
,,,,,,,,,,,space,,2018,2020-05-14_11h56.10.074,ANTCPTp,2020.1.2,Win32,60,,,,,,,,,,,,,,,,,,,space,1,0.429175,,,,,,U,,,,,,,,0,6,6,15,1,,,,,,,,,,
,,,,,,,,,,,space,,2018,2020-05-14_11h56.10.074,ANTCPTp,2020.1.2,Win32,60,,,,,,,,,,,,,,,,,,,space,1,0.494235,,,,,,Z,,,,,,,,0,7,7,18,1,,,,,,,,,,
,,,,,,,,,,,,,2018,2020-05-14_11h56.10.074,ANTCPTp,2020.1.2,Win32,60,,,,,,,,,,,,,,,,,,,,1,,,,,,,X,,,,,,,,0,8,8,21,1,,,,,,,,,,
,,,,,,,,,,,space,,2018,2020-05-14_11h56.10.074,ANTCPTp,2020.1.2,Win32,60,,,,,,,,,,,,,,,,,,,space,1,0.46613,,,,,,A,,,,,,,,0,9,9,19,1,,,,,,,,,,
,,,,,,,,,,,space,,2018,2020-05-14_11h56.10.074,ANTCPTp,2020.1.2,Win32,60,,,,,,,,,,,,,,,,,,,space,1,0.49755,,,,,,Y,,,,,,,,0,10,10,17,1,,,,,,,,,,
,,,,,,,,,,,space,,2018,2020-05-14_11h56.10.074,ANTCPTp,2020.1.2,Win32,60,,,,,,,,,,,,,,,,,,,space,1,0.432325,,,,,,T,,,,,,,,0,11,11,14,1,,,,,,,,,,
,,,,,,,,,,,space,,2018,2020-05-14_11h56.10.074,ANTCPTp,2020.1.2,Win32,60,,,,,,,,,,,,,,,,,,,space,1,0.501785,,,,,,G,,,,,,,,0,12,12,4,1,,,,,,,,,,
,,,,,,,,,,,space,,2018,2020-05-14_11h56.10.074,ANTCPTp,2020.1.2,Win32,60,,,,,,,,,,,,,,,,,,,space,1,0.461495,,,,,,S,,,,,,,,0,13,13,13,1,,,,,,,,,,
,,,,,,,,,,,space,,2018,2020-05-14_11h56.10.074,ANTCPTp,2020.1.2,Win32,60,,,,,,,,,,,,,,,,,,,space,1,0.436,,,,,,D,,,,,,,,0,14,14,1,1,,,,,,,,,,
,,,,,,,,,,,space,,2018,2020-05-14_11h56.10.074,ANTCPTp,2020.1.2,Win32,60,,,,,,,,,,,,,,,,,,,space,1,0.610745,,,,,,K,,,,,,,,0,15,15,6,1,,,,,,,,,,
,,,,,,,,,,,space,,2018,2020-05-14_11h56.10.074,ANTCPTp,2020.1.2,Win32,60,,,,,,,,,,,,,,,,,,,space,1,0.433725,,,,,,B,,,,,,,,0,16,16,0,1,,,,,,,,,,
,,,,,,,,,,,space,,2018,2020-05-14_11h56.10.074,ANTCPTp,2020.1.2,Win32,60,,,,,,,,,,,,,,,,,,,space,1,0.440895,,,,,,F,,,,,,,,0,17,17,3,1,,,,,,,,,,
,,,,,,,,,,,space,,2018,2020-05-14_11h56.10.074,ANTCPTp,2020.1.2,Win32,60,,,,,,,,,,,,,,,,,,,space,1,0.38899,,,,,,M,,,,,,,,0,18,18,8,1,,,,,,,,,,
,,,,,,,,,,,space,,2018,2020-05-14_11h56.10.074,ANTCPTp,2020.1.2,Win32,60,,,,,,,,,,,,,,,,,,,space,1,0.45304,,,,,,E,,,,,,,,0,19,19,2,1,,,,,,,,,,
,,,,,,,,,,,space,,2018,2020-05-14_11h56.10.074,ANTCPTp,2020.1.2,Win32,60,,,,,,,,,,,,,,,,,,,space,1,0.403405,,,,,,R,,,,,,,,0,20,20,12,1,,,,,,,,,,
,,,,,,,,,,,space,,2018,2020-05-14_11h56.10.074,ANTCPTp,2020.1.2,Win32,60,,,,,,,,,,,,,,,,,,,space,1,0.419285,,,,,,W,,,,,,,,0,21,21,16,1,,,,,,,,,,
,,,,,,,,,,,space,,2018,2020-05-14_11h56.10.074,ANTCPTp,2020.1.2,Win32,60,,,,,,,,,,,,,,,,,,,space,1,0.56661,,,,,,I,1,1.635915,,,,,,,,,,,0,0,0,8,1,,,,,
,,,,,,,,,,,space,,2018,2020-05-14_11h56.10.074,ANTCPTp,2020.1.2,Win32,60,,,,,,,,,,,,,,,,,,,space,1,0.387875,,,,,,A,,,,,,,,,,,,,0,1,1,0,1,,,,,
,,,,,,,,,,,,,2018,2020-05-14_11h56.10.074,ANTCPTp,2020.1.2,Win32,60,,,,,,,,,,,,,,,,,,,space,0,0.39551,,,,,,X,,,,,,,,,,,,,0,2,2,26,1,,,,,
,,,,,,,,,,,space,,2018,2020-05-14_11h56.10.074,ANTCPTp,2020.1.2,Win32,60,,,,,,,,,,,,,,,,,,,space,1,0.73023,,,,,,V,,,,,,,,,,,,,0,3,3,20,1,,,,,
,,,,,,,,,,,space,,2018,2020-05-14_11h56.10.074,ANTCPTp,2020.1.2,Win32,60,,,,,,,,,,,,,,,,,,,space,1,0.592795,,,,,,B,,,,,,,,,,,,,0,4,4,1,1,,,,,
,,,,,,,,,,,space,,2018,2020-05-14_11h56.10.074,ANTCPTp,2020.1.2,Win32,60,,,,,,,,,,,,,,,,,,,space,1,0.478265,,,,,,M,,,,,,,,,,,,,0,5,5,12,1,,,,,
,,,,,,,,,,,space,,2018,2020-05-14_11h56.10.074,ANTCPTp,2020.1.2,Win32,60,,,,,,,,,,,,,,,,,,,space,1,0.460955,,,,,,U,,,,,,,,,,,,,0,6,6,19,1,,,,,
,,,,,,,,,,,space,,2018,2020-05-14_11h56.10.074,ANTCPTp,2020.1.2,Win32,60,,,,,,,,,,,,,,,,,,,space,1,0.44418,,,,,,K,,,,,,,,,,,,,0,7,7,10,1,,,,,
,,,,,,,,,,,space,,2018,2020-05-14_11h56.10.074,ANTCPTp,2020.1.2,Win32,60,,,,,,,,,,,,,,,,,,,space,1,0.442035,,,,,,N,,,,,,,,,,,,,0,8,8,13,1,,,,,
,,,,,,,,,,,space,,2018,2020-05-14_11h56.10.074,ANTCPTp,2020.1.2,Win32,60,,,,,,,,,,,,,,,,,,,space,1,0.394015,,,,,,S,,,,,,,,,,,,,0,9,9,18,1,,,,,
,,,,,,,,,,,space,,2018,2020-05-14_11h56.10.074,ANTCPTp,2020.1.2,Win32,60,,,,,,,,,,,,,,,,,,,space,1,0.471705,,,,,,H,,,,,,,,,,,,,0,10,10,7,1,,,,,
,,,,,,,,,,,,,2018,2020-05-14_11h56.10.074,ANTCPTp,2020.1.2,Win32,60,,,,,,,,,,,,,,,,,,,,1,,,,,,,X,,,,,,,,,,,,,0,11,11,24,1,,,,,
,,,,,,,,,,,space,,2018,2020-05-14_11h56.10.074,ANTCPTp,2020.1.2,Win32,60,,,,,,,,,,,,,,,,,,,space,1,0.494945,,,,,,P,,,,,,,,,,,,,0,12,12,15,1,,,,,
,,,,,,,,,,,,,2018,2020-05-14_11h56.10.074,ANTCPTp,2020.1.2,Win32,60,,,,,,,,,,,,,,,,,,,,1,,,,,,,X,,,,,,,,,,,,,0,13,13,25,1,,,,,
,,,,,,,,,,,space,,2018,2020-05-14_11h56.10.074,ANTCPTp,2020.1.2,Win32,60,,,,,,,,,,,,,,,,,,,space,1,0.47579,,,,,,L,,,,,,,,,,,,,0,14,14,11,1,,,,,
,,,,,,,,,,,space,,2018,2020-05-14_11h56.10.074,ANTCPTp,2020.1.2,Win32,60,,,,,,,,,,,,,,,,,,,space,1,0.53059,,,,,,F,,,,,,,,,,,,,0,15,15,5,1,,,,,
,,,,,,,,,,,space,,2018,2020-05-14_11h56.10.074,ANTCPTp,2020.1.2,Win32,60,,,,,,,,,,,,,,,,,,,space,1,0.417535,,,,,,J,,,,,,,,,,,,,0,16,16,9,1,,,,,
,,,,,,,,,,,space,,2018,2020-05-14_11h56.10.074,ANTCPTp,2020.1.2,Win32,60,,,,,,,,,,,,,,,,,,,space,1,0.397195,,,,,,D,,,,,,,,,,,,,0,17,17,3,1,,,,,
,,,,,,,,,,,space,,2018,2020-05-14_11h56.10.074,ANTCPTp,2020.1.2,Win32,60,,,,,,,,,,,,,,,,,,,space,1,0.66263,,,,,,Z,,,,,,,,,,,,,0,18,18,23,1,,,,,
,,,,,,,,,,,space,,2018,2020-05-14_11h56.10.074,ANTCPTp,2020.1.2,Win32,60,,,,,,,,,,,,,,,,,,,space,1,0.555475,,,,,,R,,,,,,,,,,,,,0,19,19,17,1,,,,,
,,,,,,,,,,,space,,2018,2020-05-14_11h56.10.074,ANTCPTp,2020.1.2,Win32,60,,,,,,,,,,,,,,,,,,,space,1,0.44192,,,,,,G,,,,,,,,,,,,,0,20,20,6,1,,,,,
,,,,,,,,,,,space,,2018,2020-05-14_11h56.10.074,ANTCPTp,2020.1.2,Win32,60,,,,,,,,,,,,,,,,,,,space,1,0.40054,,,,,,O,,,,,,,,,,,,,0,21,21,14,1,,,,,
,,,,,,,,,,,space,,2018,2020-05-14_11h56.10.074,ANTCPTp,2020.1.2,Win32,60,,,,,,,,,,,,,,,,,,,space,1,0.528955,,,,,,W,,,,,,,,,,,,,0,22,22,21,1,,,,,
,,,,,,,,,,,space,,2018,2020-05-14_11h56.10.074,ANTCPTp,2020.1.2,Win32,60,,,,,,,,,,,,,,,,,,,space,1,0.43913,,,,,,E,,,,,,,,,,,,,0,23,23,4,1,,,,,
,,,,,,,,,,,space,,2018,2020-05-14_11h56.10.074,ANTCPTp,2020.1.2,Win32,60,,,,,,,,,,,,,,,,,,,space,1,0.502255,,,,,,Q,,,,,,,,,,,,,0,24,24,16,1,,,,,
,,,,,,,,,,,space,,2018,2020-05-14_11h56.10.074,ANTCPTp,2020.1.2,Win32,60,,,,,,,,,,,,,,,,,,,space,1,0.436165,,,,,,Y,,,,,,,,,,,,,0,25,25,22,1,,,,,
,,,,,,,,,,,space,,2018,2020-05-14_11h56.10.074,ANTCPTp,2020.1.2,Win32,60,,,,,,,,,,,,,,,,,,,space,1,0.43425,,,,,,C,,,,,,,,,,,,,0,26,26,2,1,,,,,
,,,,,,,,,,,,,2018,2020-05-14_11h56.10.074,ANTCPTp,2020.1.2,Win32,60,,,,,,,,,,,,,,,,,,,,,,,,,,,,3,9.245125,,,,,,,,,,,,,,,,2,0,2,0,1
