fixDuration,resp.keys,resp.corr,resp.rt,pracLoop.thisRepN,pracLoop.thisTrialN,pracLoop.thisN,pracLoop.thisIndex,pracLoop.ran,cue,tar,corrAns,targOrientation,Please enter your Participant ID,date,expName,psychopyVersion,OS,frameRate,instResp.keys,instResp.rt,mainLoop.thisRepN,mainLoop.thisTrialN,mainLoop.thisN,mainLoop.thisIndex,mainLoop.ran,blockLoop.thisRepN,blockLoop.thisTrialN,blockLoop.thisN,blockLoop.thisIndex,blockLoop.ran,key_resp.keys,key_resp.rt,probe_response3.keys,probe_response3.rt,getready_resp.keys,getready_resp.rt,response.keys,response.corr,trials.thisRepN,trials.thisTrialN,trials.thisN,trials.thisIndex,trials.ran,letter,response.rt,probe_response.keys,probe_response.rt,trials_2.thisRepN,trials_2.thisTrialN,trials_2.thisN,trials_2.thisIndex,trials_2.ran,trials_3.thisRepN,trials_3.thisTrialN,trials_3.thisN,trials_3.thisIndex,trials_3.ran,trials_4.thisRepN,trials_4.thisTrialN,trials_4.thisN,trials_4.thisIndex,trials_4.ran,trials_5.thisRepN,trials_5.thisTrialN,trials_5.thisN,trials_5.thisIndex,trials_5.ran
0.65,left,1,1.02,0,0,0,3,1,stim/blank.png,stim/congLeft.png,left,0,1007,2020-05-14_17h37.53.774,ANTCPTp,2020.1.2,MacIntel,60,,,,,,,,,,,,,,,,,,,,,,,,,,,,,,,,,,,,,,,,,,,,,,,,,
0.9,right,1,0.791,0,1,1,7,1,stim/blank.png,stim/congLeft.png,right,180,1007,2020-05-14_17h37.53.774,ANTCPTp,2020.1.2,MacIntel,60,,,,,,,,,,,,,,,,,,,,,,,,,,,,,,,,,,,,,,,,,,,,,,,,,
1,right,1,0.65,0,2,2,4,1,stim/lower.png,stim/congLeft.png,right,180,1007,2020-05-14_17h37.53.774,ANTCPTp,2020.1.2,MacIntel,60,,,,,,,,,,,,,,,,,,,,,,,,,,,,,,,,,,,,,,,,,,,,,,,,,
0.8,,0,,0,3,3,19,1,stim/blank.png,stim/incongLeft.png,left,0,1007,2020-05-14_17h37.53.774,ANTCPTp,2020.1.2,MacIntel,60,,,,,,,,,,,,,,,,,,,,,,,,,,,,,,,,,,,,,,,,,,,,,,,,,
1.4,left,1,0.509,0,4,4,15,1,stim/blank.png,stim/congRight.png,left,180,1007,2020-05-14_17h37.53.774,ANTCPTp,2020.1.2,MacIntel,60,,,,,,,,,,,,,,,,,,,,,,,,,,,,,,,,,,,,,,,,,,,,,,,,,
0.65,left,1,0.634,0,5,5,13,1,stim/both.png,stim/congRight.png,left,180,1007,2020-05-14_17h37.53.774,ANTCPTp,2020.1.2,MacIntel,60,,,,,,,,,,,,,,,,,,,,,,,,,,,,,,,,,,,,,,,,,,,,,,,,,
0.8,left,0,1.547,0,6,6,21,1,stim/both.png,stim/incongLeft.png,right,180,1007,2020-05-14_17h37.53.774,ANTCPTp,2020.1.2,MacIntel,60,,,,,,,,,,,,,,,,,,,,,,,,,,,,,,,,,,,,,,,,,,,,,,,,,
1.55,,0,,0,7,7,20,1,stim/lower.png,stim/incongLeft.png,right,180,1007,2020-05-14_17h37.53.774,ANTCPTp,2020.1.2,MacIntel,60,,,,,,,,,,,,,,,,,,,,,,,,,,,,,,,,,,,,,,,,,,,,,,,,,
1.3,right,1,0.671,0,8,8,9,1,stim/both.png,stim/congRight.png,right,0,1007,2020-05-14_17h37.53.774,ANTCPTp,2020.1.2,MacIntel,60,,,,,,,,,,,,,,,,,,,,,,,,,,,,,,,,,,,,,,,,,,,,,,,,,
1.2,left,1,0.515,0,9,9,2,1,stim/centre.png,stim/congLeft.png,left,0,1007,2020-05-14_17h37.53.774,ANTCPTp,2020.1.2,MacIntel,60,,,,,,,,,,,,,,,,,,,,,,,,,,,,,,,,,,,,,,,,,,,,,,,,,
0.6,right,1,0.499,0,10,10,8,1,stim/upper.png,stim/congRight.png,right,0,1007,2020-05-14_17h37.53.774,ANTCPTp,2020.1.2,MacIntel,60,,,,,,,,,,,,,,,,,,,,,,,,,,,,,,,,,,,,,,,,,,,,,,,,,
1.3,right,1,0.533,0,11,11,10,1,stim/centre.png,stim/congRight.png,right,0,1007,2020-05-14_17h37.53.774,ANTCPTp,2020.1.2,MacIntel,60,,,,,,,,,,,,,,,,,,,,,,,,,,,,,,,,,,,,,,,,,,,,,,,,,
1.2,left,1,0.55,0,12,12,14,1,stim/centre.png,stim/congRight.png,left,180,1007,2020-05-14_17h37.53.774,ANTCPTp,2020.1.2,MacIntel,60,,,,,,,,,,,,,,,,,,,,,,,,,,,,,,,,,,,,,,,,,,,,,,,,,
1.1,left,0,0.914,0,13,13,22,1,stim/centre.png,stim/incongLeft.png,right,180,1007,2020-05-14_17h37.53.774,ANTCPTp,2020.1.2,MacIntel,60,,,,,,,,,,,,,,,,,,,,,,,,,,,,,,,,,,,,,,,,,,,,,,,,,
1.3,right,1,0.634,0,14,14,6,1,stim/centre.png,stim/congLeft.png,right,180,1007,2020-05-14_17h37.53.774,ANTCPTp,2020.1.2,MacIntel,60,,,,,,,,,,,,,,,,,,,,,,,,,,,,,,,,,,,,,,,,,,,,,,,,,
0.85,right,1,0.59,0,15,15,5,1,stim/both.png,stim/congLeft.png,right,180,1007,2020-05-14_17h37.53.774,ANTCPTp,2020.1.2,MacIntel,60,,,,,,,,,,,,,,,,,,,,,,,,,,,,,,,,,,,,,,,,,,,,,,,,,
1.45,left,0,0.838,0,16,16,23,1,stim/blank.png,stim/incongLeft.png,right,180,1007,2020-05-14_17h37.53.774,ANTCPTp,2020.1.2,MacIntel,60,,,,,,,,,,,,,,,,,,,,,,,,,,,,,,,,,,,,,,,,,,,,,,,,,
0.5,right,0,0.766,0,17,17,18,1,stim/centre.png,stim/incongLeft.png,left,0,1007,2020-05-14_17h37.53.774,ANTCPTp,2020.1.2,MacIntel,60,,,,,,,,,,,,,,,,,,,,,,,,,,,,,,,,,,,,,,,,,,,,,,,,,
0.55,left,1,0.718,0,18,18,17,1,stim/both.png,stim/incongLeft.png,left,0,1007,2020-05-14_17h37.53.774,ANTCPTp,2020.1.2,MacIntel,60,,,,,,,,,,,,,,,,,,,,,,,,,,,,,,,,,,,,,,,,,,,,,,,,,
1,left,1,0.743,0,19,19,1,1,stim/both.png,stim/congLeft.png,left,0,1007,2020-05-14_17h37.53.774,ANTCPTp,2020.1.2,MacIntel,60,,,,,,,,,,,,,,,,,,,,,,,,,,,,,,,,,,,,,,,,,,,,,,,,,
0.45,left,1,0.795,0,20,20,12,1,stim/lower.png,stim/congRight.png,left,180,1007,2020-05-14_17h37.53.774,ANTCPTp,2020.1.2,MacIntel,60,,,,,,,,,,,,,,,,,,,,,,,,,,,,,,,,,,,,,,,,,,,,,,,,,
1.3,,0,,0,21,21,16,1,stim/upper.png,stim/incongLeft.png,left,0,1007,2020-05-14_17h37.53.774,ANTCPTp,2020.1.2,MacIntel,60,,,,,,,,,,,,,,,,,,,,,,,,,,,,,,,,,,,,,,,,,,,,,,,,,
1,left,1,0.445,0,22,22,0,1,stim/upper.png,stim/congLeft.png,left,0,1007,2020-05-14_17h37.53.774,ANTCPTp,2020.1.2,MacIntel,60,,,,,,,,,,,,,,,,,,,,,,,,,,,,,,,,,,,,,,,,,,,,,,,,,
1.35,right,1,0.474,0,23,23,11,1,stim/blank.png,stim/congRight.png,right,0,1007,2020-05-14_17h37.53.774,ANTCPTp,2020.1.2,MacIntel,60,,,,,,,,,,,,,,,,,,,,,,,,,,,,,,,,,,,,,,,,,,,,,,,,,
0.85,left,1,0.94,,,,,,stim/blank.png,stim/neutralLeft.png,left,0,1007,2020-05-14_17h37.53.774,ANTCPTp,2020.1.2,MacIntel,60,space,15.023,0,0,0,35,1,,,,,,,,,,,,,,,,,,,,,,,,,,,,,,,,,,,,,,,,,,
0.7,left,1,1.071,,,,,,stim/both.png,stim/neutralLeft.png,left,0,1007,2020-05-14_17h37.53.774,ANTCPTp,2020.1.2,MacIntel,60,,,0,1,1,33,1,,,,,,,,,,,,,,,,,,,,,,,,,,,,,,,,,,,,,,,,,,
1,left,0,1.152,,,,,,stim/both.png,stim/incongLeft.png,right,180,1007,2020-05-14_17h37.53.774,ANTCPTp,2020.1.2,MacIntel,60,,,0,2,2,21,1,,,,,,,,,,,,,,,,,,,,,,,,,,,,,,,,,,,,,,,,,,
0.55,left,1,0.969,,,,,,stim/blank.png,stim/congRight.png,left,180,1007,2020-05-14_17h37.53.774,ANTCPTp,2020.1.2,MacIntel,60,,,0,3,3,15,1,,,,,,,,,,,,,,,,,,,,,,,,,,,,,,,,,,,,,,,,,,
0.9,right,1,0.855,,,,,,stim/lower.png,stim/neutralLeft.png,right,180,1007,2020-05-14_17h37.53.774,ANTCPTp,2020.1.2,MacIntel,60,,,0,4,4,36,1,,,,,,,,,,,,,,,,,,,,,,,,,,,,,,,,,,,,,,,,,,
1.4,left,1,0.593,,,,,,stim/upper.png,stim/congLeft.png,left,0,1007,2020-05-14_17h37.53.774,ANTCPTp,2020.1.2,MacIntel,60,,,0,5,5,0,1,,,,,,,,,,,,,,,,,,,,,,,,,,,,,,,,,,,,,,,,,,
1,right,0,0.775,,,,,,stim/both.png,stim/incongRight.png,left,180,1007,2020-05-14_17h37.53.774,ANTCPTp,2020.1.2,MacIntel,60,,,0,6,6,29,1,,,,,,,,,,,,,,,,,,,,,,,,,,,,,,,,,,,,,,,,,,
1.05,right,1,0.894,,,,,,stim/upper.png,stim/neutralRight.png,right,0,1007,2020-05-14_17h37.53.774,ANTCPTp,2020.1.2,MacIntel,60,,,0,7,7,40,1,,,,,,,,,,,,,,,,,,,,,,,,,,,,,,,,,,,,,,,,,,
0.85,,0,,,,,,,stim/centre.png,stim/incongLeft.png,right,180,1007,2020-05-14_17h37.53.774,ANTCPTp,2020.1.2,MacIntel,60,,,0,8,8,22,1,,,,,,,,,,,,,,,,,,,,,,,,,,,,,,,,,,,,,,,,,,
1.35,left,1,1.117,,,,,,stim/centre.png,stim/incongLeft.png,left,0,1007,2020-05-14_17h37.53.774,ANTCPTp,2020.1.2,MacIntel,60,,,0,9,9,18,1,,,,,,,,,,,,,,,,,,,,,,,,,,,,,,,,,,,,,,,,,,
0.6,left,1,0.85,,,,,,stim/both.png,stim/congLeft.png,left,0,1007,2020-05-14_17h37.53.774,ANTCPTp,2020.1.2,MacIntel,60,,,0,10,10,1,1,,,,,,,,,,,,,,,,,,,,,,,,,,,,,,,,,,,,,,,,,,
1.45,right,1,0.876,,,,,,stim/centre.png,stim/neutralLeft.png,right,180,1007,2020-05-14_17h37.53.774,ANTCPTp,2020.1.2,MacIntel,60,,,0,11,11,38,1,,,,,,,,,,,,,,,,,,,,,,,,,,,,,,,,,,,,,,,,,,
1.1,left,0,0.842,,,,,,stim/blank.png,stim/incongRight.png,right,0,1007,2020-05-14_17h37.53.774,ANTCPTp,2020.1.2,MacIntel,60,,,0,12,12,27,1,,,,,,,,,,,,,,,,,,,,,,,,,,,,,,,,,,,,,,,,,,
0.75,right,1,0.629,,,,,,stim/lower.png,stim/congLeft.png,right,180,1007,2020-05-14_17h37.53.774,ANTCPTp,2020.1.2,MacIntel,60,,,0,13,13,4,1,,,,,,,,,,,,,,,,,,,,,,,,,,,,,,,,,,,,,,,,,,
0.5,right,1,1.186,,,,,,stim/lower.png,stim/incongLeft.png,right,180,1007,2020-05-14_17h37.53.774,ANTCPTp,2020.1.2,MacIntel,60,,,0,14,14,20,1,,,,,,,,,,,,,,,,,,,,,,,,,,,,,,,,,,,,,,,,,,
0.7,left,1,1.25,,,,,,stim/lower.png,stim/neutralRight.png,left,180,1007,2020-05-14_17h37.53.774,ANTCPTp,2020.1.2,MacIntel,60,,,0,15,15,44,1,,,,,,,,,,,,,,,,,,,,,,,,,,,,,,,,,,,,,,,,,,
1.55,right,1,1.043,,,,,,stim/upper.png,stim/incongRight.png,right,0,1007,2020-05-14_17h37.53.774,ANTCPTp,2020.1.2,MacIntel,60,,,0,16,16,24,1,,,,,,,,,,,,,,,,,,,,,,,,,,,,,,,,,,,,,,,,,,
1.35,right,1,0.774,,,,,,stim/centre.png,stim/neutralRight.png,right,0,1007,2020-05-14_17h37.53.774,ANTCPTp,2020.1.2,MacIntel,60,,,0,17,17,42,1,,,,,,,,,,,,,,,,,,,,,,,,,,,,,,,,,,,,,,,,,,
1.05,left,1,1.238,,,,,,stim/blank.png,stim/incongLeft.png,left,0,1007,2020-05-14_17h37.53.774,ANTCPTp,2020.1.2,MacIntel,60,,,0,18,18,19,1,,,,,,,,,,,,,,,,,,,,,,,,,,,,,,,,,,,,,,,,,,
1.35,left,1,0.858,,,,,,stim/both.png,stim/incongLeft.png,left,0,1007,2020-05-14_17h37.53.774,ANTCPTp,2020.1.2,MacIntel,60,,,0,19,19,17,1,,,,,,,,,,,,,,,,,,,,,,,,,,,,,,,,,,,,,,,,,,
1.3,right,1,0.799,,,,,,stim/centre.png,stim/congLeft.png,right,180,1007,2020-05-14_17h37.53.774,ANTCPTp,2020.1.2,MacIntel,60,,,0,20,20,6,1,,,,,,,,,,,,,,,,,,,,,,,,,,,,,,,,,,,,,,,,,,
1.35,left,1,0.751,,,,,,stim/lower.png,stim/congRight.png,left,180,1007,2020-05-14_17h37.53.774,ANTCPTp,2020.1.2,MacIntel,60,,,0,21,21,12,1,,,,,,,,,,,,,,,,,,,,,,,,,,,,,,,,,,,,,,,,,,
1.1,left,1,0.675,,,,,,stim/centre.png,stim/congRight.png,left,180,1007,2020-05-14_17h37.53.774,ANTCPTp,2020.1.2,MacIntel,60,,,0,22,22,14,1,,,,,,,,,,,,,,,,,,,,,,,,,,,,,,,,,,,,,,,,,,
1.1,left,1,1.269,,,,,,stim/blank.png,stim/incongRight.png,left,180,1007,2020-05-14_17h37.53.774,ANTCPTp,2020.1.2,MacIntel,60,,,0,23,23,31,1,,,,,,,,,,,,,,,,,,,,,,,,,,,,,,,,,,,,,,,,,,
0.45,right,1,0.734,,,,,,stim/blank.png,stim/neutralLeft.png,right,180,1007,2020-05-14_17h37.53.774,ANTCPTp,2020.1.2,MacIntel,60,,,0,24,24,39,1,,,,,,,,,,,,,,,,,,,,,,,,,,,,,,,,,,,,,,,,,,
1.05,left,1,0.568,,,,,,stim/blank.png,stim/neutralRight.png,left,180,1007,2020-05-14_17h37.53.774,ANTCPTp,2020.1.2,MacIntel,60,,,0,25,25,47,1,,,,,,,,,,,,,,,,,,,,,,,,,,,,,,,,,,,,,,,,,,
1.35,left,1,0.695,,,,,,stim/both.png,stim/neutralRight.png,left,180,1007,2020-05-14_17h37.53.774,ANTCPTp,2020.1.2,MacIntel,60,,,0,26,26,45,1,,,,,,,,,,,,,,,,,,,,,,,,,,,,,,,,,,,,,,,,,,
1.1,right,1,1.049,,,,,,stim/centre.png,stim/incongRight.png,right,0,1007,2020-05-14_17h37.53.774,ANTCPTp,2020.1.2,MacIntel,60,,,0,27,27,26,1,,,,,,,,,,,,,,,,,,,,,,,,,,,,,,,,,,,,,,,,,,
1.15,right,1,1.253,,,,,,stim/blank.png,stim/incongLeft.png,right,180,1007,2020-05-14_17h37.53.774,ANTCPTp,2020.1.2,MacIntel,60,,,0,28,28,23,1,,,,,,,,,,,,,,,,,,,,,,,,,,,,,,,,,,,,,,,,,,
0.7,left,1,0.719,,,,,,stim/upper.png,stim/incongLeft.png,left,0,1007,2020-05-14_17h37.53.774,ANTCPTp,2020.1.2,MacIntel,60,,,0,29,29,16,1,,,,,,,,,,,,,,,,,,,,,,,,,,,,,,,,,,,,,,,,,,
0.55,right,1,0.916,,,,,,stim/both.png,stim/neutralLeft.png,right,180,1007,2020-05-14_17h37.53.774,ANTCPTp,2020.1.2,MacIntel,60,,,0,30,30,37,1,,,,,,,,,,,,,,,,,,,,,,,,,,,,,,,,,,,,,,,,,,
1.35,left,1,0.683,,,,,,stim/centre.png,stim/neutralRight.png,left,180,1007,2020-05-14_17h37.53.774,ANTCPTp,2020.1.2,MacIntel,60,,,0,31,31,46,1,,,,,,,,,,,,,,,,,,,,,,,,,,,,,,,,,,,,,,,,,,
0.9,right,1,0.63,,,,,,stim/both.png,stim/neutralRight.png,right,0,1007,2020-05-14_17h37.53.774,ANTCPTp,2020.1.2,MacIntel,60,,,0,32,32,41,1,,,,,,,,,,,,,,,,,,,,,,,,,,,,,,,,,,,,,,,,,,
1.2,left,1,0.592,,,,,,stim/blank.png,stim/congLeft.png,left,0,1007,2020-05-14_17h37.53.774,ANTCPTp,2020.1.2,MacIntel,60,,,0,33,33,3,1,,,,,,,,,,,,,,,,,,,,,,,,,,,,,,,,,,,,,,,,,,
1.25,left,1,0.836,,,,,,stim/centre.png,stim/neutralLeft.png,left,0,1007,2020-05-14_17h37.53.774,ANTCPTp,2020.1.2,MacIntel,60,,,0,34,34,34,1,,,,,,,,,,,,,,,,,,,,,,,,,,,,,,,,,,,,,,,,,,
1.35,left,1,0.969,,,,,,stim/centre.png,stim/incongRight.png,left,180,1007,2020-05-14_17h37.53.774,ANTCPTp,2020.1.2,MacIntel,60,,,0,35,35,30,1,,,,,,,,,,,,,,,,,,,,,,,,,,,,,,,,,,,,,,,,,,
1.1,right,1,0.668,,,,,,stim/blank.png,stim/congRight.png,right,0,1007,2020-05-14_17h37.53.774,ANTCPTp,2020.1.2,MacIntel,60,,,0,36,36,11,1,,,,,,,,,,,,,,,,,,,,,,,,,,,,,,,,,,,,,,,,,,
1.25,left,1,0.671,,,,,,stim/both.png,stim/congRight.png,left,180,1007,2020-05-14_17h37.53.774,ANTCPTp,2020.1.2,MacIntel,60,,,0,37,37,13,1,,,,,,,,,,,,,,,,,,,,,,,,,,,,,,,,,,,,,,,,,,
1.05,right,1,0.978,,,,,,stim/blank.png,stim/congLeft.png,right,180,1007,2020-05-14_17h37.53.774,ANTCPTp,2020.1.2,MacIntel,60,,,0,38,38,7,1,,,,,,,,,,,,,,,,,,,,,,,,,,,,,,,,,,,,,,,,,,
1,right,1,0.753,,,,,,stim/upper.png,stim/congRight.png,right,0,1007,2020-05-14_17h37.53.774,ANTCPTp,2020.1.2,MacIntel,60,,,0,39,39,8,1,,,,,,,,,,,,,,,,,,,,,,,,,,,,,,,,,,,,,,,,,,
0.9,right,1,0.644,,,,,,stim/both.png,stim/congLeft.png,right,180,1007,2020-05-14_17h37.53.774,ANTCPTp,2020.1.2,MacIntel,60,,,0,40,40,5,1,,,,,,,,,,,,,,,,,,,,,,,,,,,,,,,,,,,,,,,,,,
0.5,left,1,0.69,,,,,,stim/upper.png,stim/neutralLeft.png,left,0,1007,2020-05-14_17h37.53.774,ANTCPTp,2020.1.2,MacIntel,60,,,0,41,41,32,1,,,,,,,,,,,,,,,,,,,,,,,,,,,,,,,,,,,,,,,,,,
1.25,right,1,0.601,,,,,,stim/blank.png,stim/neutralRight.png,right,0,1007,2020-05-14_17h37.53.774,ANTCPTp,2020.1.2,MacIntel,60,,,0,42,42,43,1,,,,,,,,,,,,,,,,,,,,,,,,,,,,,,,,,,,,,,,,,,
1.25,right,1,0.65,,,,,,stim/both.png,stim/congRight.png,right,0,1007,2020-05-14_17h37.53.774,ANTCPTp,2020.1.2,MacIntel,60,,,0,43,43,9,1,,,,,,,,,,,,,,,,,,,,,,,,,,,,,,,,,,,,,,,,,,
0.9,left,1,0.56,,,,,,stim/centre.png,stim/congLeft.png,left,0,1007,2020-05-14_17h37.53.774,ANTCPTp,2020.1.2,MacIntel,60,,,0,44,44,2,1,,,,,,,,,,,,,,,,,,,,,,,,,,,,,,,,,,,,,,,,,,
1.55,right,1,1.058,,,,,,stim/both.png,stim/incongRight.png,right,0,1007,2020-05-14_17h37.53.774,ANTCPTp,2020.1.2,MacIntel,60,,,0,45,45,25,1,,,,,,,,,,,,,,,,,,,,,,,,,,,,,,,,,,,,,,,,,,
1.25,right,1,0.658,,,,,,stim/centre.png,stim/congRight.png,right,0,1007,2020-05-14_17h37.53.774,ANTCPTp,2020.1.2,MacIntel,60,,,0,46,46,10,1,,,,,,,,,,,,,,,,,,,,,,,,,,,,,,,,,,,,,,,,,,
1.45,left,1,1.063,,,,,,stim/lower.png,stim/incongRight.png,left,180,1007,2020-05-14_17h37.53.774,ANTCPTp,2020.1.2,MacIntel,60,,,0,47,47,28,1,,,,,,,,,,,,,,,,,,,,,,,,,,,,,,,,,,,,,,,,,,
0.95,left,1,0.736,,,,,,stim/both.png,stim/neutralLeft.png,left,0,1007,2020-05-14_17h37.53.774,ANTCPTp,2020.1.2,MacIntel,60,,,1,0,48,33,1,,,,,,,,,,,,,,,,,,,,,,,,,,,,,,,,,,,,,,,,,,
1.1,left,1,0.892,,,,,,stim/both.png,stim/incongLeft.png,left,0,1007,2020-05-14_17h37.53.774,ANTCPTp,2020.1.2,MacIntel,60,,,1,1,49,17,1,,,,,,,,,,,,,,,,,,,,,,,,,,,,,,,,,,,,,,,,,,
1.35,right,1,1.009,,,,,,stim/both.png,stim/incongLeft.png,right,180,1007,2020-05-14_17h37.53.774,ANTCPTp,2020.1.2,MacIntel,60,,,1,2,50,21,1,,,,,,,,,,,,,,,,,,,,,,,,,,,,,,,,,,,,,,,,,,
0.7,left,1,0.567,,,,,,stim/blank.png,stim/neutralLeft.png,left,0,1007,2020-05-14_17h37.53.774,ANTCPTp,2020.1.2,MacIntel,60,,,1,3,51,35,1,,,,,,,,,,,,,,,,,,,,,,,,,,,,,,,,,,,,,,,,,,
1.5,left,1,0.591,,,,,,stim/both.png,stim/congLeft.png,left,0,1007,2020-05-14_17h37.53.774,ANTCPTp,2020.1.2,MacIntel,60,,,1,4,52,1,1,,,,,,,,,,,,,,,,,,,,,,,,,,,,,,,,,,,,,,,,,,
1.5,right,1,0.825,,,,,,stim/lower.png,stim/incongLeft.png,right,180,1007,2020-05-14_17h37.53.774,ANTCPTp,2020.1.2,MacIntel,60,,,1,5,53,20,1,,,,,,,,,,,,,,,,,,,,,,,,,,,,,,,,,,,,,,,,,,
1.1,right,1,0.649,,,,,,stim/centre.png,stim/neutralRight.png,right,0,1007,2020-05-14_17h37.53.774,ANTCPTp,2020.1.2,MacIntel,60,,,1,6,54,42,1,,,,,,,,,,,,,,,,,,,,,,,,,,,,,,,,,,,,,,,,,,
1.2,left,1,0.574,,,,,,stim/upper.png,stim/neutralLeft.png,left,0,1007,2020-05-14_17h37.53.774,ANTCPTp,2020.1.2,MacIntel,60,,,1,7,55,32,1,,,,,,,,,,,,,,,,,,,,,,,,,,,,,,,,,,,,,,,,,,
0.9,left,1,1.029,,,,,,stim/centre.png,stim/incongRight.png,left,180,1007,2020-05-14_17h37.53.774,ANTCPTp,2020.1.2,MacIntel,60,,,1,8,56,30,1,,,,,,,,,,,,,,,,,,,,,,,,,,,,,,,,,,,,,,,,,,
1.1,left,1,0.959,,,,,,stim/both.png,stim/incongRight.png,left,180,1007,2020-05-14_17h37.53.774,ANTCPTp,2020.1.2,MacIntel,60,,,1,9,57,29,1,,,,,,,,,,,,,,,,,,,,,,,,,,,,,,,,,,,,,,,,,,
1.15,right,1,0.816,,,,,,stim/blank.png,stim/incongRight.png,right,0,1007,2020-05-14_17h37.53.774,ANTCPTp,2020.1.2,MacIntel,60,,,1,10,58,27,1,,,,,,,,,,,,,,,,,,,,,,,,,,,,,,,,,,,,,,,,,,
0.9,right,1,0.711,,,,,,stim/lower.png,stim/neutralLeft.png,right,180,1007,2020-05-14_17h37.53.774,ANTCPTp,2020.1.2,MacIntel,60,,,1,11,59,36,1,,,,,,,,,,,,,,,,,,,,,,,,,,,,,,,,,,,,,,,,,,
1.35,right,1,0.627,,,,,,stim/blank.png,stim/neutralLeft.png,right,180,1007,2020-05-14_17h37.53.774,ANTCPTp,2020.1.2,MacIntel,60,,,1,12,60,39,1,,,,,,,,,,,,,,,,,,,,,,,,,,,,,,,,,,,,,,,,,,
0.8,left,1,0.694,,,,,,stim/both.png,stim/neutralRight.png,left,180,1007,2020-05-14_17h37.53.774,ANTCPTp,2020.1.2,MacIntel,60,,,1,13,61,45,1,,,,,,,,,,,,,,,,,,,,,,,,,,,,,,,,,,,,,,,,,,
0.6,right,1,0.717,,,,,,stim/centre.png,stim/congLeft.png,right,180,1007,2020-05-14_17h37.53.774,ANTCPTp,2020.1.2,MacIntel,60,,,1,14,62,6,1,,,,,,,,,,,,,,,,,,,,,,,,,,,,,,,,,,,,,,,,,,
1.5,left,1,0.835,,,,,,stim/lower.png,stim/incongRight.png,left,180,1007,2020-05-14_17h37.53.774,ANTCPTp,2020.1.2,MacIntel,60,,,1,15,63,28,1,,,,,,,,,,,,,,,,,,,,,,,,,,,,,,,,,,,,,,,,,,
1.55,left,1,0.688,,,,,,stim/lower.png,stim/neutralRight.png,left,180,1007,2020-05-14_17h37.53.774,ANTCPTp,2020.1.2,MacIntel,60,,,1,16,64,44,1,,,,,,,,,,,,,,,,,,,,,,,,,,,,,,,,,,,,,,,,,,
1.25,right,1,0.672,,,,,,stim/both.png,stim/congLeft.png,right,180,1007,2020-05-14_17h37.53.774,ANTCPTp,2020.1.2,MacIntel,60,,,1,17,65,5,1,,,,,,,,,,,,,,,,,,,,,,,,,,,,,,,,,,,,,,,,,,
1.4,left,1,0.852,,,,,,stim/upper.png,stim/incongLeft.png,left,0,1007,2020-05-14_17h37.53.774,ANTCPTp,2020.1.2,MacIntel,60,,,1,18,66,16,1,,,,,,,,,,,,,,,,,,,,,,,,,,,,,,,,,,,,,,,,,,
1.3,left,1,0.624,,,,,,stim/lower.png,stim/congRight.png,left,180,1007,2020-05-14_17h37.53.774,ANTCPTp,2020.1.2,MacIntel,60,,,1,19,67,12,1,,,,,,,,,,,,,,,,,,,,,,,,,,,,,,,,,,,,,,,,,,
1,left,1,0.693,,,,,,stim/centre.png,stim/neutralLeft.png,left,0,1007,2020-05-14_17h37.53.774,ANTCPTp,2020.1.2,MacIntel,60,,,1,20,68,34,1,,,,,,,,,,,,,,,,,,,,,,,,,,,,,,,,,,,,,,,,,,
0.5,right,1,0.601,,,,,,stim/centre.png,stim/neutralLeft.png,right,180,1007,2020-05-14_17h37.53.774,ANTCPTp,2020.1.2,MacIntel,60,,,1,21,69,38,1,,,,,,,,,,,,,,,,,,,,,,,,,,,,,,,,,,,,,,,,,,
0.95,left,1,0.683,,,,,,stim/blank.png,stim/incongLeft.png,left,0,1007,2020-05-14_17h37.53.774,ANTCPTp,2020.1.2,MacIntel,60,,,1,22,70,19,1,,,,,,,,,,,,,,,,,,,,,,,,,,,,,,,,,,,,,,,,,,
0.9,left,1,0.75,,,,,,stim/blank.png,stim/congRight.png,left,180,1007,2020-05-14_17h37.53.774,ANTCPTp,2020.1.2,MacIntel,60,,,1,23,71,15,1,,,,,,,,,,,,,,,,,,,,,,,,,,,,,,,,,,,,,,,,,,
0.7,right,1,0.683,,,,,,stim/upper.png,stim/neutralRight.png,right,0,1007,2020-05-14_17h37.53.774,ANTCPTp,2020.1.2,MacIntel,60,,,1,24,72,40,1,,,,,,,,,,,,,,,,,,,,,,,,,,,,,,,,,,,,,,,,,,
1.1,right,1,1.124,,,,,,stim/upper.png,stim/incongRight.png,right,0,1007,2020-05-14_17h37.53.774,ANTCPTp,2020.1.2,MacIntel,60,,,1,25,73,24,1,,,,,,,,,,,,,,,,,,,,,,,,,,,,,,,,,,,,,,,,,,
0.75,right,1,0.933,,,,,,stim/both.png,stim/congRight.png,right,0,1007,2020-05-14_17h37.53.774,ANTCPTp,2020.1.2,MacIntel,60,,,1,26,74,9,1,,,,,,,,,,,,,,,,,,,,,,,,,,,,,,,,,,,,,,,,,,
0.75,right,1,0.776,,,,,,stim/blank.png,stim/neutralRight.png,right,0,1007,2020-05-14_17h37.53.774,ANTCPTp,2020.1.2,MacIntel,60,,,1,27,75,43,1,,,,,,,,,,,,,,,,,,,,,,,,,,,,,,,,,,,,,,,,,,
1.5,left,1,0.758,,,,,,stim/blank.png,stim/incongRight.png,left,180,1007,2020-05-14_17h37.53.774,ANTCPTp,2020.1.2,MacIntel,60,,,1,28,76,31,1,,,,,,,,,,,,,,,,,,,,,,,,,,,,,,,,,,,,,,,,,,
1.5,right,1,0.6,,,,,,stim/lower.png,stim/congLeft.png,right,180,1007,2020-05-14_17h37.53.774,ANTCPTp,2020.1.2,MacIntel,60,,,1,29,77,4,1,,,,,,,,,,,,,,,,,,,,,,,,,,,,,,,,,,,,,,,,,,
0.6,left,1,0.577,,,,,,stim/centre.png,stim/congRight.png,left,180,1007,2020-05-14_17h37.53.774,ANTCPTp,2020.1.2,MacIntel,60,,,1,30,78,14,1,,,,,,,,,,,,,,,,,,,,,,,,,,,,,,,,,,,,,,,,,,
1.3,right,1,0.927,,,,,,stim/centre.png,stim/incongRight.png,right,0,1007,2020-05-14_17h37.53.774,ANTCPTp,2020.1.2,MacIntel,60,,,1,31,79,26,1,,,,,,,,,,,,,,,,,,,,,,,,,,,,,,,,,,,,,,,,,,
1.4,right,1,0.721,,,,,,stim/both.png,stim/neutralRight.png,right,0,1007,2020-05-14_17h37.53.774,ANTCPTp,2020.1.2,MacIntel,60,,,1,32,80,41,1,,,,,,,,,,,,,,,,,,,,,,,,,,,,,,,,,,,,,,,,,,
1.4,left,1,0.55,,,,,,stim/blank.png,stim/congLeft.png,left,0,1007,2020-05-14_17h37.53.774,ANTCPTp,2020.1.2,MacIntel,60,,,1,33,81,3,1,,,,,,,,,,,,,,,,,,,,,,,,,,,,,,,,,,,,,,,,,,
1,left,1,0.809,,,,,,stim/centre.png,stim/neutralRight.png,left,180,1007,2020-05-14_17h37.53.774,ANTCPTp,2020.1.2,MacIntel,60,,,1,34,82,46,1,,,,,,,,,,,,,,,,,,,,,,,,,,,,,,,,,,,,,,,,,,
0.55,right,1,0.571,,,,,,stim/blank.png,stim/congRight.png,right,0,1007,2020-05-14_17h37.53.774,ANTCPTp,2020.1.2,MacIntel,60,,,1,35,83,11,1,,,,,,,,,,,,,,,,,,,,,,,,,,,,,,,,,,,,,,,,,,
1.15,right,1,0.934,,,,,,stim/both.png,stim/incongRight.png,right,0,1007,2020-05-14_17h37.53.774,ANTCPTp,2020.1.2,MacIntel,60,,,1,36,84,25,1,,,,,,,,,,,,,,,,,,,,,,,,,,,,,,,,,,,,,,,,,,
1.25,right,1,0.694,,,,,,stim/blank.png,stim/congLeft.png,right,180,1007,2020-05-14_17h37.53.774,ANTCPTp,2020.1.2,MacIntel,60,,,1,37,85,7,1,,,,,,,,,,,,,,,,,,,,,,,,,,,,,,,,,,,,,,,,,,
1.5,left,1,0.894,,,,,,stim/centre.png,stim/incongLeft.png,left,0,1007,2020-05-14_17h37.53.774,ANTCPTp,2020.1.2,MacIntel,60,,,1,38,86,18,1,,,,,,,,,,,,,,,,,,,,,,,,,,,,,,,,,,,,,,,,,,
0.9,left,1,0.729,,,,,,stim/blank.png,stim/neutralRight.png,left,180,1007,2020-05-14_17h37.53.774,ANTCPTp,2020.1.2,MacIntel,60,,,1,39,87,47,1,,,,,,,,,,,,,,,,,,,,,,,,,,,,,,,,,,,,,,,,,,
0.95,right,1,0.512,,,,,,stim/centre.png,stim/congRight.png,right,0,1007,2020-05-14_17h37.53.774,ANTCPTp,2020.1.2,MacIntel,60,,,1,40,88,10,1,,,,,,,,,,,,,,,,,,,,,,,,,,,,,,,,,,,,,,,,,,
1,right,1,0.599,,,,,,stim/upper.png,stim/congRight.png,right,0,1007,2020-05-14_17h37.53.774,ANTCPTp,2020.1.2,MacIntel,60,,,1,41,89,8,1,,,,,,,,,,,,,,,,,,,,,,,,,,,,,,,,,,,,,,,,,,
0.95,right,1,0.946,,,,,,stim/centre.png,stim/incongLeft.png,right,180,1007,2020-05-14_17h37.53.774,ANTCPTp,2020.1.2,MacIntel,60,,,1,42,90,22,1,,,,,,,,,,,,,,,,,,,,,,,,,,,,,,,,,,,,,,,,,,
1.25,left,1,0.539,,,,,,stim/upper.png,stim/congLeft.png,left,0,1007,2020-05-14_17h37.53.774,ANTCPTp,2020.1.2,MacIntel,60,,,1,43,91,0,1,,,,,,,,,,,,,,,,,,,,,,,,,,,,,,,,,,,,,,,,,,
0.9,right,1,0.657,,,,,,stim/both.png,stim/neutralLeft.png,right,180,1007,2020-05-14_17h37.53.774,ANTCPTp,2020.1.2,MacIntel,60,,,1,44,92,37,1,,,,,,,,,,,,,,,,,,,,,,,,,,,,,,,,,,,,,,,,,,
1.4,left,1,0.484,,,,,,stim/centre.png,stim/congLeft.png,left,0,1007,2020-05-14_17h37.53.774,ANTCPTp,2020.1.2,MacIntel,60,,,1,45,93,2,1,,,,,,,,,,,,,,,,,,,,,,,,,,,,,,,,,,,,,,,,,,
0.7,left,1,0.617,,,,,,stim/both.png,stim/congRight.png,left,180,1007,2020-05-14_17h37.53.774,ANTCPTp,2020.1.2,MacIntel,60,,,1,46,94,13,1,,,,,,,,,,,,,,,,,,,,,,,,,,,,,,,,,,,,,,,,,,
0.8,right,1,0.76,,,,,,stim/blank.png,stim/incongLeft.png,right,180,1007,2020-05-14_17h37.53.774,ANTCPTp,2020.1.2,MacIntel,60,,,1,47,95,23,1,,,,,,,,,,,,,,,,,,,,,,,,,,,,,,,,,,,,,,,,,,
,,,,,,,,,,,,,1007,2020-05-14_17h37.53.774,ANTCPTp,2020.1.2,MacIntel,60,,,,,,,,0,0,0,0,1,,,,,,,,,,,,,,,,,,,,,,,,,,,,,,,,,,,,,
1.5,left,1,0.651,,,,,,stim/both.png,stim/congRight.png,left,180,1007,2020-05-14_17h37.53.774,ANTCPTp,2020.1.2,MacIntel,60,,,0,0,0,13,1,,,,,,,,,,,,,,,,,,,,,,,,,,,,,,,,,,,,,,,,,,
0.4,left,1,0.779,,,,,,stim/both.png,stim/neutralRight.png,left,180,1007,2020-05-14_17h37.53.774,ANTCPTp,2020.1.2,MacIntel,60,,,0,1,1,45,1,,,,,,,,,,,,,,,,,,,,,,,,,,,,,,,,,,,,,,,,,,
1.45,right,1,0.552,,,,,,stim/both.png,stim/congLeft.png,right,180,1007,2020-05-14_17h37.53.774,ANTCPTp,2020.1.2,MacIntel,60,,,0,2,2,5,1,,,,,,,,,,,,,,,,,,,,,,,,,,,,,,,,,,,,,,,,,,
0.9,left,1,1.036,,,,,,stim/blank.png,stim/incongRight.png,left,180,1007,2020-05-14_17h37.53.774,ANTCPTp,2020.1.2,MacIntel,60,,,0,3,3,31,1,,,,,,,,,,,,,,,,,,,,,,,,,,,,,,,,,,,,,,,,,,
0.75,right,1,0.624,,,,,,stim/centre.png,stim/congLeft.png,right,180,1007,2020-05-14_17h37.53.774,ANTCPTp,2020.1.2,MacIntel,60,,,0,4,4,6,1,,,,,,,,,,,,,,,,,,,,,,,,,,,,,,,,,,,,,,,,,,
0.45,right,1,0.77,,,,,,stim/upper.png,stim/neutralRight.png,right,0,1007,2020-05-14_17h37.53.774,ANTCPTp,2020.1.2,MacIntel,60,,,0,5,5,40,1,,,,,,,,,,,,,,,,,,,,,,,,,,,,,,,,,,,,,,,,,,
1.2,right,1,0.58,,,,,,stim/lower.png,stim/neutralLeft.png,right,180,1007,2020-05-14_17h37.53.774,ANTCPTp,2020.1.2,MacIntel,60,,,0,6,6,36,1,,,,,,,,,,,,,,,,,,,,,,,,,,,,,,,,,,,,,,,,,,
1.05,left,1,0.526,,,,,,stim/both.png,stim/congLeft.png,left,0,1007,2020-05-14_17h37.53.774,ANTCPTp,2020.1.2,MacIntel,60,,,0,7,7,1,1,,,,,,,,,,,,,,,,,,,,,,,,,,,,,,,,,,,,,,,,,,
1.15,right,0,0.504,,,,,,stim/lower.png,stim/incongRight.png,left,180,1007,2020-05-14_17h37.53.774,ANTCPTp,2020.1.2,MacIntel,60,,,0,8,8,28,1,,,,,,,,,,,,,,,,,,,,,,,,,,,,,,,,,,,,,,,,,,
1,left,1,0.534,,,,,,stim/lower.png,stim/congRight.png,left,180,1007,2020-05-14_17h37.53.774,ANTCPTp,2020.1.2,MacIntel,60,,,0,9,9,12,1,,,,,,,,,,,,,,,,,,,,,,,,,,,,,,,,,,,,,,,,,,
0.5,right,1,0.837,,,,,,stim/both.png,stim/incongRight.png,right,0,1007,2020-05-14_17h37.53.774,ANTCPTp,2020.1.2,MacIntel,60,,,0,10,10,25,1,,,,,,,,,,,,,,,,,,,,,,,,,,,,,,,,,,,,,,,,,,
1.25,left,1,0.835,,,,,,stim/upper.png,stim/incongLeft.png,left,0,1007,2020-05-14_17h37.53.774,ANTCPTp,2020.1.2,MacIntel,60,,,0,11,11,16,1,,,,,,,,,,,,,,,,,,,,,,,,,,,,,,,,,,,,,,,,,,
0.9,right,1,0.51,,,,,,stim/centre.png,stim/congRight.png,right,0,1007,2020-05-14_17h37.53.774,ANTCPTp,2020.1.2,MacIntel,60,,,0,12,12,10,1,,,,,,,,,,,,,,,,,,,,,,,,,,,,,,,,,,,,,,,,,,
1.3,right,1,0.96,,,,,,stim/blank.png,stim/incongLeft.png,right,180,1007,2020-05-14_17h37.53.774,ANTCPTp,2020.1.2,MacIntel,60,,,0,13,13,23,1,,,,,,,,,,,,,,,,,,,,,,,,,,,,,,,,,,,,,,,,,,
0.55,left,1,0.673,,,,,,stim/centre.png,stim/neutralRight.png,left,180,1007,2020-05-14_17h37.53.774,ANTCPTp,2020.1.2,MacIntel,60,,,0,14,14,46,1,,,,,,,,,,,,,,,,,,,,,,,,,,,,,,,,,,,,,,,,,,
0.8,right,1,0.533,,,,,,stim/both.png,stim/congRight.png,right,0,1007,2020-05-14_17h37.53.774,ANTCPTp,2020.1.2,MacIntel,60,,,0,15,15,9,1,,,,,,,,,,,,,,,,,,,,,,,,,,,,,,,,,,,,,,,,,,
1.4,right,1,0.621,,,,,,stim/blank.png,stim/neutralRight.png,right,0,1007,2020-05-14_17h37.53.774,ANTCPTp,2020.1.2,MacIntel,60,,,0,16,16,43,1,,,,,,,,,,,,,,,,,,,,,,,,,,,,,,,,,,,,,,,,,,
1.25,left,1,0.576,,,,,,stim/blank.png,stim/congLeft.png,left,0,1007,2020-05-14_17h37.53.774,ANTCPTp,2020.1.2,MacIntel,60,,,0,17,17,3,1,,,,,,,,,,,,,,,,,,,,,,,,,,,,,,,,,,,,,,,,,,
1.15,right,1,0.557,,,,,,stim/blank.png,stim/congLeft.png,right,180,1007,2020-05-14_17h37.53.774,ANTCPTp,2020.1.2,MacIntel,60,,,0,18,18,7,1,,,,,,,,,,,,,,,,,,,,,,,,,,,,,,,,,,,,,,,,,,
0.95,left,1,0.652,,,,,,stim/blank.png,stim/neutralRight.png,left,180,1007,2020-05-14_17h37.53.774,ANTCPTp,2020.1.2,MacIntel,60,,,0,19,19,47,1,,,,,,,,,,,,,,,,,,,,,,,,,,,,,,,,,,,,,,,,,,
1.1,right,1,0.5,,,,,,stim/upper.png,stim/congRight.png,right,0,1007,2020-05-14_17h37.53.774,ANTCPTp,2020.1.2,MacIntel,60,,,0,20,20,8,1,,,,,,,,,,,,,,,,,,,,,,,,,,,,,,,,,,,,,,,,,,
1.25,left,1,0.862,,,,,,stim/both.png,stim/incongRight.png,left,180,1007,2020-05-14_17h37.53.774,ANTCPTp,2020.1.2,MacIntel,60,,,0,21,21,29,1,,,,,,,,,,,,,,,,,,,,,,,,,,,,,,,,,,,,,,,,,,
0.85,right,1,0.604,,,,,,stim/centre.png,stim/neutralLeft.png,right,180,1007,2020-05-14_17h37.53.774,ANTCPTp,2020.1.2,MacIntel,60,,,0,22,22,38,1,,,,,,,,,,,,,,,,,,,,,,,,,,,,,,,,,,,,,,,,,,
1,left,1,0.561,,,,,,stim/lower.png,stim/neutralRight.png,left,180,1007,2020-05-14_17h37.53.774,ANTCPTp,2020.1.2,MacIntel,60,,,0,23,23,44,1,,,,,,,,,,,,,,,,,,,,,,,,,,,,,,,,,,,,,,,,,,
1.5,right,1,0.49,,,,,,stim/blank.png,stim/congRight.png,right,0,1007,2020-05-14_17h37.53.774,ANTCPTp,2020.1.2,MacIntel,60,,,0,24,24,11,1,,,,,,,,,,,,,,,,,,,,,,,,,,,,,,,,,,,,,,,,,,
1,right,1,1.067,,,,,,stim/blank.png,stim/incongRight.png,right,0,1007,2020-05-14_17h37.53.774,ANTCPTp,2020.1.2,MacIntel,60,,,0,25,25,27,1,,,,,,,,,,,,,,,,,,,,,,,,,,,,,,,,,,,,,,,,,,
0.9,right,1,0.884,,,,,,stim/centre.png,stim/incongLeft.png,right,180,1007,2020-05-14_17h37.53.774,ANTCPTp,2020.1.2,MacIntel,60,,,0,26,26,22,1,,,,,,,,,,,,,,,,,,,,,,,,,,,,,,,,,,,,,,,,,,
0.95,right,1,0.837,,,,,,stim/blank.png,stim/neutralLeft.png,right,180,1007,2020-05-14_17h37.53.774,ANTCPTp,2020.1.2,MacIntel,60,,,0,27,27,39,1,,,,,,,,,,,,,,,,,,,,,,,,,,,,,,,,,,,,,,,,,,
1.5,left,1,0.809,,,,,,stim/blank.png,stim/incongLeft.png,left,0,1007,2020-05-14_17h37.53.774,ANTCPTp,2020.1.2,MacIntel,60,,,0,28,28,19,1,,,,,,,,,,,,,,,,,,,,,,,,,,,,,,,,,,,,,,,,,,
0.5,left,1,0.744,,,,,,stim/blank.png,stim/congRight.png,left,180,1007,2020-05-14_17h37.53.774,ANTCPTp,2020.1.2,MacIntel,60,,,0,29,29,15,1,,,,,,,,,,,,,,,,,,,,,,,,,,,,,,,,,,,,,,,,,,
1.3,right,1,0.812,,,,,,stim/lower.png,stim/incongLeft.png,right,180,1007,2020-05-14_17h37.53.774,ANTCPTp,2020.1.2,MacIntel,60,,,0,30,30,20,1,,,,,,,,,,,,,,,,,,,,,,,,,,,,,,,,,,,,,,,,,,
0.75,right,1,0.657,,,,,,stim/both.png,stim/neutralLeft.png,right,180,1007,2020-05-14_17h37.53.774,ANTCPTp,2020.1.2,MacIntel,60,,,0,31,31,37,1,,,,,,,,,,,,,,,,,,,,,,,,,,,,,,,,,,,,,,,,,,
1.3,right,1,0.832,,,,,,stim/centre.png,stim/incongRight.png,right,0,1007,2020-05-14_17h37.53.774,ANTCPTp,2020.1.2,MacIntel,60,,,0,32,32,26,1,,,,,,,,,,,,,,,,,,,,,,,,,,,,,,,,,,,,,,,,,,
1.35,left,1,0.583,,,,,,stim/upper.png,stim/neutralLeft.png,left,0,1007,2020-05-14_17h37.53.774,ANTCPTp,2020.1.2,MacIntel,60,,,0,33,33,32,1,,,,,,,,,,,,,,,,,,,,,,,,,,,,,,,,,,,,,,,,,,
1.2,left,1,0.607,,,,,,stim/centre.png,stim/neutralLeft.png,left,0,1007,2020-05-14_17h37.53.774,ANTCPTp,2020.1.2,MacIntel,60,,,0,34,34,34,1,,,,,,,,,,,,,,,,,,,,,,,,,,,,,,,,,,,,,,,,,,
0.65,left,1,0.651,,,,,,stim/both.png,stim/neutralLeft.png,left,0,1007,2020-05-14_17h37.53.774,ANTCPTp,2020.1.2,MacIntel,60,,,0,35,35,33,1,,,,,,,,,,,,,,,,,,,,,,,,,,,,,,,,,,,,,,,,,,
1.25,left,1,0.806,,,,,,stim/centre.png,stim/incongLeft.png,left,0,1007,2020-05-14_17h37.53.774,ANTCPTp,2020.1.2,MacIntel,60,,,0,36,36,18,1,,,,,,,,,,,,,,,,,,,,,,,,,,,,,,,,,,,,,,,,,,
0.65,right,1,0.616,,,,,,stim/both.png,stim/neutralRight.png,right,0,1007,2020-05-14_17h37.53.774,ANTCPTp,2020.1.2,MacIntel,60,,,0,37,37,41,1,,,,,,,,,,,,,,,,,,,,,,,,,,,,,,,,,,,,,,,,,,
1.1,left,1,0.852,,,,,,stim/centre.png,stim/incongRight.png,left,180,1007,2020-05-14_17h37.53.774,ANTCPTp,2020.1.2,MacIntel,60,,,0,38,38,30,1,,,,,,,,,,,,,,,,,,,,,,,,,,,,,,,,,,,,,,,,,,
0.55,right,1,0.746,,,,,,stim/upper.png,stim/incongRight.png,right,0,1007,2020-05-14_17h37.53.774,ANTCPTp,2020.1.2,MacIntel,60,,,0,39,39,24,1,,,,,,,,,,,,,,,,,,,,,,,,,,,,,,,,,,,,,,,,,,
0.95,left,1,0.86,,,,,,stim/centre.png,stim/congRight.png,left,180,1007,2020-05-14_17h37.53.774,ANTCPTp,2020.1.2,MacIntel,60,,,0,40,40,14,1,,,,,,,,,,,,,,,,,,,,,,,,,,,,,,,,,,,,,,,,,,
1.45,left,1,0.91,,,,,,stim/blank.png,stim/neutralLeft.png,left,0,1007,2020-05-14_17h37.53.774,ANTCPTp,2020.1.2,MacIntel,60,,,0,41,41,35,1,,,,,,,,,,,,,,,,,,,,,,,,,,,,,,,,,,,,,,,,,,
1.15,left,1,0.749,,,,,,stim/both.png,stim/incongLeft.png,left,0,1007,2020-05-14_17h37.53.774,ANTCPTp,2020.1.2,MacIntel,60,,,0,42,42,17,1,,,,,,,,,,,,,,,,,,,,,,,,,,,,,,,,,,,,,,,,,,
0.75,left,1,0.787,,,,,,stim/upper.png,stim/congLeft.png,left,0,1007,2020-05-14_17h37.53.774,ANTCPTp,2020.1.2,MacIntel,60,,,0,43,43,0,1,,,,,,,,,,,,,,,,,,,,,,,,,,,,,,,,,,,,,,,,,,
0.7,right,1,1.03,,,,,,stim/both.png,stim/incongLeft.png,right,180,1007,2020-05-14_17h37.53.774,ANTCPTp,2020.1.2,MacIntel,60,,,0,44,44,21,1,,,,,,,,,,,,,,,,,,,,,,,,,,,,,,,,,,,,,,,,,,
0.55,right,1,0.654,,,,,,stim/centre.png,stim/neutralRight.png,right,0,1007,2020-05-14_17h37.53.774,ANTCPTp,2020.1.2,MacIntel,60,,,0,45,45,42,1,,,,,,,,,,,,,,,,,,,,,,,,,,,,,,,,,,,,,,,,,,
0.75,right,1,0.626,,,,,,stim/lower.png,stim/congLeft.png,right,180,1007,2020-05-14_17h37.53.774,ANTCPTp,2020.1.2,MacIntel,60,,,0,46,46,4,1,,,,,,,,,,,,,,,,,,,,,,,,,,,,,,,,,,,,,,,,,,
0.9,left,1,0.65,,,,,,stim/centre.png,stim/congLeft.png,left,0,1007,2020-05-14_17h37.53.774,ANTCPTp,2020.1.2,MacIntel,60,,,0,47,47,2,1,,,,,,,,,,,,,,,,,,,,,,,,,,,,,,,,,,,,,,,,,,
1.25,right,1,0.67,,,,,,stim/centre.png,stim/neutralLeft.png,right,180,1007,2020-05-14_17h37.53.774,ANTCPTp,2020.1.2,MacIntel,60,,,1,0,48,38,1,,,,,,,,,,,,,,,,,,,,,,,,,,,,,,,,,,,,,,,,,,
0.4,right,1,0.627,,,,,,stim/blank.png,stim/neutralLeft.png,right,180,1007,2020-05-14_17h37.53.774,ANTCPTp,2020.1.2,MacIntel,60,,,1,1,49,39,1,,,,,,,,,,,,,,,,,,,,,,,,,,,,,,,,,,,,,,,,,,
0.5,left,1,0.521,,,,,,stim/blank.png,stim/neutralLeft.png,left,0,1007,2020-05-14_17h37.53.774,ANTCPTp,2020.1.2,MacIntel,60,,,1,2,50,35,1,,,,,,,,,,,,,,,,,,,,,,,,,,,,,,,,,,,,,,,,,,
1.4,right,1,0.843,,,,,,stim/lower.png,stim/incongLeft.png,right,180,1007,2020-05-14_17h37.53.774,ANTCPTp,2020.1.2,MacIntel,60,,,1,3,51,20,1,,,,,,,,,,,,,,,,,,,,,,,,,,,,,,,,,,,,,,,,,,
0.6,left,1,0.776,,,,,,stim/both.png,stim/incongLeft.png,left,0,1007,2020-05-14_17h37.53.774,ANTCPTp,2020.1.2,MacIntel,60,,,1,4,52,17,1,,,,,,,,,,,,,,,,,,,,,,,,,,,,,,,,,,,,,,,,,,
1.35,right,1,0.557,,,,,,stim/blank.png,stim/neutralRight.png,right,0,1007,2020-05-14_17h37.53.774,ANTCPTp,2020.1.2,MacIntel,60,,,1,5,53,43,1,,,,,,,,,,,,,,,,,,,,,,,,,,,,,,,,,,,,,,,,,,
0.85,right,1,0.629,,,,,,stim/lower.png,stim/congLeft.png,right,180,1007,2020-05-14_17h37.53.774,ANTCPTp,2020.1.2,MacIntel,60,,,1,6,54,4,1,,,,,,,,,,,,,,,,,,,,,,,,,,,,,,,,,,,,,,,,,,
0.45,left,1,0.558,,,,,,stim/centre.png,stim/neutralLeft.png,left,0,1007,2020-05-14_17h37.53.774,ANTCPTp,2020.1.2,MacIntel,60,,,1,7,55,34,1,,,,,,,,,,,,,,,,,,,,,,,,,,,,,,,,,,,,,,,,,,
0.6,left,1,0.587,,,,,,stim/upper.png,stim/congLeft.png,left,0,1007,2020-05-14_17h37.53.774,ANTCPTp,2020.1.2,MacIntel,60,,,1,8,56,0,1,,,,,,,,,,,,,,,,,,,,,,,,,,,,,,,,,,,,,,,,,,
0.9,right,1,0.7,,,,,,stim/blank.png,stim/incongRight.png,right,0,1007,2020-05-14_17h37.53.774,ANTCPTp,2020.1.2,MacIntel,60,,,1,9,57,27,1,,,,,,,,,,,,,,,,,,,,,,,,,,,,,,,,,,,,,,,,,,
1.4,right,1,0.495,,,,,,stim/upper.png,stim/neutralRight.png,right,0,1007,2020-05-14_17h37.53.774,ANTCPTp,2020.1.2,MacIntel,60,,,1,10,58,40,1,,,,,,,,,,,,,,,,,,,,,,,,,,,,,,,,,,,,,,,,,,
1,right,1,0.777,,,,,,stim/upper.png,stim/incongRight.png,right,0,1007,2020-05-14_17h37.53.774,ANTCPTp,2020.1.2,MacIntel,60,,,1,11,59,24,1,,,,,,,,,,,,,,,,,,,,,,,,,,,,,,,,,,,,,,,,,,
0.55,left,1,0.761,,,,,,stim/upper.png,stim/incongLeft.png,left,0,1007,2020-05-14_17h37.53.774,ANTCPTp,2020.1.2,MacIntel,60,,,1,12,60,16,1,,,,,,,,,,,,,,,,,,,,,,,,,,,,,,,,,,,,,,,,,,
0.65,right,1,0.542,,,,,,stim/upper.png,stim/congRight.png,right,0,1007,2020-05-14_17h37.53.774,ANTCPTp,2020.1.2,MacIntel,60,,,1,13,61,8,1,,,,,,,,,,,,,,,,,,,,,,,,,,,,,,,,,,,,,,,,,,
1.1,left,1,0.56,,,,,,stim/both.png,stim/congRight.png,left,180,1007,2020-05-14_17h37.53.774,ANTCPTp,2020.1.2,MacIntel,60,,,1,14,62,13,1,,,,,,,,,,,,,,,,,,,,,,,,,,,,,,,,,,,,,,,,,,
1.35,left,1,0.517,,,,,,stim/centre.png,stim/congRight.png,left,180,1007,2020-05-14_17h37.53.774,ANTCPTp,2020.1.2,MacIntel,60,,,1,15,63,14,1,,,,,,,,,,,,,,,,,,,,,,,,,,,,,,,,,,,,,,,,,,
0.7,left,1,0.636,,,,,,stim/centre.png,stim/congLeft.png,left,0,1007,2020-05-14_17h37.53.774,ANTCPTp,2020.1.2,MacIntel,60,,,1,16,64,2,1,,,,,,,,,,,,,,,,,,,,,,,,,,,,,,,,,,,,,,,,,,
1,left,1,0.601,,,,,,stim/both.png,stim/congLeft.png,left,0,1007,2020-05-14_17h37.53.774,ANTCPTp,2020.1.2,MacIntel,60,,,1,17,65,1,1,,,,,,,,,,,,,,,,,,,,,,,,,,,,,,,,,,,,,,,,,,
1.15,right,1,0.996,,,,,,stim/blank.png,stim/congRight.png,right,0,1007,2020-05-14_17h37.53.774,ANTCPTp,2020.1.2,MacIntel,60,,,1,18,66,11,1,,,,,,,,,,,,,,,,,,,,,,,,,,,,,,,,,,,,,,,,,,
0.9,right,1,0.542,,,,,,stim/centre.png,stim/congRight.png,right,0,1007,2020-05-14_17h37.53.774,ANTCPTp,2020.1.2,MacIntel,60,,,1,19,67,10,1,,,,,,,,,,,,,,,,,,,,,,,,,,,,,,,,,,,,,,,,,,
0.95,left,1,0.822,,,,,,stim/both.png,stim/neutralRight.png,left,180,1007,2020-05-14_17h37.53.774,ANTCPTp,2020.1.2,MacIntel,60,,,1,20,68,45,1,,,,,,,,,,,,,,,,,,,,,,,,,,,,,,,,,,,,,,,,,,
0.55,right,1,0.669,,,,,,stim/both.png,stim/neutralLeft.png,right,180,1007,2020-05-14_17h37.53.774,ANTCPTp,2020.1.2,MacIntel,60,,,1,21,69,37,1,,,,,,,,,,,,,,,,,,,,,,,,,,,,,,,,,,,,,,,,,,
1.4,right,1,0.584,,,,,,stim/blank.png,stim/congLeft.png,right,180,1007,2020-05-14_17h37.53.774,ANTCPTp,2020.1.2,MacIntel,60,,,1,22,70,7,1,,,,,,,,,,,,,,,,,,,,,,,,,,,,,,,,,,,,,,,,,,
0.4,left,1,1.07,,,,,,stim/centre.png,stim/incongLeft.png,left,0,1007,2020-05-14_17h37.53.774,ANTCPTp,2020.1.2,MacIntel,60,,,1,23,71,18,1,,,,,,,,,,,,,,,,,,,,,,,,,,,,,,,,,,,,,,,,,,
1.3,right,1,0.579,,,,,,stim/lower.png,stim/neutralLeft.png,right,180,1007,2020-05-14_17h37.53.774,ANTCPTp,2020.1.2,MacIntel,60,,,1,24,72,36,1,,,,,,,,,,,,,,,,,,,,,,,,,,,,,,,,,,,,,,,,,,
0.75,right,1,0.857,,,,,,stim/both.png,stim/incongRight.png,right,0,1007,2020-05-14_17h37.53.774,ANTCPTp,2020.1.2,MacIntel,60,,,1,25,73,25,1,,,,,,,,,,,,,,,,,,,,,,,,,,,,,,,,,,,,,,,,,,
1.25,right,1,0.602,,,,,,stim/centre.png,stim/neutralRight.png,right,0,1007,2020-05-14_17h37.53.774,ANTCPTp,2020.1.2,MacIntel,60,,,1,26,74,42,1,,,,,,,,,,,,,,,,,,,,,,,,,,,,,,,,,,,,,,,,,,
1,right,1,0.912,,,,,,stim/both.png,stim/incongLeft.png,right,180,1007,2020-05-14_17h37.53.774,ANTCPTp,2020.1.2,MacIntel,60,,,1,27,75,21,1,,,,,,,,,,,,,,,,,,,,,,,,,,,,,,,,,,,,,,,,,,
0.55,left,1,0.485,,,,,,stim/upper.png,stim/neutralLeft.png,left,0,1007,2020-05-14_17h37.53.774,ANTCPTp,2020.1.2,MacIntel,60,,,1,28,76,32,1,,,,,,,,,,,,,,,,,,,,,,,,,,,,,,,,,,,,,,,,,,
0.45,right,1,0.787,,,,,,stim/centre.png,stim/incongLeft.png,right,180,1007,2020-05-14_17h37.53.774,ANTCPTp,2020.1.2,MacIntel,60,,,1,29,77,22,1,,,,,,,,,,,,,,,,,,,,,,,,,,,,,,,,,,,,,,,,,,
0.65,left,1,0.66,,,,,,stim/blank.png,stim/neutralRight.png,left,180,1007,2020-05-14_17h37.53.774,ANTCPTp,2020.1.2,MacIntel,60,,,1,30,78,47,1,,,,,,,,,,,,,,,,,,,,,,,,,,,,,,,,,,,,,,,,,,
1.3,left,1,0.667,,,,,,stim/both.png,stim/neutralLeft.png,left,0,1007,2020-05-14_17h37.53.774,ANTCPTp,2020.1.2,MacIntel,60,,,1,31,79,33,1,,,,,,,,,,,,,,,,,,,,,,,,,,,,,,,,,,,,,,,,,,
1.45,right,1,1.019,,,,,,stim/blank.png,stim/incongLeft.png,right,180,1007,2020-05-14_17h37.53.774,ANTCPTp,2020.1.2,MacIntel,60,,,1,32,80,23,1,,,,,,,,,,,,,,,,,,,,,,,,,,,,,,,,,,,,,,,,,,
1.55,left,1,0.601,,,,,,stim/centre.png,stim/neutralRight.png,left,180,1007,2020-05-14_17h37.53.774,ANTCPTp,2020.1.2,MacIntel,60,,,1,33,81,46,1,,,,,,,,,,,,,,,,,,,,,,,,,,,,,,,,,,,,,,,,,,
0.8,left,1,1.224,,,,,,stim/lower.png,stim/incongRight.png,left,180,1007,2020-05-14_17h37.53.774,ANTCPTp,2020.1.2,MacIntel,60,,,1,34,82,28,1,,,,,,,,,,,,,,,,,,,,,,,,,,,,,,,,,,,,,,,,,,
0.9,right,1,0.544,,,,,,stim/centre.png,stim/congLeft.png,right,180,1007,2020-05-14_17h37.53.774,ANTCPTp,2020.1.2,MacIntel,60,,,1,35,83,6,1,,,,,,,,,,,,,,,,,,,,,,,,,,,,,,,,,,,,,,,,,,
1.3,left,1,0.634,,,,,,stim/blank.png,stim/congLeft.png,left,0,1007,2020-05-14_17h37.53.774,ANTCPTp,2020.1.2,MacIntel,60,,,1,36,84,3,1,,,,,,,,,,,,,,,,,,,,,,,,,,,,,,,,,,,,,,,,,,
1.05,right,1,0.501,,,,,,stim/both.png,stim/neutralRight.png,right,0,1007,2020-05-14_17h37.53.774,ANTCPTp,2020.1.2,MacIntel,60,,,1,37,85,41,1,,,,,,,,,,,,,,,,,,,,,,,,,,,,,,,,,,,,,,,,,,
0.5,left,1,0.961,,,,,,stim/blank.png,stim/incongLeft.png,left,0,1007,2020-05-14_17h37.53.774,ANTCPTp,2020.1.2,MacIntel,60,,,1,38,86,19,1,,,,,,,,,,,,,,,,,,,,,,,,,,,,,,,,,,,,,,,,,,
1.35,left,1,0.695,,,,,,stim/blank.png,stim/congRight.png,left,180,1007,2020-05-14_17h37.53.774,ANTCPTp,2020.1.2,MacIntel,60,,,1,39,87,15,1,,,,,,,,,,,,,,,,,,,,,,,,,,,,,,,,,,,,,,,,,,
0.5,right,1,0.502,,,,,,stim/both.png,stim/congRight.png,right,0,1007,2020-05-14_17h37.53.774,ANTCPTp,2020.1.2,MacIntel,60,,,1,40,88,9,1,,,,,,,,,,,,,,,,,,,,,,,,,,,,,,,,,,,,,,,,,,
0.7,right,1,0.537,,,,,,stim/both.png,stim/congLeft.png,right,180,1007,2020-05-14_17h37.53.774,ANTCPTp,2020.1.2,MacIntel,60,,,1,41,89,5,1,,,,,,,,,,,,,,,,,,,,,,,,,,,,,,,,,,,,,,,,,,
0.8,left,1,0.824,,,,,,stim/centre.png,stim/incongRight.png,left,180,1007,2020-05-14_17h37.53.774,ANTCPTp,2020.1.2,MacIntel,60,,,1,42,90,30,1,,,,,,,,,,,,,,,,,,,,,,,,,,,,,,,,,,,,,,,,,,
1.4,left,1,0.574,,,,,,stim/lower.png,stim/congRight.png,left,180,1007,2020-05-14_17h37.53.774,ANTCPTp,2020.1.2,MacIntel,60,,,1,43,91,12,1,,,,,,,,,,,,,,,,,,,,,,,,,,,,,,,,,,,,,,,,,,
0.6,left,1,0.878,,,,,,stim/blank.png,stim/incongRight.png,left,180,1007,2020-05-14_17h37.53.774,ANTCPTp,2020.1.2,MacIntel,60,,,1,44,92,31,1,,,,,,,,,,,,,,,,,,,,,,,,,,,,,,,,,,,,,,,,,,
0.7,left,1,0.796,,,,,,stim/both.png,stim/incongRight.png,left,180,1007,2020-05-14_17h37.53.774,ANTCPTp,2020.1.2,MacIntel,60,,,1,45,93,29,1,,,,,,,,,,,,,,,,,,,,,,,,,,,,,,,,,,,,,,,,,,
1.05,right,1,0.952,,,,,,stim/centre.png,stim/incongRight.png,right,0,1007,2020-05-14_17h37.53.774,ANTCPTp,2020.1.2,MacIntel,60,,,1,46,94,26,1,,,,,,,,,,,,,,,,,,,,,,,,,,,,,,,,,,,,,,,,,,
0.7,left,1,0.641,,,,,,stim/lower.png,stim/neutralRight.png,left,180,1007,2020-05-14_17h37.53.774,ANTCPTp,2020.1.2,MacIntel,60,,,1,47,95,44,1,,,,,,,,,,,,,,,,,,,,,,,,,,,,,,,,,,,,,,,,,,
,,,,,,,,,,,,,1007,2020-05-14_17h37.53.774,ANTCPTp,2020.1.2,MacIntel,60,,,,,,,,1,0,1,0,1,,,,,,,,,,,,,,,,,,,,,,,,,,,,,,,,,,,,,
0.8,right,1,0.815,,,,,,stim/centre.png,stim/neutralLeft.png,right,180,1007,2020-05-14_17h37.53.774,ANTCPTp,2020.1.2,MacIntel,60,,,0,0,0,38,1,,,,,,,,,,,,,,,,,,,,,,,,,,,,,,,,,,,,,,,,,,
0.9,right,1,0.592,,,,,,stim/centre.png,stim/neutralRight.png,right,0,1007,2020-05-14_17h37.53.774,ANTCPTp,2020.1.2,MacIntel,60,,,0,1,1,42,1,,,,,,,,,,,,,,,,,,,,,,,,,,,,,,,,,,,,,,,,,,
0.95,right,1,0.542,,,,,,stim/blank.png,stim/neutralRight.png,right,0,1007,2020-05-14_17h37.53.774,ANTCPTp,2020.1.2,MacIntel,60,,,0,2,2,43,1,,,,,,,,,,,,,,,,,,,,,,,,,,,,,,,,,,,,,,,,,,
0.8,right,1,0.617,,,,,,stim/centre.png,stim/congLeft.png,right,180,1007,2020-05-14_17h37.53.774,ANTCPTp,2020.1.2,MacIntel,60,,,0,3,3,6,1,,,,,,,,,,,,,,,,,,,,,,,,,,,,,,,,,,,,,,,,,,
0.6,left,1,0.86,,,,,,stim/centre.png,stim/incongLeft.png,left,0,1007,2020-05-14_17h37.53.774,ANTCPTp,2020.1.2,MacIntel,60,,,0,4,4,18,1,,,,,,,,,,,,,,,,,,,,,,,,,,,,,,,,,,,,,,,,,,
0.65,left,1,0.752,,,,,,stim/both.png,stim/incongLeft.png,left,0,1007,2020-05-14_17h37.53.774,ANTCPTp,2020.1.2,MacIntel,60,,,0,5,5,17,1,,,,,,,,,,,,,,,,,,,,,,,,,,,,,,,,,,,,,,,,,,
0.8,left,1,0.843,,,,,,stim/centre.png,stim/congLeft.png,left,0,1007,2020-05-14_17h37.53.774,ANTCPTp,2020.1.2,MacIntel,60,,,0,6,6,2,1,,,,,,,,,,,,,,,,,,,,,,,,,,,,,,,,,,,,,,,,,,
0.85,right,1,0.668,,,,,,stim/centre.png,stim/incongRight.png,right,0,1007,2020-05-14_17h37.53.774,ANTCPTp,2020.1.2,MacIntel,60,,,0,7,7,26,1,,,,,,,,,,,,,,,,,,,,,,,,,,,,,,,,,,,,,,,,,,
0.75,right,1,0.677,,,,,,stim/blank.png,stim/neutralLeft.png,right,180,1007,2020-05-14_17h37.53.774,ANTCPTp,2020.1.2,MacIntel,60,,,0,8,8,39,1,,,,,,,,,,,,,,,,,,,,,,,,,,,,,,,,,,,,,,,,,,
1.1,right,1,0.528,,,,,,stim/lower.png,stim/neutralLeft.png,right,180,1007,2020-05-14_17h37.53.774,ANTCPTp,2020.1.2,MacIntel,60,,,0,9,9,36,1,,,,,,,,,,,,,,,,,,,,,,,,,,,,,,,,,,,,,,,,,,
0.7,left,1,0.899,,,,,,stim/centre.png,stim/incongRight.png,left,180,1007,2020-05-14_17h37.53.774,ANTCPTp,2020.1.2,MacIntel,60,,,0,10,10,30,1,,,,,,,,,,,,,,,,,,,,,,,,,,,,,,,,,,,,,,,,,,
1.25,left,1,0.793,,,,,,stim/blank.png,stim/incongRight.png,left,180,1007,2020-05-14_17h37.53.774,ANTCPTp,2020.1.2,MacIntel,60,,,0,11,11,31,1,,,,,,,,,,,,,,,,,,,,,,,,,,,,,,,,,,,,,,,,,,
0.7,right,1,0.601,,,,,,stim/both.png,stim/neutralRight.png,right,0,1007,2020-05-14_17h37.53.774,ANTCPTp,2020.1.2,MacIntel,60,,,0,12,12,41,1,,,,,,,,,,,,,,,,,,,,,,,,,,,,,,,,,,,,,,,,,,
0.4,left,1,0.703,,,,,,stim/lower.png,stim/incongRight.png,left,180,1007,2020-05-14_17h37.53.774,ANTCPTp,2020.1.2,MacIntel,60,,,0,13,13,28,1,,,,,,,,,,,,,,,,,,,,,,,,,,,,,,,,,,,,,,,,,,
1.5,left,1,0.617,,,,,,stim/centre.png,stim/neutralLeft.png,left,0,1007,2020-05-14_17h37.53.774,ANTCPTp,2020.1.2,MacIntel,60,,,0,14,14,34,1,,,,,,,,,,,,,,,,,,,,,,,,,,,,,,,,,,,,,,,,,,
1.55,right,1,0.506,,,,,,stim/both.png,stim/neutralLeft.png,right,180,1007,2020-05-14_17h37.53.774,ANTCPTp,2020.1.2,MacIntel,60,,,0,15,15,37,1,,,,,,,,,,,,,,,,,,,,,,,,,,,,,,,,,,,,,,,,,,
1.55,left,1,0.635,,,,,,stim/both.png,stim/congRight.png,left,180,1007,2020-05-14_17h37.53.774,ANTCPTp,2020.1.2,MacIntel,60,,,0,16,16,13,1,,,,,,,,,,,,,,,,,,,,,,,,,,,,,,,,,,,,,,,,,,
0.55,left,1,0.588,,,,,,stim/lower.png,stim/congRight.png,left,180,1007,2020-05-14_17h37.53.774,ANTCPTp,2020.1.2,MacIntel,60,,,0,17,17,12,1,,,,,,,,,,,,,,,,,,,,,,,,,,,,,,,,,,,,,,,,,,
0.95,right,1,0.47,,,,,,stim/centre.png,stim/congRight.png,right,0,1007,2020-05-14_17h37.53.774,ANTCPTp,2020.1.2,MacIntel,60,,,0,18,18,10,1,,,,,,,,,,,,,,,,,,,,,,,,,,,,,,,,,,,,,,,,,,
0.5,left,1,0.662,,,,,,stim/blank.png,stim/incongLeft.png,left,0,1007,2020-05-14_17h37.53.774,ANTCPTp,2020.1.2,MacIntel,60,,,0,19,19,19,1,,,,,,,,,,,,,,,,,,,,,,,,,,,,,,,,,,,,,,,,,,
0.75,right,1,0.859,,,,,,stim/both.png,stim/incongRight.png,right,0,1007,2020-05-14_17h37.53.774,ANTCPTp,2020.1.2,MacIntel,60,,,0,20,20,25,1,,,,,,,,,,,,,,,,,,,,,,,,,,,,,,,,,,,,,,,,,,
0.45,left,1,0.636,,,,,,stim/upper.png,stim/congLeft.png,left,0,1007,2020-05-14_17h37.53.774,ANTCPTp,2020.1.2,MacIntel,60,,,0,21,21,0,1,,,,,,,,,,,,,,,,,,,,,,,,,,,,,,,,,,,,,,,,,,
0.7,left,1,0.595,,,,,,stim/blank.png,stim/congLeft.png,left,0,1007,2020-05-14_17h37.53.774,ANTCPTp,2020.1.2,MacIntel,60,,,0,22,22,3,1,,,,,,,,,,,,,,,,,,,,,,,,,,,,,,,,,,,,,,,,,,
1.5,left,1,0.703,,,,,,stim/centre.png,stim/neutralRight.png,left,180,1007,2020-05-14_17h37.53.774,ANTCPTp,2020.1.2,MacIntel,60,,,0,23,23,46,1,,,,,,,,,,,,,,,,,,,,,,,,,,,,,,,,,,,,,,,,,,
0.4,right,1,0.503,,,,,,stim/both.png,stim/congRight.png,right,0,1007,2020-05-14_17h37.53.774,ANTCPTp,2020.1.2,MacIntel,60,,,0,24,24,9,1,,,,,,,,,,,,,,,,,,,,,,,,,,,,,,,,,,,,,,,,,,
1.3,right,1,0.558,,,,,,stim/lower.png,stim/congLeft.png,right,180,1007,2020-05-14_17h37.53.774,ANTCPTp,2020.1.2,MacIntel,60,,,0,25,25,4,1,,,,,,,,,,,,,,,,,,,,,,,,,,,,,,,,,,,,,,,,,,
0.95,right,1,0.945,,,,,,stim/centre.png,stim/incongLeft.png,right,180,1007,2020-05-14_17h37.53.774,ANTCPTp,2020.1.2,MacIntel,60,,,0,26,26,22,1,,,,,,,,,,,,,,,,,,,,,,,,,,,,,,,,,,,,,,,,,,
0.8,left,1,0.54,,,,,,stim/both.png,stim/neutralLeft.png,left,0,1007,2020-05-14_17h37.53.774,ANTCPTp,2020.1.2,MacIntel,60,,,0,27,27,33,1,,,,,,,,,,,,,,,,,,,,,,,,,,,,,,,,,,,,,,,,,,
1,left,1,0.579,,,,,,stim/both.png,stim/neutralRight.png,left,180,1007,2020-05-14_17h37.53.774,ANTCPTp,2020.1.2,MacIntel,60,,,0,28,28,45,1,,,,,,,,,,,,,,,,,,,,,,,,,,,,,,,,,,,,,,,,,,
0.45,left,1,0.924,,,,,,stim/upper.png,stim/incongLeft.png,left,0,1007,2020-05-14_17h37.53.774,ANTCPTp,2020.1.2,MacIntel,60,,,0,29,29,16,1,,,,,,,,,,,,,,,,,,,,,,,,,,,,,,,,,,,,,,,,,,
1.05,right,1,0.529,,,,,,stim/blank.png,stim/congLeft.png,right,180,1007,2020-05-14_17h37.53.774,ANTCPTp,2020.1.2,MacIntel,60,,,0,30,30,7,1,,,,,,,,,,,,,,,,,,,,,,,,,,,,,,,,,,,,,,,,,,
1.25,left,1,0.493,,,,,,stim/blank.png,stim/neutralLeft.png,left,0,1007,2020-05-14_17h37.53.774,ANTCPTp,2020.1.2,MacIntel,60,,,0,31,31,35,1,,,,,,,,,,,,,,,,,,,,,,,,,,,,,,,,,,,,,,,,,,
0.7,right,1,0.794,,,,,,stim/upper.png,stim/incongRight.png,right,0,1007,2020-05-14_17h37.53.774,ANTCPTp,2020.1.2,MacIntel,60,,,0,32,32,24,1,,,,,,,,,,,,,,,,,,,,,,,,,,,,,,,,,,,,,,,,,,
0.4,right,1,0.634,,,,,,stim/both.png,stim/congLeft.png,right,180,1007,2020-05-14_17h37.53.774,ANTCPTp,2020.1.2,MacIntel,60,,,0,33,33,5,1,,,,,,,,,,,,,,,,,,,,,,,,,,,,,,,,,,,,,,,,,,
1.15,left,1,0.785,,,,,,stim/both.png,stim/incongRight.png,left,180,1007,2020-05-14_17h37.53.774,ANTCPTp,2020.1.2,MacIntel,60,,,0,34,34,29,1,,,,,,,,,,,,,,,,,,,,,,,,,,,,,,,,,,,,,,,,,,
0.7,right,1,0.516,,,,,,stim/blank.png,stim/congRight.png,right,0,1007,2020-05-14_17h37.53.774,ANTCPTp,2020.1.2,MacIntel,60,,,0,35,35,11,1,,,,,,,,,,,,,,,,,,,,,,,,,,,,,,,,,,,,,,,,,,
0.85,right,1,0.912,,,,,,stim/both.png,stim/incongLeft.png,right,180,1007,2020-05-14_17h37.53.774,ANTCPTp,2020.1.2,MacIntel,60,,,0,36,36,21,1,,,,,,,,,,,,,,,,,,,,,,,,,,,,,,,,,,,,,,,,,,
0.55,left,1,0.562,,,,,,stim/blank.png,stim/congRight.png,left,180,1007,2020-05-14_17h37.53.774,ANTCPTp,2020.1.2,MacIntel,60,,,0,37,37,15,1,,,,,,,,,,,,,,,,,,,,,,,,,,,,,,,,,,,,,,,,,,
1.4,left,1,0.512,,,,,,stim/centre.png,stim/congRight.png,left,180,1007,2020-05-14_17h37.53.774,ANTCPTp,2020.1.2,MacIntel,60,,,0,38,38,14,1,,,,,,,,,,,,,,,,,,,,,,,,,,,,,,,,,,,,,,,,,,
0.45,right,1,0.675,,,,,,stim/blank.png,stim/incongRight.png,right,0,1007,2020-05-14_17h37.53.774,ANTCPTp,2020.1.2,MacIntel,60,,,0,39,39,27,1,,,,,,,,,,,,,,,,,,,,,,,,,,,,,,,,,,,,,,,,,,
1.5,right,1,0.858,,,,,,stim/blank.png,stim/incongLeft.png,right,180,1007,2020-05-14_17h37.53.774,ANTCPTp,2020.1.2,MacIntel,60,,,0,40,40,23,1,,,,,,,,,,,,,,,,,,,,,,,,,,,,,,,,,,,,,,,,,,
1.1,left,1,0.583,,,,,,stim/blank.png,stim/neutralRight.png,left,180,1007,2020-05-14_17h37.53.774,ANTCPTp,2020.1.2,MacIntel,60,,,0,41,41,47,1,,,,,,,,,,,,,,,,,,,,,,,,,,,,,,,,,,,,,,,,,,
0.9,right,1,0.45,,,,,,stim/upper.png,stim/congRight.png,right,0,1007,2020-05-14_17h37.53.774,ANTCPTp,2020.1.2,MacIntel,60,,,0,42,42,8,1,,,,,,,,,,,,,,,,,,,,,,,,,,,,,,,,,,,,,,,,,,
0.65,right,1,0.729,,,,,,stim/lower.png,stim/incongLeft.png,right,180,1007,2020-05-14_17h37.53.774,ANTCPTp,2020.1.2,MacIntel,60,,,0,43,43,20,1,,,,,,,,,,,,,,,,,,,,,,,,,,,,,,,,,,,,,,,,,,
0.95,right,1,0.683,,,,,,stim/upper.png,stim/neutralRight.png,right,0,1007,2020-05-14_17h37.53.774,ANTCPTp,2020.1.2,MacIntel,60,,,0,44,44,40,1,,,,,,,,,,,,,,,,,,,,,,,,,,,,,,,,,,,,,,,,,,
0.7,left,1,0.65,,,,,,stim/upper.png,stim/neutralLeft.png,left,0,1007,2020-05-14_17h37.53.774,ANTCPTp,2020.1.2,MacIntel,60,,,0,45,45,32,1,,,,,,,,,,,,,,,,,,,,,,,,,,,,,,,,,,,,,,,,,,
0.55,left,1,0.684,,,,,,stim/both.png,stim/congLeft.png,left,0,1007,2020-05-14_17h37.53.774,ANTCPTp,2020.1.2,MacIntel,60,,,0,46,46,1,1,,,,,,,,,,,,,,,,,,,,,,,,,,,,,,,,,,,,,,,,,,
1.45,left,1,0.662,,,,,,stim/lower.png,stim/neutralRight.png,left,180,1007,2020-05-14_17h37.53.774,ANTCPTp,2020.1.2,MacIntel,60,,,0,47,47,44,1,,,,,,,,,,,,,,,,,,,,,,,,,,,,,,,,,,,,,,,,,,
0.6,right,1,1.436,,,,,,stim/both.png,stim/incongLeft.png,right,180,1007,2020-05-14_17h37.53.774,ANTCPTp,2020.1.2,MacIntel,60,,,1,0,48,21,1,,,,,,,,,,,,,,,,,,,,,,,,,,,,,,,,,,,,,,,,,,
1.1,right,1,0.902,,,,,,stim/centre.png,stim/congLeft.png,right,180,1007,2020-05-14_17h37.53.774,ANTCPTp,2020.1.2,MacIntel,60,,,1,1,49,6,1,,,,,,,,,,,,,,,,,,,,,,,,,,,,,,,,,,,,,,,,,,
1,left,1,0.508,,,,,,stim/lower.png,stim/neutralRight.png,left,180,1007,2020-05-14_17h37.53.774,ANTCPTp,2020.1.2,MacIntel,60,,,1,2,50,44,1,,,,,,,,,,,,,,,,,,,,,,,,,,,,,,,,,,,,,,,,,,
0.65,left,1,0.561,,,,,,stim/both.png,stim/congRight.png,left,180,1007,2020-05-14_17h37.53.774,ANTCPTp,2020.1.2,MacIntel,60,,,1,3,51,13,1,,,,,,,,,,,,,,,,,,,,,,,,,,,,,,,,,,,,,,,,,,
1.5,right,1,0.568,,,,,,stim/upper.png,stim/neutralRight.png,right,0,1007,2020-05-14_17h37.53.774,ANTCPTp,2020.1.2,MacIntel,60,,,1,4,52,40,1,,,,,,,,,,,,,,,,,,,,,,,,,,,,,,,,,,,,,,,,,,
1.05,right,1,0.818,,,,,,stim/upper.png,stim/incongRight.png,right,0,1007,2020-05-14_17h37.53.774,ANTCPTp,2020.1.2,MacIntel,60,,,1,5,53,24,1,,,,,,,,,,,,,,,,,,,,,,,,,,,,,,,,,,,,,,,,,,
1.1,left,1,0.518,,,,,,stim/lower.png,stim/congRight.png,left,180,1007,2020-05-14_17h37.53.774,ANTCPTp,2020.1.2,MacIntel,60,,,1,6,54,12,1,,,,,,,,,,,,,,,,,,,,,,,,,,,,,,,,,,,,,,,,,,
1.55,left,1,0.6,,,,,,stim/blank.png,stim/congLeft.png,left,0,1007,2020-05-14_17h37.53.774,ANTCPTp,2020.1.2,MacIntel,60,,,1,7,55,3,1,,,,,,,,,,,,,,,,,,,,,,,,,,,,,,,,,,,,,,,,,,
0.75,left,1,0.62,,,,,,stim/blank.png,stim/neutralLeft.png,left,0,1007,2020-05-14_17h37.53.774,ANTCPTp,2020.1.2,MacIntel,60,,,1,8,56,35,1,,,,,,,,,,,,,,,,,,,,,,,,,,,,,,,,,,,,,,,,,,
1.4,left,1,0.93,,,,,,stim/centre.png,stim/incongRight.png,left,180,1007,2020-05-14_17h37.53.774,ANTCPTp,2020.1.2,MacIntel,60,,,1,9,57,30,1,,,,,,,,,,,,,,,,,,,,,,,,,,,,,,,,,,,,,,,,,,
0.45,left,1,0.619,,,,,,stim/upper.png,stim/congLeft.png,left,0,1007,2020-05-14_17h37.53.774,ANTCPTp,2020.1.2,MacIntel,60,,,1,10,58,0,1,,,,,,,,,,,,,,,,,,,,,,,,,,,,,,,,,,,,,,,,,,
0.95,left,1,0.976,,,,,,stim/both.png,stim/incongRight.png,left,180,1007,2020-05-14_17h37.53.774,ANTCPTp,2020.1.2,MacIntel,60,,,1,11,59,29,1,,,,,,,,,,,,,,,,,,,,,,,,,,,,,,,,,,,,,,,,,,
1.25,right,1,0.467,,,,,,stim/centre.png,stim/neutralRight.png,right,0,1007,2020-05-14_17h37.53.774,ANTCPTp,2020.1.2,MacIntel,60,,,1,12,60,42,1,,,,,,,,,,,,,,,,,,,,,,,,,,,,,,,,,,,,,,,,,,
1.2,right,1,0.609,,,,,,stim/lower.png,stim/congLeft.png,right,180,1007,2020-05-14_17h37.53.774,ANTCPTp,2020.1.2,MacIntel,60,,,1,13,61,4,1,,,,,,,,,,,,,,,,,,,,,,,,,,,,,,,,,,,,,,,,,,
0.75,right,1,0.979,,,,,,stim/centre.png,stim/incongRight.png,right,0,1007,2020-05-14_17h37.53.774,ANTCPTp,2020.1.2,MacIntel,60,,,1,14,62,26,1,,,,,,,,,,,,,,,,,,,,,,,,,,,,,,,,,,,,,,,,,,
1.55,right,1,0.586,,,,,,stim/blank.png,stim/neutralLeft.png,right,180,1007,2020-05-14_17h37.53.774,ANTCPTp,2020.1.2,MacIntel,60,,,1,15,63,39,1,,,,,,,,,,,,,,,,,,,,,,,,,,,,,,,,,,,,,,,,,,
1.2,right,1,0.602,,,,,,stim/blank.png,stim/congLeft.png,right,180,1007,2020-05-14_17h37.53.774,ANTCPTp,2020.1.2,MacIntel,60,,,1,16,64,7,1,,,,,,,,,,,,,,,,,,,,,,,,,,,,,,,,,,,,,,,,,,
0.55,left,1,0.801,,,,,,stim/centre.png,stim/incongLeft.png,left,0,1007,2020-05-14_17h37.53.774,ANTCPTp,2020.1.2,MacIntel,60,,,1,17,65,18,1,,,,,,,,,,,,,,,,,,,,,,,,,,,,,,,,,,,,,,,,,,
1.45,right,1,0.921,,,,,,stim/centre.png,stim/incongLeft.png,right,180,1007,2020-05-14_17h37.53.774,ANTCPTp,2020.1.2,MacIntel,60,,,1,18,66,22,1,,,,,,,,,,,,,,,,,,,,,,,,,,,,,,,,,,,,,,,,,,
0.5,left,1,0.934,,,,,,stim/both.png,stim/incongLeft.png,left,0,1007,2020-05-14_17h37.53.774,ANTCPTp,2020.1.2,MacIntel,60,,,1,19,67,17,1,,,,,,,,,,,,,,,,,,,,,,,,,,,,,,,,,,,,,,,,,,
1.25,left,1,0.583,,,,,,stim/upper.png,stim/neutralLeft.png,left,0,1007,2020-05-14_17h37.53.774,ANTCPTp,2020.1.2,MacIntel,60,,,1,20,68,32,1,,,,,,,,,,,,,,,,,,,,,,,,,,,,,,,,,,,,,,,,,,
0.5,right,1,0.566,,,,,,stim/both.png,stim/neutralRight.png,right,0,1007,2020-05-14_17h37.53.774,ANTCPTp,2020.1.2,MacIntel,60,,,1,21,69,41,1,,,,,,,,,,,,,,,,,,,,,,,,,,,,,,,,,,,,,,,,,,
1.5,left,1,0.543,,,,,,stim/centre.png,stim/neutralLeft.png,left,0,1007,2020-05-14_17h37.53.774,ANTCPTp,2020.1.2,MacIntel,60,,,1,22,70,34,1,,,,,,,,,,,,,,,,,,,,,,,,,,,,,,,,,,,,,,,,,,
0.55,left,1,0.629,,,,,,stim/both.png,stim/congLeft.png,left,0,1007,2020-05-14_17h37.53.774,ANTCPTp,2020.1.2,MacIntel,60,,,1,23,71,1,1,,,,,,,,,,,,,,,,,,,,,,,,,,,,,,,,,,,,,,,,,,
1.3,right,0,0.544,,,,,,stim/blank.png,stim/incongRight.png,left,180,1007,2020-05-14_17h37.53.774,ANTCPTp,2020.1.2,MacIntel,60,,,1,24,72,31,1,,,,,,,,,,,,,,,,,,,,,,,,,,,,,,,,,,,,,,,,,,
1.55,left,1,0.62,,,,,,stim/blank.png,stim/neutralRight.png,left,180,1007,2020-05-14_17h37.53.774,ANTCPTp,2020.1.2,MacIntel,60,,,1,25,73,47,1,,,,,,,,,,,,,,,,,,,,,,,,,,,,,,,,,,,,,,,,,,
1.1,left,1,0.758,,,,,,stim/upper.png,stim/incongLeft.png,left,0,1007,2020-05-14_17h37.53.774,ANTCPTp,2020.1.2,MacIntel,60,,,1,26,74,16,1,,,,,,,,,,,,,,,,,,,,,,,,,,,,,,,,,,,,,,,,,,
1.3,right,1,0.517,,,,,,stim/upper.png,stim/congRight.png,right,0,1007,2020-05-14_17h37.53.774,ANTCPTp,2020.1.2,MacIntel,60,,,1,27,75,8,1,,,,,,,,,,,,,,,,,,,,,,,,,,,,,,,,,,,,,,,,,,
0.8,right,1,1,,,,,,stim/both.png,stim/incongRight.png,right,0,1007,2020-05-14_17h37.53.774,ANTCPTp,2020.1.2,MacIntel,60,,,1,28,76,25,1,,,,,,,,,,,,,,,,,,,,,,,,,,,,,,,,,,,,,,,,,,
1.05,left,1,0.6,,,,,,stim/centre.png,stim/congRight.png,left,180,1007,2020-05-14_17h37.53.774,ANTCPTp,2020.1.2,MacIntel,60,,,1,29,77,14,1,,,,,,,,,,,,,,,,,,,,,,,,,,,,,,,,,,,,,,,,,,
0.7,right,1,0.671,,,,,,stim/both.png,stim/congRight.png,right,0,1007,2020-05-14_17h37.53.774,ANTCPTp,2020.1.2,MacIntel,60,,,1,30,78,9,1,,,,,,,,,,,,,,,,,,,,,,,,,,,,,,,,,,,,,,,,,,
1.25,right,1,0.901,,,,,,stim/blank.png,stim/incongLeft.png,right,180,1007,2020-05-14_17h37.53.774,ANTCPTp,2020.1.2,MacIntel,60,,,1,31,79,23,1,,,,,,,,,,,,,,,,,,,,,,,,,,,,,,,,,,,,,,,,,,
1.3,right,1,0.629,,,,,,stim/blank.png,stim/congRight.png,right,0,1007,2020-05-14_17h37.53.774,ANTCPTp,2020.1.2,MacIntel,60,,,1,32,80,11,1,,,,,,,,,,,,,,,,,,,,,,,,,,,,,,,,,,,,,,,,,,
1.45,right,1,0.642,,,,,,stim/lower.png,stim/neutralLeft.png,right,180,1007,2020-05-14_17h37.53.774,ANTCPTp,2020.1.2,MacIntel,60,,,1,33,81,36,1,,,,,,,,,,,,,,,,,,,,,,,,,,,,,,,,,,,,,,,,,,
0.8,right,1,0.652,,,,,,stim/centre.png,stim/neutralLeft.png,right,180,1007,2020-05-14_17h37.53.774,ANTCPTp,2020.1.2,MacIntel,60,,,1,34,82,38,1,,,,,,,,,,,,,,,,,,,,,,,,,,,,,,,,,,,,,,,,,,
1.3,left,1,1.053,,,,,,stim/blank.png,stim/congRight.png,left,180,1007,2020-05-14_17h37.53.774,ANTCPTp,2020.1.2,MacIntel,60,,,1,35,83,15,1,,,,,,,,,,,,,,,,,,,,,,,,,,,,,,,,,,,,,,,,,,
1.4,right,1,0.591,,,,,,stim/blank.png,stim/neutralRight.png,right,0,1007,2020-05-14_17h37.53.774,ANTCPTp,2020.1.2,MacIntel,60,,,1,36,84,43,1,,,,,,,,,,,,,,,,,,,,,,,,,,,,,,,,,,,,,,,,,,
1,left,1,0.684,,,,,,stim/both.png,stim/neutralRight.png,left,180,1007,2020-05-14_17h37.53.774,ANTCPTp,2020.1.2,MacIntel,60,,,1,37,85,45,1,,,,,,,,,,,,,,,,,,,,,,,,,,,,,,,,,,,,,,,,,,
0.85,left,1,0.879,,,,,,stim/lower.png,stim/incongRight.png,left,180,1007,2020-05-14_17h37.53.774,ANTCPTp,2020.1.2,MacIntel,60,,,1,38,86,28,1,,,,,,,,,,,,,,,,,,,,,,,,,,,,,,,,,,,,,,,,,,
1.3,left,1,0.635,,,,,,stim/centre.png,stim/neutralRight.png,left,180,1007,2020-05-14_17h37.53.774,ANTCPTp,2020.1.2,MacIntel,60,,,1,39,87,46,1,,,,,,,,,,,,,,,,,,,,,,,,,,,,,,,,,,,,,,,,,,
0.45,left,1,0.699,,,,,,stim/centre.png,stim/congLeft.png,left,0,1007,2020-05-14_17h37.53.774,ANTCPTp,2020.1.2,MacIntel,60,,,1,40,88,2,1,,,,,,,,,,,,,,,,,,,,,,,,,,,,,,,,,,,,,,,,,,
0.75,right,1,0.552,,,,,,stim/both.png,stim/congLeft.png,right,180,1007,2020-05-14_17h37.53.774,ANTCPTp,2020.1.2,MacIntel,60,,,1,41,89,5,1,,,,,,,,,,,,,,,,,,,,,,,,,,,,,,,,,,,,,,,,,,
0.65,right,1,0.926,,,,,,stim/lower.png,stim/incongLeft.png,right,180,1007,2020-05-14_17h37.53.774,ANTCPTp,2020.1.2,MacIntel,60,,,1,42,90,20,1,,,,,,,,,,,,,,,,,,,,,,,,,,,,,,,,,,,,,,,,,,
0.9,right,1,0.851,,,,,,stim/blank.png,stim/incongRight.png,right,0,1007,2020-05-14_17h37.53.774,ANTCPTp,2020.1.2,MacIntel,60,,,1,43,91,27,1,,,,,,,,,,,,,,,,,,,,,,,,,,,,,,,,,,,,,,,,,,
1.45,right,1,0.699,,,,,,stim/both.png,stim/neutralLeft.png,right,180,1007,2020-05-14_17h37.53.774,ANTCPTp,2020.1.2,MacIntel,60,,,1,44,92,37,1,,,,,,,,,,,,,,,,,,,,,,,,,,,,,,,,,,,,,,,,,,
1.1,left,1,0.605,,,,,,stim/both.png,stim/neutralLeft.png,left,0,1007,2020-05-14_17h37.53.774,ANTCPTp,2020.1.2,MacIntel,60,,,1,45,93,33,1,,,,,,,,,,,,,,,,,,,,,,,,,,,,,,,,,,,,,,,,,,
0.8,right,1,0.576,,,,,,stim/centre.png,stim/congRight.png,right,0,1007,2020-05-14_17h37.53.774,ANTCPTp,2020.1.2,MacIntel,60,,,1,46,94,10,1,,,,,,,,,,,,,,,,,,,,,,,,,,,,,,,,,,,,,,,,,,
1.4,left,1,0.779,,,,,,stim/blank.png,stim/incongLeft.png,left,0,1007,2020-05-14_17h37.53.774,ANTCPTp,2020.1.2,MacIntel,60,,,1,47,95,19,1,,,,,,,,,,,,,,,,,,,,,,,,,,,,,,,,,,,,,,,,,,
,,,,,,,,,,,,,1007,2020-05-14_17h37.53.774,ANTCPTp,2020.1.2,MacIntel,60,,,,,,,,,,,,,space,30.301,space,35.441,space,16.645,,1,0,0,0,15,1,X,,,,,,,,,,,,,,,,,,,,,,,
,,,,,,,,,,,,,1007,2020-05-14_17h37.53.774,ANTCPTp,2020.1.2,MacIntel,60,,,,,,,,,,,,,,,,,,,,1,0,1,1,16,1,X,,,,,,,,,,,,,,,,,,,,,,,
,,,,,,,,,,,space,,1007,2020-05-14_17h37.53.774,ANTCPTp,2020.1.2,MacIntel,60,,,,,,,,,,,,,,,,,,,space,1,0,2,2,3,1,D,0.565,,,,,,,,,,,,,,,,,,,,,,
,,,,,,,,,,,space,,1007,2020-05-14_17h37.53.774,ANTCPTp,2020.1.2,MacIntel,60,,,,,,,,,,,,,,,,,,,space,1,0,3,3,10,1,Q,0.508,,,,,,,,,,,,,,,,,,,,,,
,,,,,,,,,,,space,,1007,2020-05-14_17h37.53.774,ANTCPTp,2020.1.2,MacIntel,60,,,,,,,,,,,,,,,,,,,space,1,0,4,4,5,1,F,0.499,,,,,,,,,,,,,,,,,,,,,,
,,,,,,,,,,,space,,1007,2020-05-14_17h37.53.774,ANTCPTp,2020.1.2,MacIntel,60,,,,,,,,,,,,,,,,,,,space,1,0,5,5,0,1,A,0.474,,,,,,,,,,,,,,,,,,,,,,
,,,,,,,,,,,space,,1007,2020-05-14_17h37.53.774,ANTCPTp,2020.1.2,MacIntel,60,,,,,,,,,,,,,,,,,,,space,1,0,6,6,11,1,U,0.533,,,,,,,,,,,,,,,,,,,,,,
,,,,,,,,,,,space,,1007,2020-05-14_17h37.53.774,ANTCPTp,2020.1.2,MacIntel,60,,,,,,,,,,,,,,,,,,,space,1,0,7,7,9,1,P,0.398,,,,,,,,,,,,,,,,,,,,,,
,,,,,,,,,,,space,,1007,2020-05-14_17h37.53.774,ANTCPTp,2020.1.2,MacIntel,60,,,,,,,,,,,,,,,,,,,space,1,0,8,8,2,1,C,0.347,,,,,,,,,,,,,,,,,,,,,,
,,,,,,,,,,,space,,1007,2020-05-14_17h37.53.774,ANTCPTp,2020.1.2,MacIntel,60,,,,,,,,,,,,,,,,,,,space,1,0,9,9,1,1,B,0.381,,,,,,,,,,,,,,,,,,,,,,
,,,,,,,,,,,space,,1007,2020-05-14_17h37.53.774,ANTCPTp,2020.1.2,MacIntel,60,,,,,,,,,,,,,,,,,,,space,1,0,10,10,7,1,N,0.482,,,,,,,,,,,,,,,,,,,,,,
,,,,,,,,,,,space,,1007,2020-05-14_17h37.53.774,ANTCPTp,2020.1.2,MacIntel,60,,,,,,,,,,,,,,,,,,,space,1,0,11,11,12,1,V,0.335,,,,,,,,,,,,,,,,,,,,,,
,,,,,,,,,,,space,,1007,2020-05-14_17h37.53.774,ANTCPTp,2020.1.2,MacIntel,60,,,,,,,,,,,,,,,,,,,space,1,0,12,12,6,1,J,0.405,,,,,,,,,,,,,,,,,,,,,,
,,,,,,,,,,,space,,1007,2020-05-14_17h37.53.774,ANTCPTp,2020.1.2,MacIntel,60,,,,,,,,,,,,,,,,,,,space,1,0,13,13,13,1,W,0.516,,,,,,,,,,,,,,,,,,,,,,
,,,,,,,,,,,space,,1007,2020-05-14_17h37.53.774,ANTCPTp,2020.1.2,MacIntel,60,,,,,,,,,,,,,,,,,,,space,1,0,14,14,4,1,E,0.416,,,,,,,,,,,,,,,,,,,,,,
,,,,,,,,,,,space,,1007,2020-05-14_17h37.53.774,ANTCPTp,2020.1.2,MacIntel,60,,,,,,,,,,,,,,,,,,,space,1,0,15,15,14,1,Y,0.392,,,,,,,,,,,,,,,,,,,,,,
,,,,,,,,,,,space,,1007,2020-05-14_17h37.53.774,ANTCPTp,2020.1.2,MacIntel,60,,,,,,,,,,,,,,,,,,,space,1,0,16,16,8,1,O,0.389,,,,,,,,,,,,,,,,,,,,,,
,,,,,,,,,,,space,,1007,2020-05-14_17h37.53.774,ANTCPTp,2020.1.2,MacIntel,60,,,,,,,,,,,,,,,,,,,space,1,,,,,,F,0.797,1,7.07,0,0,0,5,1,,,,,,,,,,,,,,,
,,,,,,,,,,,space,,1007,2020-05-14_17h37.53.774,ANTCPTp,2020.1.2,MacIntel,60,,,,,,,,,,,,,,,,,,,space,1,,,,,,P,0.417,,,0,1,1,15,1,,,,,,,,,,,,,,,
,,,,,,,,,,,space,,1007,2020-05-14_17h37.53.774,ANTCPTp,2020.1.2,MacIntel,60,,,,,,,,,,,,,,,,,,,space,1,,,,,,S,0.35,,,0,2,2,18,1,,,,,,,,,,,,,,,
,,,,,,,,,,,space,,1007,2020-05-14_17h37.53.774,ANTCPTp,2020.1.2,MacIntel,60,,,,,,,,,,,,,,,,,,,space,1,,,,,,M,0.418,,,0,3,3,12,1,,,,,,,,,,,,,,,
,,,,,,,,,,,space,,1007,2020-05-14_17h37.53.774,ANTCPTp,2020.1.2,MacIntel,60,,,,,,,,,,,,,,,,,,,space,1,,,,,,N,0.384,,,0,4,4,13,1,,,,,,,,,,,,,,,
,,,,,,,,,,,space,,1007,2020-05-14_17h37.53.774,ANTCPTp,2020.1.2,MacIntel,60,,,,,,,,,,,,,,,,,,,space,1,,,,,,K,0.306,,,0,5,5,10,1,,,,,,,,,,,,,,,
,,,,,,,,,,,,,1007,2020-05-14_17h37.53.774,ANTCPTp,2020.1.2,MacIntel,60,,,,,,,,,,,,,,,,,,,space,0,,,,,,X,0.283,,,0,6,6,27,1,,,,,,,,,,,,,,,
,,,,,,,,,,,space,,1007,2020-05-14_17h37.53.774,ANTCPTp,2020.1.2,MacIntel,60,,,,,,,,,,,,,,,,,,,space,1,,,,,,B,0.284,,,0,7,7,1,1,,,,,,,,,,,,,,,
,,,,,,,,,,,space,,1007,2020-05-14_17h37.53.774,ANTCPTp,2020.1.2,MacIntel,60,,,,,,,,,,,,,,,,,,,space,1,,,,,,A,0.267,,,0,8,8,0,1,,,,,,,,,,,,,,,
,,,,,,,,,,,space,,1007,2020-05-14_17h37.53.774,ANTCPTp,2020.1.2,MacIntel,60,,,,,,,,,,,,,,,,,,,space,1,,,,,,E,0.214,,,0,9,9,4,1,,,,,,,,,,,,,,,
,,,,,,,,,,,space,,1007,2020-05-14_17h37.53.774,ANTCPTp,2020.1.2,MacIntel,60,,,,,,,,,,,,,,,,,,,space,1,,,,,,A,0.247,,,0,10,10,25,1,,,,,,,,,,,,,,,
,,,,,,,,,,,,,1007,2020-05-14_17h37.53.774,ANTCPTp,2020.1.2,MacIntel,60,,,,,,,,,,,,,,,,,,,space,0,,,,,,X,0.246,,,0,11,11,26,1,,,,,,,,,,,,,,,
,,,,,,,,,,,space,,1007,2020-05-14_17h37.53.774,ANTCPTp,2020.1.2,MacIntel,60,,,,,,,,,,,,,,,,,,,space,1,,,,,,J,0.335,,,0,12,12,9,1,,,,,,,,,,,,,,,
,,,,,,,,,,,space,,1007,2020-05-14_17h37.53.774,ANTCPTp,2020.1.2,MacIntel,60,,,,,,,,,,,,,,,,,,,space,1,,,,,,Q,0.292,,,0,13,13,16,1,,,,,,,,,,,,,,,
,,,,,,,,,,,space,,1007,2020-05-14_17h37.53.774,ANTCPTp,2020.1.2,MacIntel,60,,,,,,,,,,,,,,,,,,,space,1,,,,,,I,0.269,,,0,14,14,8,1,,,,,,,,,,,,,,,
,,,,,,,,,,,,,1007,2020-05-14_17h37.53.774,ANTCPTp,2020.1.2,MacIntel,60,,,,,,,,,,,,,,,,,,,space,0,,,,,,X,0.372,,,0,15,15,29,1,,,,,,,,,,,,,,,
,,,,,,,,,,,space,,1007,2020-05-14_17h37.53.774,ANTCPTp,2020.1.2,MacIntel,60,,,,,,,,,,,,,,,,,,,space,1,,,,,,R,0.365,,,0,16,16,17,1,,,,,,,,,,,,,,,
,,,,,,,,,,,space,,1007,2020-05-14_17h37.53.774,ANTCPTp,2020.1.2,MacIntel,60,,,,,,,,,,,,,,,,,,,space,1,,,,,,H,0.433,,,0,17,17,7,1,,,,,,,,,,,,,,,
,,,,,,,,,,,,,1007,2020-05-14_17h37.53.774,ANTCPTp,2020.1.2,MacIntel,60,,,,,,,,,,,,,,,,,,,,1,,,,,,X,,,,0,18,18,28,1,,,,,,,,,,,,,,,
,,,,,,,,,,,space,,1007,2020-05-14_17h37.53.774,ANTCPTp,2020.1.2,MacIntel,60,,,,,,,,,,,,,,,,,,,space,1,,,,,,U,0.425,,,0,19,19,20,1,,,,,,,,,,,,,,,
,,,,,,,,,,,space,,1007,2020-05-14_17h37.53.774,ANTCPTp,2020.1.2,MacIntel,60,,,,,,,,,,,,,,,,,,,space,1,,,,,,O,0.48,,,0,20,20,14,1,,,,,,,,,,,,,,,
,,,,,,,,,,,space,,1007,2020-05-14_17h37.53.774,ANTCPTp,2020.1.2,MacIntel,60,,,,,,,,,,,,,,,,,,,space,1,,,,,,W,0.5,,,0,21,21,22,1,,,,,,,,,,,,,,,
,,,,,,,,,,,space,,1007,2020-05-14_17h37.53.774,ANTCPTp,2020.1.2,MacIntel,60,,,,,,,,,,,,,,,,,,,space,1,,,,,,Z,0.85,,,0,22,22,24,1,,,,,,,,,,,,,,,
,,,,,,,,,,,space,,1007,2020-05-14_17h37.53.774,ANTCPTp,2020.1.2,MacIntel,60,,,,,,,,,,,,,,,,,,,space,1,,,,,,L,0.551,,,0,23,23,11,1,,,,,,,,,,,,,,,
,,,,,,,,,,,space,,1007,2020-05-14_17h37.53.774,ANTCPTp,2020.1.2,MacIntel,60,,,,,,,,,,,,,,,,,,,space,1,,,,,,T,0.565,,,0,24,24,19,1,,,,,,,,,,,,,,,
,,,,,,,,,,,space,,1007,2020-05-14_17h37.53.774,ANTCPTp,2020.1.2,MacIntel,60,,,,,,,,,,,,,,,,,,,space,1,,,,,,V,0.834,,,0,25,25,21,1,,,,,,,,,,,,,,,
,,,,,,,,,,,space,,1007,2020-05-14_17h37.53.774,ANTCPTp,2020.1.2,MacIntel,60,,,,,,,,,,,,,,,,,,,space,1,,,,,,C,0.418,,,0,26,26,2,1,,,,,,,,,,,,,,,
,,,,,,,,,,,space,,1007,2020-05-14_17h37.53.774,ANTCPTp,2020.1.2,MacIntel,60,,,,,,,,,,,,,,,,,,,space,1,,,,,,G,0.465,,,0,27,27,6,1,,,,,,,,,,,,,,,
,,,,,,,,,,,space,,1007,2020-05-14_17h37.53.774,ANTCPTp,2020.1.2,MacIntel,60,,,,,,,,,,,,,,,,,,,space,1,,,,,,D,0.431,,,0,28,28,3,1,,,,,,,,,,,,,,,
,,,,,,,,,,,space,,1007,2020-05-14_17h37.53.774,ANTCPTp,2020.1.2,MacIntel,60,,,,,,,,,,,,,,,,,,,space,1,,,,,,Y,0.465,,,0,29,29,23,1,,,,,,,,,,,,,,,
,,,,,,,,,,,space,,1007,2020-05-14_17h37.53.774,ANTCPTp,2020.1.2,MacIntel,60,,,,,,,,,,,,,,,,,,,space,1,,,,,,E,0.733,2,24.046,,,,,,0,0,0,2,1,,,,,,,,,,
,,,,,,,,,,,space,,1007,2020-05-14_17h37.53.774,ANTCPTp,2020.1.2,MacIntel,60,,,,,,,,,,,,,,,,,,,space,1,,,,,,S,0.424,,,,,,,,0,1,1,13,1,,,,,,,,,,
,,,,,,,,,,,space,,1007,2020-05-14_17h37.53.774,ANTCPTp,2020.1.2,MacIntel,60,,,,,,,,,,,,,,,,,,,space,1,,,,,,U,0.4,,,,,,,,0,2,2,15,1,,,,,,,,,,
,,,,,,,,,,,space,,1007,2020-05-14_17h37.53.774,ANTCPTp,2020.1.2,MacIntel,60,,,,,,,,,,,,,,,,,,,space,1,,,,,,Y,0.434,,,,,,,,0,3,3,17,1,,,,,,,,,,
,,,,,,,,,,,space,,1007,2020-05-14_17h37.53.774,ANTCPTp,2020.1.2,MacIntel,60,,,,,,,,,,,,,,,,,,,space,1,,,,,,G,0.391,,,,,,,,0,4,4,4,1,,,,,,,,,,
,,,,,,,,,,,space,,1007,2020-05-14_17h37.53.774,ANTCPTp,2020.1.2,MacIntel,60,,,,,,,,,,,,,,,,,,,space,1,,,,,,R,0.39,,,,,,,,0,5,5,12,1,,,,,,,,,,
,,,,,,,,,,,,,1007,2020-05-14_17h37.53.774,ANTCPTp,2020.1.2,MacIntel,60,,,,,,,,,,,,,,,,,,,,1,,,,,,X,,,,,,,,,0,6,6,20,1,,,,,,,,,,
,,,,,,,,,,,space,,1007,2020-05-14_17h37.53.774,ANTCPTp,2020.1.2,MacIntel,60,,,,,,,,,,,,,,,,,,,space,1,,,,,,Q,0.415,,,,,,,,0,7,7,11,1,,,,,,,,,,
,,,,,,,,,,,space,,1007,2020-05-14_17h37.53.774,ANTCPTp,2020.1.2,MacIntel,60,,,,,,,,,,,,,,,,,,,space,1,,,,,,D,0.35,,,,,,,,0,8,8,1,1,,,,,,,,,,
,,,,,,,,,,,space,,1007,2020-05-14_17h37.53.774,ANTCPTp,2020.1.2,MacIntel,60,,,,,,,,,,,,,,,,,,,space,1,,,,,,O,0.34,,,,,,,,0,9,9,10,1,,,,,,,,,,
,,,,,,,,,,,space,,1007,2020-05-14_17h37.53.774,ANTCPTp,2020.1.2,MacIntel,60,,,,,,,,,,,,,,,,,,,space,1,,,,,,H,0.364,,,,,,,,0,10,10,5,1,,,,,,,,,,
,,,,,,,,,,,space,,1007,2020-05-14_17h37.53.774,ANTCPTp,2020.1.2,MacIntel,60,,,,,,,,,,,,,,,,,,,space,1,,,,,,F,0.365,,,,,,,,0,11,11,3,1,,,,,,,,,,
,,,,,,,,,,,space,,1007,2020-05-14_17h37.53.774,ANTCPTp,2020.1.2,MacIntel,60,,,,,,,,,,,,,,,,,,,space,1,,,,,,A,0.34,,,,,,,,0,12,12,19,1,,,,,,,,,,
,,,,,,,,,,,space,,1007,2020-05-14_17h37.53.774,ANTCPTp,2020.1.2,MacIntel,60,,,,,,,,,,,,,,,,,,,space,1,,,,,,Z,0.365,,,,,,,,0,13,13,18,1,,,,,,,,,,
,,,,,,,,,,,space,,1007,2020-05-14_17h37.53.774,ANTCPTp,2020.1.2,MacIntel,60,,,,,,,,,,,,,,,,,,,space,1,,,,,,L,0.432,,,,,,,,0,14,14,7,1,,,,,,,,,,
,,,,,,,,,,,space,,1007,2020-05-14_17h37.53.774,ANTCPTp,2020.1.2,MacIntel,60,,,,,,,,,,,,,,,,,,,space,1,,,,,,T,0.391,,,,,,,,0,15,15,14,1,,,,,,,,,,
,,,,,,,,,,,space,,1007,2020-05-14_17h37.53.774,ANTCPTp,2020.1.2,MacIntel,60,,,,,,,,,,,,,,,,,,,space,1,,,,,,M,0.459,,,,,,,,0,16,16,8,1,,,,,,,,,,
,,,,,,,,,,,space,,1007,2020-05-14_17h37.53.774,ANTCPTp,2020.1.2,MacIntel,60,,,,,,,,,,,,,,,,,,,space,1,,,,,,N,0.392,,,,,,,,0,17,17,9,1,,,,,,,,,,
,,,,,,,,,,,space,,1007,2020-05-14_17h37.53.774,ANTCPTp,2020.1.2,MacIntel,60,,,,,,,,,,,,,,,,,,,space,1,,,,,,B,0.325,,,,,,,,0,18,18,0,1,,,,,,,,,,
,,,,,,,,,,,,,1007,2020-05-14_17h37.53.774,ANTCPTp,2020.1.2,MacIntel,60,,,,,,,,,,,,,,,,,,,space,0,,,,,,X,0.337,,,,,,,,0,19,19,21,1,,,,,,,,,,
,,,,,,,,,,,space,,1007,2020-05-14_17h37.53.774,ANTCPTp,2020.1.2,MacIntel,60,,,,,,,,,,,,,,,,,,,space,1,,,,,,W,0.449,,,,,,,,0,20,20,16,1,,,,,,,,,,
,,,,,,,,,,,space,,1007,2020-05-14_17h37.53.774,ANTCPTp,2020.1.2,MacIntel,60,,,,,,,,,,,,,,,,,,,space,1,,,,,,K,0.45,,,,,,,,0,21,21,6,1,,,,,,,,,,
,,,,,,,,,,,space,,1007,2020-05-14_17h37.53.774,ANTCPTp,2020.1.2,MacIntel,60,,,,,,,,,,,,,,,,,,,,0,,,,,,B,,1,2.623,,,,,,,,,,,0,0,0,1,1,,,,,
,,,,,,,,,,,space,,1007,2020-05-14_17h37.53.774,ANTCPTp,2020.1.2,MacIntel,60,,,,,,,,,,,,,,,,,,,space,1,,,,,,C,0.583,,,,,,,,,,,,,0,1,1,2,1,,,,,
,,,,,,,,,,,space,,1007,2020-05-14_17h37.53.774,ANTCPTp,2020.1.2,MacIntel,60,,,,,,,,,,,,,,,,,,,space,1,,,,,,I,0.483,,,,,,,,,,,,,0,2,2,8,1,,,,,
,,,,,,,,,,,,,1007,2020-05-14_17h37.53.774,ANTCPTp,2020.1.2,MacIntel,60,,,,,,,,,,,,,,,,,,,,1,,,,,,X,,,,,,,,,,,,,,0,3,3,25,1,,,,,
,,,,,,,,,,,space,,1007,2020-05-14_17h37.53.774,ANTCPTp,2020.1.2,MacIntel,60,,,,,,,,,,,,,,,,,,,space,1,,,,,,P,0.403,,,,,,,,,,,,,0,4,4,15,1,,,,,
,,,,,,,,,,,space,,1007,2020-05-14_17h37.53.774,ANTCPTp,2020.1.2,MacIntel,60,,,,,,,,,,,,,,,,,,,space,1,,,,,,Z,0.381,,,,,,,,,,,,,0,5,5,23,1,,,,,
,,,,,,,,,,,space,,1007,2020-05-14_17h37.53.774,ANTCPTp,2020.1.2,MacIntel,60,,,,,,,,,,,,,,,,,,,space,1,,,,,,E,0.291,,,,,,,,,,,,,0,6,6,4,1,,,,,
,,,,,,,,,,,space,,1007,2020-05-14_17h37.53.774,ANTCPTp,2020.1.2,MacIntel,60,,,,,,,,,,,,,,,,,,,space,1,,,,,,W,0.314,,,,,,,,,,,,,0,7,7,21,1,,,,,
,,,,,,,,,,,space,,1007,2020-05-14_17h37.53.774,ANTCPTp,2020.1.2,MacIntel,60,,,,,,,,,,,,,,,,,,,space,1,,,,,,Q,0.409,,,,,,,,,,,,,0,8,8,16,1,,,,,
,,,,,,,,,,,space,,1007,2020-05-14_17h37.53.774,ANTCPTp,2020.1.2,MacIntel,60,,,,,,,,,,,,,,,,,,,space,1,,,,,,U,0.364,,,,,,,,,,,,,0,9,9,19,1,,,,,
,,,,,,,,,,,space,,1007,2020-05-14_17h37.53.774,ANTCPTp,2020.1.2,MacIntel,60,,,,,,,,,,,,,,,,,,,space,1,,,,,,O,0.365,,,,,,,,,,,,,0,10,10,14,1,,,,,
,,,,,,,,,,,space,,1007,2020-05-14_17h37.53.774,ANTCPTp,2020.1.2,MacIntel,60,,,,,,,,,,,,,,,,,,,space,1,,,,,,G,0.388,,,,,,,,,,,,,0,11,11,6,1,,,,,
,,,,,,,,,,,,,1007,2020-05-14_17h37.53.774,ANTCPTp,2020.1.2,MacIntel,60,,,,,,,,,,,,,,,,,,,,1,,,,,,X,,,,,,,,,,,,,,0,12,12,26,1,,,,,
,,,,,,,,,,,space,,1007,2020-05-14_17h37.53.774,ANTCPTp,2020.1.2,MacIntel,60,,,,,,,,,,,,,,,,,,,space,1,,,,,,J,0.342,,,,,,,,,,,,,0,13,13,9,1,,,,,
,,,,,,,,,,,space,,1007,2020-05-14_17h37.53.774,ANTCPTp,2020.1.2,MacIntel,60,,,,,,,,,,,,,,,,,,,space,1,,,,,,A,0.331,,,,,,,,,,,,,0,14,14,0,1,,,,,
,,,,,,,,,,,space,,1007,2020-05-14_17h37.53.774,ANTCPTp,2020.1.2,MacIntel,60,,,,,,,,,,,,,,,,,,,space,1,,,,,,L,0.383,,,,,,,,,,,,,0,15,15,11,1,,,,,
,,,,,,,,,,,space,,1007,2020-05-14_17h37.53.774,ANTCPTp,2020.1.2,MacIntel,60,,,,,,,,,,,,,,,,,,,space,1,,,,,,H,0.371,,,,,,,,,,,,,0,16,16,7,1,,,,,
,,,,,,,,,,,space,,1007,2020-05-14_17h37.53.774,ANTCPTp,2020.1.2,MacIntel,60,,,,,,,,,,,,,,,,,,,space,1,,,,,,Y,0.316,,,,,,,,,,,,,0,17,17,22,1,,,,,
,,,,,,,,,,,space,,1007,2020-05-14_17h37.53.774,ANTCPTp,2020.1.2,MacIntel,60,,,,,,,,,,,,,,,,,,,space,1,,,,,,R,0.339,,,,,,,,,,,,,0,18,18,17,1,,,,,
,,,,,,,,,,,space,,1007,2020-05-14_17h37.53.774,ANTCPTp,2020.1.2,MacIntel,60,,,,,,,,,,,,,,,,,,,space,1,,,,,,V,0.259,,,,,,,,,,,,,0,19,19,20,1,,,,,
,,,,,,,,,,,space,,1007,2020-05-14_17h37.53.774,ANTCPTp,2020.1.2,MacIntel,60,,,,,,,,,,,,,,,,,,,space,1,,,,,,K,0.431,,,,,,,,,,,,,0,20,20,10,1,,,,,
,,,,,,,,,,,,,1007,2020-05-14_17h37.53.774,ANTCPTp,2020.1.2,MacIntel,60,,,,,,,,,,,,,,,,,,,space,0,,,,,,X,0.317,,,,,,,,,,,,,0,21,21,24,1,,,,,
,,,,,,,,,,,space,,1007,2020-05-14_17h37.53.774,ANTCPTp,2020.1.2,MacIntel,60,,,,,,,,,,,,,,,,,,,space,1,,,,,,S,0.3,,,,,,,,,,,,,0,22,22,18,1,,,,,
,,,,,,,,,,,space,,1007,2020-05-14_17h37.53.774,ANTCPTp,2020.1.2,MacIntel,60,,,,,,,,,,,,,,,,,,,space,1,,,,,,D,0.357,,,,,,,,,,,,,0,23,23,3,1,,,,,
,,,,,,,,,,,space,,1007,2020-05-14_17h37.53.774,ANTCPTp,2020.1.2,MacIntel,60,,,,,,,,,,,,,,,,,,,space,1,,,,,,F,0.457,,,,,,,,,,,,,0,24,24,5,1,,,,,
,,,,,,,,,,,space,,1007,2020-05-14_17h37.53.774,ANTCPTp,2020.1.2,MacIntel,60,,,,,,,,,,,,,,,,,,,space,1,,,,,,M,0.424,,,,,,,,,,,,,0,25,25,12,1,,,,,
,,,,,,,,,,,space,,1007,2020-05-14_17h37.53.774,ANTCPTp,2020.1.2,MacIntel,60,,,,,,,,,,,,,,,,,,,space,1,,,,,,N,0.367,,,,,,,,,,,,,0,26,26,13,1,,,,,
,,,,,,,,,,,,,1007,2020-05-14_17h37.53.774,ANTCPTp,2020.1.2,MacIntel,60,,,,,,,,,,,,,,,,,,,,,,,,,,,,2,2.251,,,,,,,,,,,,,,,,0,0,0,0,1
,,,,,,,,,,,space,,1007,2020-05-14_17h37.53.774,ANTCPTp,2020.1.2,MacIntel,60,,,,,,,,,,,,,,,,,,,space,1,0,0,0,2,1,C,0.524,,,,,,,,,,,,,,,,,,,,,,
,,,,,,,,,,,space,,1007,2020-05-14_17h37.53.774,ANTCPTp,2020.1.2,MacIntel,60,,,,,,,,,,,,,,,,,,,space,1,0,1,1,4,1,E,0.416,,,,,,,,,,,,,,,,,,,,,,
,,,,,,,,,,,space,,1007,2020-05-14_17h37.53.774,ANTCPTp,2020.1.2,MacIntel,60,,,,,,,,,,,,,,,,,,,space,1,0,2,2,0,1,A,0.349,,,,,,,,,,,,,,,,,,,,,,
,,,,,,,,,,,,,1007,2020-05-14_17h37.53.774,ANTCPTp,2020.1.2,MacIntel,60,,,,,,,,,,,,,,,,,,,space,0,0,3,3,16,1,X,0.292,,,,,,,,,,,,,,,,,,,,,,
,,,,,,,,,,,space,,1007,2020-05-14_17h37.53.774,ANTCPTp,2020.1.2,MacIntel,60,,,,,,,,,,,,,,,,,,,space,1,0,4,4,12,1,V,0.283,,,,,,,,,,,,,,,,,,,,,,
,,,,,,,,,,,space,,1007,2020-05-14_17h37.53.774,ANTCPTp,2020.1.2,MacIntel,60,,,,,,,,,,,,,,,,,,,space,1,0,5,5,11,1,U,0.33,,,,,,,,,,,,,,,,,,,,,,
,,,,,,,,,,,,,1007,2020-05-14_17h37.53.774,ANTCPTp,2020.1.2,MacIntel,60,,,,,,,,,,,,,,,,,,,space,0,0,6,6,15,1,X,0.307,,,,,,,,,,,,,,,,,,,,,,
,,,,,,,,,,,space,,1007,2020-05-14_17h37.53.774,ANTCPTp,2020.1.2,MacIntel,60,,,,,,,,,,,,,,,,,,,space,1,0,7,7,14,1,Y,0.272,,,,,,,,,,,,,,,,,,,,,,
,,,,,,,,,,,space,,1007,2020-05-14_17h37.53.774,ANTCPTp,2020.1.2,MacIntel,60,,,,,,,,,,,,,,,,,,,space,1,0,8,8,9,1,P,0.323,,,,,,,,,,,,,,,,,,,,,,
,,,,,,,,,,,space,,1007,2020-05-14_17h37.53.774,ANTCPTp,2020.1.2,MacIntel,60,,,,,,,,,,,,,,,,,,,space,1,0,9,9,6,1,J,0.39,,,,,,,,,,,,,,,,,,,,,,
,,,,,,,,,,,space,,1007,2020-05-14_17h37.53.774,ANTCPTp,2020.1.2,MacIntel,60,,,,,,,,,,,,,,,,,,,space,1,0,10,10,1,1,B,0.415,,,,,,,,,,,,,,,,,,,,,,
,,,,,,,,,,,space,,1007,2020-05-14_17h37.53.774,ANTCPTp,2020.1.2,MacIntel,60,,,,,,,,,,,,,,,,,,,space,1,0,11,11,13,1,W,0.482,,,,,,,,,,,,,,,,,,,,,,
,,,,,,,,,,,space,,1007,2020-05-14_17h37.53.774,ANTCPTp,2020.1.2,MacIntel,60,,,,,,,,,,,,,,,,,,,space,1,0,12,12,8,1,O,0.449,,,,,,,,,,,,,,,,,,,,,,
,,,,,,,,,,,space,,1007,2020-05-14_17h37.53.774,ANTCPTp,2020.1.2,MacIntel,60,,,,,,,,,,,,,,,,,,,space,1,0,13,13,7,1,N,0.505,,,,,,,,,,,,,,,,,,,,,,
,,,,,,,,,,,space,,1007,2020-05-14_17h37.53.774,ANTCPTp,2020.1.2,MacIntel,60,,,,,,,,,,,,,,,,,,,space,1,0,14,14,3,1,D,0.449,,,,,,,,,,,,,,,,,,,,,,
,,,,,,,,,,,space,,1007,2020-05-14_17h37.53.774,ANTCPTp,2020.1.2,MacIntel,60,,,,,,,,,,,,,,,,,,,space,1,0,15,15,10,1,Q,0.454,,,,,,,,,,,,,,,,,,,,,,
,,,,,,,,,,,space,,1007,2020-05-14_17h37.53.774,ANTCPTp,2020.1.2,MacIntel,60,,,,,,,,,,,,,,,,,,,space,1,0,16,16,5,1,F,0.422,,,,,,,,,,,,,,,,,,,,,,
,,,,,,,,,,,space,,1007,2020-05-14_17h37.53.774,ANTCPTp,2020.1.2,MacIntel,60,,,,,,,,,,,,,,,,,,,space,1,,,,,,C,0.441,2,4.878,0,0,0,2,1,,,,,,,,,,,,,,,
,,,,,,,,,,,,,1007,2020-05-14_17h37.53.774,ANTCPTp,2020.1.2,MacIntel,60,,,,,,,,,,,,,,,,,,,,1,,,,,,X,,,,0,1,1,26,1,,,,,,,,,,,,,,,
,,,,,,,,,,,,,1007,2020-05-14_17h37.53.774,ANTCPTp,2020.1.2,MacIntel,60,,,,,,,,,,,,,,,,,,,space,0,,,,,,X,0.349,,,0,2,2,29,1,,,,,,,,,,,,,,,
,,,,,,,,,,,space,,1007,2020-05-14_17h37.53.774,ANTCPTp,2020.1.2,MacIntel,60,,,,,,,,,,,,,,,,,,,space,1,,,,,,A,0.404,,,0,3,3,25,1,,,,,,,,,,,,,,,
,,,,,,,,,,,space,,1007,2020-05-14_17h37.53.774,ANTCPTp,2020.1.2,MacIntel,60,,,,,,,,,,,,,,,,,,,space,1,,,,,,E,0.425,,,0,4,4,4,1,,,,,,,,,,,,,,,
,,,,,,,,,,,space,,1007,2020-05-14_17h37.53.774,ANTCPTp,2020.1.2,MacIntel,60,,,,,,,,,,,,,,,,,,,space,1,,,,,,I,0.472,,,0,5,5,8,1,,,,,,,,,,,,,,,
,,,,,,,,,,,space,,1007,2020-05-14_17h37.53.774,ANTCPTp,2020.1.2,MacIntel,60,,,,,,,,,,,,,,,,,,,space,1,,,,,,N,0.291,,,0,6,6,13,1,,,,,,,,,,,,,,,
,,,,,,,,,,,space,,1007,2020-05-14_17h37.53.774,ANTCPTp,2020.1.2,MacIntel,60,,,,,,,,,,,,,,,,,,,space,1,,,,,,Y,0.473,,,0,7,7,23,1,,,,,,,,,,,,,,,
,,,,,,,,,,,space,,1007,2020-05-14_17h37.53.774,ANTCPTp,2020.1.2,MacIntel,60,,,,,,,,,,,,,,,,,,,space,1,,,,,,M,0.48,,,0,8,8,12,1,,,,,,,,,,,,,,,
,,,,,,,,,,,space,,1007,2020-05-14_17h37.53.774,ANTCPTp,2020.1.2,MacIntel,60,,,,,,,,,,,,,,,,,,,space,1,,,,,,D,0.41,,,0,9,9,3,1,,,,,,,,,,,,,,,
,,,,,,,,,,,space,,1007,2020-05-14_17h37.53.774,ANTCPTp,2020.1.2,MacIntel,60,,,,,,,,,,,,,,,,,,,space,1,,,,,,Z,0.434,,,0,10,10,24,1,,,,,,,,,,,,,,,
,,,,,,,,,,,,,1007,2020-05-14_17h37.53.774,ANTCPTp,2020.1.2,MacIntel,60,,,,,,,,,,,,,,,,,,,,1,,,,,,X,,,,0,11,11,28,1,,,,,,,,,,,,,,,
,,,,,,,,,,,space,,1007,2020-05-14_17h37.53.774,ANTCPTp,2020.1.2,MacIntel,60,,,,,,,,,,,,,,,,,,,space,1,,,,,,O,0.433,,,0,12,12,14,1,,,,,,,,,,,,,,,
,,,,,,,,,,,space,,1007,2020-05-14_17h37.53.774,ANTCPTp,2020.1.2,MacIntel,60,,,,,,,,,,,,,,,,,,,space,1,,,,,,H,0.333,,,0,13,13,7,1,,,,,,,,,,,,,,,
,,,,,,,,,,,space,,1007,2020-05-14_17h37.53.774,ANTCPTp,2020.1.2,MacIntel,60,,,,,,,,,,,,,,,,,,,space,1,,,,,,G,0.39,,,0,14,14,6,1,,,,,,,,,,,,,,,
,,,,,,,,,,,space,,1007,2020-05-14_17h37.53.774,ANTCPTp,2020.1.2,MacIntel,60,,,,,,,,,,,,,,,,,,,space,1,,,,,,S,0.416,,,0,15,15,18,1,,,,,,,,,,,,,,,
,,,,,,,,,,,space,,1007,2020-05-14_17h37.53.774,ANTCPTp,2020.1.2,MacIntel,60,,,,,,,,,,,,,,,,,,,space,1,,,,,,V,0.407,,,0,16,16,21,1,,,,,,,,,,,,,,,
,,,,,,,,,,,,,1007,2020-05-14_17h37.53.774,ANTCPTp,2020.1.2,MacIntel,60,,,,,,,,,,,,,,,,,,,,1,,,,,,X,,,,0,17,17,27,1,,,,,,,,,,,,,,,
,,,,,,,,,,,space,,1007,2020-05-14_17h37.53.774,ANTCPTp,2020.1.2,MacIntel,60,,,,,,,,,,,,,,,,,,,space,1,,,,,,K,0.307,,,0,18,18,10,1,,,,,,,,,,,,,,,
,,,,,,,,,,,space,,1007,2020-05-14_17h37.53.774,ANTCPTp,2020.1.2,MacIntel,60,,,,,,,,,,,,,,,,,,,space,1,,,,,,U,0.316,,,0,19,19,20,1,,,,,,,,,,,,,,,
,,,,,,,,,,,space,,1007,2020-05-14_17h37.53.774,ANTCPTp,2020.1.2,MacIntel,60,,,,,,,,,,,,,,,,,,,space,1,,,,,,A,0.364,,,0,20,20,0,1,,,,,,,,,,,,,,,
,,,,,,,,,,,space,,1007,2020-05-14_17h37.53.774,ANTCPTp,2020.1.2,MacIntel,60,,,,,,,,,,,,,,,,,,,space,1,,,,,,P,0.374,,,0,21,21,15,1,,,,,,,,,,,,,,,
,,,,,,,,,,,space,,1007,2020-05-14_17h37.53.774,ANTCPTp,2020.1.2,MacIntel,60,,,,,,,,,,,,,,,,,,,space,1,,,,,,W,0.466,,,0,22,22,22,1,,,,,,,,,,,,,,,
,,,,,,,,,,,space,,1007,2020-05-14_17h37.53.774,ANTCPTp,2020.1.2,MacIntel,60,,,,,,,,,,,,,,,,,,,space,1,,,,,,J,0.367,,,0,23,23,9,1,,,,,,,,,,,,,,,
,,,,,,,,,,,space,,1007,2020-05-14_17h37.53.774,ANTCPTp,2020.1.2,MacIntel,60,,,,,,,,,,,,,,,,,,,space,1,,,,,,F,0.323,,,0,24,24,5,1,,,,,,,,,,,,,,,
,,,,,,,,,,,space,,1007,2020-05-14_17h37.53.774,ANTCPTp,2020.1.2,MacIntel,60,,,,,,,,,,,,,,,,,,,space,1,,,,,,R,0.358,,,0,25,25,17,1,,,,,,,,,,,,,,,
,,,,,,,,,,,space,,1007,2020-05-14_17h37.53.774,ANTCPTp,2020.1.2,MacIntel,60,,,,,,,,,,,,,,,,,,,space,1,,,,,,T,0.392,,,0,26,26,19,1,,,,,,,,,,,,,,,
,,,,,,,,,,,space,,1007,2020-05-14_17h37.53.774,ANTCPTp,2020.1.2,MacIntel,60,,,,,,,,,,,,,,,,,,,space,1,,,,,,L,0.391,,,0,27,27,11,1,,,,,,,,,,,,,,,
,,,,,,,,,,,space,,1007,2020-05-14_17h37.53.774,ANTCPTp,2020.1.2,MacIntel,60,,,,,,,,,,,,,,,,,,,space,1,,,,,,B,0.368,,,0,28,28,1,1,,,,,,,,,,,,,,,
,,,,,,,,,,,space,,1007,2020-05-14_17h37.53.774,ANTCPTp,2020.1.2,MacIntel,60,,,,,,,,,,,,,,,,,,,space,1,,,,,,Q,0.348,,,0,29,29,16,1,,,,,,,,,,,,,,,
,,,,,,,,,,,space,,1007,2020-05-14_17h37.53.774,ANTCPTp,2020.1.2,MacIntel,60,,,,,,,,,,,,,,,,,,,space,1,,,,,,H,0.573,1,2.004,,,,,,0,0,0,5,1,,,,,,,,,,
,,,,,,,,,,,space,,1007,2020-05-14_17h37.53.774,ANTCPTp,2020.1.2,MacIntel,60,,,,,,,,,,,,,,,,,,,space,1,,,,,,U,0.388,,,,,,,,0,1,1,15,1,,,,,,,,,,
,,,,,,,,,,,space,,1007,2020-05-14_17h37.53.774,ANTCPTp,2020.1.2,MacIntel,60,,,,,,,,,,,,,,,,,,,space,1,,,,,,T,0.332,,,,,,,,0,2,2,14,1,,,,,,,,,,
,,,,,,,,,,,space,,1007,2020-05-14_17h37.53.774,ANTCPTp,2020.1.2,MacIntel,60,,,,,,,,,,,,,,,,,,,space,1,,,,,,L,0.342,,,,,,,,0,3,3,7,1,,,,,,,,,,
,,,,,,,,,,,space,,1007,2020-05-14_17h37.53.774,ANTCPTp,2020.1.2,MacIntel,60,,,,,,,,,,,,,,,,,,,space,1,,,,,,E,0.377,,,,,,,,0,4,4,2,1,,,,,,,,,,
,,,,,,,,,,,space,,1007,2020-05-14_17h37.53.774,ANTCPTp,2020.1.2,MacIntel,60,,,,,,,,,,,,,,,,,,,space,1,,,,,,R,0.377,,,,,,,,0,5,5,12,1,,,,,,,,,,
,,,,,,,,,,,space,,1007,2020-05-14_17h37.53.774,ANTCPTp,2020.1.2,MacIntel,60,,,,,,,,,,,,,,,,,,,space,1,,,,,,W,0.401,,,,,,,,0,6,6,16,1,,,,,,,,,,
,,,,,,,,,,,space,,1007,2020-05-14_17h37.53.774,ANTCPTp,2020.1.2,MacIntel,60,,,,,,,,,,,,,,,,,,,space,1,,,,,,O,0.299,,,,,,,,0,7,7,10,1,,,,,,,,,,
,,,,,,,,,,,space,,1007,2020-05-14_17h37.53.774,ANTCPTp,2020.1.2,MacIntel,60,,,,,,,,,,,,,,,,,,,space,1,,,,,,B,0.305,,,,,,,,0,8,8,0,1,,,,,,,,,,
,,,,,,,,,,,space,,1007,2020-05-14_17h37.53.774,ANTCPTp,2020.1.2,MacIntel,60,,,,,,,,,,,,,,,,,,,space,1,,,,,,Q,0.349,,,,,,,,0,9,9,11,1,,,,,,,,,,
,,,,,,,,,,,space,,1007,2020-05-14_17h37.53.774,ANTCPTp,2020.1.2,MacIntel,60,,,,,,,,,,,,,,,,,,,space,1,,,,,,A,0.431,,,,,,,,0,10,10,19,1,,,,,,,,,,
,,,,,,,,,,,,,1007,2020-05-14_17h37.53.774,ANTCPTp,2020.1.2,MacIntel,60,,,,,,,,,,,,,,,,,,,,1,,,,,,X,,,,,,,,,0,11,11,21,1,,,,,,,,,,
,,,,,,,,,,,space,,1007,2020-05-14_17h37.53.774,ANTCPTp,2020.1.2,MacIntel,60,,,,,,,,,,,,,,,,,,,space,1,,,,,,Y,0.297,,,,,,,,0,12,12,17,1,,,,,,,,,,
,,,,,,,,,,,space,,1007,2020-05-14_17h37.53.774,ANTCPTp,2020.1.2,MacIntel,60,,,,,,,,,,,,,,,,,,,space,1,,,,,,D,0.373,,,,,,,,0,13,13,1,1,,,,,,,,,,
,,,,,,,,,,,space,,1007,2020-05-14_17h37.53.774,ANTCPTp,2020.1.2,MacIntel,60,,,,,,,,,,,,,,,,,,,space,1,,,,,,K,0.351,,,,,,,,0,14,14,6,1,,,,,,,,,,
,,,,,,,,,,,space,,1007,2020-05-14_17h37.53.774,ANTCPTp,2020.1.2,MacIntel,60,,,,,,,,,,,,,,,,,,,space,1,,,,,,N,0.347,,,,,,,,0,15,15,9,1,,,,,,,,,,
,,,,,,,,,,,space,,1007,2020-05-14_17h37.53.774,ANTCPTp,2020.1.2,MacIntel,60,,,,,,,,,,,,,,,,,,,space,1,,,,,,M,0.358,,,,,,,,0,16,16,8,1,,,,,,,,,,
,,,,,,,,,,,space,,1007,2020-05-14_17h37.53.774,ANTCPTp,2020.1.2,MacIntel,60,,,,,,,,,,,,,,,,,,,space,1,,,,,,G,0.335,,,,,,,,0,17,17,4,1,,,,,,,,,,
,,,,,,,,,,,space,,1007,2020-05-14_17h37.53.774,ANTCPTp,2020.1.2,MacIntel,60,,,,,,,,,,,,,,,,,,,space,1,,,,,,S,0.369,,,,,,,,0,18,18,13,1,,,,,,,,,,
,,,,,,,,,,,,,1007,2020-05-14_17h37.53.774,ANTCPTp,2020.1.2,MacIntel,60,,,,,,,,,,,,,,,,,,,,1,,,,,,X,,,,,,,,,0,19,19,20,1,,,,,,,,,,
,,,,,,,,,,,space,,1007,2020-05-14_17h37.53.774,ANTCPTp,2020.1.2,MacIntel,60,,,,,,,,,,,,,,,,,,,space,1,,,,,,F,0.315,,,,,,,,0,20,20,3,1,,,,,,,,,,
,,,,,,,,,,,space,,1007,2020-05-14_17h37.53.774,ANTCPTp,2020.1.2,MacIntel,60,,,,,,,,,,,,,,,,,,,space,1,,,,,,Z,0.292,,,,,,,,0,21,21,18,1,,,,,,,,,,
,,,,,,,,,,,space,,1007,2020-05-14_17h37.53.774,ANTCPTp,2020.1.2,MacIntel,60,,,,,,,,,,,,,,,,,,,space,1,,,,,,U,0.606,1,1.869,,,,,,,,,,,0,0,0,19,1,,,,,
,,,,,,,,,,,space,,1007,2020-05-14_17h37.53.774,ANTCPTp,2020.1.2,MacIntel,60,,,,,,,,,,,,,,,,,,,space,1,,,,,,A,0.385,,,,,,,,,,,,,0,1,1,0,1,,,,,
,,,,,,,,,,,,,1007,2020-05-14_17h37.53.774,ANTCPTp,2020.1.2,MacIntel,60,,,,,,,,,,,,,,,,,,,,1,,,,,,X,,,,,,,,,,,,,,0,2,2,25,1,,,,,
,,,,,,,,,,,space,,1007,2020-05-14_17h37.53.774,ANTCPTp,2020.1.2,MacIntel,60,,,,,,,,,,,,,,,,,,,space,1,,,,,,C,0.399,,,,,,,,,,,,,0,3,3,2,1,,,,,
,,,,,,,,,,,,,1007,2020-05-14_17h37.53.774,ANTCPTp,2020.1.2,MacIntel,60,,,,,,,,,,,,,,,,,,,,1,,,,,,X,,,,,,,,,,,,,,0,4,4,26,1,,,,,
,,,,,,,,,,,space,,1007,2020-05-14_17h37.53.774,ANTCPTp,2020.1.2,MacIntel,60,,,,,,,,,,,,,,,,,,,space,1,,,,,,G,0.433,,,,,,,,,,,,,0,5,5,6,1,,,,,
,,,,,,,,,,,space,,1007,2020-05-14_17h37.53.774,ANTCPTp,2020.1.2,MacIntel,60,,,,,,,,,,,,,,,,,,,space,1,,,,,,H,0.422,,,,,,,,,,,,,0,6,6,7,1,,,,,
,,,,,,,,,,,space,,1007,2020-05-14_17h37.53.774,ANTCPTp,2020.1.2,MacIntel,60,,,,,,,,,,,,,,,,,,,space,1,,,,,,P,0.321,,,,,,,,,,,,,0,7,7,15,1,,,,,
,,,,,,,,,,,space,,1007,2020-05-14_17h37.53.774,ANTCPTp,2020.1.2,MacIntel,60,,,,,,,,,,,,,,,,,,,space,1,,,,,,N,0.382,,,,,,,,,,,,,0,8,8,13,1,,,,,
,,,,,,,,,,,space,,1007,2020-05-14_17h37.53.774,ANTCPTp,2020.1.2,MacIntel,60,,,,,,,,,,,,,,,,,,,space,1,,,,,,R,0.349,,,,,,,,,,,,,0,9,9,17,1,,,,,
,,,,,,,,,,,space,,1007,2020-05-14_17h37.53.774,ANTCPTp,2020.1.2,MacIntel,60,,,,,,,,,,,,,,,,,,,space,1,,,,,,B,0.372,,,,,,,,,,,,,0,10,10,1,1,,,,,
,,,,,,,,,,,space,,1007,2020-05-14_17h37.53.774,ANTCPTp,2020.1.2,MacIntel,60,,,,,,,,,,,,,,,,,,,space,1,,,,,,Z,0.799,,,,,,,,,,,,,0,11,11,23,1,,,,,
,,,,,,,,,,,space,,1007,2020-05-14_17h37.53.774,ANTCPTp,2020.1.2,MacIntel,60,,,,,,,,,,,,,,,,,,,space,1,,,,,,L,0.44,,,,,,,,,,,,,0,12,12,11,1,,,,,
,,,,,,,,,,,space,,1007,2020-05-14_17h37.53.774,ANTCPTp,2020.1.2,MacIntel,60,,,,,,,,,,,,,,,,,,,space,1,,,,,,F,0.426,,,,,,,,,,,,,0,13,13,5,1,,,,,
,,,,,,,,,,,space,,1007,2020-05-14_17h37.53.774,ANTCPTp,2020.1.2,MacIntel,60,,,,,,,,,,,,,,,,,,,space,1,,,,,,S,0.414,,,,,,,,,,,,,0,14,14,18,1,,,,,
,,,,,,,,,,,space,,1007,2020-05-14_17h37.53.774,ANTCPTp,2020.1.2,MacIntel,60,,,,,,,,,,,,,,,,,,,space,1,,,,,,D,0.433,,,,,,,,,,,,,0,15,15,3,1,,,,,
,,,,,,,,,,,space,,1007,2020-05-14_17h37.53.774,ANTCPTp,2020.1.2,MacIntel,60,,,,,,,,,,,,,,,,,,,space,1,,,,,,J,0.458,,,,,,,,,,,,,0,16,16,9,1,,,,,
,,,,,,,,,,,,,1007,2020-05-14_17h37.53.774,ANTCPTp,2020.1.2,MacIntel,60,,,,,,,,,,,,,,,,,,,,1,,,,,,X,,,,,,,,,,,,,,0,17,17,24,1,,,,,
,,,,,,,,,,,space,,1007,2020-05-14_17h37.53.774,ANTCPTp,2020.1.2,MacIntel,60,,,,,,,,,,,,,,,,,,,space,1,,,,,,M,0.458,,,,,,,,,,,,,0,18,18,12,1,,,,,
,,,,,,,,,,,space,,1007,2020-05-14_17h37.53.774,ANTCPTp,2020.1.2,MacIntel,60,,,,,,,,,,,,,,,,,,,space,1,,,,,,Y,0.39,,,,,,,,,,,,,0,19,19,22,1,,,,,
,,,,,,,,,,,space,,1007,2020-05-14_17h37.53.774,ANTCPTp,2020.1.2,MacIntel,60,,,,,,,,,,,,,,,,,,,space,1,,,,,,V,0.39,,,,,,,,,,,,,0,20,20,20,1,,,,,
,,,,,,,,,,,space,,1007,2020-05-14_17h37.53.774,ANTCPTp,2020.1.2,MacIntel,60,,,,,,,,,,,,,,,,,,,space,1,,,,,,E,0.3,,,,,,,,,,,,,0,21,21,4,1,,,,,
,,,,,,,,,,,space,,1007,2020-05-14_17h37.53.774,ANTCPTp,2020.1.2,MacIntel,60,,,,,,,,,,,,,,,,,,,space,1,,,,,,Q,0.323,,,,,,,,,,,,,0,22,22,16,1,,,,,
,,,,,,,,,,,space,,1007,2020-05-14_17h37.53.774,ANTCPTp,2020.1.2,MacIntel,60,,,,,,,,,,,,,,,,,,,space,1,,,,,,O,0.365,,,,,,,,,,,,,0,23,23,14,1,,,,,
,,,,,,,,,,,space,,1007,2020-05-14_17h37.53.774,ANTCPTp,2020.1.2,MacIntel,60,,,,,,,,,,,,,,,,,,,space,1,,,,,,I,0.374,,,,,,,,,,,,,0,24,24,8,1,,,,,
,,,,,,,,,,,space,,1007,2020-05-14_17h37.53.774,ANTCPTp,2020.1.2,MacIntel,60,,,,,,,,,,,,,,,,,,,space,1,,,,,,K,0.522,,,,,,,,,,,,,0,25,25,10,1,,,,,
,,,,,,,,,,,space,,1007,2020-05-14_17h37.53.774,ANTCPTp,2020.1.2,MacIntel,60,,,,,,,,,,,,,,,,,,,space,1,,,,,,W,0.421,,,,,,,,,,,,,0,26,26,21,1,,,,,
,,,,,,,,,,,,,1007,2020-05-14_17h37.53.774,ANTCPTp,2020.1.2,MacIntel,60,,,,,,,,,,,,,,,,,,,,,,,,,,,,2,3.38,,,,,,,,,,,,,,,,1,0,1,0,1
,,,,,,,,,,,space,,1007,2020-05-14_17h37.53.774,ANTCPTp,2020.1.2,MacIntel,60,,,,,,,,,,,,,,,,,,,space,1,0,0,0,0,1,A,0.707,,,,,,,,,,,,,,,,,,,,,,
,,,,,,,,,,,space,,1007,2020-05-14_17h37.53.774,ANTCPTp,2020.1.2,MacIntel,60,,,,,,,,,,,,,,,,,,,space,1,0,1,1,7,1,N,0.42,,,,,,,,,,,,,,,,,,,,,,
,,,,,,,,,,,space,,1007,2020-05-14_17h37.53.774,ANTCPTp,2020.1.2,MacIntel,60,,,,,,,,,,,,,,,,,,,space,1,0,2,2,9,1,P,0.375,,,,,,,,,,,,,,,,,,,,,,
,,,,,,,,,,,space,,1007,2020-05-14_17h37.53.774,ANTCPTp,2020.1.2,MacIntel,60,,,,,,,,,,,,,,,,,,,space,1,0,3,3,11,1,U,0.398,,,,,,,,,,,,,,,,,,,,,,
,,,,,,,,,,,space,,1007,2020-05-14_17h37.53.774,ANTCPTp,2020.1.2,MacIntel,60,,,,,,,,,,,,,,,,,,,space,1,0,4,4,13,1,W,0.421,,,,,,,,,,,,,,,,,,,,,,
,,,,,,,,,,,space,,1007,2020-05-14_17h37.53.774,ANTCPTp,2020.1.2,MacIntel,60,,,,,,,,,,,,,,,,,,,space,1,0,5,5,5,1,F,0.387,,,,,,,,,,,,,,,,,,,,,,
,,,,,,,,,,,space,,1007,2020-05-14_17h37.53.774,ANTCPTp,2020.1.2,MacIntel,60,,,,,,,,,,,,,,,,,,,space,1,0,6,6,12,1,V,0.399,,,,,,,,,,,,,,,,,,,,,,
,,,,,,,,,,,space,,1007,2020-05-14_17h37.53.774,ANTCPTp,2020.1.2,MacIntel,60,,,,,,,,,,,,,,,,,,,space,1,0,7,7,14,1,Y,0.341,,,,,,,,,,,,,,,,,,,,,,
,,,,,,,,,,,,,1007,2020-05-14_17h37.53.774,ANTCPTp,2020.1.2,MacIntel,60,,,,,,,,,,,,,,,,,,,space,0,0,8,8,16,1,X,0.325,,,,,,,,,,,,,,,,,,,,,,
,,,,,,,,,,,space,,1007,2020-05-14_17h37.53.774,ANTCPTp,2020.1.2,MacIntel,60,,,,,,,,,,,,,,,,,,,space,1,0,9,9,10,1,Q,0.426,,,,,,,,,,,,,,,,,,,,,,
,,,,,,,,,,,space,,1007,2020-05-14_17h37.53.774,ANTCPTp,2020.1.2,MacIntel,60,,,,,,,,,,,,,,,,,,,space,1,0,10,10,4,1,E,0.338,,,,,,,,,,,,,,,,,,,,,,
,,,,,,,,,,,space,,1007,2020-05-14_17h37.53.774,ANTCPTp,2020.1.2,MacIntel,60,,,,,,,,,,,,,,,,,,,space,1,0,11,11,8,1,O,0.349,,,,,,,,,,,,,,,,,,,,,,
,,,,,,,,,,,space,,1007,2020-05-14_17h37.53.774,ANTCPTp,2020.1.2,MacIntel,60,,,,,,,,,,,,,,,,,,,space,1,0,12,12,6,1,J,0.417,,,,,,,,,,,,,,,,,,,,,,
,,,,,,,,,,,,,1007,2020-05-14_17h37.53.774,ANTCPTp,2020.1.2,MacIntel,60,,,,,,,,,,,,,,,,,,,,1,0,13,13,15,1,X,,,,,,,,,,,,,,,,,,,,,,,
,,,,,,,,,,,space,,1007,2020-05-14_17h37.53.774,ANTCPTp,2020.1.2,MacIntel,60,,,,,,,,,,,,,,,,,,,space,1,0,14,14,3,1,D,0.326,,,,,,,,,,,,,,,,,,,,,,
,,,,,,,,,,,space,,1007,2020-05-14_17h37.53.774,ANTCPTp,2020.1.2,MacIntel,60,,,,,,,,,,,,,,,,,,,space,1,0,15,15,2,1,C,0.391,,,,,,,,,,,,,,,,,,,,,,
,,,,,,,,,,,space,,1007,2020-05-14_17h37.53.774,ANTCPTp,2020.1.2,MacIntel,60,,,,,,,,,,,,,,,,,,,space,1,0,16,16,1,1,B,0.433,,,,,,,,,,,,,,,,,,,,,,
,,,,,,,,,,,space,,1007,2020-05-14_17h37.53.774,ANTCPTp,2020.1.2,MacIntel,60,,,,,,,,,,,,,,,,,,,space,1,,,,,,A,0.501,2,6.915,0,0,0,0,1,,,,,,,,,,,,,,,
,,,,,,,,,,,space,,1007,2020-05-14_17h37.53.774,ANTCPTp,2020.1.2,MacIntel,60,,,,,,,,,,,,,,,,,,,space,1,,,,,,E,0.417,,,0,1,1,4,1,,,,,,,,,,,,,,,
,,,,,,,,,,,space,,1007,2020-05-14_17h37.53.774,ANTCPTp,2020.1.2,MacIntel,60,,,,,,,,,,,,,,,,,,,space,1,,,,,,S,0.364,,,0,2,2,18,1,,,,,,,,,,,,,,,
,,,,,,,,,,,,,1007,2020-05-14_17h37.53.774,ANTCPTp,2020.1.2,MacIntel,60,,,,,,,,,,,,,,,,,,,,1,,,,,,X,,,,0,3,3,28,1,,,,,,,,,,,,,,,
,,,,,,,,,,,space,,1007,2020-05-14_17h37.53.774,ANTCPTp,2020.1.2,MacIntel,60,,,,,,,,,,,,,,,,,,,space,1,,,,,,V,0.35,,,0,4,4,21,1,,,,,,,,,,,,,,,
,,,,,,,,,,,,,1007,2020-05-14_17h37.53.774,ANTCPTp,2020.1.2,MacIntel,60,,,,,,,,,,,,,,,,,,,,1,,,,,,X,,,,0,5,5,26,1,,,,,,,,,,,,,,,
,,,,,,,,,,,space,,1007,2020-05-14_17h37.53.774,ANTCPTp,2020.1.2,MacIntel,60,,,,,,,,,,,,,,,,,,,space,1,,,,,,W,0.452,,,0,6,6,22,1,,,,,,,,,,,,,,,
,,,,,,,,,,,space,,1007,2020-05-14_17h37.53.774,ANTCPTp,2020.1.2,MacIntel,60,,,,,,,,,,,,,,,,,,,space,1,,,,,,M,0.432,,,0,7,7,12,1,,,,,,,,,,,,,,,
,,,,,,,,,,,space,,1007,2020-05-14_17h37.53.774,ANTCPTp,2020.1.2,MacIntel,60,,,,,,,,,,,,,,,,,,,space,1,,,,,,N,0.323,,,0,8,8,13,1,,,,,,,,,,,,,,,
,,,,,,,,,,,space,,1007,2020-05-14_17h37.53.774,ANTCPTp,2020.1.2,MacIntel,60,,,,,,,,,,,,,,,,,,,space,1,,,,,,K,0.516,,,0,9,9,10,1,,,,,,,,,,,,,,,
,,,,,,,,,,,space,,1007,2020-05-14_17h37.53.774,ANTCPTp,2020.1.2,MacIntel,60,,,,,,,,,,,,,,,,,,,space,1,,,,,,B,0.416,,,0,10,10,1,1,,,,,,,,,,,,,,,
,,,,,,,,,,,space,,1007,2020-05-14_17h37.53.774,ANTCPTp,2020.1.2,MacIntel,60,,,,,,,,,,,,,,,,,,,space,1,,,,,,J,0.424,,,0,11,11,9,1,,,,,,,,,,,,,,,
,,,,,,,,,,,space,,1007,2020-05-14_17h37.53.774,ANTCPTp,2020.1.2,MacIntel,60,,,,,,,,,,,,,,,,,,,space,1,,,,,,L,0.439,,,0,12,12,11,1,,,,,,,,,,,,,,,
,,,,,,,,,,,space,,1007,2020-05-14_17h37.53.774,ANTCPTp,2020.1.2,MacIntel,60,,,,,,,,,,,,,,,,,,,space,1,,,,,,P,0.449,,,0,13,13,15,1,,,,,,,,,,,,,,,
,,,,,,,,,,,space,,1007,2020-05-14_17h37.53.774,ANTCPTp,2020.1.2,MacIntel,60,,,,,,,,,,,,,,,,,,,space,1,,,,,,D,0.405,,,0,14,14,3,1,,,,,,,,,,,,,,,
,,,,,,,,,,,,,1007,2020-05-14_17h37.53.774,ANTCPTp,2020.1.2,MacIntel,60,,,,,,,,,,,,,,,,,,,,1,,,,,,X,,,,0,15,15,29,1,,,,,,,,,,,,,,,
,,,,,,,,,,,space,,1007,2020-05-14_17h37.53.774,ANTCPTp,2020.1.2,MacIntel,60,,,,,,,,,,,,,,,,,,,space,1,,,,,,G,0.389,,,0,16,16,6,1,,,,,,,,,,,,,,,
,,,,,,,,,,,,,1007,2020-05-14_17h37.53.774,ANTCPTp,2020.1.2,MacIntel,60,,,,,,,,,,,,,,,,,,,,1,,,,,,X,,,,0,17,17,27,1,,,,,,,,,,,,,,,
,,,,,,,,,,,space,,1007,2020-05-14_17h37.53.774,ANTCPTp,2020.1.2,MacIntel,60,,,,,,,,,,,,,,,,,,,space,1,,,,,,Q,0.309,,,0,18,18,16,1,,,,,,,,,,,,,,,
,,,,,,,,,,,space,,1007,2020-05-14_17h37.53.774,ANTCPTp,2020.1.2,MacIntel,60,,,,,,,,,,,,,,,,,,,space,1,,,,,,Y,0.602,,,0,19,19,23,1,,,,,,,,,,,,,,,
,,,,,,,,,,,space,,1007,2020-05-14_17h37.53.774,ANTCPTp,2020.1.2,MacIntel,60,,,,,,,,,,,,,,,,,,,space,1,,,,,,T,0.422,,,0,20,20,19,1,,,,,,,,,,,,,,,
,,,,,,,,,,,space,,1007,2020-05-14_17h37.53.774,ANTCPTp,2020.1.2,MacIntel,60,,,,,,,,,,,,,,,,,,,space,1,,,,,,F,0.423,,,0,21,21,5,1,,,,,,,,,,,,,,,
,,,,,,,,,,,space,,1007,2020-05-14_17h37.53.774,ANTCPTp,2020.1.2,MacIntel,60,,,,,,,,,,,,,,,,,,,space,1,,,,,,C,0.4,,,0,22,22,2,1,,,,,,,,,,,,,,,
,,,,,,,,,,,space,,1007,2020-05-14_17h37.53.774,ANTCPTp,2020.1.2,MacIntel,60,,,,,,,,,,,,,,,,,,,space,1,,,,,,R,0.45,,,0,23,23,17,1,,,,,,,,,,,,,,,
,,,,,,,,,,,space,,1007,2020-05-14_17h37.53.774,ANTCPTp,2020.1.2,MacIntel,60,,,,,,,,,,,,,,,,,,,space,1,,,,,,I,0.451,,,0,24,24,8,1,,,,,,,,,,,,,,,
,,,,,,,,,,,space,,1007,2020-05-14_17h37.53.774,ANTCPTp,2020.1.2,MacIntel,60,,,,,,,,,,,,,,,,,,,space,1,,,,,,H,0.43,,,0,25,25,7,1,,,,,,,,,,,,,,,
,,,,,,,,,,,space,,1007,2020-05-14_17h37.53.774,ANTCPTp,2020.1.2,MacIntel,60,,,,,,,,,,,,,,,,,,,space,1,,,,,,A,0.34,,,0,26,26,25,1,,,,,,,,,,,,,,,
,,,,,,,,,,,space,,1007,2020-05-14_17h37.53.774,ANTCPTp,2020.1.2,MacIntel,60,,,,,,,,,,,,,,,,,,,space,1,,,,,,Z,0.384,,,0,27,27,24,1,,,,,,,,,,,,,,,
,,,,,,,,,,,space,,1007,2020-05-14_17h37.53.774,ANTCPTp,2020.1.2,MacIntel,60,,,,,,,,,,,,,,,,,,,space,1,,,,,,O,0.397,,,0,28,28,14,1,,,,,,,,,,,,,,,
,,,,,,,,,,,space,,1007,2020-05-14_17h37.53.774,ANTCPTp,2020.1.2,MacIntel,60,,,,,,,,,,,,,,,,,,,space,1,,,,,,U,0.364,,,0,29,29,20,1,,,,,,,,,,,,,,,
,,,,,,,,,,,space,,1007,2020-05-14_17h37.53.774,ANTCPTp,2020.1.2,MacIntel,60,,,,,,,,,,,,,,,,,,,space,1,,,,,,Y,0.602,1,6.699,,,,,,0,0,0,17,1,,,,,,,,,,
,,,,,,,,,,,space,,1007,2020-05-14_17h37.53.774,ANTCPTp,2020.1.2,MacIntel,60,,,,,,,,,,,,,,,,,,,space,1,,,,,,O,0.382,,,,,,,,0,1,1,10,1,,,,,,,,,,
,,,,,,,,,,,,,1007,2020-05-14_17h37.53.774,ANTCPTp,2020.1.2,MacIntel,60,,,,,,,,,,,,,,,,,,,space,0,,,,,,X,0.35,,,,,,,,0,2,2,21,1,,,,,,,,,,
,,,,,,,,,,,space,,1007,2020-05-14_17h37.53.774,ANTCPTp,2020.1.2,MacIntel,60,,,,,,,,,,,,,,,,,,,space,1,,,,,,F,0.384,,,,,,,,0,3,3,3,1,,,,,,,,,,
,,,,,,,,,,,space,,1007,2020-05-14_17h37.53.774,ANTCPTp,2020.1.2,MacIntel,60,,,,,,,,,,,,,,,,,,,space,1,,,,,,K,0.552,,,,,,,,0,4,4,6,1,,,,,,,,,,
,,,,,,,,,,,space,,1007,2020-05-14_17h37.53.774,ANTCPTp,2020.1.2,MacIntel,60,,,,,,,,,,,,,,,,,,,space,1,,,,,,E,0.417,,,,,,,,0,5,5,2,1,,,,,,,,,,
,,,,,,,,,,,space,,1007,2020-05-14_17h37.53.774,ANTCPTp,2020.1.2,MacIntel,60,,,,,,,,,,,,,,,,,,,space,1,,,,,,W,0.474,,,,,,,,0,6,6,16,1,,,,,,,,,,
,,,,,,,,,,,space,,1007,2020-05-14_17h37.53.774,ANTCPTp,2020.1.2,MacIntel,60,,,,,,,,,,,,,,,,,,,space,1,,,,,,T,0.44,,,,,,,,0,7,7,14,1,,,,,,,,,,
,,,,,,,,,,,space,,1007,2020-05-14_17h37.53.774,ANTCPTp,2020.1.2,MacIntel,60,,,,,,,,,,,,,,,,,,,space,1,,,,,,G,0.366,,,,,,,,0,8,8,4,1,,,,,,,,,,
,,,,,,,,,,,,,1007,2020-05-14_17h37.53.774,ANTCPTp,2020.1.2,MacIntel,60,,,,,,,,,,,,,,,,,,,,1,,,,,,X,,,,,,,,,0,9,9,20,1,,,,,,,,,,
,,,,,,,,,,,space,,1007,2020-05-14_17h37.53.774,ANTCPTp,2020.1.2,MacIntel,60,,,,,,,,,,,,,,,,,,,space,1,,,,,,L,0.39,,,,,,,,0,10,10,7,1,,,,,,,,,,
,,,,,,,,,,,space,,1007,2020-05-14_17h37.53.774,ANTCPTp,2020.1.2,MacIntel,60,,,,,,,,,,,,,,,,,,,space,1,,,,,,D,0.401,,,,,,,,0,11,11,1,1,,,,,,,,,,
,,,,,,,,,,,space,,1007,2020-05-14_17h37.53.774,ANTCPTp,2020.1.2,MacIntel,60,,,,,,,,,,,,,,,,,,,space,1,,,,,,R,0.381,,,,,,,,0,12,12,12,1,,,,,,,,,,
,,,,,,,,,,,space,,1007,2020-05-14_17h37.53.774,ANTCPTp,2020.1.2,MacIntel,60,,,,,,,,,,,,,,,,,,,space,1,,,,,,U,0.369,,,,,,,,0,13,13,15,1,,,,,,,,,,
,,,,,,,,,,,space,,1007,2020-05-14_17h37.53.774,ANTCPTp,2020.1.2,MacIntel,60,,,,,,,,,,,,,,,,,,,space,1,,,,,,A,0.324,,,,,,,,0,14,14,19,1,,,,,,,,,,
,,,,,,,,,,,space,,1007,2020-05-14_17h37.53.774,ANTCPTp,2020.1.2,MacIntel,60,,,,,,,,,,,,,,,,,,,space,1,,,,,,B,0.398,,,,,,,,0,15,15,0,1,,,,,,,,,,
,,,,,,,,,,,space,,1007,2020-05-14_17h37.53.774,ANTCPTp,2020.1.2,MacIntel,60,,,,,,,,,,,,,,,,,,,space,1,,,,,,N,0.399,,,,,,,,0,16,16,9,1,,,,,,,,,,
,,,,,,,,,,,space,,1007,2020-05-14_17h37.53.774,ANTCPTp,2020.1.2,MacIntel,60,,,,,,,,,,,,,,,,,,,space,1,,,,,,Q,0.435,,,,,,,,0,17,17,11,1,,,,,,,,,,
,,,,,,,,,,,space,,1007,2020-05-14_17h37.53.774,ANTCPTp,2020.1.2,MacIntel,60,,,,,,,,,,,,,,,,,,,space,1,,,,,,H,0.342,,,,,,,,0,18,18,5,1,,,,,,,,,,
,,,,,,,,,,,space,,1007,2020-05-14_17h37.53.774,ANTCPTp,2020.1.2,MacIntel,60,,,,,,,,,,,,,,,,,,,space,1,,,,,,M,0.41,,,,,,,,0,19,19,8,1,,,,,,,,,,
,,,,,,,,,,,space,,1007,2020-05-14_17h37.53.774,ANTCPTp,2020.1.2,MacIntel,60,,,,,,,,,,,,,,,,,,,space,1,,,,,,Z,0.365,,,,,,,,0,20,20,18,1,,,,,,,,,,
,,,,,,,,,,,space,,1007,2020-05-14_17h37.53.774,ANTCPTp,2020.1.2,MacIntel,60,,,,,,,,,,,,,,,,,,,space,1,,,,,,S,0.354,,,,,,,,0,21,21,13,1,,,,,,,,,,
,,,,,,,,,,,space,,1007,2020-05-14_17h37.53.774,ANTCPTp,2020.1.2,MacIntel,60,,,,,,,,,,,,,,,,,,,space,1,,,,,,K,0.791,4,9.367,,,,,,,,,,,0,0,0,10,1,,,,,
,,,,,,,,,,,space,,1007,2020-05-14_17h37.53.774,ANTCPTp,2020.1.2,MacIntel,60,,,,,,,,,,,,,,,,,,,space,1,,,,,,G,0.45,,,,,,,,,,,,,0,1,1,6,1,,,,,
,,,,,,,,,,,space,,1007,2020-05-14_17h37.53.774,ANTCPTp,2020.1.2,MacIntel,60,,,,,,,,,,,,,,,,,,,space,1,,,,,,U,0.393,,,,,,,,,,,,,0,2,2,19,1,,,,,
,,,,,,,,,,,space,,1007,2020-05-14_17h37.53.774,ANTCPTp,2020.1.2,MacIntel,60,,,,,,,,,,,,,,,,,,,space,1,,,,,,H,0.383,,,,,,,,,,,,,0,3,3,7,1,,,,,
,,,,,,,,,,,,,1007,2020-05-14_17h37.53.774,ANTCPTp,2020.1.2,MacIntel,60,,,,,,,,,,,,,,,,,,,space,0,,,,,,X,0.349,,,,,,,,,,,,,0,4,4,25,1,,,,,
,,,,,,,,,,,,,1007,2020-05-14_17h37.53.774,ANTCPTp,2020.1.2,MacIntel,60,,,,,,,,,,,,,,,,,,,,1,,,,,,X,,,,,,,,,,,,,,0,5,5,26,1,,,,,
,,,,,,,,,,,space,,1007,2020-05-14_17h37.53.774,ANTCPTp,2020.1.2,MacIntel,60,,,,,,,,,,,,,,,,,,,space,1,,,,,,R,0.407,,,,,,,,,,,,,0,6,6,17,1,,,,,
,,,,,,,,,,,space,,1007,2020-05-14_17h37.53.774,ANTCPTp,2020.1.2,MacIntel,60,,,,,,,,,,,,,,,,,,,space,1,,,,,,W,0.423,,,,,,,,,,,,,0,7,7,21,1,,,,,
,,,,,,,,,,,space,,1007,2020-05-14_17h37.53.774,ANTCPTp,2020.1.2,MacIntel,60,,,,,,,,,,,,,,,,,,,space,1,,,,,,Y,0.333,,,,,,,,,,,,,0,8,8,22,1,,,,,
,,,,,,,,,,,space,,1007,2020-05-14_17h37.53.774,ANTCPTp,2020.1.2,MacIntel,60,,,,,,,,,,,,,,,,,,,space,1,,,,,,Q,0.4,,,,,,,,,,,,,0,9,9,16,1,,,,,
,,,,,,,,,,,space,,1007,2020-05-14_17h37.53.774,ANTCPTp,2020.1.2,MacIntel,60,,,,,,,,,,,,,,,,,,,space,1,,,,,,E,0.414,,,,,,,,,,,,,0,10,10,4,1,,,,,
,,,,,,,,,,,space,,1007,2020-05-14_17h37.53.774,ANTCPTp,2020.1.2,MacIntel,60,,,,,,,,,,,,,,,,,,,space,1,,,,,,V,0.366,,,,,,,,,,,,,0,11,11,20,1,,,,,
,,,,,,,,,,,space,,1007,2020-05-14_17h37.53.774,ANTCPTp,2020.1.2,MacIntel,60,,,,,,,,,,,,,,,,,,,space,1,,,,,,B,0.358,,,,,,,,,,,,,0,12,12,1,1,,,,,
,,,,,,,,,,,space,,1007,2020-05-14_17h37.53.774,ANTCPTp,2020.1.2,MacIntel,60,,,,,,,,,,,,,,,,,,,space,1,,,,,,J,0.38,,,,,,,,,,,,,0,13,13,9,1,,,,,
,,,,,,,,,,,space,,1007,2020-05-14_17h37.53.774,ANTCPTp,2020.1.2,MacIntel,60,,,,,,,,,,,,,,,,,,,space,1,,,,,,P,0.38,,,,,,,,,,,,,0,14,14,15,1,,,,,
,,,,,,,,,,,space,,1007,2020-05-14_17h37.53.774,ANTCPTp,2020.1.2,MacIntel,60,,,,,,,,,,,,,,,,,,,space,1,,,,,,A,0.374,,,,,,,,,,,,,0,15,15,0,1,,,,,
,,,,,,,,,,,space,,1007,2020-05-14_17h37.53.774,ANTCPTp,2020.1.2,MacIntel,60,,,,,,,,,,,,,,,,,,,space,1,,,,,,L,0.408,,,,,,,,,,,,,0,16,16,11,1,,,,,
,,,,,,,,,,,space,,1007,2020-05-14_17h37.53.774,ANTCPTp,2020.1.2,MacIntel,60,,,,,,,,,,,,,,,,,,,space,1,,,,,,D,0.386,,,,,,,,,,,,,0,17,17,3,1,,,,,
,,,,,,,,,,,space,,1007,2020-05-14_17h37.53.774,ANTCPTp,2020.1.2,MacIntel,60,,,,,,,,,,,,,,,,,,,space,1,,,,,,M,0.398,,,,,,,,,,,,,0,18,18,12,1,,,,,
,,,,,,,,,,,space,,1007,2020-05-14_17h37.53.774,ANTCPTp,2020.1.2,MacIntel,60,,,,,,,,,,,,,,,,,,,space,1,,,,,,S,0.38,,,,,,,,,,,,,0,19,19,18,1,,,,,
,,,,,,,,,,,,,1007,2020-05-14_17h37.53.774,ANTCPTp,2020.1.2,MacIntel,60,,,,,,,,,,,,,,,,,,,,1,,,,,,X,,,,,,,,,,,,,,0,20,20,24,1,,,,,
,,,,,,,,,,,space,,1007,2020-05-14_17h37.53.774,ANTCPTp,2020.1.2,MacIntel,60,,,,,,,,,,,,,,,,,,,space,1,,,,,,O,0.374,,,,,,,,,,,,,0,21,21,14,1,,,,,
,,,,,,,,,,,space,,1007,2020-05-14_17h37.53.774,ANTCPTp,2020.1.2,MacIntel,60,,,,,,,,,,,,,,,,,,,space,1,,,,,,I,0.476,,,,,,,,,,,,,0,22,22,8,1,,,,,
,,,,,,,,,,,space,,1007,2020-05-14_17h37.53.774,ANTCPTp,2020.1.2,MacIntel,60,,,,,,,,,,,,,,,,,,,space,1,,,,,,N,0.371,,,,,,,,,,,,,0,23,23,13,1,,,,,
,,,,,,,,,,,space,,1007,2020-05-14_17h37.53.774,ANTCPTp,2020.1.2,MacIntel,60,,,,,,,,,,,,,,,,,,,space,1,,,,,,C,0.382,,,,,,,,,,,,,0,24,24,2,1,,,,,
,,,,,,,,,,,space,,1007,2020-05-14_17h37.53.774,ANTCPTp,2020.1.2,MacIntel,60,,,,,,,,,,,,,,,,,,,space,1,,,,,,Z,0.416,,,,,,,,,,,,,0,25,25,23,1,,,,,
,,,,,,,,,,,space,,1007,2020-05-14_17h37.53.774,ANTCPTp,2020.1.2,MacIntel,60,,,,,,,,,,,,,,,,,,,space,1,,,,,,F,0.425,,,,,,,,,,,,,0,26,26,5,1,,,,,
,,,,,,,,,,,,,1007,2020-05-14_17h37.53.774,ANTCPTp,2020.1.2,MacIntel,60,,,,,,,,,,,,,,,,,,,,,,,,,,,,5,8,,,,,,,,,,,,,,,,2,0,2,0,1
