fixDuration,resp.keys,resp.corr,resp.rt,pracLoop.thisRepN,pracLoop.thisTrialN,pracLoop.thisN,pracLoop.thisIndex,pracLoop.ran,cue,tar,corrAns,targOrientation,Please enter your Participant ID,date,expName,psychopyVersion,OS,frameRate,instResp.keys,instResp.rt,mainLoop.thisRepN,mainLoop.thisTrialN,mainLoop.thisN,mainLoop.thisIndex,mainLoop.ran,blockLoop.thisRepN,blockLoop.thisTrialN,blockLoop.thisN,blockLoop.thisIndex,blockLoop.ran,key_resp.keys,key_resp.rt,probe_response3.keys,probe_response3.rt,getready_resp.keys,getready_resp.rt,response.keys,response.corr,response.rt,trials.thisRepN,trials.thisTrialN,trials.thisN,trials.thisIndex,trials.ran,letter,probe_response.keys,probe_response.rt,trials_2.thisRepN,trials_2.thisTrialN,trials_2.thisN,trials_2.thisIndex,trials_2.ran,trials_3.thisRepN,trials_3.thisTrialN,trials_3.thisN,trials_3.thisIndex,trials_3.ran,trials_4.thisRepN,trials_4.thisTrialN,trials_4.thisN,trials_4.thisIndex,trials_4.ran,trials_5.thisRepN,trials_5.thisTrialN,trials_5.thisN,trials_5.thisIndex,trials_5.ran
1.2,right,1,0.888,0,0,0,10,1,stim/centre.png,stim/congRight.png,right,0,1001,2020-05-06_12h16.21.161,ANTCPTp,2020.1.2,MacIntel,60,,,,,,,,,,,,,,,,,,,,,,,,,,,,,,,,,,,,,,,,,,,,,,,,,
1.5,right,1,0.907,0,1,1,23,1,stim/blank.png,stim/incongLeft.png,right,180,1001,2020-05-06_12h16.21.161,ANTCPTp,2020.1.2,MacIntel,60,,,,,,,,,,,,,,,,,,,,,,,,,,,,,,,,,,,,,,,,,,,,,,,,,
0.6,right,1,0.732,0,2,2,22,1,stim/centre.png,stim/incongLeft.png,right,180,1001,2020-05-06_12h16.21.161,ANTCPTp,2020.1.2,MacIntel,60,,,,,,,,,,,,,,,,,,,,,,,,,,,,,,,,,,,,,,,,,,,,,,,,,
0.8,left,1,0.892,0,3,3,16,1,stim/upper.png,stim/incongLeft.png,left,0,1001,2020-05-06_12h16.21.161,ANTCPTp,2020.1.2,MacIntel,60,,,,,,,,,,,,,,,,,,,,,,,,,,,,,,,,,,,,,,,,,,,,,,,,,
0.6,right,1,0.619,0,4,4,20,1,stim/lower.png,stim/incongLeft.png,right,180,1001,2020-05-06_12h16.21.161,ANTCPTp,2020.1.2,MacIntel,60,,,,,,,,,,,,,,,,,,,,,,,,,,,,,,,,,,,,,,,,,,,,,,,,,
1.3,left,1,0.644,0,5,5,15,1,stim/blank.png,stim/congRight.png,left,180,1001,2020-05-06_12h16.21.161,ANTCPTp,2020.1.2,MacIntel,60,,,,,,,,,,,,,,,,,,,,,,,,,,,,,,,,,,,,,,,,,,,,,,,,,
0.7,right,0,0.487,0,6,6,19,1,stim/blank.png,stim/incongLeft.png,left,0,1001,2020-05-06_12h16.21.161,ANTCPTp,2020.1.2,MacIntel,60,,,,,,,,,,,,,,,,,,,,,,,,,,,,,,,,,,,,,,,,,,,,,,,,,
0.65,left,1,0.687,0,7,7,18,1,stim/centre.png,stim/incongLeft.png,left,0,1001,2020-05-06_12h16.21.161,ANTCPTp,2020.1.2,MacIntel,60,,,,,,,,,,,,,,,,,,,,,,,,,,,,,,,,,,,,,,,,,,,,,,,,,
1.3,right,1,0.574,0,8,8,6,1,stim/centre.png,stim/congLeft.png,right,180,1001,2020-05-06_12h16.21.161,ANTCPTp,2020.1.2,MacIntel,60,,,,,,,,,,,,,,,,,,,,,,,,,,,,,,,,,,,,,,,,,,,,,,,,,
0.85,right,1,0.659,0,9,9,11,1,stim/blank.png,stim/congRight.png,right,0,1001,2020-05-06_12h16.21.161,ANTCPTp,2020.1.2,MacIntel,60,,,,,,,,,,,,,,,,,,,,,,,,,,,,,,,,,,,,,,,,,,,,,,,,,
0.95,right,1,0.7,0,10,10,9,1,stim/both.png,stim/congRight.png,right,0,1001,2020-05-06_12h16.21.161,ANTCPTp,2020.1.2,MacIntel,60,,,,,,,,,,,,,,,,,,,,,,,,,,,,,,,,,,,,,,,,,,,,,,,,,
1.15,right,1,0.678,0,11,11,7,1,stim/blank.png,stim/congLeft.png,right,180,1001,2020-05-06_12h16.21.161,ANTCPTp,2020.1.2,MacIntel,60,,,,,,,,,,,,,,,,,,,,,,,,,,,,,,,,,,,,,,,,,,,,,,,,,
1.5,right,1,0.716,0,12,12,21,1,stim/both.png,stim/incongLeft.png,right,180,1001,2020-05-06_12h16.21.161,ANTCPTp,2020.1.2,MacIntel,60,,,,,,,,,,,,,,,,,,,,,,,,,,,,,,,,,,,,,,,,,,,,,,,,,
1.45,left,1,0.502,0,13,13,1,1,stim/both.png,stim/congLeft.png,left,0,1001,2020-05-06_12h16.21.161,ANTCPTp,2020.1.2,MacIntel,60,,,,,,,,,,,,,,,,,,,,,,,,,,,,,,,,,,,,,,,,,,,,,,,,,
0.95,left,1,0.87,0,14,14,3,1,stim/blank.png,stim/congLeft.png,left,0,1001,2020-05-06_12h16.21.161,ANTCPTp,2020.1.2,MacIntel,60,,,,,,,,,,,,,,,,,,,,,,,,,,,,,,,,,,,,,,,,,,,,,,,,,
1,left,1,0.469,0,15,15,14,1,stim/centre.png,stim/congRight.png,left,180,1001,2020-05-06_12h16.21.161,ANTCPTp,2020.1.2,MacIntel,60,,,,,,,,,,,,,,,,,,,,,,,,,,,,,,,,,,,,,,,,,,,,,,,,,
0.55,left,1,0.543,0,16,16,13,1,stim/both.png,stim/congRight.png,left,180,1001,2020-05-06_12h16.21.161,ANTCPTp,2020.1.2,MacIntel,60,,,,,,,,,,,,,,,,,,,,,,,,,,,,,,,,,,,,,,,,,,,,,,,,,
1.05,left,1,0.499,0,17,17,0,1,stim/upper.png,stim/congLeft.png,left,0,1001,2020-05-06_12h16.21.161,ANTCPTp,2020.1.2,MacIntel,60,,,,,,,,,,,,,,,,,,,,,,,,,,,,,,,,,,,,,,,,,,,,,,,,,
0.7,right,1,0.45,0,18,18,4,1,stim/lower.png,stim/congLeft.png,right,180,1001,2020-05-06_12h16.21.161,ANTCPTp,2020.1.2,MacIntel,60,,,,,,,,,,,,,,,,,,,,,,,,,,,,,,,,,,,,,,,,,,,,,,,,,
1.5,left,1,0.483,0,19,19,2,1,stim/centre.png,stim/congLeft.png,left,0,1001,2020-05-06_12h16.21.161,ANTCPTp,2020.1.2,MacIntel,60,,,,,,,,,,,,,,,,,,,,,,,,,,,,,,,,,,,,,,,,,,,,,,,,,
0.45,right,1,0.492,0,20,20,8,1,stim/upper.png,stim/congRight.png,right,0,1001,2020-05-06_12h16.21.161,ANTCPTp,2020.1.2,MacIntel,60,,,,,,,,,,,,,,,,,,,,,,,,,,,,,,,,,,,,,,,,,,,,,,,,,
1,right,1,0.425,0,21,21,5,1,stim/both.png,stim/congLeft.png,right,180,1001,2020-05-06_12h16.21.161,ANTCPTp,2020.1.2,MacIntel,60,,,,,,,,,,,,,,,,,,,,,,,,,,,,,,,,,,,,,,,,,,,,,,,,,
1,right,0,0.49,0,22,22,17,1,stim/both.png,stim/incongLeft.png,left,0,1001,2020-05-06_12h16.21.161,ANTCPTp,2020.1.2,MacIntel,60,,,,,,,,,,,,,,,,,,,,,,,,,,,,,,,,,,,,,,,,,,,,,,,,,
0.45,left,1,0.506,0,23,23,12,1,stim/lower.png,stim/congRight.png,left,180,1001,2020-05-06_12h16.21.161,ANTCPTp,2020.1.2,MacIntel,60,,,,,,,,,,,,,,,,,,,,,,,,,,,,,,,,,,,,,,,,,,,,,,,,,
1.05,right,1,0.55,,,,,,stim/blank.png,stim/neutralLeft.png,right,180,1001,2020-05-06_12h16.21.161,ANTCPTp,2020.1.2,MacIntel,60,space,10.171,0,0,0,39,1,,,,,,,,,,,,,,,,,,,,,,,,,,,,,,,,,,,,,,,,,,
1.25,right,1,0.682,,,,,,stim/blank.png,stim/incongRight.png,right,0,1001,2020-05-06_12h16.21.161,ANTCPTp,2020.1.2,MacIntel,60,,,0,1,1,27,1,,,,,,,,,,,,,,,,,,,,,,,,,,,,,,,,,,,,,,,,,,
1.2,right,0,0.542,,,,,,stim/centre.png,stim/incongRight.png,left,180,1001,2020-05-06_12h16.21.161,ANTCPTp,2020.1.2,MacIntel,60,,,0,2,2,30,1,,,,,,,,,,,,,,,,,,,,,,,,,,,,,,,,,,,,,,,,,,
1.55,left,1,0.542,,,,,,stim/both.png,stim/neutralLeft.png,left,0,1001,2020-05-06_12h16.21.161,ANTCPTp,2020.1.2,MacIntel,60,,,0,3,3,33,1,,,,,,,,,,,,,,,,,,,,,,,,,,,,,,,,,,,,,,,,,,
0.75,left,1,0.589,,,,,,stim/both.png,stim/incongLeft.png,left,0,1001,2020-05-06_12h16.21.161,ANTCPTp,2020.1.2,MacIntel,60,,,0,4,4,17,1,,,,,,,,,,,,,,,,,,,,,,,,,,,,,,,,,,,,,,,,,,
1.35,left,1,0.624,,,,,,stim/lower.png,stim/congRight.png,left,180,1001,2020-05-06_12h16.21.161,ANTCPTp,2020.1.2,MacIntel,60,,,0,5,5,12,1,,,,,,,,,,,,,,,,,,,,,,,,,,,,,,,,,,,,,,,,,,
0.9,left,1,0.492,,,,,,stim/centre.png,stim/neutralRight.png,left,180,1001,2020-05-06_12h16.21.161,ANTCPTp,2020.1.2,MacIntel,60,,,0,6,6,46,1,,,,,,,,,,,,,,,,,,,,,,,,,,,,,,,,,,,,,,,,,,
0.9,right,1,0.652,,,,,,stim/centre.png,stim/incongRight.png,right,0,1001,2020-05-06_12h16.21.161,ANTCPTp,2020.1.2,MacIntel,60,,,0,7,7,26,1,,,,,,,,,,,,,,,,,,,,,,,,,,,,,,,,,,,,,,,,,,
1.25,left,1,0.542,,,,,,stim/centre.png,stim/congRight.png,left,180,1001,2020-05-06_12h16.21.161,ANTCPTp,2020.1.2,MacIntel,60,,,0,8,8,14,1,,,,,,,,,,,,,,,,,,,,,,,,,,,,,,,,,,,,,,,,,,
0.55,left,1,0.516,,,,,,stim/blank.png,stim/neutralLeft.png,left,0,1001,2020-05-06_12h16.21.161,ANTCPTp,2020.1.2,MacIntel,60,,,0,9,9,35,1,,,,,,,,,,,,,,,,,,,,,,,,,,,,,,,,,,,,,,,,,,
1.15,left,1,0.54,,,,,,stim/upper.png,stim/neutralLeft.png,left,0,1001,2020-05-06_12h16.21.161,ANTCPTp,2020.1.2,MacIntel,60,,,0,10,10,32,1,,,,,,,,,,,,,,,,,,,,,,,,,,,,,,,,,,,,,,,,,,
1.35,right,0,0.466,,,,,,stim/both.png,stim/incongRight.png,left,180,1001,2020-05-06_12h16.21.161,ANTCPTp,2020.1.2,MacIntel,60,,,0,11,11,29,1,,,,,,,,,,,,,,,,,,,,,,,,,,,,,,,,,,,,,,,,,,
1.15,left,1,0.594,,,,,,stim/both.png,stim/congLeft.png,left,0,1001,2020-05-06_12h16.21.161,ANTCPTp,2020.1.2,MacIntel,60,,,0,12,12,1,1,,,,,,,,,,,,,,,,,,,,,,,,,,,,,,,,,,,,,,,,,,
0.4,right,1,0.719,,,,,,stim/lower.png,stim/congLeft.png,right,180,1001,2020-05-06_12h16.21.161,ANTCPTp,2020.1.2,MacIntel,60,,,0,13,13,4,1,,,,,,,,,,,,,,,,,,,,,,,,,,,,,,,,,,,,,,,,,,
0.55,left,1,0.623,,,,,,stim/blank.png,stim/neutralRight.png,left,180,1001,2020-05-06_12h16.21.161,ANTCPTp,2020.1.2,MacIntel,60,,,0,14,14,47,1,,,,,,,,,,,,,,,,,,,,,,,,,,,,,,,,,,,,,,,,,,
1.05,left,1,0.585,,,,,,stim/centre.png,stim/neutralLeft.png,left,0,1001,2020-05-06_12h16.21.161,ANTCPTp,2020.1.2,MacIntel,60,,,0,15,15,34,1,,,,,,,,,,,,,,,,,,,,,,,,,,,,,,,,,,,,,,,,,,
1.25,left,1,0.591,,,,,,stim/blank.png,stim/incongRight.png,left,180,1001,2020-05-06_12h16.21.161,ANTCPTp,2020.1.2,MacIntel,60,,,0,16,16,31,1,,,,,,,,,,,,,,,,,,,,,,,,,,,,,,,,,,,,,,,,,,
0.85,left,1,1.205,,,,,,stim/centre.png,stim/congLeft.png,left,0,1001,2020-05-06_12h16.21.161,ANTCPTp,2020.1.2,MacIntel,60,,,0,17,17,2,1,,,,,,,,,,,,,,,,,,,,,,,,,,,,,,,,,,,,,,,,,,
0.55,right,1,0.591,,,,,,stim/centre.png,stim/congLeft.png,right,180,1001,2020-05-06_12h16.21.161,ANTCPTp,2020.1.2,MacIntel,60,,,0,18,18,6,1,,,,,,,,,,,,,,,,,,,,,,,,,,,,,,,,,,,,,,,,,,
0.6,right,1,0.588,,,,,,stim/both.png,stim/neutralRight.png,right,0,1001,2020-05-06_12h16.21.161,ANTCPTp,2020.1.2,MacIntel,60,,,0,19,19,41,1,,,,,,,,,,,,,,,,,,,,,,,,,,,,,,,,,,,,,,,,,,
0.6,right,1,0.452,,,,,,stim/upper.png,stim/neutralRight.png,right,0,1001,2020-05-06_12h16.21.161,ANTCPTp,2020.1.2,MacIntel,60,,,0,20,20,40,1,,,,,,,,,,,,,,,,,,,,,,,,,,,,,,,,,,,,,,,,,,
0.8,right,1,0.593,,,,,,stim/both.png,stim/incongRight.png,right,0,1001,2020-05-06_12h16.21.161,ANTCPTp,2020.1.2,MacIntel,60,,,0,21,21,25,1,,,,,,,,,,,,,,,,,,,,,,,,,,,,,,,,,,,,,,,,,,
1.3,left,1,0.569,,,,,,stim/upper.png,stim/incongLeft.png,left,0,1001,2020-05-06_12h16.21.161,ANTCPTp,2020.1.2,MacIntel,60,,,0,22,22,16,1,,,,,,,,,,,,,,,,,,,,,,,,,,,,,,,,,,,,,,,,,,
0.75,right,1,0.659,,,,,,stim/lower.png,stim/neutralLeft.png,right,180,1001,2020-05-06_12h16.21.161,ANTCPTp,2020.1.2,MacIntel,60,,,0,23,23,36,1,,,,,,,,,,,,,,,,,,,,,,,,,,,,,,,,,,,,,,,,,,
1.25,left,1,0.481,,,,,,stim/both.png,stim/neutralRight.png,left,180,1001,2020-05-06_12h16.21.161,ANTCPTp,2020.1.2,MacIntel,60,,,0,24,24,45,1,,,,,,,,,,,,,,,,,,,,,,,,,,,,,,,,,,,,,,,,,,
1.3,right,1,0.432,,,,,,stim/blank.png,stim/congRight.png,right,0,1001,2020-05-06_12h16.21.161,ANTCPTp,2020.1.2,MacIntel,60,,,0,25,25,11,1,,,,,,,,,,,,,,,,,,,,,,,,,,,,,,,,,,,,,,,,,,
0.95,right,1,0.608,,,,,,stim/centre.png,stim/incongLeft.png,right,180,1001,2020-05-06_12h16.21.161,ANTCPTp,2020.1.2,MacIntel,60,,,0,26,26,22,1,,,,,,,,,,,,,,,,,,,,,,,,,,,,,,,,,,,,,,,,,,
0.65,left,1,0.599,,,,,,stim/lower.png,stim/neutralRight.png,left,180,1001,2020-05-06_12h16.21.161,ANTCPTp,2020.1.2,MacIntel,60,,,0,27,27,44,1,,,,,,,,,,,,,,,,,,,,,,,,,,,,,,,,,,,,,,,,,,
1.1,right,1,0.482,,,,,,stim/upper.png,stim/congRight.png,right,0,1001,2020-05-06_12h16.21.161,ANTCPTp,2020.1.2,MacIntel,60,,,0,28,28,8,1,,,,,,,,,,,,,,,,,,,,,,,,,,,,,,,,,,,,,,,,,,
1.3,left,1,0.457,,,,,,stim/blank.png,stim/congLeft.png,left,0,1001,2020-05-06_12h16.21.161,ANTCPTp,2020.1.2,MacIntel,60,,,0,29,29,3,1,,,,,,,,,,,,,,,,,,,,,,,,,,,,,,,,,,,,,,,,,,
0.85,right,1,0.533,,,,,,stim/upper.png,stim/incongRight.png,right,0,1001,2020-05-06_12h16.21.161,ANTCPTp,2020.1.2,MacIntel,60,,,0,30,30,24,1,,,,,,,,,,,,,,,,,,,,,,,,,,,,,,,,,,,,,,,,,,
1.4,right,1,0.619,,,,,,stim/both.png,stim/neutralLeft.png,right,180,1001,2020-05-06_12h16.21.161,ANTCPTp,2020.1.2,MacIntel,60,,,0,31,31,37,1,,,,,,,,,,,,,,,,,,,,,,,,,,,,,,,,,,,,,,,,,,
0.45,left,1,0.552,,,,,,stim/upper.png,stim/congLeft.png,left,0,1001,2020-05-06_12h16.21.161,ANTCPTp,2020.1.2,MacIntel,60,,,0,32,32,0,1,,,,,,,,,,,,,,,,,,,,,,,,,,,,,,,,,,,,,,,,,,
1.25,right,1,0.541,,,,,,stim/lower.png,stim/incongLeft.png,right,180,1001,2020-05-06_12h16.21.161,ANTCPTp,2020.1.2,MacIntel,60,,,0,33,33,20,1,,,,,,,,,,,,,,,,,,,,,,,,,,,,,,,,,,,,,,,,,,
0.65,right,0,0.449,,,,,,stim/lower.png,stim/incongRight.png,left,180,1001,2020-05-06_12h16.21.161,ANTCPTp,2020.1.2,MacIntel,60,,,0,34,34,28,1,,,,,,,,,,,,,,,,,,,,,,,,,,,,,,,,,,,,,,,,,,
0.85,left,1,0.504,,,,,,stim/both.png,stim/congRight.png,left,180,1001,2020-05-06_12h16.21.161,ANTCPTp,2020.1.2,MacIntel,60,,,0,35,35,13,1,,,,,,,,,,,,,,,,,,,,,,,,,,,,,,,,,,,,,,,,,,
0.4,right,1,0.475,,,,,,stim/both.png,stim/congLeft.png,right,180,1001,2020-05-06_12h16.21.161,ANTCPTp,2020.1.2,MacIntel,60,,,0,36,36,5,1,,,,,,,,,,,,,,,,,,,,,,,,,,,,,,,,,,,,,,,,,,
0.85,right,1,0.643,,,,,,stim/blank.png,stim/incongLeft.png,right,180,1001,2020-05-06_12h16.21.161,ANTCPTp,2020.1.2,MacIntel,60,,,0,37,37,23,1,,,,,,,,,,,,,,,,,,,,,,,,,,,,,,,,,,,,,,,,,,
1.2,left,1,0.691,,,,,,stim/centre.png,stim/incongLeft.png,left,0,1001,2020-05-06_12h16.21.161,ANTCPTp,2020.1.2,MacIntel,60,,,0,38,38,18,1,,,,,,,,,,,,,,,,,,,,,,,,,,,,,,,,,,,,,,,,,,
0.6,right,1,0.61,,,,,,stim/centre.png,stim/congRight.png,right,0,1001,2020-05-06_12h16.21.161,ANTCPTp,2020.1.2,MacIntel,60,,,0,39,39,10,1,,,,,,,,,,,,,,,,,,,,,,,,,,,,,,,,,,,,,,,,,,
1,right,1,0.653,,,,,,stim/both.png,stim/incongLeft.png,right,180,1001,2020-05-06_12h16.21.161,ANTCPTp,2020.1.2,MacIntel,60,,,0,40,40,21,1,,,,,,,,,,,,,,,,,,,,,,,,,,,,,,,,,,,,,,,,,,
1.15,right,1,0.581,,,,,,stim/blank.png,stim/congLeft.png,right,180,1001,2020-05-06_12h16.21.161,ANTCPTp,2020.1.2,MacIntel,60,,,0,41,41,7,1,,,,,,,,,,,,,,,,,,,,,,,,,,,,,,,,,,,,,,,,,,
1.3,right,1,0.433,,,,,,stim/centre.png,stim/neutralLeft.png,right,180,1001,2020-05-06_12h16.21.161,ANTCPTp,2020.1.2,MacIntel,60,,,0,42,42,38,1,,,,,,,,,,,,,,,,,,,,,,,,,,,,,,,,,,,,,,,,,,
0.55,right,1,0.66,,,,,,stim/blank.png,stim/neutralRight.png,right,0,1001,2020-05-06_12h16.21.161,ANTCPTp,2020.1.2,MacIntel,60,,,0,43,43,43,1,,,,,,,,,,,,,,,,,,,,,,,,,,,,,,,,,,,,,,,,,,
1.35,right,1,0.516,,,,,,stim/centre.png,stim/neutralRight.png,right,0,1001,2020-05-06_12h16.21.161,ANTCPTp,2020.1.2,MacIntel,60,,,0,44,44,42,1,,,,,,,,,,,,,,,,,,,,,,,,,,,,,,,,,,,,,,,,,,
1.35,right,1,0.449,,,,,,stim/both.png,stim/congRight.png,right,0,1001,2020-05-06_12h16.21.161,ANTCPTp,2020.1.2,MacIntel,60,,,0,45,45,9,1,,,,,,,,,,,,,,,,,,,,,,,,,,,,,,,,,,,,,,,,,,
1.25,left,1,0.493,,,,,,stim/blank.png,stim/congRight.png,left,180,1001,2020-05-06_12h16.21.161,ANTCPTp,2020.1.2,MacIntel,60,,,0,46,46,15,1,,,,,,,,,,,,,,,,,,,,,,,,,,,,,,,,,,,,,,,,,,
0.8,left,1,0.672,,,,,,stim/blank.png,stim/incongLeft.png,left,0,1001,2020-05-06_12h16.21.161,ANTCPTp,2020.1.2,MacIntel,60,,,0,47,47,19,1,,,,,,,,,,,,,,,,,,,,,,,,,,,,,,,,,,,,,,,,,,
0.8,right,1,0.502,,,,,,stim/both.png,stim/congRight.png,right,0,1001,2020-05-06_12h16.21.161,ANTCPTp,2020.1.2,MacIntel,60,,,1,0,48,9,1,,,,,,,,,,,,,,,,,,,,,,,,,,,,,,,,,,,,,,,,,,
0.7,right,1,0.634,,,,,,stim/lower.png,stim/congLeft.png,right,180,1001,2020-05-06_12h16.21.161,ANTCPTp,2020.1.2,MacIntel,60,,,1,1,49,4,1,,,,,,,,,,,,,,,,,,,,,,,,,,,,,,,,,,,,,,,,,,
1.25,right,1,0.569,,,,,,stim/blank.png,stim/congRight.png,right,0,1001,2020-05-06_12h16.21.161,ANTCPTp,2020.1.2,MacIntel,60,,,1,2,50,11,1,,,,,,,,,,,,,,,,,,,,,,,,,,,,,,,,,,,,,,,,,,
0.95,left,1,0.462,,,,,,stim/lower.png,stim/neutralRight.png,left,180,1001,2020-05-06_12h16.21.161,ANTCPTp,2020.1.2,MacIntel,60,,,1,3,51,44,1,,,,,,,,,,,,,,,,,,,,,,,,,,,,,,,,,,,,,,,,,,
0.75,left,1,0.434,,,,,,stim/centre.png,stim/congLeft.png,left,0,1001,2020-05-06_12h16.21.161,ANTCPTp,2020.1.2,MacIntel,60,,,1,4,52,2,1,,,,,,,,,,,,,,,,,,,,,,,,,,,,,,,,,,,,,,,,,,
0.95,right,1,0.425,,,,,,stim/both.png,stim/neutralLeft.png,right,180,1001,2020-05-06_12h16.21.161,ANTCPTp,2020.1.2,MacIntel,60,,,1,5,53,37,1,,,,,,,,,,,,,,,,,,,,,,,,,,,,,,,,,,,,,,,,,,
1.45,right,1,0.621,,,,,,stim/upper.png,stim/congRight.png,right,0,1001,2020-05-06_12h16.21.161,ANTCPTp,2020.1.2,MacIntel,60,,,1,6,54,8,1,,,,,,,,,,,,,,,,,,,,,,,,,,,,,,,,,,,,,,,,,,
0.65,right,1,0.418,,,,,,stim/both.png,stim/neutralRight.png,right,0,1001,2020-05-06_12h16.21.161,ANTCPTp,2020.1.2,MacIntel,60,,,1,7,55,41,1,,,,,,,,,,,,,,,,,,,,,,,,,,,,,,,,,,,,,,,,,,
0.4,right,1,0.612,,,,,,stim/both.png,stim/incongRight.png,right,0,1001,2020-05-06_12h16.21.161,ANTCPTp,2020.1.2,MacIntel,60,,,1,8,56,25,1,,,,,,,,,,,,,,,,,,,,,,,,,,,,,,,,,,,,,,,,,,
1,left,1,0.439,,,,,,stim/centre.png,stim/congRight.png,left,180,1001,2020-05-06_12h16.21.161,ANTCPTp,2020.1.2,MacIntel,60,,,1,9,57,14,1,,,,,,,,,,,,,,,,,,,,,,,,,,,,,,,,,,,,,,,,,,
1.1,left,1,0.542,,,,,,stim/blank.png,stim/congLeft.png,left,0,1001,2020-05-06_12h16.21.161,ANTCPTp,2020.1.2,MacIntel,60,,,1,10,58,3,1,,,,,,,,,,,,,,,,,,,,,,,,,,,,,,,,,,,,,,,,,,
1.2,right,1,0.463,,,,,,stim/blank.png,stim/congLeft.png,right,180,1001,2020-05-06_12h16.21.161,ANTCPTp,2020.1.2,MacIntel,60,,,1,11,59,7,1,,,,,,,,,,,,,,,,,,,,,,,,,,,,,,,,,,,,,,,,,,
0.4,left,1,0.676,,,,,,stim/both.png,stim/neutralLeft.png,left,0,1001,2020-05-06_12h16.21.161,ANTCPTp,2020.1.2,MacIntel,60,,,1,12,60,33,1,,,,,,,,,,,,,,,,,,,,,,,,,,,,,,,,,,,,,,,,,,
1.5,right,0,0.408,,,,,,stim/blank.png,stim/incongLeft.png,left,0,1001,2020-05-06_12h16.21.161,ANTCPTp,2020.1.2,MacIntel,60,,,1,13,61,19,1,,,,,,,,,,,,,,,,,,,,,,,,,,,,,,,,,,,,,,,,,,
1.55,right,1,0.501,,,,,,stim/centre.png,stim/congRight.png,right,0,1001,2020-05-06_12h16.21.161,ANTCPTp,2020.1.2,MacIntel,60,,,1,14,62,10,1,,,,,,,,,,,,,,,,,,,,,,,,,,,,,,,,,,,,,,,,,,
1.05,right,1,0.411,,,,,,stim/centre.png,stim/neutralRight.png,right,0,1001,2020-05-06_12h16.21.161,ANTCPTp,2020.1.2,MacIntel,60,,,1,15,63,42,1,,,,,,,,,,,,,,,,,,,,,,,,,,,,,,,,,,,,,,,,,,
1.25,left,1,0.692,,,,,,stim/blank.png,stim/incongRight.png,left,180,1001,2020-05-06_12h16.21.161,ANTCPTp,2020.1.2,MacIntel,60,,,1,16,64,31,1,,,,,,,,,,,,,,,,,,,,,,,,,,,,,,,,,,,,,,,,,,
0.65,right,1,0.656,,,,,,stim/centre.png,stim/neutralLeft.png,right,180,1001,2020-05-06_12h16.21.161,ANTCPTp,2020.1.2,MacIntel,60,,,1,17,65,38,1,,,,,,,,,,,,,,,,,,,,,,,,,,,,,,,,,,,,,,,,,,
0.75,left,1,0.577,,,,,,stim/centre.png,stim/incongLeft.png,left,0,1001,2020-05-06_12h16.21.161,ANTCPTp,2020.1.2,MacIntel,60,,,1,18,66,18,1,,,,,,,,,,,,,,,,,,,,,,,,,,,,,,,,,,,,,,,,,,
0.8,right,0,0.4,,,,,,stim/lower.png,stim/incongRight.png,left,180,1001,2020-05-06_12h16.21.161,ANTCPTp,2020.1.2,MacIntel,60,,,1,19,67,28,1,,,,,,,,,,,,,,,,,,,,,,,,,,,,,,,,,,,,,,,,,,
0.9,left,1,0.517,,,,,,stim/centre.png,stim/neutralRight.png,left,180,1001,2020-05-06_12h16.21.161,ANTCPTp,2020.1.2,MacIntel,60,,,1,20,68,46,1,,,,,,,,,,,,,,,,,,,,,,,,,,,,,,,,,,,,,,,,,,
0.9,right,1,0.516,,,,,,stim/blank.png,stim/neutralLeft.png,right,180,1001,2020-05-06_12h16.21.161,ANTCPTp,2020.1.2,MacIntel,60,,,1,21,69,39,1,,,,,,,,,,,,,,,,,,,,,,,,,,,,,,,,,,,,,,,,,,
1.05,left,1,0.444,,,,,,stim/both.png,stim/congLeft.png,left,0,1001,2020-05-06_12h16.21.161,ANTCPTp,2020.1.2,MacIntel,60,,,1,22,70,1,1,,,,,,,,,,,,,,,,,,,,,,,,,,,,,,,,,,,,,,,,,,
1.1,left,1,0.635,,,,,,stim/both.png,stim/incongRight.png,left,180,1001,2020-05-06_12h16.21.161,ANTCPTp,2020.1.2,MacIntel,60,,,1,23,71,29,1,,,,,,,,,,,,,,,,,,,,,,,,,,,,,,,,,,,,,,,,,,
0.7,left,1,0.459,,,,,,stim/upper.png,stim/neutralLeft.png,left,0,1001,2020-05-06_12h16.21.161,ANTCPTp,2020.1.2,MacIntel,60,,,1,24,72,32,1,,,,,,,,,,,,,,,,,,,,,,,,,,,,,,,,,,,,,,,,,,
1.2,left,1,0.587,,,,,,stim/centre.png,stim/incongRight.png,left,180,1001,2020-05-06_12h16.21.161,ANTCPTp,2020.1.2,MacIntel,60,,,1,25,73,30,1,,,,,,,,,,,,,,,,,,,,,,,,,,,,,,,,,,,,,,,,,,
1.2,right,1,0.6,,,,,,stim/blank.png,stim/incongLeft.png,right,180,1001,2020-05-06_12h16.21.161,ANTCPTp,2020.1.2,MacIntel,60,,,1,26,74,23,1,,,,,,,,,,,,,,,,,,,,,,,,,,,,,,,,,,,,,,,,,,
1.25,left,1,0.404,,,,,,stim/upper.png,stim/congLeft.png,left,0,1001,2020-05-06_12h16.21.161,ANTCPTp,2020.1.2,MacIntel,60,,,1,27,75,0,1,,,,,,,,,,,,,,,,,,,,,,,,,,,,,,,,,,,,,,,,,,
1.4,right,1,0.418,,,,,,stim/lower.png,stim/neutralLeft.png,right,180,1001,2020-05-06_12h16.21.161,ANTCPTp,2020.1.2,MacIntel,60,,,1,28,76,36,1,,,,,,,,,,,,,,,,,,,,,,,,,,,,,,,,,,,,,,,,,,
1.35,left,1,0.435,,,,,,stim/lower.png,stim/congRight.png,left,180,1001,2020-05-06_12h16.21.161,ANTCPTp,2020.1.2,MacIntel,60,,,1,29,77,12,1,,,,,,,,,,,,,,,,,,,,,,,,,,,,,,,,,,,,,,,,,,
1.5,right,1,0.359,,,,,,stim/centre.png,stim/congLeft.png,right,180,1001,2020-05-06_12h16.21.161,ANTCPTp,2020.1.2,MacIntel,60,,,1,30,78,6,1,,,,,,,,,,,,,,,,,,,,,,,,,,,,,,,,,,,,,,,,,,
0.9,right,1,0.634,,,,,,stim/upper.png,stim/neutralRight.png,right,0,1001,2020-05-06_12h16.21.161,ANTCPTp,2020.1.2,MacIntel,60,,,1,31,79,40,1,,,,,,,,,,,,,,,,,,,,,,,,,,,,,,,,,,,,,,,,,,
0.9,left,0,0.431,,,,,,stim/blank.png,stim/incongRight.png,right,0,1001,2020-05-06_12h16.21.161,ANTCPTp,2020.1.2,MacIntel,60,,,1,32,80,27,1,,,,,,,,,,,,,,,,,,,,,,,,,,,,,,,,,,,,,,,,,,
1.5,right,1,0.85,,,,,,stim/centre.png,stim/incongLeft.png,right,180,1001,2020-05-06_12h16.21.161,ANTCPTp,2020.1.2,MacIntel,60,,,1,33,81,22,1,,,,,,,,,,,,,,,,,,,,,,,,,,,,,,,,,,,,,,,,,,
0.9,left,1,0.517,,,,,,stim/blank.png,stim/neutralLeft.png,left,0,1001,2020-05-06_12h16.21.161,ANTCPTp,2020.1.2,MacIntel,60,,,1,34,82,35,1,,,,,,,,,,,,,,,,,,,,,,,,,,,,,,,,,,,,,,,,,,
1.3,right,1,0.551,,,,,,stim/centre.png,stim/incongRight.png,right,0,1001,2020-05-06_12h16.21.161,ANTCPTp,2020.1.2,MacIntel,60,,,1,35,83,26,1,,,,,,,,,,,,,,,,,,,,,,,,,,,,,,,,,,,,,,,,,,
1.4,right,1,0.544,,,,,,stim/upper.png,stim/incongRight.png,right,0,1001,2020-05-06_12h16.21.161,ANTCPTp,2020.1.2,MacIntel,60,,,1,36,84,24,1,,,,,,,,,,,,,,,,,,,,,,,,,,,,,,,,,,,,,,,,,,
0.85,left,1,0.458,,,,,,stim/blank.png,stim/congRight.png,left,180,1001,2020-05-06_12h16.21.161,ANTCPTp,2020.1.2,MacIntel,60,,,1,37,85,15,1,,,,,,,,,,,,,,,,,,,,,,,,,,,,,,,,,,,,,,,,,,
0.95,left,1,0.45,,,,,,stim/both.png,stim/congRight.png,left,180,1001,2020-05-06_12h16.21.161,ANTCPTp,2020.1.2,MacIntel,60,,,1,38,86,13,1,,,,,,,,,,,,,,,,,,,,,,,,,,,,,,,,,,,,,,,,,,
1.4,right,1,0.533,,,,,,stim/both.png,stim/congLeft.png,right,180,1001,2020-05-06_12h16.21.161,ANTCPTp,2020.1.2,MacIntel,60,,,1,39,87,5,1,,,,,,,,,,,,,,,,,,,,,,,,,,,,,,,,,,,,,,,,,,
0.5,left,1,0.593,,,,,,stim/both.png,stim/neutralRight.png,left,180,1001,2020-05-06_12h16.21.161,ANTCPTp,2020.1.2,MacIntel,60,,,1,40,88,45,1,,,,,,,,,,,,,,,,,,,,,,,,,,,,,,,,,,,,,,,,,,
0.9,right,1,0.441,,,,,,stim/blank.png,stim/neutralRight.png,right,0,1001,2020-05-06_12h16.21.161,ANTCPTp,2020.1.2,MacIntel,60,,,1,41,89,43,1,,,,,,,,,,,,,,,,,,,,,,,,,,,,,,,,,,,,,,,,,,
1.45,right,0,0.367,,,,,,stim/upper.png,stim/incongLeft.png,left,0,1001,2020-05-06_12h16.21.161,ANTCPTp,2020.1.2,MacIntel,60,,,1,42,90,16,1,,,,,,,,,,,,,,,,,,,,,,,,,,,,,,,,,,,,,,,,,,
0.8,left,1,0.46,,,,,,stim/centre.png,stim/neutralLeft.png,left,0,1001,2020-05-06_12h16.21.161,ANTCPTp,2020.1.2,MacIntel,60,,,1,43,91,34,1,,,,,,,,,,,,,,,,,,,,,,,,,,,,,,,,,,,,,,,,,,
0.4,left,1,0.569,,,,,,stim/blank.png,stim/neutralRight.png,left,180,1001,2020-05-06_12h16.21.161,ANTCPTp,2020.1.2,MacIntel,60,,,1,44,92,47,1,,,,,,,,,,,,,,,,,,,,,,,,,,,,,,,,,,,,,,,,,,
0.45,right,0,0.416,,,,,,stim/both.png,stim/incongLeft.png,left,0,1001,2020-05-06_12h16.21.161,ANTCPTp,2020.1.2,MacIntel,60,,,1,45,93,17,1,,,,,,,,,,,,,,,,,,,,,,,,,,,,,,,,,,,,,,,,,,
1.1,right,1,0.549,,,,,,stim/lower.png,stim/incongLeft.png,right,180,1001,2020-05-06_12h16.21.161,ANTCPTp,2020.1.2,MacIntel,60,,,1,46,94,20,1,,,,,,,,,,,,,,,,,,,,,,,,,,,,,,,,,,,,,,,,,,
0.95,right,1,0.599,,,,,,stim/both.png,stim/incongLeft.png,right,180,1001,2020-05-06_12h16.21.161,ANTCPTp,2020.1.2,MacIntel,60,,,1,47,95,21,1,,,,,,,,,,,,,,,,,,,,,,,,,,,,,,,,,,,,,,,,,,
,,,,,,,,,,,,,1001,2020-05-06_12h16.21.161,ANTCPTp,2020.1.2,MacIntel,60,,,,,,,,0,0,0,0,1,,,,,,,,,,,,,,,,,,,,,,,,,,,,,,,,,,,,,
1.3,left,1,0.604,,,,,,stim/centre.png,stim/neutralRight.png,left,180,1001,2020-05-06_12h16.21.161,ANTCPTp,2020.1.2,MacIntel,60,,,0,0,0,46,1,,,,,,,,,,,,,,,,,,,,,,,,,,,,,,,,,,,,,,,,,,
0.9,left,1,0.619,,,,,,stim/lower.png,stim/incongRight.png,left,180,1001,2020-05-06_12h16.21.161,ANTCPTp,2020.1.2,MacIntel,60,,,0,1,1,28,1,,,,,,,,,,,,,,,,,,,,,,,,,,,,,,,,,,,,,,,,,,
0.65,left,1,0.374,,,,,,stim/both.png,stim/congRight.png,left,180,1001,2020-05-06_12h16.21.161,ANTCPTp,2020.1.2,MacIntel,60,,,0,2,2,13,1,,,,,,,,,,,,,,,,,,,,,,,,,,,,,,,,,,,,,,,,,,
0.6,right,1,0.619,,,,,,stim/both.png,stim/incongRight.png,right,0,1001,2020-05-06_12h16.21.161,ANTCPTp,2020.1.2,MacIntel,60,,,0,3,3,25,1,,,,,,,,,,,,,,,,,,,,,,,,,,,,,,,,,,,,,,,,,,
0.7,left,1,0.753,,,,,,stim/blank.png,stim/incongLeft.png,left,0,1001,2020-05-06_12h16.21.161,ANTCPTp,2020.1.2,MacIntel,60,,,0,4,4,19,1,,,,,,,,,,,,,,,,,,,,,,,,,,,,,,,,,,,,,,,,,,
1.5,left,1,0.482,,,,,,stim/both.png,stim/neutralRight.png,left,180,1001,2020-05-06_12h16.21.161,ANTCPTp,2020.1.2,MacIntel,60,,,0,5,5,45,1,,,,,,,,,,,,,,,,,,,,,,,,,,,,,,,,,,,,,,,,,,
1.25,left,1,0.504,,,,,,stim/both.png,stim/congLeft.png,left,0,1001,2020-05-06_12h16.21.161,ANTCPTp,2020.1.2,MacIntel,60,,,0,6,6,1,1,,,,,,,,,,,,,,,,,,,,,,,,,,,,,,,,,,,,,,,,,,
0.4,right,1,0.549,,,,,,stim/both.png,stim/neutralLeft.png,right,180,1001,2020-05-06_12h16.21.161,ANTCPTp,2020.1.2,MacIntel,60,,,0,7,7,37,1,,,,,,,,,,,,,,,,,,,,,,,,,,,,,,,,,,,,,,,,,,
1.5,left,1,0.632,,,,,,stim/upper.png,stim/congLeft.png,left,0,1001,2020-05-06_12h16.21.161,ANTCPTp,2020.1.2,MacIntel,60,,,0,8,8,0,1,,,,,,,,,,,,,,,,,,,,,,,,,,,,,,,,,,,,,,,,,,
0.7,right,1,0.6,,,,,,stim/upper.png,stim/incongRight.png,right,0,1001,2020-05-06_12h16.21.161,ANTCPTp,2020.1.2,MacIntel,60,,,0,9,9,24,1,,,,,,,,,,,,,,,,,,,,,,,,,,,,,,,,,,,,,,,,,,
1.35,left,1,0.528,,,,,,stim/lower.png,stim/congRight.png,left,180,1001,2020-05-06_12h16.21.161,ANTCPTp,2020.1.2,MacIntel,60,,,0,10,10,12,1,,,,,,,,,,,,,,,,,,,,,,,,,,,,,,,,,,,,,,,,,,
1.55,right,1,0.592,,,,,,stim/centre.png,stim/incongLeft.png,right,180,1001,2020-05-06_12h16.21.161,ANTCPTp,2020.1.2,MacIntel,60,,,0,11,11,22,1,,,,,,,,,,,,,,,,,,,,,,,,,,,,,,,,,,,,,,,,,,
1.15,right,1,0.373,,,,,,stim/lower.png,stim/congLeft.png,right,180,1001,2020-05-06_12h16.21.161,ANTCPTp,2020.1.2,MacIntel,60,,,0,12,12,4,1,,,,,,,,,,,,,,,,,,,,,,,,,,,,,,,,,,,,,,,,,,
1.45,right,1,0.388,,,,,,stim/blank.png,stim/neutralLeft.png,right,180,1001,2020-05-06_12h16.21.161,ANTCPTp,2020.1.2,MacIntel,60,,,0,13,13,39,1,,,,,,,,,,,,,,,,,,,,,,,,,,,,,,,,,,,,,,,,,,
1,left,1,0.358,,,,,,stim/blank.png,stim/congLeft.png,left,0,1001,2020-05-06_12h16.21.161,ANTCPTp,2020.1.2,MacIntel,60,,,0,14,14,3,1,,,,,,,,,,,,,,,,,,,,,,,,,,,,,,,,,,,,,,,,,,
0.9,left,1,0.388,,,,,,stim/both.png,stim/neutralLeft.png,left,0,1001,2020-05-06_12h16.21.161,ANTCPTp,2020.1.2,MacIntel,60,,,0,15,15,33,1,,,,,,,,,,,,,,,,,,,,,,,,,,,,,,,,,,,,,,,,,,
1.3,left,1,0.448,,,,,,stim/blank.png,stim/congRight.png,left,180,1001,2020-05-06_12h16.21.161,ANTCPTp,2020.1.2,MacIntel,60,,,0,16,16,15,1,,,,,,,,,,,,,,,,,,,,,,,,,,,,,,,,,,,,,,,,,,
0.5,left,1,0.478,,,,,,stim/upper.png,stim/neutralLeft.png,left,0,1001,2020-05-06_12h16.21.161,ANTCPTp,2020.1.2,MacIntel,60,,,0,17,17,32,1,,,,,,,,,,,,,,,,,,,,,,,,,,,,,,,,,,,,,,,,,,
0.95,left,0,0.394,,,,,,stim/lower.png,stim/incongLeft.png,right,180,1001,2020-05-06_12h16.21.161,ANTCPTp,2020.1.2,MacIntel,60,,,0,18,18,20,1,,,,,,,,,,,,,,,,,,,,,,,,,,,,,,,,,,,,,,,,,,
1.45,right,1,0.541,,,,,,stim/blank.png,stim/incongLeft.png,right,180,1001,2020-05-06_12h16.21.161,ANTCPTp,2020.1.2,MacIntel,60,,,0,19,19,23,1,,,,,,,,,,,,,,,,,,,,,,,,,,,,,,,,,,,,,,,,,,
0.65,right,1,0.426,,,,,,stim/centre.png,stim/neutralRight.png,right,0,1001,2020-05-06_12h16.21.161,ANTCPTp,2020.1.2,MacIntel,60,,,0,20,20,42,1,,,,,,,,,,,,,,,,,,,,,,,,,,,,,,,,,,,,,,,,,,
1.3,right,1,0.471,,,,,,stim/both.png,stim/neutralRight.png,right,0,1001,2020-05-06_12h16.21.161,ANTCPTp,2020.1.2,MacIntel,60,,,0,21,21,41,1,,,,,,,,,,,,,,,,,,,,,,,,,,,,,,,,,,,,,,,,,,
1.2,right,0,0.388,,,,,,stim/upper.png,stim/incongLeft.png,left,0,1001,2020-05-06_12h16.21.161,ANTCPTp,2020.1.2,MacIntel,60,,,0,22,22,16,1,,,,,,,,,,,,,,,,,,,,,,,,,,,,,,,,,,,,,,,,,,
1.1,right,1,0.444,,,,,,stim/centre.png,stim/congLeft.png,right,180,1001,2020-05-06_12h16.21.161,ANTCPTp,2020.1.2,MacIntel,60,,,0,23,23,6,1,,,,,,,,,,,,,,,,,,,,,,,,,,,,,,,,,,,,,,,,,,
0.6,left,1,0.478,,,,,,stim/lower.png,stim/neutralRight.png,left,180,1001,2020-05-06_12h16.21.161,ANTCPTp,2020.1.2,MacIntel,60,,,0,24,24,44,1,,,,,,,,,,,,,,,,,,,,,,,,,,,,,,,,,,,,,,,,,,
0.75,left,1,0.437,,,,,,stim/centre.png,stim/congRight.png,left,180,1001,2020-05-06_12h16.21.161,ANTCPTp,2020.1.2,MacIntel,60,,,0,25,25,14,1,,,,,,,,,,,,,,,,,,,,,,,,,,,,,,,,,,,,,,,,,,
1.05,left,1,0.536,,,,,,stim/centre.png,stim/congLeft.png,left,0,1001,2020-05-06_12h16.21.161,ANTCPTp,2020.1.2,MacIntel,60,,,0,26,26,2,1,,,,,,,,,,,,,,,,,,,,,,,,,,,,,,,,,,,,,,,,,,
0.9,left,1,0.617,,,,,,stim/both.png,stim/incongLeft.png,left,0,1001,2020-05-06_12h16.21.161,ANTCPTp,2020.1.2,MacIntel,60,,,0,27,27,17,1,,,,,,,,,,,,,,,,,,,,,,,,,,,,,,,,,,,,,,,,,,
0.8,left,1,0.484,,,,,,stim/blank.png,stim/neutralLeft.png,left,0,1001,2020-05-06_12h16.21.161,ANTCPTp,2020.1.2,MacIntel,60,,,0,28,28,35,1,,,,,,,,,,,,,,,,,,,,,,,,,,,,,,,,,,,,,,,,,,
0.75,left,1,0.3,,,,,,stim/centre.png,stim/incongLeft.png,left,0,1001,2020-05-06_12h16.21.161,ANTCPTp,2020.1.2,MacIntel,60,,,0,29,29,18,1,,,,,,,,,,,,,,,,,,,,,,,,,,,,,,,,,,,,,,,,,,
1.3,left,1,0.494,,,,,,stim/blank.png,stim/neutralRight.png,left,180,1001,2020-05-06_12h16.21.161,ANTCPTp,2020.1.2,MacIntel,60,,,0,30,30,47,1,,,,,,,,,,,,,,,,,,,,,,,,,,,,,,,,,,,,,,,,,,
0.5,right,1,0.533,,,,,,stim/both.png,stim/congLeft.png,right,180,1001,2020-05-06_12h16.21.161,ANTCPTp,2020.1.2,MacIntel,60,,,0,31,31,5,1,,,,,,,,,,,,,,,,,,,,,,,,,,,,,,,,,,,,,,,,,,
0.8,right,1,0.504,,,,,,stim/upper.png,stim/neutralRight.png,right,0,1001,2020-05-06_12h16.21.161,ANTCPTp,2020.1.2,MacIntel,60,,,0,32,32,40,1,,,,,,,,,,,,,,,,,,,,,,,,,,,,,,,,,,,,,,,,,,
0.7,left,1,0.767,,,,,,stim/centre.png,stim/neutralLeft.png,left,0,1001,2020-05-06_12h16.21.161,ANTCPTp,2020.1.2,MacIntel,60,,,0,33,33,34,1,,,,,,,,,,,,,,,,,,,,,,,,,,,,,,,,,,,,,,,,,,
0.9,right,0,0.407,,,,,,stim/centre.png,stim/incongRight.png,left,180,1001,2020-05-06_12h16.21.161,ANTCPTp,2020.1.2,MacIntel,60,,,0,34,34,30,1,,,,,,,,,,,,,,,,,,,,,,,,,,,,,,,,,,,,,,,,,,
1,right,1,0.674,,,,,,stim/lower.png,stim/neutralLeft.png,right,180,1001,2020-05-06_12h16.21.161,ANTCPTp,2020.1.2,MacIntel,60,,,0,35,35,36,1,,,,,,,,,,,,,,,,,,,,,,,,,,,,,,,,,,,,,,,,,,
1.1,left,0,0.403,,,,,,stim/both.png,stim/incongLeft.png,right,180,1001,2020-05-06_12h16.21.161,ANTCPTp,2020.1.2,MacIntel,60,,,0,36,36,21,1,,,,,,,,,,,,,,,,,,,,,,,,,,,,,,,,,,,,,,,,,,
0.9,right,1,0.524,,,,,,stim/both.png,stim/congRight.png,right,0,1001,2020-05-06_12h16.21.161,ANTCPTp,2020.1.2,MacIntel,60,,,0,37,37,9,1,,,,,,,,,,,,,,,,,,,,,,,,,,,,,,,,,,,,,,,,,,
1.35,right,1,0.618,,,,,,stim/blank.png,stim/incongRight.png,right,0,1001,2020-05-06_12h16.21.161,ANTCPTp,2020.1.2,MacIntel,60,,,0,38,38,27,1,,,,,,,,,,,,,,,,,,,,,,,,,,,,,,,,,,,,,,,,,,
1.3,left,1,0.726,,,,,,stim/both.png,stim/incongRight.png,left,180,1001,2020-05-06_12h16.21.161,ANTCPTp,2020.1.2,MacIntel,60,,,0,39,39,29,1,,,,,,,,,,,,,,,,,,,,,,,,,,,,,,,,,,,,,,,,,,
0.75,right,1,0.461,,,,,,stim/blank.png,stim/neutralRight.png,right,0,1001,2020-05-06_12h16.21.161,ANTCPTp,2020.1.2,MacIntel,60,,,0,40,40,43,1,,,,,,,,,,,,,,,,,,,,,,,,,,,,,,,,,,,,,,,,,,
0.75,right,1,0.649,,,,,,stim/upper.png,stim/congRight.png,right,0,1001,2020-05-06_12h16.21.161,ANTCPTp,2020.1.2,MacIntel,60,,,0,41,41,8,1,,,,,,,,,,,,,,,,,,,,,,,,,,,,,,,,,,,,,,,,,,
1.2,right,1,0.419,,,,,,stim/blank.png,stim/congLeft.png,right,180,1001,2020-05-06_12h16.21.161,ANTCPTp,2020.1.2,MacIntel,60,,,0,42,42,7,1,,,,,,,,,,,,,,,,,,,,,,,,,,,,,,,,,,,,,,,,,,
0.85,right,1,0.443,,,,,,stim/blank.png,stim/congRight.png,right,0,1001,2020-05-06_12h16.21.161,ANTCPTp,2020.1.2,MacIntel,60,,,0,43,43,11,1,,,,,,,,,,,,,,,,,,,,,,,,,,,,,,,,,,,,,,,,,,
0.55,left,1,0.659,,,,,,stim/blank.png,stim/incongRight.png,left,180,1001,2020-05-06_12h16.21.161,ANTCPTp,2020.1.2,MacIntel,60,,,0,44,44,31,1,,,,,,,,,,,,,,,,,,,,,,,,,,,,,,,,,,,,,,,,,,
0.45,right,1,0.583,,,,,,stim/centre.png,stim/incongRight.png,right,0,1001,2020-05-06_12h16.21.161,ANTCPTp,2020.1.2,MacIntel,60,,,0,45,45,26,1,,,,,,,,,,,,,,,,,,,,,,,,,,,,,,,,,,,,,,,,,,
1.1,right,1,0.432,,,,,,stim/centre.png,stim/neutralLeft.png,right,180,1001,2020-05-06_12h16.21.161,ANTCPTp,2020.1.2,MacIntel,60,,,0,46,46,38,1,,,,,,,,,,,,,,,,,,,,,,,,,,,,,,,,,,,,,,,,,,
0.5,right,1,0.445,,,,,,stim/centre.png,stim/congRight.png,right,0,1001,2020-05-06_12h16.21.161,ANTCPTp,2020.1.2,MacIntel,60,,,0,47,47,10,1,,,,,,,,,,,,,,,,,,,,,,,,,,,,,,,,,,,,,,,,,,
1.35,right,1,0.399,,,,,,stim/upper.png,stim/congRight.png,right,0,1001,2020-05-06_12h16.21.161,ANTCPTp,2020.1.2,MacIntel,60,,,1,0,48,8,1,,,,,,,,,,,,,,,,,,,,,,,,,,,,,,,,,,,,,,,,,,
0.55,right,1,0.533,,,,,,stim/lower.png,stim/neutralLeft.png,right,180,1001,2020-05-06_12h16.21.161,ANTCPTp,2020.1.2,MacIntel,60,,,1,1,49,36,1,,,,,,,,,,,,,,,,,,,,,,,,,,,,,,,,,,,,,,,,,,
1.05,right,1,0.378,,,,,,stim/lower.png,stim/congLeft.png,right,180,1001,2020-05-06_12h16.21.161,ANTCPTp,2020.1.2,MacIntel,60,,,1,2,50,4,1,,,,,,,,,,,,,,,,,,,,,,,,,,,,,,,,,,,,,,,,,,
0.45,left,1,0.636,,,,,,stim/lower.png,stim/neutralRight.png,left,180,1001,2020-05-06_12h16.21.161,ANTCPTp,2020.1.2,MacIntel,60,,,1,3,51,44,1,,,,,,,,,,,,,,,,,,,,,,,,,,,,,,,,,,,,,,,,,,
0.95,left,1,0.459,,,,,,stim/blank.png,stim/neutralRight.png,left,180,1001,2020-05-06_12h16.21.161,ANTCPTp,2020.1.2,MacIntel,60,,,1,4,52,47,1,,,,,,,,,,,,,,,,,,,,,,,,,,,,,,,,,,,,,,,,,,
0.45,right,1,0.417,,,,,,stim/both.png,stim/neutralRight.png,right,0,1001,2020-05-06_12h16.21.161,ANTCPTp,2020.1.2,MacIntel,60,,,1,5,53,41,1,,,,,,,,,,,,,,,,,,,,,,,,,,,,,,,,,,,,,,,,,,
1.25,right,1,0.411,,,,,,stim/centre.png,stim/congLeft.png,right,180,1001,2020-05-06_12h16.21.161,ANTCPTp,2020.1.2,MacIntel,60,,,1,6,54,6,1,,,,,,,,,,,,,,,,,,,,,,,,,,,,,,,,,,,,,,,,,,
1.05,right,0,0.367,,,,,,stim/blank.png,stim/incongRight.png,left,180,1001,2020-05-06_12h16.21.161,ANTCPTp,2020.1.2,MacIntel,60,,,1,7,55,31,1,,,,,,,,,,,,,,,,,,,,,,,,,,,,,,,,,,,,,,,,,,
1.15,left,1,0.517,,,,,,stim/lower.png,stim/incongRight.png,left,180,1001,2020-05-06_12h16.21.161,ANTCPTp,2020.1.2,MacIntel,60,,,1,8,56,28,1,,,,,,,,,,,,,,,,,,,,,,,,,,,,,,,,,,,,,,,,,,
0.95,right,1,0.568,,,,,,stim/blank.png,stim/congLeft.png,right,180,1001,2020-05-06_12h16.21.161,ANTCPTp,2020.1.2,MacIntel,60,,,1,9,57,7,1,,,,,,,,,,,,,,,,,,,,,,,,,,,,,,,,,,,,,,,,,,
0.45,left,1,0.613,,,,,,stim/blank.png,stim/neutralLeft.png,left,0,1001,2020-05-06_12h16.21.161,ANTCPTp,2020.1.2,MacIntel,60,,,1,10,58,35,1,,,,,,,,,,,,,,,,,,,,,,,,,,,,,,,,,,,,,,,,,,
0.45,left,1,0.467,,,,,,stim/both.png,stim/neutralRight.png,left,180,1001,2020-05-06_12h16.21.161,ANTCPTp,2020.1.2,MacIntel,60,,,1,11,59,45,1,,,,,,,,,,,,,,,,,,,,,,,,,,,,,,,,,,,,,,,,,,
1.15,left,0,0.432,,,,,,stim/both.png,stim/incongLeft.png,right,180,1001,2020-05-06_12h16.21.161,ANTCPTp,2020.1.2,MacIntel,60,,,1,12,60,21,1,,,,,,,,,,,,,,,,,,,,,,,,,,,,,,,,,,,,,,,,,,
1.1,right,1,0.428,,,,,,stim/both.png,stim/neutralLeft.png,right,180,1001,2020-05-06_12h16.21.161,ANTCPTp,2020.1.2,MacIntel,60,,,1,13,61,37,1,,,,,,,,,,,,,,,,,,,,,,,,,,,,,,,,,,,,,,,,,,
0.45,left,1,0.566,,,,,,stim/centre.png,stim/congLeft.png,left,0,1001,2020-05-06_12h16.21.161,ANTCPTp,2020.1.2,MacIntel,60,,,1,14,62,2,1,,,,,,,,,,,,,,,,,,,,,,,,,,,,,,,,,,,,,,,,,,
0.55,right,1,0.479,,,,,,stim/centre.png,stim/neutralLeft.png,right,180,1001,2020-05-06_12h16.21.161,ANTCPTp,2020.1.2,MacIntel,60,,,1,15,63,38,1,,,,,,,,,,,,,,,,,,,,,,,,,,,,,,,,,,,,,,,,,,
1.4,right,1,0.544,,,,,,stim/blank.png,stim/neutralRight.png,right,0,1001,2020-05-06_12h16.21.161,ANTCPTp,2020.1.2,MacIntel,60,,,1,16,64,43,1,,,,,,,,,,,,,,,,,,,,,,,,,,,,,,,,,,,,,,,,,,
0.45,left,1,0.474,,,,,,stim/upper.png,stim/neutralLeft.png,left,0,1001,2020-05-06_12h16.21.161,ANTCPTp,2020.1.2,MacIntel,60,,,1,17,65,32,1,,,,,,,,,,,,,,,,,,,,,,,,,,,,,,,,,,,,,,,,,,
0.65,left,1,0.448,,,,,,stim/centre.png,stim/neutralLeft.png,left,0,1001,2020-05-06_12h16.21.161,ANTCPTp,2020.1.2,MacIntel,60,,,1,18,66,34,1,,,,,,,,,,,,,,,,,,,,,,,,,,,,,,,,,,,,,,,,,,
1.05,right,0,0.393,,,,,,stim/centre.png,stim/incongRight.png,left,180,1001,2020-05-06_12h16.21.161,ANTCPTp,2020.1.2,MacIntel,60,,,1,19,67,30,1,,,,,,,,,,,,,,,,,,,,,,,,,,,,,,,,,,,,,,,,,,
1.4,right,1,0.474,,,,,,stim/upper.png,stim/neutralRight.png,right,0,1001,2020-05-06_12h16.21.161,ANTCPTp,2020.1.2,MacIntel,60,,,1,20,68,40,1,,,,,,,,,,,,,,,,,,,,,,,,,,,,,,,,,,,,,,,,,,
1,left,1,0.383,,,,,,stim/centre.png,stim/neutralRight.png,left,180,1001,2020-05-06_12h16.21.161,ANTCPTp,2020.1.2,MacIntel,60,,,1,21,69,46,1,,,,,,,,,,,,,,,,,,,,,,,,,,,,,,,,,,,,,,,,,,
0.95,left,1,0.644,,,,,,stim/both.png,stim/incongLeft.png,left,0,1001,2020-05-06_12h16.21.161,ANTCPTp,2020.1.2,MacIntel,60,,,1,22,70,17,1,,,,,,,,,,,,,,,,,,,,,,,,,,,,,,,,,,,,,,,,,,
1.3,left,0,0.418,,,,,,stim/blank.png,stim/incongRight.png,right,0,1001,2020-05-06_12h16.21.161,ANTCPTp,2020.1.2,MacIntel,60,,,1,23,71,27,1,,,,,,,,,,,,,,,,,,,,,,,,,,,,,,,,,,,,,,,,,,
1.35,right,1,0.691,,,,,,stim/both.png,stim/incongRight.png,right,0,1001,2020-05-06_12h16.21.161,ANTCPTp,2020.1.2,MacIntel,60,,,1,24,72,25,1,,,,,,,,,,,,,,,,,,,,,,,,,,,,,,,,,,,,,,,,,,
1.45,left,1,0.484,,,,,,stim/blank.png,stim/congRight.png,left,180,1001,2020-05-06_12h16.21.161,ANTCPTp,2020.1.2,MacIntel,60,,,1,25,73,15,1,,,,,,,,,,,,,,,,,,,,,,,,,,,,,,,,,,,,,,,,,,
1.1,right,1,0.384,,,,,,stim/centre.png,stim/neutralRight.png,right,0,1001,2020-05-06_12h16.21.161,ANTCPTp,2020.1.2,MacIntel,60,,,1,26,74,42,1,,,,,,,,,,,,,,,,,,,,,,,,,,,,,,,,,,,,,,,,,,
0.85,right,1,0.55,,,,,,stim/centre.png,stim/incongLeft.png,right,180,1001,2020-05-06_12h16.21.161,ANTCPTp,2020.1.2,MacIntel,60,,,1,27,75,22,1,,,,,,,,,,,,,,,,,,,,,,,,,,,,,,,,,,,,,,,,,,
0.55,left,1,0.693,,,,,,stim/both.png,stim/congLeft.png,left,0,1001,2020-05-06_12h16.21.161,ANTCPTp,2020.1.2,MacIntel,60,,,1,28,76,1,1,,,,,,,,,,,,,,,,,,,,,,,,,,,,,,,,,,,,,,,,,,
0.9,right,1,0.726,,,,,,stim/centre.png,stim/incongRight.png,right,0,1001,2020-05-06_12h16.21.161,ANTCPTp,2020.1.2,MacIntel,60,,,1,29,77,26,1,,,,,,,,,,,,,,,,,,,,,,,,,,,,,,,,,,,,,,,,,,
0.75,left,1,0.411,,,,,,stim/both.png,stim/neutralLeft.png,left,0,1001,2020-05-06_12h16.21.161,ANTCPTp,2020.1.2,MacIntel,60,,,1,30,78,33,1,,,,,,,,,,,,,,,,,,,,,,,,,,,,,,,,,,,,,,,,,,
1.25,right,0,0.392,,,,,,stim/both.png,stim/incongRight.png,left,180,1001,2020-05-06_12h16.21.161,ANTCPTp,2020.1.2,MacIntel,60,,,1,31,79,29,1,,,,,,,,,,,,,,,,,,,,,,,,,,,,,,,,,,,,,,,,,,
1.15,left,1,0.47,,,,,,stim/centre.png,stim/congRight.png,left,180,1001,2020-05-06_12h16.21.161,ANTCPTp,2020.1.2,MacIntel,60,,,1,32,80,14,1,,,,,,,,,,,,,,,,,,,,,,,,,,,,,,,,,,,,,,,,,,
1.45,right,1,0.604,,,,,,stim/upper.png,stim/incongRight.png,right,0,1001,2020-05-06_12h16.21.161,ANTCPTp,2020.1.2,MacIntel,60,,,1,33,81,24,1,,,,,,,,,,,,,,,,,,,,,,,,,,,,,,,,,,,,,,,,,,
0.85,left,1,0.737,,,,,,stim/blank.png,stim/incongLeft.png,left,0,1001,2020-05-06_12h16.21.161,ANTCPTp,2020.1.2,MacIntel,60,,,1,34,82,19,1,,,,,,,,,,,,,,,,,,,,,,,,,,,,,,,,,,,,,,,,,,
1.2,right,1,0.455,,,,,,stim/blank.png,stim/neutralLeft.png,right,180,1001,2020-05-06_12h16.21.161,ANTCPTp,2020.1.2,MacIntel,60,,,1,35,83,39,1,,,,,,,,,,,,,,,,,,,,,,,,,,,,,,,,,,,,,,,,,,
0.4,left,1,0.463,,,,,,stim/both.png,stim/congRight.png,left,180,1001,2020-05-06_12h16.21.161,ANTCPTp,2020.1.2,MacIntel,60,,,1,36,84,13,1,,,,,,,,,,,,,,,,,,,,,,,,,,,,,,,,,,,,,,,,,,
1.55,right,0,0.368,,,,,,stim/centre.png,stim/incongLeft.png,left,0,1001,2020-05-06_12h16.21.161,ANTCPTp,2020.1.2,MacIntel,60,,,1,37,85,18,1,,,,,,,,,,,,,,,,,,,,,,,,,,,,,,,,,,,,,,,,,,
0.6,right,1,0.485,,,,,,stim/centre.png,stim/congRight.png,right,0,1001,2020-05-06_12h16.21.161,ANTCPTp,2020.1.2,MacIntel,60,,,1,38,86,10,1,,,,,,,,,,,,,,,,,,,,,,,,,,,,,,,,,,,,,,,,,,
1,right,1,0.501,,,,,,stim/blank.png,stim/congRight.png,right,0,1001,2020-05-06_12h16.21.161,ANTCPTp,2020.1.2,MacIntel,60,,,1,39,87,11,1,,,,,,,,,,,,,,,,,,,,,,,,,,,,,,,,,,,,,,,,,,
1.35,left,1,0.471,,,,,,stim/blank.png,stim/congLeft.png,left,0,1001,2020-05-06_12h16.21.161,ANTCPTp,2020.1.2,MacIntel,60,,,1,40,88,3,1,,,,,,,,,,,,,,,,,,,,,,,,,,,,,,,,,,,,,,,,,,
0.5,left,1,0.783,,,,,,stim/upper.png,stim/incongLeft.png,left,0,1001,2020-05-06_12h16.21.161,ANTCPTp,2020.1.2,MacIntel,60,,,1,41,89,16,1,,,,,,,,,,,,,,,,,,,,,,,,,,,,,,,,,,,,,,,,,,
0.6,left,0,0.47,,,,,,stim/blank.png,stim/incongLeft.png,right,180,1001,2020-05-06_12h16.21.161,ANTCPTp,2020.1.2,MacIntel,60,,,1,42,90,23,1,,,,,,,,,,,,,,,,,,,,,,,,,,,,,,,,,,,,,,,,,,
0.5,right,1,0.567,,,,,,stim/both.png,stim/congLeft.png,right,180,1001,2020-05-06_12h16.21.161,ANTCPTp,2020.1.2,MacIntel,60,,,1,43,91,5,1,,,,,,,,,,,,,,,,,,,,,,,,,,,,,,,,,,,,,,,,,,
0.9,right,1,0.434,,,,,,stim/both.png,stim/congRight.png,right,0,1001,2020-05-06_12h16.21.161,ANTCPTp,2020.1.2,MacIntel,60,,,1,44,92,9,1,,,,,,,,,,,,,,,,,,,,,,,,,,,,,,,,,,,,,,,,,,
1.45,left,1,0.793,,,,,,stim/upper.png,stim/congLeft.png,left,0,1001,2020-05-06_12h16.21.161,ANTCPTp,2020.1.2,MacIntel,60,,,1,45,93,0,1,,,,,,,,,,,,,,,,,,,,,,,,,,,,,,,,,,,,,,,,,,
1.2,right,1,0.654,,,,,,stim/lower.png,stim/incongLeft.png,right,180,1001,2020-05-06_12h16.21.161,ANTCPTp,2020.1.2,MacIntel,60,,,1,46,94,20,1,,,,,,,,,,,,,,,,,,,,,,,,,,,,,,,,,,,,,,,,,,
1.3,left,1,0.442,,,,,,stim/lower.png,stim/congRight.png,left,180,1001,2020-05-06_12h16.21.161,ANTCPTp,2020.1.2,MacIntel,60,,,1,47,95,12,1,,,,,,,,,,,,,,,,,,,,,,,,,,,,,,,,,,,,,,,,,,
,,,,,,,,,,,,,1001,2020-05-06_12h16.21.161,ANTCPTp,2020.1.2,MacIntel,60,,,,,,,,1,0,1,0,1,,,,,,,,,,,,,,,,,,,,,,,,,,,,,,,,,,,,,
1.05,right,1,0.458,,,,,,stim/lower.png,stim/neutralLeft.png,right,180,1001,2020-05-06_12h16.21.161,ANTCPTp,2020.1.2,MacIntel,60,,,0,0,0,36,1,,,,,,,,,,,,,,,,,,,,,,,,,,,,,,,,,,,,,,,,,,
1.15,right,1,0.417,,,,,,stim/upper.png,stim/neutralRight.png,right,0,1001,2020-05-06_12h16.21.161,ANTCPTp,2020.1.2,MacIntel,60,,,0,1,1,40,1,,,,,,,,,,,,,,,,,,,,,,,,,,,,,,,,,,,,,,,,,,
0.45,right,1,0.443,,,,,,stim/both.png,stim/congLeft.png,right,180,1001,2020-05-06_12h16.21.161,ANTCPTp,2020.1.2,MacIntel,60,,,0,2,2,5,1,,,,,,,,,,,,,,,,,,,,,,,,,,,,,,,,,,,,,,,,,,
0.75,right,1,0.385,,,,,,stim/blank.png,stim/congLeft.png,right,180,1001,2020-05-06_12h16.21.161,ANTCPTp,2020.1.2,MacIntel,60,,,0,3,3,7,1,,,,,,,,,,,,,,,,,,,,,,,,,,,,,,,,,,,,,,,,,,
0.45,left,1,0.751,,,,,,stim/blank.png,stim/neutralLeft.png,left,0,1001,2020-05-06_12h16.21.161,ANTCPTp,2020.1.2,MacIntel,60,,,0,4,4,35,1,,,,,,,,,,,,,,,,,,,,,,,,,,,,,,,,,,,,,,,,,,
0.4,left,1,0.422,,,,,,stim/both.png,stim/congRight.png,left,180,1001,2020-05-06_12h16.21.161,ANTCPTp,2020.1.2,MacIntel,60,,,0,5,5,13,1,,,,,,,,,,,,,,,,,,,,,,,,,,,,,,,,,,,,,,,,,,
1.55,right,1,0.448,,,,,,stim/both.png,stim/neutralRight.png,right,0,1001,2020-05-06_12h16.21.161,ANTCPTp,2020.1.2,MacIntel,60,,,0,6,6,41,1,,,,,,,,,,,,,,,,,,,,,,,,,,,,,,,,,,,,,,,,,,
1.4,left,1,0.62,,,,,,stim/blank.png,stim/incongLeft.png,left,0,1001,2020-05-06_12h16.21.161,ANTCPTp,2020.1.2,MacIntel,60,,,0,7,7,19,1,,,,,,,,,,,,,,,,,,,,,,,,,,,,,,,,,,,,,,,,,,
1.1,left,0,0.436,,,,,,stim/centre.png,stim/incongLeft.png,right,180,1001,2020-05-06_12h16.21.161,ANTCPTp,2020.1.2,MacIntel,60,,,0,8,8,22,1,,,,,,,,,,,,,,,,,,,,,,,,,,,,,,,,,,,,,,,,,,
1.3,left,1,0.481,,,,,,stim/lower.png,stim/congRight.png,left,180,1001,2020-05-06_12h16.21.161,ANTCPTp,2020.1.2,MacIntel,60,,,0,9,9,12,1,,,,,,,,,,,,,,,,,,,,,,,,,,,,,,,,,,,,,,,,,,
1.2,left,1,0.436,,,,,,stim/centre.png,stim/congLeft.png,left,0,1001,2020-05-06_12h16.21.161,ANTCPTp,2020.1.2,MacIntel,60,,,0,10,10,2,1,,,,,,,,,,,,,,,,,,,,,,,,,,,,,,,,,,,,,,,,,,
1.15,right,1,0.592,,,,,,stim/centre.png,stim/incongRight.png,right,0,1001,2020-05-06_12h16.21.161,ANTCPTp,2020.1.2,MacIntel,60,,,0,11,11,26,1,,,,,,,,,,,,,,,,,,,,,,,,,,,,,,,,,,,,,,,,,,
1.45,right,1,0.508,,,,,,stim/blank.png,stim/neutralLeft.png,right,180,1001,2020-05-06_12h16.21.161,ANTCPTp,2020.1.2,MacIntel,60,,,0,12,12,39,1,,,,,,,,,,,,,,,,,,,,,,,,,,,,,,,,,,,,,,,,,,
1.15,left,1,0.521,,,,,,stim/blank.png,stim/congRight.png,left,180,1001,2020-05-06_12h16.21.161,ANTCPTp,2020.1.2,MacIntel,60,,,0,13,13,15,1,,,,,,,,,,,,,,,,,,,,,,,,,,,,,,,,,,,,,,,,,,
0.7,left,1,0.46,,,,,,stim/lower.png,stim/neutralRight.png,left,180,1001,2020-05-06_12h16.21.161,ANTCPTp,2020.1.2,MacIntel,60,,,0,14,14,44,1,,,,,,,,,,,,,,,,,,,,,,,,,,,,,,,,,,,,,,,,,,
0.7,right,1,0.505,,,,,,stim/blank.png,stim/congRight.png,right,0,1001,2020-05-06_12h16.21.161,ANTCPTp,2020.1.2,MacIntel,60,,,0,15,15,11,1,,,,,,,,,,,,,,,,,,,,,,,,,,,,,,,,,,,,,,,,,,
0.75,right,1,0.533,,,,,,stim/both.png,stim/neutralLeft.png,right,180,1001,2020-05-06_12h16.21.161,ANTCPTp,2020.1.2,MacIntel,60,,,0,16,16,37,1,,,,,,,,,,,,,,,,,,,,,,,,,,,,,,,,,,,,,,,,,,
1,right,1,0.476,,,,,,stim/lower.png,stim/congLeft.png,right,180,1001,2020-05-06_12h16.21.161,ANTCPTp,2020.1.2,MacIntel,60,,,0,17,17,4,1,,,,,,,,,,,,,,,,,,,,,,,,,,,,,,,,,,,,,,,,,,
0.7,left,1,0.667,,,,,,stim/both.png,stim/neutralLeft.png,left,0,1001,2020-05-06_12h16.21.161,ANTCPTp,2020.1.2,MacIntel,60,,,0,18,18,33,1,,,,,,,,,,,,,,,,,,,,,,,,,,,,,,,,,,,,,,,,,,
1.3,left,1,0.66,,,,,,stim/upper.png,stim/incongLeft.png,left,0,1001,2020-05-06_12h16.21.161,ANTCPTp,2020.1.2,MacIntel,60,,,0,19,19,16,1,,,,,,,,,,,,,,,,,,,,,,,,,,,,,,,,,,,,,,,,,,
0.4,left,1,0.72,,,,,,stim/both.png,stim/incongLeft.png,left,0,1001,2020-05-06_12h16.21.161,ANTCPTp,2020.1.2,MacIntel,60,,,0,20,20,17,1,,,,,,,,,,,,,,,,,,,,,,,,,,,,,,,,,,,,,,,,,,
0.95,right,1,0.579,,,,,,stim/centre.png,stim/neutralLeft.png,right,180,1001,2020-05-06_12h16.21.161,ANTCPTp,2020.1.2,MacIntel,60,,,0,21,21,38,1,,,,,,,,,,,,,,,,,,,,,,,,,,,,,,,,,,,,,,,,,,
1.5,left,0,0.404,,,,,,stim/upper.png,stim/incongRight.png,right,0,1001,2020-05-06_12h16.21.161,ANTCPTp,2020.1.2,MacIntel,60,,,0,22,22,24,1,,,,,,,,,,,,,,,,,,,,,,,,,,,,,,,,,,,,,,,,,,
0.9,right,1,0.458,,,,,,stim/blank.png,stim/neutralRight.png,right,0,1001,2020-05-06_12h16.21.161,ANTCPTp,2020.1.2,MacIntel,60,,,0,23,23,43,1,,,,,,,,,,,,,,,,,,,,,,,,,,,,,,,,,,,,,,,,,,
1.35,left,1,0.478,,,,,,stim/centre.png,stim/neutralLeft.png,left,0,1001,2020-05-06_12h16.21.161,ANTCPTp,2020.1.2,MacIntel,60,,,0,24,24,34,1,,,,,,,,,,,,,,,,,,,,,,,,,,,,,,,,,,,,,,,,,,
1.25,left,1,0.46,,,,,,stim/blank.png,stim/congLeft.png,left,0,1001,2020-05-06_12h16.21.161,ANTCPTp,2020.1.2,MacIntel,60,,,0,25,25,3,1,,,,,,,,,,,,,,,,,,,,,,,,,,,,,,,,,,,,,,,,,,
0.75,right,1,0.684,,,,,,stim/blank.png,stim/incongLeft.png,right,180,1001,2020-05-06_12h16.21.161,ANTCPTp,2020.1.2,MacIntel,60,,,0,26,26,23,1,,,,,,,,,,,,,,,,,,,,,,,,,,,,,,,,,,,,,,,,,,
0.65,left,1,0.657,,,,,,stim/both.png,stim/incongRight.png,left,180,1001,2020-05-06_12h16.21.161,ANTCPTp,2020.1.2,MacIntel,60,,,0,27,27,29,1,,,,,,,,,,,,,,,,,,,,,,,,,,,,,,,,,,,,,,,,,,
1.55,left,1,0.475,,,,,,stim/upper.png,stim/congLeft.png,left,0,1001,2020-05-06_12h16.21.161,ANTCPTp,2020.1.2,MacIntel,60,,,0,28,28,0,1,,,,,,,,,,,,,,,,,,,,,,,,,,,,,,,,,,,,,,,,,,
1,right,1,0.559,,,,,,stim/both.png,stim/incongRight.png,right,0,1001,2020-05-06_12h16.21.161,ANTCPTp,2020.1.2,MacIntel,60,,,0,29,29,25,1,,,,,,,,,,,,,,,,,,,,,,,,,,,,,,,,,,,,,,,,,,
1.1,right,1,0.443,,,,,,stim/upper.png,stim/congRight.png,right,0,1001,2020-05-06_12h16.21.161,ANTCPTp,2020.1.2,MacIntel,60,,,0,30,30,8,1,,,,,,,,,,,,,,,,,,,,,,,,,,,,,,,,,,,,,,,,,,
0.6,right,0,0.299,,,,,,stim/upper.png,stim/neutralLeft.png,left,0,1001,2020-05-06_12h16.21.161,ANTCPTp,2020.1.2,MacIntel,60,,,0,31,31,32,1,,,,,,,,,,,,,,,,,,,,,,,,,,,,,,,,,,,,,,,,,,
0.6,right,0,0.382,,,,,,stim/centre.png,stim/incongLeft.png,left,0,1001,2020-05-06_12h16.21.161,ANTCPTp,2020.1.2,MacIntel,60,,,0,32,32,18,1,,,,,,,,,,,,,,,,,,,,,,,,,,,,,,,,,,,,,,,,,,
0.5,left,1,0.645,,,,,,stim/blank.png,stim/neutralRight.png,left,180,1001,2020-05-06_12h16.21.161,ANTCPTp,2020.1.2,MacIntel,60,,,0,33,33,47,1,,,,,,,,,,,,,,,,,,,,,,,,,,,,,,,,,,,,,,,,,,
0.55,left,1,0.51,,,,,,stim/centre.png,stim/congRight.png,left,180,1001,2020-05-06_12h16.21.161,ANTCPTp,2020.1.2,MacIntel,60,,,0,34,34,14,1,,,,,,,,,,,,,,,,,,,,,,,,,,,,,,,,,,,,,,,,,,
0.5,left,1,0.704,,,,,,stim/blank.png,stim/incongRight.png,left,180,1001,2020-05-06_12h16.21.161,ANTCPTp,2020.1.2,MacIntel,60,,,0,35,35,31,1,,,,,,,,,,,,,,,,,,,,,,,,,,,,,,,,,,,,,,,,,,
1.15,right,1,0.692,,,,,,stim/blank.png,stim/incongRight.png,right,0,1001,2020-05-06_12h16.21.161,ANTCPTp,2020.1.2,MacIntel,60,,,0,36,36,27,1,,,,,,,,,,,,,,,,,,,,,,,,,,,,,,,,,,,,,,,,,,
1.35,right,1,0.5,,,,,,stim/lower.png,stim/incongLeft.png,right,180,1001,2020-05-06_12h16.21.161,ANTCPTp,2020.1.2,MacIntel,60,,,0,37,37,20,1,,,,,,,,,,,,,,,,,,,,,,,,,,,,,,,,,,,,,,,,,,
0.5,right,1,0.421,,,,,,stim/centre.png,stim/congLeft.png,right,180,1001,2020-05-06_12h16.21.161,ANTCPTp,2020.1.2,MacIntel,60,,,0,38,38,6,1,,,,,,,,,,,,,,,,,,,,,,,,,,,,,,,,,,,,,,,,,,
1.45,right,1,0.435,,,,,,stim/both.png,stim/congRight.png,right,0,1001,2020-05-06_12h16.21.161,ANTCPTp,2020.1.2,MacIntel,60,,,0,39,39,9,1,,,,,,,,,,,,,,,,,,,,,,,,,,,,,,,,,,,,,,,,,,
1.1,right,1,0.414,,,,,,stim/centre.png,stim/congRight.png,right,0,1001,2020-05-06_12h16.21.161,ANTCPTp,2020.1.2,MacIntel,60,,,0,40,40,10,1,,,,,,,,,,,,,,,,,,,,,,,,,,,,,,,,,,,,,,,,,,
0.95,left,1,0.599,,,,,,stim/centre.png,stim/incongRight.png,left,180,1001,2020-05-06_12h16.21.161,ANTCPTp,2020.1.2,MacIntel,60,,,0,41,41,30,1,,,,,,,,,,,,,,,,,,,,,,,,,,,,,,,,,,,,,,,,,,
0.9,right,1,0.452,,,,,,stim/centre.png,stim/neutralRight.png,right,0,1001,2020-05-06_12h16.21.161,ANTCPTp,2020.1.2,MacIntel,60,,,0,42,42,42,1,,,,,,,,,,,,,,,,,,,,,,,,,,,,,,,,,,,,,,,,,,
0.8,left,1,0.517,,,,,,stim/both.png,stim/congLeft.png,left,0,1001,2020-05-06_12h16.21.161,ANTCPTp,2020.1.2,MacIntel,60,,,0,43,43,1,1,,,,,,,,,,,,,,,,,,,,,,,,,,,,,,,,,,,,,,,,,,
1.45,left,1,0.426,,,,,,stim/centre.png,stim/neutralRight.png,left,180,1001,2020-05-06_12h16.21.161,ANTCPTp,2020.1.2,MacIntel,60,,,0,44,44,46,1,,,,,,,,,,,,,,,,,,,,,,,,,,,,,,,,,,,,,,,,,,
0.85,right,1,0.627,,,,,,stim/both.png,stim/incongLeft.png,right,180,1001,2020-05-06_12h16.21.161,ANTCPTp,2020.1.2,MacIntel,60,,,0,45,45,21,1,,,,,,,,,,,,,,,,,,,,,,,,,,,,,,,,,,,,,,,,,,
1.55,left,1,0.654,,,,,,stim/both.png,stim/neutralRight.png,left,180,1001,2020-05-06_12h16.21.161,ANTCPTp,2020.1.2,MacIntel,60,,,0,46,46,45,1,,,,,,,,,,,,,,,,,,,,,,,,,,,,,,,,,,,,,,,,,,
1.3,left,1,0.564,,,,,,stim/lower.png,stim/incongRight.png,left,180,1001,2020-05-06_12h16.21.161,ANTCPTp,2020.1.2,MacIntel,60,,,0,47,47,28,1,,,,,,,,,,,,,,,,,,,,,,,,,,,,,,,,,,,,,,,,,,
1.2,left,1,0.441,,,,,,stim/centre.png,stim/neutralRight.png,left,180,1001,2020-05-06_12h16.21.161,ANTCPTp,2020.1.2,MacIntel,60,,,1,0,48,46,1,,,,,,,,,,,,,,,,,,,,,,,,,,,,,,,,,,,,,,,,,,
1.05,right,1,0.402,,,,,,stim/blank.png,stim/neutralRight.png,right,0,1001,2020-05-06_12h16.21.161,ANTCPTp,2020.1.2,MacIntel,60,,,1,1,49,43,1,,,,,,,,,,,,,,,,,,,,,,,,,,,,,,,,,,,,,,,,,,
1.35,left,1,0.604,,,,,,stim/blank.png,stim/incongLeft.png,left,0,1001,2020-05-06_12h16.21.161,ANTCPTp,2020.1.2,MacIntel,60,,,1,2,50,19,1,,,,,,,,,,,,,,,,,,,,,,,,,,,,,,,,,,,,,,,,,,
0.85,right,1,0.482,,,,,,stim/blank.png,stim/neutralLeft.png,right,180,1001,2020-05-06_12h16.21.161,ANTCPTp,2020.1.2,MacIntel,60,,,1,3,51,39,1,,,,,,,,,,,,,,,,,,,,,,,,,,,,,,,,,,,,,,,,,,
0.6,left,0,0.39,,,,,,stim/both.png,stim/incongRight.png,right,0,1001,2020-05-06_12h16.21.161,ANTCPTp,2020.1.2,MacIntel,60,,,1,4,52,25,1,,,,,,,,,,,,,,,,,,,,,,,,,,,,,,,,,,,,,,,,,,
0.7,left,1,0.482,,,,,,stim/upper.png,stim/congLeft.png,left,0,1001,2020-05-06_12h16.21.161,ANTCPTp,2020.1.2,MacIntel,60,,,1,5,53,0,1,,,,,,,,,,,,,,,,,,,,,,,,,,,,,,,,,,,,,,,,,,
0.4,left,1,0.509,,,,,,stim/lower.png,stim/congRight.png,left,180,1001,2020-05-06_12h16.21.161,ANTCPTp,2020.1.2,MacIntel,60,,,1,6,54,12,1,,,,,,,,,,,,,,,,,,,,,,,,,,,,,,,,,,,,,,,,,,
1.35,right,1,0.299,,,,,,stim/upper.png,stim/congRight.png,right,0,1001,2020-05-06_12h16.21.161,ANTCPTp,2020.1.2,MacIntel,60,,,1,7,55,8,1,,,,,,,,,,,,,,,,,,,,,,,,,,,,,,,,,,,,,,,,,,
1.05,left,1,0.475,,,,,,stim/lower.png,stim/neutralRight.png,left,180,1001,2020-05-06_12h16.21.161,ANTCPTp,2020.1.2,MacIntel,60,,,1,8,56,44,1,,,,,,,,,,,,,,,,,,,,,,,,,,,,,,,,,,,,,,,,,,
1.2,left,0,0.403,,,,,,stim/centre.png,stim/incongLeft.png,right,180,1001,2020-05-06_12h16.21.161,ANTCPTp,2020.1.2,MacIntel,60,,,1,9,57,22,1,,,,,,,,,,,,,,,,,,,,,,,,,,,,,,,,,,,,,,,,,,
1.25,left,1,0.649,,,,,,stim/centre.png,stim/incongLeft.png,left,0,1001,2020-05-06_12h16.21.161,ANTCPTp,2020.1.2,MacIntel,60,,,1,10,58,18,1,,,,,,,,,,,,,,,,,,,,,,,,,,,,,,,,,,,,,,,,,,
0.95,right,1,0.503,,,,,,stim/both.png,stim/congRight.png,right,0,1001,2020-05-06_12h16.21.161,ANTCPTp,2020.1.2,MacIntel,60,,,1,11,59,9,1,,,,,,,,,,,,,,,,,,,,,,,,,,,,,,,,,,,,,,,,,,
1.5,right,1,0.486,,,,,,stim/blank.png,stim/congLeft.png,right,180,1001,2020-05-06_12h16.21.161,ANTCPTp,2020.1.2,MacIntel,60,,,1,12,60,7,1,,,,,,,,,,,,,,,,,,,,,,,,,,,,,,,,,,,,,,,,,,
1.1,right,0,0.419,,,,,,stim/blank.png,stim/incongRight.png,left,180,1001,2020-05-06_12h16.21.161,ANTCPTp,2020.1.2,MacIntel,60,,,1,13,61,31,1,,,,,,,,,,,,,,,,,,,,,,,,,,,,,,,,,,,,,,,,,,
0.65,left,1,0.485,,,,,,stim/upper.png,stim/neutralLeft.png,left,0,1001,2020-05-06_12h16.21.161,ANTCPTp,2020.1.2,MacIntel,60,,,1,14,62,32,1,,,,,,,,,,,,,,,,,,,,,,,,,,,,,,,,,,,,,,,,,,
1.5,right,1,0.731,,,,,,stim/blank.png,stim/incongLeft.png,right,180,1001,2020-05-06_12h16.21.161,ANTCPTp,2020.1.2,MacIntel,60,,,1,15,63,23,1,,,,,,,,,,,,,,,,,,,,,,,,,,,,,,,,,,,,,,,,,,
1.05,left,1,0.364,,,,,,stim/centre.png,stim/congLeft.png,left,0,1001,2020-05-06_12h16.21.161,ANTCPTp,2020.1.2,MacIntel,60,,,1,16,64,2,1,,,,,,,,,,,,,,,,,,,,,,,,,,,,,,,,,,,,,,,,,,
1.55,right,1,0.483,,,,,,stim/centre.png,stim/neutralLeft.png,right,180,1001,2020-05-06_12h16.21.161,ANTCPTp,2020.1.2,MacIntel,60,,,1,17,65,38,1,,,,,,,,,,,,,,,,,,,,,,,,,,,,,,,,,,,,,,,,,,
1.3,right,1,0.459,,,,,,stim/centre.png,stim/neutralRight.png,right,0,1001,2020-05-06_12h16.21.161,ANTCPTp,2020.1.2,MacIntel,60,,,1,18,66,42,1,,,,,,,,,,,,,,,,,,,,,,,,,,,,,,,,,,,,,,,,,,
1.4,right,1,0.478,,,,,,stim/both.png,stim/congLeft.png,right,180,1001,2020-05-06_12h16.21.161,ANTCPTp,2020.1.2,MacIntel,60,,,1,19,67,5,1,,,,,,,,,,,,,,,,,,,,,,,,,,,,,,,,,,,,,,,,,,
0.75,left,1,0.417,,,,,,stim/both.png,stim/neutralLeft.png,left,0,1001,2020-05-06_12h16.21.161,ANTCPTp,2020.1.2,MacIntel,60,,,1,20,68,33,1,,,,,,,,,,,,,,,,,,,,,,,,,,,,,,,,,,,,,,,,,,
1.25,right,0,0.309,,,,,,stim/both.png,stim/incongLeft.png,left,0,1001,2020-05-06_12h16.21.161,ANTCPTp,2020.1.2,MacIntel,60,,,1,21,69,17,1,,,,,,,,,,,,,,,,,,,,,,,,,,,,,,,,,,,,,,,,,,
0.5,left,1,0.534,,,,,,stim/centre.png,stim/congRight.png,left,180,1001,2020-05-06_12h16.21.161,ANTCPTp,2020.1.2,MacIntel,60,,,1,22,70,14,1,,,,,,,,,,,,,,,,,,,,,,,,,,,,,,,,,,,,,,,,,,
0.7,left,1,0.46,,,,,,stim/both.png,stim/congRight.png,left,180,1001,2020-05-06_12h16.21.161,ANTCPTp,2020.1.2,MacIntel,60,,,1,23,71,13,1,,,,,,,,,,,,,,,,,,,,,,,,,,,,,,,,,,,,,,,,,,
0.8,left,0,0.471,,,,,,stim/blank.png,stim/incongRight.png,right,0,1001,2020-05-06_12h16.21.161,ANTCPTp,2020.1.2,MacIntel,60,,,1,24,72,27,1,,,,,,,,,,,,,,,,,,,,,,,,,,,,,,,,,,,,,,,,,,
1.1,left,1,0.447,,,,,,stim/blank.png,stim/congLeft.png,left,0,1001,2020-05-06_12h16.21.161,ANTCPTp,2020.1.2,MacIntel,60,,,1,25,73,3,1,,,,,,,,,,,,,,,,,,,,,,,,,,,,,,,,,,,,,,,,,,
1.5,left,1,0.544,,,,,,stim/blank.png,stim/neutralLeft.png,left,0,1001,2020-05-06_12h16.21.161,ANTCPTp,2020.1.2,MacIntel,60,,,1,26,74,35,1,,,,,,,,,,,,,,,,,,,,,,,,,,,,,,,,,,,,,,,,,,
1.15,left,1,0.61,,,,,,stim/upper.png,stim/incongLeft.png,left,0,1001,2020-05-06_12h16.21.161,ANTCPTp,2020.1.2,MacIntel,60,,,1,27,75,16,1,,,,,,,,,,,,,,,,,,,,,,,,,,,,,,,,,,,,,,,,,,
0.7,right,1,0.583,,,,,,stim/lower.png,stim/incongLeft.png,right,180,1001,2020-05-06_12h16.21.161,ANTCPTp,2020.1.2,MacIntel,60,,,1,28,76,20,1,,,,,,,,,,,,,,,,,,,,,,,,,,,,,,,,,,,,,,,,,,
1,right,1,0.516,,,,,,stim/both.png,stim/neutralRight.png,right,0,1001,2020-05-06_12h16.21.161,ANTCPTp,2020.1.2,MacIntel,60,,,1,29,77,41,1,,,,,,,,,,,,,,,,,,,,,,,,,,,,,,,,,,,,,,,,,,
1.4,left,1,0.469,,,,,,stim/centre.png,stim/neutralLeft.png,left,0,1001,2020-05-06_12h16.21.161,ANTCPTp,2020.1.2,MacIntel,60,,,1,30,78,34,1,,,,,,,,,,,,,,,,,,,,,,,,,,,,,,,,,,,,,,,,,,
1.3,right,1,0.409,,,,,,stim/centre.png,stim/congLeft.png,right,180,1001,2020-05-06_12h16.21.161,ANTCPTp,2020.1.2,MacIntel,60,,,1,31,79,6,1,,,,,,,,,,,,,,,,,,,,,,,,,,,,,,,,,,,,,,,,,,
1,right,0,0.425,,,,,,stim/lower.png,stim/incongRight.png,left,180,1001,2020-05-06_12h16.21.161,ANTCPTp,2020.1.2,MacIntel,60,,,1,32,80,28,1,,,,,,,,,,,,,,,,,,,,,,,,,,,,,,,,,,,,,,,,,,
0.75,left,1,0.525,,,,,,stim/blank.png,stim/neutralRight.png,left,180,1001,2020-05-06_12h16.21.161,ANTCPTp,2020.1.2,MacIntel,60,,,1,33,81,47,1,,,,,,,,,,,,,,,,,,,,,,,,,,,,,,,,,,,,,,,,,,
1.35,right,1,0.4,,,,,,stim/upper.png,stim/neutralRight.png,right,0,1001,2020-05-06_12h16.21.161,ANTCPTp,2020.1.2,MacIntel,60,,,1,34,82,40,1,,,,,,,,,,,,,,,,,,,,,,,,,,,,,,,,,,,,,,,,,,
0.7,right,1,0.394,,,,,,stim/lower.png,stim/congLeft.png,right,180,1001,2020-05-06_12h16.21.161,ANTCPTp,2020.1.2,MacIntel,60,,,1,35,83,4,1,,,,,,,,,,,,,,,,,,,,,,,,,,,,,,,,,,,,,,,,,,
1.05,left,1,0.893,,,,,,stim/centre.png,stim/incongRight.png,left,180,1001,2020-05-06_12h16.21.161,ANTCPTp,2020.1.2,MacIntel,60,,,1,36,84,30,1,,,,,,,,,,,,,,,,,,,,,,,,,,,,,,,,,,,,,,,,,,
0.55,right,1,0.725,,,,,,stim/blank.png,stim/congRight.png,right,0,1001,2020-05-06_12h16.21.161,ANTCPTp,2020.1.2,MacIntel,60,,,1,37,85,11,1,,,,,,,,,,,,,,,,,,,,,,,,,,,,,,,,,,,,,,,,,,
1.15,left,1,0.454,,,,,,stim/blank.png,stim/congRight.png,left,180,1001,2020-05-06_12h16.21.161,ANTCPTp,2020.1.2,MacIntel,60,,,1,38,86,15,1,,,,,,,,,,,,,,,,,,,,,,,,,,,,,,,,,,,,,,,,,,
0.4,right,1,0.618,,,,,,stim/upper.png,stim/incongRight.png,right,0,1001,2020-05-06_12h16.21.161,ANTCPTp,2020.1.2,MacIntel,60,,,1,39,87,24,1,,,,,,,,,,,,,,,,,,,,,,,,,,,,,,,,,,,,,,,,,,
0.9,right,1,0.483,,,,,,stim/centre.png,stim/congRight.png,right,0,1001,2020-05-06_12h16.21.161,ANTCPTp,2020.1.2,MacIntel,60,,,1,40,88,10,1,,,,,,,,,,,,,,,,,,,,,,,,,,,,,,,,,,,,,,,,,,
1.35,left,0,0.386,,,,,,stim/both.png,stim/incongLeft.png,right,180,1001,2020-05-06_12h16.21.161,ANTCPTp,2020.1.2,MacIntel,60,,,1,41,89,21,1,,,,,,,,,,,,,,,,,,,,,,,,,,,,,,,,,,,,,,,,,,
0.5,left,1,0.443,,,,,,stim/both.png,stim/congLeft.png,left,0,1001,2020-05-06_12h16.21.161,ANTCPTp,2020.1.2,MacIntel,60,,,1,42,90,1,1,,,,,,,,,,,,,,,,,,,,,,,,,,,,,,,,,,,,,,,,,,
1.35,right,1,0.455,,,,,,stim/lower.png,stim/neutralLeft.png,right,180,1001,2020-05-06_12h16.21.161,ANTCPTp,2020.1.2,MacIntel,60,,,1,43,91,36,1,,,,,,,,,,,,,,,,,,,,,,,,,,,,,,,,,,,,,,,,,,
1.55,left,1,0.578,,,,,,stim/both.png,stim/incongRight.png,left,180,1001,2020-05-06_12h16.21.161,ANTCPTp,2020.1.2,MacIntel,60,,,1,44,92,29,1,,,,,,,,,,,,,,,,,,,,,,,,,,,,,,,,,,,,,,,,,,
0.45,right,1,0.56,,,,,,stim/centre.png,stim/incongRight.png,right,0,1001,2020-05-06_12h16.21.161,ANTCPTp,2020.1.2,MacIntel,60,,,1,45,93,26,1,,,,,,,,,,,,,,,,,,,,,,,,,,,,,,,,,,,,,,,,,,
1.3,right,1,0.391,,,,,,stim/both.png,stim/neutralLeft.png,right,180,1001,2020-05-06_12h16.21.161,ANTCPTp,2020.1.2,MacIntel,60,,,1,46,94,37,1,,,,,,,,,,,,,,,,,,,,,,,,,,,,,,,,,,,,,,,,,,
0.5,left,1,0.543,,,,,,stim/both.png,stim/neutralRight.png,left,180,1001,2020-05-06_12h16.21.161,ANTCPTp,2020.1.2,MacIntel,60,,,1,47,95,45,1,,,,,,,,,,,,,,,,,,,,,,,,,,,,,,,,,,,,,,,,,,
,,,,,,,,,,,space,,1001,2020-05-06_12h16.21.161,ANTCPTp,2020.1.2,MacIntel,60,,,,,,,,,,,,,space,28.82,space,20.518,space,12.744,space,1,0.476,0,0,0,2,1,C,,,,,,,,,,,,,,,,,,,,,,
,,,,,,,,,,,,,1001,2020-05-06_12h16.21.161,ANTCPTp,2020.1.2,MacIntel,60,,,,,,,,,,,,,,,,,,,,1,,0,1,1,16,1,X,,,,,,,,,,,,,,,,,,,,,,
,,,,,,,,,,,space,,1001,2020-05-06_12h16.21.161,ANTCPTp,2020.1.2,MacIntel,60,,,,,,,,,,,,,,,,,,,space,1,0.367,0,2,2,6,1,J,,,,,,,,,,,,,,,,,,,,,,
,,,,,,,,,,,space,,1001,2020-05-06_12h16.21.161,ANTCPTp,2020.1.2,MacIntel,60,,,,,,,,,,,,,,,,,,,space,1,0.329,0,3,3,0,1,A,,,,,,,,,,,,,,,,,,,,,,
,,,,,,,,,,,space,,1001,2020-05-06_12h16.21.161,ANTCPTp,2020.1.2,MacIntel,60,,,,,,,,,,,,,,,,,,,space,1,0.341,0,4,4,5,1,F,,,,,,,,,,,,,,,,,,,,,,
,,,,,,,,,,,,,1001,2020-05-06_12h16.21.161,ANTCPTp,2020.1.2,MacIntel,60,,,,,,,,,,,,,,,,,,,space,0,0.315,0,5,5,15,1,X,,,,,,,,,,,,,,,,,,,,,,
,,,,,,,,,,,space,,1001,2020-05-06_12h16.21.161,ANTCPTp,2020.1.2,MacIntel,60,,,,,,,,,,,,,,,,,,,space,1,0.401,0,6,6,14,1,Y,,,,,,,,,,,,,,,,,,,,,,
,,,,,,,,,,,space,,1001,2020-05-06_12h16.21.161,ANTCPTp,2020.1.2,MacIntel,60,,,,,,,,,,,,,,,,,,,space,1,0.401,0,7,7,4,1,E,,,,,,,,,,,,,,,,,,,,,,
,,,,,,,,,,,space,,1001,2020-05-06_12h16.21.161,ANTCPTp,2020.1.2,MacIntel,60,,,,,,,,,,,,,,,,,,,space,1,0.374,0,8,8,12,1,V,,,,,,,,,,,,,,,,,,,,,,
,,,,,,,,,,,space,,1001,2020-05-06_12h16.21.161,ANTCPTp,2020.1.2,MacIntel,60,,,,,,,,,,,,,,,,,,,space,1,0.357,0,9,9,8,1,O,,,,,,,,,,,,,,,,,,,,,,
,,,,,,,,,,,space,,1001,2020-05-06_12h16.21.161,ANTCPTp,2020.1.2,MacIntel,60,,,,,,,,,,,,,,,,,,,space,1,0.43,0,10,10,7,1,N,,,,,,,,,,,,,,,,,,,,,,
,,,,,,,,,,,space,,1001,2020-05-06_12h16.21.161,ANTCPTp,2020.1.2,MacIntel,60,,,,,,,,,,,,,,,,,,,space,1,0.362,0,11,11,3,1,D,,,,,,,,,,,,,,,,,,,,,,
,,,,,,,,,,,space,,1001,2020-05-06_12h16.21.161,ANTCPTp,2020.1.2,MacIntel,60,,,,,,,,,,,,,,,,,,,space,1,0.332,0,12,12,10,1,Q,,,,,,,,,,,,,,,,,,,,,,
,,,,,,,,,,,space,,1001,2020-05-06_12h16.21.161,ANTCPTp,2020.1.2,MacIntel,60,,,,,,,,,,,,,,,,,,,space,1,0.281,0,13,13,13,1,W,,,,,,,,,,,,,,,,,,,,,,
,,,,,,,,,,,space,,1001,2020-05-06_12h16.21.161,ANTCPTp,2020.1.2,MacIntel,60,,,,,,,,,,,,,,,,,,,space,1,0.301,0,14,14,11,1,U,,,,,,,,,,,,,,,,,,,,,,
,,,,,,,,,,,space,,1001,2020-05-06_12h16.21.161,ANTCPTp,2020.1.2,MacIntel,60,,,,,,,,,,,,,,,,,,,space,1,0.291,0,15,15,9,1,P,,,,,,,,,,,,,,,,,,,,,,
,,,,,,,,,,,space,,1001,2020-05-06_12h16.21.161,ANTCPTp,2020.1.2,MacIntel,60,,,,,,,,,,,,,,,,,,,space,1,0.326,0,16,16,1,1,B,,,,,,,,,,,,,,,,,,,,,,
,,,,,,,,,,,,,1001,2020-05-06_12h16.21.161,ANTCPTp,2020.1.2,MacIntel,60,,,,,,,,,,,,,,,,,,,,1,,,,,,,X,2,8.084,0,0,0,27,1,,,,,,,,,,,,,,,
,,,,,,,,,,,space,,1001,2020-05-06_12h16.21.161,ANTCPTp,2020.1.2,MacIntel,60,,,,,,,,,,,,,,,,,,,space,1,0.501,,,,,,R,,,0,1,1,17,1,,,,,,,,,,,,,,,
,,,,,,,,,,,space,,1001,2020-05-06_12h16.21.161,ANTCPTp,2020.1.2,MacIntel,60,,,,,,,,,,,,,,,,,,,space,1,0.323,,,,,,T,,,0,2,2,19,1,,,,,,,,,,,,,,,
,,,,,,,,,,,,,1001,2020-05-06_12h16.21.161,ANTCPTp,2020.1.2,MacIntel,60,,,,,,,,,,,,,,,,,,,space,0,0.222,,,,,,X,,,0,3,3,26,1,,,,,,,,,,,,,,,
,,,,,,,,,,,space,,1001,2020-05-06_12h16.21.161,ANTCPTp,2020.1.2,MacIntel,60,,,,,,,,,,,,,,,,,,,space,1,0.357,,,,,,O,,,0,4,4,14,1,,,,,,,,,,,,,,,
,,,,,,,,,,,space,,1001,2020-05-06_12h16.21.161,ANTCPTp,2020.1.2,MacIntel,60,,,,,,,,,,,,,,,,,,,space,1,0.37,,,,,,J,,,0,5,5,9,1,,,,,,,,,,,,,,,
,,,,,,,,,,,space,,1001,2020-05-06_12h16.21.161,ANTCPTp,2020.1.2,MacIntel,60,,,,,,,,,,,,,,,,,,,space,1,0.358,,,,,,I,,,0,6,6,8,1,,,,,,,,,,,,,,,
,,,,,,,,,,,space,,1001,2020-05-06_12h16.21.161,ANTCPTp,2020.1.2,MacIntel,60,,,,,,,,,,,,,,,,,,,space,1,0.24,,,,,,A,,,0,7,7,0,1,,,,,,,,,,,,,,,
,,,,,,,,,,,space,,1001,2020-05-06_12h16.21.161,ANTCPTp,2020.1.2,MacIntel,60,,,,,,,,,,,,,,,,,,,space,1,0.302,,,,,,C,,,0,8,8,2,1,,,,,,,,,,,,,,,
,,,,,,,,,,,space,,1001,2020-05-06_12h16.21.161,ANTCPTp,2020.1.2,MacIntel,60,,,,,,,,,,,,,,,,,,,space,1,0.313,,,,,,G,,,0,9,9,6,1,,,,,,,,,,,,,,,
,,,,,,,,,,,space,,1001,2020-05-06_12h16.21.161,ANTCPTp,2020.1.2,MacIntel,60,,,,,,,,,,,,,,,,,,,space,1,0.317,,,,,,Q,,,0,10,10,16,1,,,,,,,,,,,,,,,
,,,,,,,,,,,space,,1001,2020-05-06_12h16.21.161,ANTCPTp,2020.1.2,MacIntel,60,,,,,,,,,,,,,,,,,,,space,1,0.349,,,,,,W,,,0,11,11,22,1,,,,,,,,,,,,,,,
,,,,,,,,,,,space,,1001,2020-05-06_12h16.21.161,ANTCPTp,2020.1.2,MacIntel,60,,,,,,,,,,,,,,,,,,,space,1,0.25,,,,,,F,,,0,12,12,5,1,,,,,,,,,,,,,,,
,,,,,,,,,,,space,,1001,2020-05-06_12h16.21.161,ANTCPTp,2020.1.2,MacIntel,60,,,,,,,,,,,,,,,,,,,space,1,0.282,,,,,,V,,,0,13,13,21,1,,,,,,,,,,,,,,,
,,,,,,,,,,,space,,1001,2020-05-06_12h16.21.161,ANTCPTp,2020.1.2,MacIntel,60,,,,,,,,,,,,,,,,,,,space,1,0.284,,,,,,A,,,0,14,14,25,1,,,,,,,,,,,,,,,
,,,,,,,,,,,space,,1001,2020-05-06_12h16.21.161,ANTCPTp,2020.1.2,MacIntel,60,,,,,,,,,,,,,,,,,,,space,1,0.364,,,,,,K,,,0,15,15,10,1,,,,,,,,,,,,,,,
,,,,,,,,,,,space,,1001,2020-05-06_12h16.21.161,ANTCPTp,2020.1.2,MacIntel,60,,,,,,,,,,,,,,,,,,,space,1,0.285,,,,,,Y,,,0,16,16,23,1,,,,,,,,,,,,,,,
,,,,,,,,,,,space,,1001,2020-05-06_12h16.21.161,ANTCPTp,2020.1.2,MacIntel,60,,,,,,,,,,,,,,,,,,,space,1,0.267,,,,,,B,,,0,17,17,1,1,,,,,,,,,,,,,,,
,,,,,,,,,,,,,1001,2020-05-06_12h16.21.161,ANTCPTp,2020.1.2,MacIntel,60,,,,,,,,,,,,,,,,,,,space,0,0.29,,,,,,X,,,0,18,18,28,1,,,,,,,,,,,,,,,
,,,,,,,,,,,space,,1001,2020-05-06_12h16.21.161,ANTCPTp,2020.1.2,MacIntel,60,,,,,,,,,,,,,,,,,,,space,1,0.574,,,,,,D,,,0,19,19,3,1,,,,,,,,,,,,,,,
,,,,,,,,,,,space,,1001,2020-05-06_12h16.21.161,ANTCPTp,2020.1.2,MacIntel,60,,,,,,,,,,,,,,,,,,,space,1,0.448,,,,,,L,,,0,20,20,11,1,,,,,,,,,,,,,,,
,,,,,,,,,,,space,,1001,2020-05-06_12h16.21.161,ANTCPTp,2020.1.2,MacIntel,60,,,,,,,,,,,,,,,,,,,space,1,0.283,,,,,,E,,,0,21,21,4,1,,,,,,,,,,,,,,,
,,,,,,,,,,,space,,1001,2020-05-06_12h16.21.161,ANTCPTp,2020.1.2,MacIntel,60,,,,,,,,,,,,,,,,,,,space,1,0.39,,,,,,U,,,0,22,22,20,1,,,,,,,,,,,,,,,
,,,,,,,,,,,space,,1001,2020-05-06_12h16.21.161,ANTCPTp,2020.1.2,MacIntel,60,,,,,,,,,,,,,,,,,,,space,1,0.341,,,,,,P,,,0,23,23,15,1,,,,,,,,,,,,,,,
,,,,,,,,,,,space,,1001,2020-05-06_12h16.21.161,ANTCPTp,2020.1.2,MacIntel,60,,,,,,,,,,,,,,,,,,,space,1,0.339,,,,,,Z,,,0,24,24,24,1,,,,,,,,,,,,,,,
,,,,,,,,,,,space,,1001,2020-05-06_12h16.21.161,ANTCPTp,2020.1.2,MacIntel,60,,,,,,,,,,,,,,,,,,,space,1,0.372,,,,,,S,,,0,25,25,18,1,,,,,,,,,,,,,,,
,,,,,,,,,,,space,,1001,2020-05-06_12h16.21.161,ANTCPTp,2020.1.2,MacIntel,60,,,,,,,,,,,,,,,,,,,space,1,0.532,,,,,,N,,,0,26,26,13,1,,,,,,,,,,,,,,,
,,,,,,,,,,,,,1001,2020-05-06_12h16.21.161,ANTCPTp,2020.1.2,MacIntel,60,,,,,,,,,,,,,,,,,,,,1,,,,,,,X,,,0,27,27,29,1,,,,,,,,,,,,,,,
,,,,,,,,,,,space,,1001,2020-05-06_12h16.21.161,ANTCPTp,2020.1.2,MacIntel,60,,,,,,,,,,,,,,,,,,,space,1,0.358,,,,,,M,,,0,28,28,12,1,,,,,,,,,,,,,,,
,,,,,,,,,,,space,,1001,2020-05-06_12h16.21.161,ANTCPTp,2020.1.2,MacIntel,60,,,,,,,,,,,,,,,,,,,space,1,0.267,,,,,,H,,,0,29,29,7,1,,,,,,,,,,,,,,,
,,,,,,,,,,,space,,1001,2020-05-06_12h16.21.161,ANTCPTp,2020.1.2,MacIntel,60,,,,,,,,,,,,,,,,,,,space,1,0.384,,,,,,E,2,2.437,,,,,,0,0,0,2,1,,,,,,,,,,
,,,,,,,,,,,space,,1001,2020-05-06_12h16.21.161,ANTCPTp,2020.1.2,MacIntel,60,,,,,,,,,,,,,,,,,,,space,1,0.329,,,,,,Y,,,,,,,,0,1,1,17,1,,,,,,,,,,
,,,,,,,,,,,space,,1001,2020-05-06_12h16.21.161,ANTCPTp,2020.1.2,MacIntel,60,,,,,,,,,,,,,,,,,,,space,1,0.302,,,,,,R,,,,,,,,0,2,2,12,1,,,,,,,,,,
,,,,,,,,,,,space,,1001,2020-05-06_12h16.21.161,ANTCPTp,2020.1.2,MacIntel,60,,,,,,,,,,,,,,,,,,,space,1,0.307,,,,,,O,,,,,,,,0,3,3,10,1,,,,,,,,,,
,,,,,,,,,,,space,,1001,2020-05-06_12h16.21.161,ANTCPTp,2020.1.2,MacIntel,60,,,,,,,,,,,,,,,,,,,space,1,0.375,,,,,,Z,,,,,,,,0,4,4,18,1,,,,,,,,,,
,,,,,,,,,,,space,,1001,2020-05-06_12h16.21.161,ANTCPTp,2020.1.2,MacIntel,60,,,,,,,,,,,,,,,,,,,space,1,0.522,,,,,,W,,,,,,,,0,5,5,16,1,,,,,,,,,,
,,,,,,,,,,,space,,1001,2020-05-06_12h16.21.161,ANTCPTp,2020.1.2,MacIntel,60,,,,,,,,,,,,,,,,,,,space,1,0.409,,,,,,G,,,,,,,,0,6,6,4,1,,,,,,,,,,
,,,,,,,,,,,space,,1001,2020-05-06_12h16.21.161,ANTCPTp,2020.1.2,MacIntel,60,,,,,,,,,,,,,,,,,,,space,1,0.313,,,,,,A,,,,,,,,0,7,7,19,1,,,,,,,,,,
,,,,,,,,,,,space,,1001,2020-05-06_12h16.21.161,ANTCPTp,2020.1.2,MacIntel,60,,,,,,,,,,,,,,,,,,,space,1,0.33,,,,,,M,,,,,,,,0,8,8,8,1,,,,,,,,,,
,,,,,,,,,,,space,,1001,2020-05-06_12h16.21.161,ANTCPTp,2020.1.2,MacIntel,60,,,,,,,,,,,,,,,,,,,space,1,0.315,,,,,,K,,,,,,,,0,9,9,6,1,,,,,,,,,,
,,,,,,,,,,,,,1001,2020-05-06_12h16.21.161,ANTCPTp,2020.1.2,MacIntel,60,,,,,,,,,,,,,,,,,,,,1,,,,,,,X,,,,,,,,0,10,10,20,1,,,,,,,,,,
,,,,,,,,,,,space,,1001,2020-05-06_12h16.21.161,ANTCPTp,2020.1.2,MacIntel,60,,,,,,,,,,,,,,,,,,,,0,,,,,,,N,,,,,,,,0,11,11,9,1,,,,,,,,,,
,,,,,,,,,,,space,,1001,2020-05-06_12h16.21.161,ANTCPTp,2020.1.2,MacIntel,60,,,,,,,,,,,,,,,,,,,space,1,0.405,,,,,,T,,,,,,,,0,12,12,14,1,,,,,,,,,,
,,,,,,,,,,,space,,1001,2020-05-06_12h16.21.161,ANTCPTp,2020.1.2,MacIntel,60,,,,,,,,,,,,,,,,,,,space,1,0.339,,,,,,Q,,,,,,,,0,13,13,11,1,,,,,,,,,,
,,,,,,,,,,,space,,1001,2020-05-06_12h16.21.161,ANTCPTp,2020.1.2,MacIntel,60,,,,,,,,,,,,,,,,,,,space,1,0.267,,,,,,L,,,,,,,,0,14,14,7,1,,,,,,,,,,
,,,,,,,,,,,,,1001,2020-05-06_12h16.21.161,ANTCPTp,2020.1.2,MacIntel,60,,,,,,,,,,,,,,,,,,,space,0,0.27,,,,,,X,,,,,,,,0,15,15,21,1,,,,,,,,,,
,,,,,,,,,,,space,,1001,2020-05-06_12h16.21.161,ANTCPTp,2020.1.2,MacIntel,60,,,,,,,,,,,,,,,,,,,space,1,0.323,,,,,,H,,,,,,,,0,16,16,5,1,,,,,,,,,,
,,,,,,,,,,,space,,1001,2020-05-06_12h16.21.161,ANTCPTp,2020.1.2,MacIntel,60,,,,,,,,,,,,,,,,,,,space,1,0.264,,,,,,B,,,,,,,,0,17,17,0,1,,,,,,,,,,
,,,,,,,,,,,space,,1001,2020-05-06_12h16.21.161,ANTCPTp,2020.1.2,MacIntel,60,,,,,,,,,,,,,,,,,,,space,1,0.285,,,,,,D,,,,,,,,0,18,18,1,1,,,,,,,,,,
,,,,,,,,,,,space,,1001,2020-05-06_12h16.21.161,ANTCPTp,2020.1.2,MacIntel,60,,,,,,,,,,,,,,,,,,,space,1,0.296,,,,,,U,,,,,,,,0,19,19,15,1,,,,,,,,,,
,,,,,,,,,,,space,,1001,2020-05-06_12h16.21.161,ANTCPTp,2020.1.2,MacIntel,60,,,,,,,,,,,,,,,,,,,space,1,0.364,,,,,,F,,,,,,,,0,20,20,3,1,,,,,,,,,,
,,,,,,,,,,,space,,1001,2020-05-06_12h16.21.161,ANTCPTp,2020.1.2,MacIntel,60,,,,,,,,,,,,,,,,,,,space,1,0.392,,,,,,S,,,,,,,,0,21,21,13,1,,,,,,,,,,
,,,,,,,,,,,space,,1001,2020-05-06_12h16.21.161,ANTCPTp,2020.1.2,MacIntel,60,,,,,,,,,,,,,,,,,,,space,1,0.456,,,,,,M,2,5.166,,,,,,,,,,,0,0,0,12,1,,,,,
,,,,,,,,,,,space,,1001,2020-05-06_12h16.21.161,ANTCPTp,2020.1.2,MacIntel,60,,,,,,,,,,,,,,,,,,,space,1,0.329,,,,,,H,,,,,,,,,,,,,0,1,1,7,1,,,,,
,,,,,,,,,,,,,1001,2020-05-06_12h16.21.161,ANTCPTp,2020.1.2,MacIntel,60,,,,,,,,,,,,,,,,,,,space,0,0.346,,,,,,X,,,,,,,,,,,,,0,2,2,24,1,,,,,
,,,,,,,,,,,space,,1001,2020-05-06_12h16.21.161,ANTCPTp,2020.1.2,MacIntel,60,,,,,,,,,,,,,,,,,,,space,1,0.426,,,,,,C,,,,,,,,,,,,,0,3,3,2,1,,,,,
,,,,,,,,,,,space,,1001,2020-05-06_12h16.21.161,ANTCPTp,2020.1.2,MacIntel,60,,,,,,,,,,,,,,,,,,,space,1,0.375,,,,,,S,,,,,,,,,,,,,0,4,4,18,1,,,,,
,,,,,,,,,,,space,,1001,2020-05-06_12h16.21.161,ANTCPTp,2020.1.2,MacIntel,60,,,,,,,,,,,,,,,,,,,space,1,0.314,,,,,,V,,,,,,,,,,,,,0,5,5,20,1,,,,,
,,,,,,,,,,,space,,1001,2020-05-06_12h16.21.161,ANTCPTp,2020.1.2,MacIntel,60,,,,,,,,,,,,,,,,,,,space,1,0.257,,,,,,K,,,,,,,,,,,,,0,6,6,10,1,,,,,
,,,,,,,,,,,space,,1001,2020-05-06_12h16.21.161,ANTCPTp,2020.1.2,MacIntel,60,,,,,,,,,,,,,,,,,,,space,1,0.405,,,,,,Y,,,,,,,,,,,,,0,7,7,22,1,,,,,
,,,,,,,,,,,space,,1001,2020-05-06_12h16.21.161,ANTCPTp,2020.1.2,MacIntel,60,,,,,,,,,,,,,,,,,,,space,1,0.365,,,,,,F,,,,,,,,,,,,,0,8,8,5,1,,,,,
,,,,,,,,,,,space,,1001,2020-05-06_12h16.21.161,ANTCPTp,2020.1.2,MacIntel,60,,,,,,,,,,,,,,,,,,,space,1,0.365,,,,,,U,,,,,,,,,,,,,0,9,9,19,1,,,,,
,,,,,,,,,,,space,,1001,2020-05-06_12h16.21.161,ANTCPTp,2020.1.2,MacIntel,60,,,,,,,,,,,,,,,,,,,space,1,0.308,,,,,,W,,,,,,,,,,,,,0,10,10,21,1,,,,,
,,,,,,,,,,,space,,1001,2020-05-06_12h16.21.161,ANTCPTp,2020.1.2,MacIntel,60,,,,,,,,,,,,,,,,,,,space,1,0.284,,,,,,J,,,,,,,,,,,,,0,11,11,9,1,,,,,
,,,,,,,,,,,space,,1001,2020-05-06_12h16.21.161,ANTCPTp,2020.1.2,MacIntel,60,,,,,,,,,,,,,,,,,,,space,1,0.372,,,,,,Z,,,,,,,,,,,,,0,12,12,23,1,,,,,
,,,,,,,,,,,space,,1001,2020-05-06_12h16.21.161,ANTCPTp,2020.1.2,MacIntel,60,,,,,,,,,,,,,,,,,,,space,1,0.288,,,,,,D,,,,,,,,,,,,,0,13,13,3,1,,,,,
,,,,,,,,,,,space,,1001,2020-05-06_12h16.21.161,ANTCPTp,2020.1.2,MacIntel,60,,,,,,,,,,,,,,,,,,,space,1,0.272,,,,,,B,,,,,,,,,,,,,0,14,14,1,1,,,,,
,,,,,,,,,,,space,,1001,2020-05-06_12h16.21.161,ANTCPTp,2020.1.2,MacIntel,60,,,,,,,,,,,,,,,,,,,space,1,0.291,,,,,,Q,,,,,,,,,,,,,0,15,15,16,1,,,,,
,,,,,,,,,,,space,,1001,2020-05-06_12h16.21.161,ANTCPTp,2020.1.2,MacIntel,60,,,,,,,,,,,,,,,,,,,space,1,0.279,,,,,,A,,,,,,,,,,,,,0,16,16,0,1,,,,,
,,,,,,,,,,,space,,1001,2020-05-06_12h16.21.161,ANTCPTp,2020.1.2,MacIntel,60,,,,,,,,,,,,,,,,,,,space,1,0.338,,,,,,R,,,,,,,,,,,,,0,17,17,17,1,,,,,
,,,,,,,,,,,space,,1001,2020-05-06_12h16.21.161,ANTCPTp,2020.1.2,MacIntel,60,,,,,,,,,,,,,,,,,,,space,1,0.339,,,,,,G,,,,,,,,,,,,,0,18,18,6,1,,,,,
,,,,,,,,,,,space,,1001,2020-05-06_12h16.21.161,ANTCPTp,2020.1.2,MacIntel,60,,,,,,,,,,,,,,,,,,,space,1,0.301,,,,,,P,,,,,,,,,,,,,0,19,19,15,1,,,,,
,,,,,,,,,,,space,,1001,2020-05-06_12h16.21.161,ANTCPTp,2020.1.2,MacIntel,60,,,,,,,,,,,,,,,,,,,space,1,0.225,,,,,,N,,,,,,,,,,,,,0,20,20,13,1,,,,,
,,,,,,,,,,,,,1001,2020-05-06_12h16.21.161,ANTCPTp,2020.1.2,MacIntel,60,,,,,,,,,,,,,,,,,,,,1,,,,,,,X,,,,,,,,,,,,,0,21,21,25,1,,,,,
,,,,,,,,,,,space,,1001,2020-05-06_12h16.21.161,ANTCPTp,2020.1.2,MacIntel,60,,,,,,,,,,,,,,,,,,,space,1,0.288,,,,,,I,,,,,,,,,,,,,0,22,22,8,1,,,,,
,,,,,,,,,,,space,,1001,2020-05-06_12h16.21.161,ANTCPTp,2020.1.2,MacIntel,60,,,,,,,,,,,,,,,,,,,space,1,0.216,,,,,,L,,,,,,,,,,,,,0,23,23,11,1,,,,,
,,,,,,,,,,,space,,1001,2020-05-06_12h16.21.161,ANTCPTp,2020.1.2,MacIntel,60,,,,,,,,,,,,,,,,,,,space,1,0.284,,,,,,O,,,,,,,,,,,,,0,24,24,14,1,,,,,
,,,,,,,,,,,,,1001,2020-05-06_12h16.21.161,ANTCPTp,2020.1.2,MacIntel,60,,,,,,,,,,,,,,,,,,,space,0,0.28,,,,,,X,,,,,,,,,,,,,0,25,25,26,1,,,,,
,,,,,,,,,,,space,,1001,2020-05-06_12h16.21.161,ANTCPTp,2020.1.2,MacIntel,60,,,,,,,,,,,,,,,,,,,,0,,,,,,,E,,,,,,,,,,,,,0,26,26,4,1,,,,,
,,,,,,,,,,,,,1001,2020-05-06_12h16.21.161,ANTCPTp,2020.1.2,MacIntel,60,,,,,,,,,,,,,,,,,,,,,,,,,,,,3,5.816,,,,,,,,,,,,,,,,0,0,0,0,1
,,,,,,,,,,,space,,1001,2020-05-06_12h16.21.161,ANTCPTp,2020.1.2,MacIntel,60,,,,,,,,,,,,,,,,,,,space,1,0.428,0,0,0,3,1,D,,,,,,,,,,,,,,,,,,,,,,
,,,,,,,,,,,space,,1001,2020-05-06_12h16.21.161,ANTCPTp,2020.1.2,MacIntel,60,,,,,,,,,,,,,,,,,,,space,1,0.352,0,1,1,9,1,P,,,,,,,,,,,,,,,,,,,,,,
,,,,,,,,,,,space,,1001,2020-05-06_12h16.21.161,ANTCPTp,2020.1.2,MacIntel,60,,,,,,,,,,,,,,,,,,,space,1,0.333,0,2,2,8,1,O,,,,,,,,,,,,,,,,,,,,,,
,,,,,,,,,,,space,,1001,2020-05-06_12h16.21.161,ANTCPTp,2020.1.2,MacIntel,60,,,,,,,,,,,,,,,,,,,space,1,0.364,0,3,3,7,1,N,,,,,,,,,,,,,,,,,,,,,,
,,,,,,,,,,,,,1001,2020-05-06_12h16.21.161,ANTCPTp,2020.1.2,MacIntel,60,,,,,,,,,,,,,,,,,,,,1,,0,4,4,16,1,X,,,,,,,,,,,,,,,,,,,,,,
,,,,,,,,,,,space,,1001,2020-05-06_12h16.21.161,ANTCPTp,2020.1.2,MacIntel,60,,,,,,,,,,,,,,,,,,,space,1,0.042,0,5,5,10,1,Q,,,,,,,,,,,,,,,,,,,,,,
,,,,,,,,,,,space,,1001,2020-05-06_12h16.21.161,ANTCPTp,2020.1.2,MacIntel,60,,,,,,,,,,,,,,,,,,,space,1,0.422,0,6,6,0,1,A,,,,,,,,,,,,,,,,,,,,,,
,,,,,,,,,,,space,,1001,2020-05-06_12h16.21.161,ANTCPTp,2020.1.2,MacIntel,60,,,,,,,,,,,,,,,,,,,space,1,0.414,0,7,7,5,1,F,,,,,,,,,,,,,,,,,,,,,,
,,,,,,,,,,,space,,1001,2020-05-06_12h16.21.161,ANTCPTp,2020.1.2,MacIntel,60,,,,,,,,,,,,,,,,,,,space,1,0.448,0,8,8,14,1,Y,,,,,,,,,,,,,,,,,,,,,,
,,,,,,,,,,,space,,1001,2020-05-06_12h16.21.161,ANTCPTp,2020.1.2,MacIntel,60,,,,,,,,,,,,,,,,,,,space,1,0.509,0,9,9,6,1,J,,,,,,,,,,,,,,,,,,,,,,
,,,,,,,,,,,,,1001,2020-05-06_12h16.21.161,ANTCPTp,2020.1.2,MacIntel,60,,,,,,,,,,,,,,,,,,,,1,,0,10,10,15,1,X,,,,,,,,,,,,,,,,,,,,,,
,,,,,,,,,,,space,,1001,2020-05-06_12h16.21.161,ANTCPTp,2020.1.2,MacIntel,60,,,,,,,,,,,,,,,,,,,space,1,0.289,0,11,11,12,1,V,,,,,,,,,,,,,,,,,,,,,,
,,,,,,,,,,,space,,1001,2020-05-06_12h16.21.161,ANTCPTp,2020.1.2,MacIntel,60,,,,,,,,,,,,,,,,,,,space,1,0.219,0,12,12,11,1,U,,,,,,,,,,,,,,,,,,,,,,
,,,,,,,,,,,space,,1001,2020-05-06_12h16.21.161,ANTCPTp,2020.1.2,MacIntel,60,,,,,,,,,,,,,,,,,,,space,1,0.233,0,13,13,2,1,C,,,,,,,,,,,,,,,,,,,,,,
,,,,,,,,,,,space,,1001,2020-05-06_12h16.21.161,ANTCPTp,2020.1.2,MacIntel,60,,,,,,,,,,,,,,,,,,,space,1,0.339,0,14,14,4,1,E,,,,,,,,,,,,,,,,,,,,,,
,,,,,,,,,,,space,,1001,2020-05-06_12h16.21.161,ANTCPTp,2020.1.2,MacIntel,60,,,,,,,,,,,,,,,,,,,space,1,0.23,0,15,15,1,1,B,,,,,,,,,,,,,,,,,,,,,,
,,,,,,,,,,,space,,1001,2020-05-06_12h16.21.161,ANTCPTp,2020.1.2,MacIntel,60,,,,,,,,,,,,,,,,,,,,0,,0,16,16,13,1,W,,,,,,,,,,,,,,,,,,,,,,
,,,,,,,,,,,space,,1001,2020-05-06_12h16.21.161,ANTCPTp,2020.1.2,MacIntel,60,,,,,,,,,,,,,,,,,,,space,1,0.473,,,,,,T,2,4.364,0,0,0,19,1,,,,,,,,,,,,,,,
,,,,,,,,,,,space,,1001,2020-05-06_12h16.21.161,ANTCPTp,2020.1.2,MacIntel,60,,,,,,,,,,,,,,,,,,,space,1,0.34,,,,,,H,,,0,1,1,7,1,,,,,,,,,,,,,,,
,,,,,,,,,,,space,,1001,2020-05-06_12h16.21.161,ANTCPTp,2020.1.2,MacIntel,60,,,,,,,,,,,,,,,,,,,space,1,0.391,,,,,,R,,,0,2,2,17,1,,,,,,,,,,,,,,,
,,,,,,,,,,,space,,1001,2020-05-06_12h16.21.161,ANTCPTp,2020.1.2,MacIntel,60,,,,,,,,,,,,,,,,,,,space,1,0.402,,,,,,U,,,0,3,3,20,1,,,,,,,,,,,,,,,
,,,,,,,,,,,,,1001,2020-05-06_12h16.21.161,ANTCPTp,2020.1.2,MacIntel,60,,,,,,,,,,,,,,,,,,,,1,,,,,,,X,,,0,4,4,28,1,,,,,,,,,,,,,,,
,,,,,,,,,,,space,,1001,2020-05-06_12h16.21.161,ANTCPTp,2020.1.2,MacIntel,60,,,,,,,,,,,,,,,,,,,space,1,0.297,,,,,,P,,,0,5,5,15,1,,,,,,,,,,,,,,,
,,,,,,,,,,,space,,1001,2020-05-06_12h16.21.161,ANTCPTp,2020.1.2,MacIntel,60,,,,,,,,,,,,,,,,,,,space,1,0.241,,,,,,D,,,0,6,6,3,1,,,,,,,,,,,,,,,
,,,,,,,,,,,space,,1001,2020-05-06_12h16.21.161,ANTCPTp,2020.1.2,MacIntel,60,,,,,,,,,,,,,,,,,,,space,1,0.274,,,,,,A,,,0,7,7,25,1,,,,,,,,,,,,,,,
,,,,,,,,,,,space,,1001,2020-05-06_12h16.21.161,ANTCPTp,2020.1.2,MacIntel,60,,,,,,,,,,,,,,,,,,,space,1,0.307,,,,,,I,,,0,8,8,8,1,,,,,,,,,,,,,,,
,,,,,,,,,,,space,,1001,2020-05-06_12h16.21.161,ANTCPTp,2020.1.2,MacIntel,60,,,,,,,,,,,,,,,,,,,space,1,0.242,,,,,,C,,,0,9,9,2,1,,,,,,,,,,,,,,,
,,,,,,,,,,,space,,1001,2020-05-06_12h16.21.161,ANTCPTp,2020.1.2,MacIntel,60,,,,,,,,,,,,,,,,,,,space,1,0.292,,,,,,Y,,,0,10,10,23,1,,,,,,,,,,,,,,,
,,,,,,,,,,,space,,1001,2020-05-06_12h16.21.161,ANTCPTp,2020.1.2,MacIntel,60,,,,,,,,,,,,,,,,,,,space,1,0.316,,,,,,S,,,0,11,11,18,1,,,,,,,,,,,,,,,
,,,,,,,,,,,space,,1001,2020-05-06_12h16.21.161,ANTCPTp,2020.1.2,MacIntel,60,,,,,,,,,,,,,,,,,,,space,1,0.259,,,,,,G,,,0,12,12,6,1,,,,,,,,,,,,,,,
,,,,,,,,,,,,,1001,2020-05-06_12h16.21.161,ANTCPTp,2020.1.2,MacIntel,60,,,,,,,,,,,,,,,,,,,space,0,0.272,,,,,,X,,,0,13,13,29,1,,,,,,,,,,,,,,,
,,,,,,,,,,,space,,1001,2020-05-06_12h16.21.161,ANTCPTp,2020.1.2,MacIntel,60,,,,,,,,,,,,,,,,,,,space,1,0.238,,,,,,L,,,0,14,14,11,1,,,,,,,,,,,,,,,
,,,,,,,,,,,space,,1001,2020-05-06_12h16.21.161,ANTCPTp,2020.1.2,MacIntel,60,,,,,,,,,,,,,,,,,,,space,1,0.249,,,,,,N,,,0,15,15,13,1,,,,,,,,,,,,,,,
,,,,,,,,,,,space,,1001,2020-05-06_12h16.21.161,ANTCPTp,2020.1.2,MacIntel,60,,,,,,,,,,,,,,,,,,,space,1,0.258,,,,,,O,,,0,16,16,14,1,,,,,,,,,,,,,,,
,,,,,,,,,,,space,,1001,2020-05-06_12h16.21.161,ANTCPTp,2020.1.2,MacIntel,60,,,,,,,,,,,,,,,,,,,space,1,0.305,,,,,,K,,,0,17,17,10,1,,,,,,,,,,,,,,,
,,,,,,,,,,,,,1001,2020-05-06_12h16.21.161,ANTCPTp,2020.1.2,MacIntel,60,,,,,,,,,,,,,,,,,,,,1,,,,,,,X,,,0,18,18,27,1,,,,,,,,,,,,,,,
,,,,,,,,,,,space,,1001,2020-05-06_12h16.21.161,ANTCPTp,2020.1.2,MacIntel,60,,,,,,,,,,,,,,,,,,,space,1,0.265,,,,,,A,,,0,19,19,0,1,,,,,,,,,,,,,,,
,,,,,,,,,,,space,,1001,2020-05-06_12h16.21.161,ANTCPTp,2020.1.2,MacIntel,60,,,,,,,,,,,,,,,,,,,space,1,0.247,,,,,,M,,,0,20,20,12,1,,,,,,,,,,,,,,,
,,,,,,,,,,,space,,1001,2020-05-06_12h16.21.161,ANTCPTp,2020.1.2,MacIntel,60,,,,,,,,,,,,,,,,,,,space,1,0.325,,,,,,J,,,0,21,21,9,1,,,,,,,,,,,,,,,
,,,,,,,,,,,,,1001,2020-05-06_12h16.21.161,ANTCPTp,2020.1.2,MacIntel,60,,,,,,,,,,,,,,,,,,,space,0,0.267,,,,,,X,,,0,22,22,26,1,,,,,,,,,,,,,,,
,,,,,,,,,,,space,,1001,2020-05-06_12h16.21.161,ANTCPTp,2020.1.2,MacIntel,60,,,,,,,,,,,,,,,,,,,space,1,0.508,,,,,,F,,,0,23,23,5,1,,,,,,,,,,,,,,,
,,,,,,,,,,,space,,1001,2020-05-06_12h16.21.161,ANTCPTp,2020.1.2,MacIntel,60,,,,,,,,,,,,,,,,,,,space,1,0.215,,,,,,W,,,0,24,24,22,1,,,,,,,,,,,,,,,
,,,,,,,,,,,space,,1001,2020-05-06_12h16.21.161,ANTCPTp,2020.1.2,MacIntel,60,,,,,,,,,,,,,,,,,,,space,1,0.401,,,,,,Z,,,0,25,25,24,1,,,,,,,,,,,,,,,
,,,,,,,,,,,space,,1001,2020-05-06_12h16.21.161,ANTCPTp,2020.1.2,MacIntel,60,,,,,,,,,,,,,,,,,,,space,1,0.347,,,,,,B,,,0,26,26,1,1,,,,,,,,,,,,,,,
,,,,,,,,,,,space,,1001,2020-05-06_12h16.21.161,ANTCPTp,2020.1.2,MacIntel,60,,,,,,,,,,,,,,,,,,,space,1,0.453,,,,,,V,,,0,27,27,21,1,,,,,,,,,,,,,,,
,,,,,,,,,,,space,,1001,2020-05-06_12h16.21.161,ANTCPTp,2020.1.2,MacIntel,60,,,,,,,,,,,,,,,,,,,space,1,0.426,,,,,,Q,,,0,28,28,16,1,,,,,,,,,,,,,,,
,,,,,,,,,,,space,,1001,2020-05-06_12h16.21.161,ANTCPTp,2020.1.2,MacIntel,60,,,,,,,,,,,,,,,,,,,space,1,0.365,,,,,,E,,,0,29,29,4,1,,,,,,,,,,,,,,,
,,,,,,,,,,,space,,1001,2020-05-06_12h16.21.161,ANTCPTp,2020.1.2,MacIntel,60,,,,,,,,,,,,,,,,,,,space,1,0.445,,,,,,K,3,14.333,,,,,,0,0,0,6,1,,,,,,,,,,
,,,,,,,,,,,space,,1001,2020-05-06_12h16.21.161,ANTCPTp,2020.1.2,MacIntel,60,,,,,,,,,,,,,,,,,,,space,1,0.331,,,,,,G,,,,,,,,0,1,1,4,1,,,,,,,,,,
,,,,,,,,,,,space,,1001,2020-05-06_12h16.21.161,ANTCPTp,2020.1.2,MacIntel,60,,,,,,,,,,,,,,,,,,,space,1,0.368,,,,,,E,,,,,,,,0,2,2,2,1,,,,,,,,,,
,,,,,,,,,,,space,,1001,2020-05-06_12h16.21.161,ANTCPTp,2020.1.2,MacIntel,60,,,,,,,,,,,,,,,,,,,space,1,0.291,,,,,,Z,,,,,,,,0,3,3,18,1,,,,,,,,,,
,,,,,,,,,,,space,,1001,2020-05-06_12h16.21.161,ANTCPTp,2020.1.2,MacIntel,60,,,,,,,,,,,,,,,,,,,space,1,0.376,,,,,,F,,,,,,,,0,4,4,3,1,,,,,,,,,,
,,,,,,,,,,,space,,1001,2020-05-06_12h16.21.161,ANTCPTp,2020.1.2,MacIntel,60,,,,,,,,,,,,,,,,,,,space,1,0.522,,,,,,T,,,,,,,,0,5,5,14,1,,,,,,,,,,
,,,,,,,,,,,space,,1001,2020-05-06_12h16.21.161,ANTCPTp,2020.1.2,MacIntel,60,,,,,,,,,,,,,,,,,,,space,1,0.288,,,,,,R,,,,,,,,0,6,6,12,1,,,,,,,,,,
,,,,,,,,,,,space,,1001,2020-05-06_12h16.21.161,ANTCPTp,2020.1.2,MacIntel,60,,,,,,,,,,,,,,,,,,,space,1,0.338,,,,,,A,,,,,,,,0,7,7,19,1,,,,,,,,,,
,,,,,,,,,,,,,1001,2020-05-06_12h16.21.161,ANTCPTp,2020.1.2,MacIntel,60,,,,,,,,,,,,,,,,,,,,1,,,,,,,X,,,,,,,,0,8,8,21,1,,,,,,,,,,
,,,,,,,,,,,space,,1001,2020-05-06_12h16.21.161,ANTCPTp,2020.1.2,MacIntel,60,,,,,,,,,,,,,,,,,,,space,1,0.322,,,,,,Y,,,,,,,,0,9,9,17,1,,,,,,,,,,
,,,,,,,,,,,space,,1001,2020-05-06_12h16.21.161,ANTCPTp,2020.1.2,MacIntel,60,,,,,,,,,,,,,,,,,,,space,1,0.357,,,,,,O,,,,,,,,0,10,10,10,1,,,,,,,,,,
,,,,,,,,,,,space,,1001,2020-05-06_12h16.21.161,ANTCPTp,2020.1.2,MacIntel,60,,,,,,,,,,,,,,,,,,,space,1,0.49,,,,,,Q,,,,,,,,0,11,11,11,1,,,,,,,,,,
,,,,,,,,,,,space,,1001,2020-05-06_12h16.21.161,ANTCPTp,2020.1.2,MacIntel,60,,,,,,,,,,,,,,,,,,,space,1,0.234,,,,,,N,,,,,,,,0,12,12,9,1,,,,,,,,,,
,,,,,,,,,,,space,,1001,2020-05-06_12h16.21.161,ANTCPTp,2020.1.2,MacIntel,60,,,,,,,,,,,,,,,,,,,space,1,0.48,,,,,,S,,,,,,,,0,13,13,13,1,,,,,,,,,,
,,,,,,,,,,,space,,1001,2020-05-06_12h16.21.161,ANTCPTp,2020.1.2,MacIntel,60,,,,,,,,,,,,,,,,,,,space,1,0.34,,,,,,B,,,,,,,,0,14,14,0,1,,,,,,,,,,
,,,,,,,,,,,space,,1001,2020-05-06_12h16.21.161,ANTCPTp,2020.1.2,MacIntel,60,,,,,,,,,,,,,,,,,,,space,1,0.247,,,,,,H,,,,,,,,0,15,15,5,1,,,,,,,,,,
,,,,,,,,,,,space,,1001,2020-05-06_12h16.21.161,ANTCPTp,2020.1.2,MacIntel,60,,,,,,,,,,,,,,,,,,,space,1,0.188,,,,,,W,,,,,,,,0,16,16,16,1,,,,,,,,,,
,,,,,,,,,,,space,,1001,2020-05-06_12h16.21.161,ANTCPTp,2020.1.2,MacIntel,60,,,,,,,,,,,,,,,,,,,space,1,0.337,,,,,,M,,,,,,,,0,17,17,8,1,,,,,,,,,,
,,,,,,,,,,,space,,1001,2020-05-06_12h16.21.161,ANTCPTp,2020.1.2,MacIntel,60,,,,,,,,,,,,,,,,,,,space,1,0.289,,,,,,U,,,,,,,,0,18,18,15,1,,,,,,,,,,
,,,,,,,,,,,,,1001,2020-05-06_12h16.21.161,ANTCPTp,2020.1.2,MacIntel,60,,,,,,,,,,,,,,,,,,,,1,,,,,,,X,,,,,,,,0,19,19,20,1,,,,,,,,,,
,,,,,,,,,,,space,,1001,2020-05-06_12h16.21.161,ANTCPTp,2020.1.2,MacIntel,60,,,,,,,,,,,,,,,,,,,space,1,0.32,,,,,,L,,,,,,,,0,20,20,7,1,,,,,,,,,,
,,,,,,,,,,,space,,1001,2020-05-06_12h16.21.161,ANTCPTp,2020.1.2,MacIntel,60,,,,,,,,,,,,,,,,,,,space,1,0.254,,,,,,D,,,,,,,,0,21,21,1,1,,,,,,,,,,
,,,,,,,,,,,space,,1001,2020-05-06_12h16.21.161,ANTCPTp,2020.1.2,MacIntel,60,,,,,,,,,,,,,,,,,,,space,1,0.404,,,,,,G,4,3.273,,,,,,,,,,,0,0,0,6,1,,,,,
,,,,,,,,,,,,,1001,2020-05-06_12h16.21.161,ANTCPTp,2020.1.2,MacIntel,60,,,,,,,,,,,,,,,,,,,space,0,0.301,,,,,,X,,,,,,,,,,,,,0,1,1,25,1,,,,,
,,,,,,,,,,,space,,1001,2020-05-06_12h16.21.161,ANTCPTp,2020.1.2,MacIntel,60,,,,,,,,,,,,,,,,,,,space,1,0.341,,,,,,U,,,,,,,,,,,,,0,2,2,19,1,,,,,
,,,,,,,,,,,space,,1001,2020-05-06_12h16.21.161,ANTCPTp,2020.1.2,MacIntel,60,,,,,,,,,,,,,,,,,,,space,1,0.301,,,,,,F,,,,,,,,,,,,,0,3,3,5,1,,,,,
,,,,,,,,,,,space,,1001,2020-05-06_12h16.21.161,ANTCPTp,2020.1.2,MacIntel,60,,,,,,,,,,,,,,,,,,,space,1,0.357,,,,,,N,,,,,,,,,,,,,0,4,4,13,1,,,,,
,,,,,,,,,,,space,,1001,2020-05-06_12h16.21.161,ANTCPTp,2020.1.2,MacIntel,60,,,,,,,,,,,,,,,,,,,space,1,0.39,,,,,,W,,,,,,,,,,,,,0,5,5,21,1,,,,,
,,,,,,,,,,,space,,1001,2020-05-06_12h16.21.161,ANTCPTp,2020.1.2,MacIntel,60,,,,,,,,,,,,,,,,,,,space,1,0.33,,,,,,H,,,,,,,,,,,,,0,6,6,7,1,,,,,
,,,,,,,,,,,space,,1001,2020-05-06_12h16.21.161,ANTCPTp,2020.1.2,MacIntel,60,,,,,,,,,,,,,,,,,,,space,1,0.357,,,,,,P,,,,,,,,,,,,,0,7,7,15,1,,,,,
,,,,,,,,,,,space,,1001,2020-05-06_12h16.21.161,ANTCPTp,2020.1.2,MacIntel,60,,,,,,,,,,,,,,,,,,,space,1,0.375,,,,,,V,,,,,,,,,,,,,0,8,8,20,1,,,,,
,,,,,,,,,,,,,1001,2020-05-06_12h16.21.161,ANTCPTp,2020.1.2,MacIntel,60,,,,,,,,,,,,,,,,,,,,1,,,,,,,X,,,,,,,,,,,,,0,9,9,24,1,,,,,
,,,,,,,,,,,space,,1001,2020-05-06_12h16.21.161,ANTCPTp,2020.1.2,MacIntel,60,,,,,,,,,,,,,,,,,,,space,1,0.229,,,,,,I,,,,,,,,,,,,,0,10,10,8,1,,,,,
,,,,,,,,,,,space,,1001,2020-05-06_12h16.21.161,ANTCPTp,2020.1.2,MacIntel,60,,,,,,,,,,,,,,,,,,,space,1,0.326,,,,,,A,,,,,,,,,,,,,0,11,11,0,1,,,,,
,,,,,,,,,,,space,,1001,2020-05-06_12h16.21.161,ANTCPTp,2020.1.2,MacIntel,60,,,,,,,,,,,,,,,,,,,space,1,0.314,,,,,,S,,,,,,,,,,,,,0,12,12,18,1,,,,,
,,,,,,,,,,,space,,1001,2020-05-06_12h16.21.161,ANTCPTp,2020.1.2,MacIntel,60,,,,,,,,,,,,,,,,,,,space,1,0.332,,,,,,C,,,,,,,,,,,,,0,13,13,2,1,,,,,
,,,,,,,,,,,space,,1001,2020-05-06_12h16.21.161,ANTCPTp,2020.1.2,MacIntel,60,,,,,,,,,,,,,,,,,,,space,1,0.355,,,,,,Y,,,,,,,,,,,,,0,14,14,22,1,,,,,
,,,,,,,,,,,space,,1001,2020-05-06_12h16.21.161,ANTCPTp,2020.1.2,MacIntel,60,,,,,,,,,,,,,,,,,,,space,1,0.338,,,,,,R,,,,,,,,,,,,,0,15,15,17,1,,,,,
,,,,,,,,,,,space,,1001,2020-05-06_12h16.21.161,ANTCPTp,2020.1.2,MacIntel,60,,,,,,,,,,,,,,,,,,,space,1,0.247,,,,,,E,,,,,,,,,,,,,0,16,16,4,1,,,,,
,,,,,,,,,,,,,1001,2020-05-06_12h16.21.161,ANTCPTp,2020.1.2,MacIntel,60,,,,,,,,,,,,,,,,,,,,1,,,,,,,X,,,,,,,,,,,,,0,17,17,26,1,,,,,
,,,,,,,,,,,space,,1001,2020-05-06_12h16.21.161,ANTCPTp,2020.1.2,MacIntel,60,,,,,,,,,,,,,,,,,,,space,1,0.243,,,,,,K,,,,,,,,,,,,,0,18,18,10,1,,,,,
,,,,,,,,,,,space,,1001,2020-05-06_12h16.21.161,ANTCPTp,2020.1.2,MacIntel,60,,,,,,,,,,,,,,,,,,,space,1,0.26,,,,,,Q,,,,,,,,,,,,,0,19,19,16,1,,,,,
,,,,,,,,,,,space,,1001,2020-05-06_12h16.21.161,ANTCPTp,2020.1.2,MacIntel,60,,,,,,,,,,,,,,,,,,,space,1,0.475,,,,,,J,,,,,,,,,,,,,0,20,20,9,1,,,,,
,,,,,,,,,,,space,,1001,2020-05-06_12h16.21.161,ANTCPTp,2020.1.2,MacIntel,60,,,,,,,,,,,,,,,,,,,space,1,0.391,,,,,,Z,,,,,,,,,,,,,0,21,21,23,1,,,,,
,,,,,,,,,,,space,,1001,2020-05-06_12h16.21.161,ANTCPTp,2020.1.2,MacIntel,60,,,,,,,,,,,,,,,,,,,space,1,0.373,,,,,,L,,,,,,,,,,,,,0,22,22,11,1,,,,,
,,,,,,,,,,,space,,1001,2020-05-06_12h16.21.161,ANTCPTp,2020.1.2,MacIntel,60,,,,,,,,,,,,,,,,,,,space,1,0.313,,,,,,D,,,,,,,,,,,,,0,23,23,3,1,,,,,
,,,,,,,,,,,space,,1001,2020-05-06_12h16.21.161,ANTCPTp,2020.1.2,MacIntel,60,,,,,,,,,,,,,,,,,,,space,1,0.423,,,,,,M,,,,,,,,,,,,,0,24,24,12,1,,,,,
,,,,,,,,,,,space,,1001,2020-05-06_12h16.21.161,ANTCPTp,2020.1.2,MacIntel,60,,,,,,,,,,,,,,,,,,,space,1,0.274,,,,,,B,,,,,,,,,,,,,0,25,25,1,1,,,,,
,,,,,,,,,,,space,,1001,2020-05-06_12h16.21.161,ANTCPTp,2020.1.2,MacIntel,60,,,,,,,,,,,,,,,,,,,space,1,0.33,,,,,,O,,,,,,,,,,,,,0,26,26,14,1,,,,,
,,,,,,,,,,,,,1001,2020-05-06_12h16.21.161,ANTCPTp,2020.1.2,MacIntel,60,,,,,,,,,,,,,,,,,,,,,,,,,,,,2,11.381,,,,,,,,,,,,,,,,1,0,1,0,1
,,,,,,,,,,,,,1001,2020-05-06_12h16.21.161,ANTCPTp,2020.1.2,MacIntel,60,,,,,,,,,,,,,,,,,,,,1,,0,0,0,15,1,X,,,,,,,,,,,,,,,,,,,,,,
,,,,,,,,,,,space,,1001,2020-05-06_12h16.21.161,ANTCPTp,2020.1.2,MacIntel,60,,,,,,,,,,,,,,,,,,,space,1,0.474,0,1,1,3,1,D,,,,,,,,,,,,,,,,,,,,,,
,,,,,,,,,,,space,,1001,2020-05-06_12h16.21.161,ANTCPTp,2020.1.2,MacIntel,60,,,,,,,,,,,,,,,,,,,,0,,0,2,2,14,1,Y,,,,,,,,,,,,,,,,,,,,,,
,,,,,,,,,,,space,,1001,2020-05-06_12h16.21.161,ANTCPTp,2020.1.2,MacIntel,60,,,,,,,,,,,,,,,,,,,space,1,0.322,0,3,3,0,1,A,,,,,,,,,,,,,,,,,,,,,,
,,,,,,,,,,,space,,1001,2020-05-06_12h16.21.161,ANTCPTp,2020.1.2,MacIntel,60,,,,,,,,,,,,,,,,,,,space,1,0.368,0,4,4,5,1,F,,,,,,,,,,,,,,,,,,,,,,
,,,,,,,,,,,,,1001,2020-05-06_12h16.21.161,ANTCPTp,2020.1.2,MacIntel,60,,,,,,,,,,,,,,,,,,,space,0,0.282,0,5,5,16,1,X,,,,,,,,,,,,,,,,,,,,,,
,,,,,,,,,,,space,,1001,2020-05-06_12h16.21.161,ANTCPTp,2020.1.2,MacIntel,60,,,,,,,,,,,,,,,,,,,space,1,0.332,0,6,6,1,1,B,,,,,,,,,,,,,,,,,,,,,,
,,,,,,,,,,,space,,1001,2020-05-06_12h16.21.161,ANTCPTp,2020.1.2,MacIntel,60,,,,,,,,,,,,,,,,,,,space,1,0.47,0,7,7,12,1,V,,,,,,,,,,,,,,,,,,,,,,
,,,,,,,,,,,space,,1001,2020-05-06_12h16.21.161,ANTCPTp,2020.1.2,MacIntel,60,,,,,,,,,,,,,,,,,,,space,1,0.303,0,8,8,10,1,Q,,,,,,,,,,,,,,,,,,,,,,
,,,,,,,,,,,space,,1001,2020-05-06_12h16.21.161,ANTCPTp,2020.1.2,MacIntel,60,,,,,,,,,,,,,,,,,,,space,1,0.504,0,9,9,13,1,W,,,,,,,,,,,,,,,,,,,,,,
,,,,,,,,,,,space,,1001,2020-05-06_12h16.21.161,ANTCPTp,2020.1.2,MacIntel,60,,,,,,,,,,,,,,,,,,,space,1,0.364,0,10,10,4,1,E,,,,,,,,,,,,,,,,,,,,,,
,,,,,,,,,,,space,,1001,2020-05-06_12h16.21.161,ANTCPTp,2020.1.2,MacIntel,60,,,,,,,,,,,,,,,,,,,space,1,0.341,0,11,11,7,1,N,,,,,,,,,,,,,,,,,,,,,,
,,,,,,,,,,,space,,1001,2020-05-06_12h16.21.161,ANTCPTp,2020.1.2,MacIntel,60,,,,,,,,,,,,,,,,,,,space,1,0.359,0,12,12,9,1,P,,,,,,,,,,,,,,,,,,,,,,
,,,,,,,,,,,space,,1001,2020-05-06_12h16.21.161,ANTCPTp,2020.1.2,MacIntel,60,,,,,,,,,,,,,,,,,,,space,1,0.29,0,13,13,6,1,J,,,,,,,,,,,,,,,,,,,,,,
,,,,,,,,,,,space,,1001,2020-05-06_12h16.21.161,ANTCPTp,2020.1.2,MacIntel,60,,,,,,,,,,,,,,,,,,,space,1,0.3,0,14,14,11,1,U,,,,,,,,,,,,,,,,,,,,,,
,,,,,,,,,,,space,,1001,2020-05-06_12h16.21.161,ANTCPTp,2020.1.2,MacIntel,60,,,,,,,,,,,,,,,,,,,space,1,0.282,0,15,15,2,1,C,,,,,,,,,,,,,,,,,,,,,,
,,,,,,,,,,,space,,1001,2020-05-06_12h16.21.161,ANTCPTp,2020.1.2,MacIntel,60,,,,,,,,,,,,,,,,,,,space,1,0.264,0,16,16,8,1,O,,,,,,,,,,,,,,,,,,,,,,
,,,,,,,,,,,space,,1001,2020-05-06_12h16.21.161,ANTCPTp,2020.1.2,MacIntel,60,,,,,,,,,,,,,,,,,,,space,1,0.438,,,,,,B,4,4.064,0,0,0,1,1,,,,,,,,,,,,,,,
,,,,,,,,,,,space,,1001,2020-05-06_12h16.21.161,ANTCPTp,2020.1.2,MacIntel,60,,,,,,,,,,,,,,,,,,,space,1,0.315,,,,,,M,,,0,1,1,12,1,,,,,,,,,,,,,,,
,,,,,,,,,,,space,,1001,2020-05-06_12h16.21.161,ANTCPTp,2020.1.2,MacIntel,60,,,,,,,,,,,,,,,,,,,space,1,0.332,,,,,,C,,,0,2,2,2,1,,,,,,,,,,,,,,,
,,,,,,,,,,,,,1001,2020-05-06_12h16.21.161,ANTCPTp,2020.1.2,MacIntel,60,,,,,,,,,,,,,,,,,,,space,0,0.245,,,,,,X,,,0,3,3,28,1,,,,,,,,,,,,,,,
,,,,,,,,,,,space,,1001,2020-05-06_12h16.21.161,ANTCPTp,2020.1.2,MacIntel,60,,,,,,,,,,,,,,,,,,,space,1,0.271,,,,,,L,,,0,4,4,11,1,,,,,,,,,,,,,,,
,,,,,,,,,,,space,,1001,2020-05-06_12h16.21.161,ANTCPTp,2020.1.2,MacIntel,60,,,,,,,,,,,,,,,,,,,space,1,0.32,,,,,,G,,,0,5,5,6,1,,,,,,,,,,,,,,,
,,,,,,,,,,,space,,1001,2020-05-06_12h16.21.161,ANTCPTp,2020.1.2,MacIntel,60,,,,,,,,,,,,,,,,,,,space,1,0.294,,,,,,Z,,,0,6,6,24,1,,,,,,,,,,,,,,,
,,,,,,,,,,,space,,1001,2020-05-06_12h16.21.161,ANTCPTp,2020.1.2,MacIntel,60,,,,,,,,,,,,,,,,,,,space,1,0.299,,,,,,F,,,0,7,7,5,1,,,,,,,,,,,,,,,
,,,,,,,,,,,space,,1001,2020-05-06_12h16.21.161,ANTCPTp,2020.1.2,MacIntel,60,,,,,,,,,,,,,,,,,,,space,1,0.347,,,,,,Q,,,0,8,8,16,1,,,,,,,,,,,,,,,
,,,,,,,,,,,space,,1001,2020-05-06_12h16.21.161,ANTCPTp,2020.1.2,MacIntel,60,,,,,,,,,,,,,,,,,,,space,1,0.408,,,,,,J,,,0,9,9,9,1,,,,,,,,,,,,,,,
,,,,,,,,,,,space,,1001,2020-05-06_12h16.21.161,ANTCPTp,2020.1.2,MacIntel,60,,,,,,,,,,,,,,,,,,,space,1,0.435,,,,,,T,,,0,10,10,19,1,,,,,,,,,,,,,,,
,,,,,,,,,,,space,,1001,2020-05-06_12h16.21.161,ANTCPTp,2020.1.2,MacIntel,60,,,,,,,,,,,,,,,,,,,space,1,0.376,,,,,,H,,,0,11,11,7,1,,,,,,,,,,,,,,,
,,,,,,,,,,,space,,1001,2020-05-06_12h16.21.161,ANTCPTp,2020.1.2,MacIntel,60,,,,,,,,,,,,,,,,,,,space,1,0.297,,,,,,U,,,0,12,12,20,1,,,,,,,,,,,,,,,
,,,,,,,,,,,space,,1001,2020-05-06_12h16.21.161,ANTCPTp,2020.1.2,MacIntel,60,,,,,,,,,,,,,,,,,,,space,1,0.307,,,,,,Y,,,0,13,13,23,1,,,,,,,,,,,,,,,
,,,,,,,,,,,space,,1001,2020-05-06_12h16.21.161,ANTCPTp,2020.1.2,MacIntel,60,,,,,,,,,,,,,,,,,,,space,1,0.339,,,,,,P,,,0,14,14,15,1,,,,,,,,,,,,,,,
,,,,,,,,,,,space,,1001,2020-05-06_12h16.21.161,ANTCPTp,2020.1.2,MacIntel,60,,,,,,,,,,,,,,,,,,,space,1,0.52,,,,,,K,,,0,15,15,10,1,,,,,,,,,,,,,,,
,,,,,,,,,,,space,,1001,2020-05-06_12h16.21.161,ANTCPTp,2020.1.2,MacIntel,60,,,,,,,,,,,,,,,,,,,space,1,0.353,,,,,,A,,,0,16,16,0,1,,,,,,,,,,,,,,,
,,,,,,,,,,,space,,1001,2020-05-06_12h16.21.161,ANTCPTp,2020.1.2,MacIntel,60,,,,,,,,,,,,,,,,,,,space,1,0.284,,,,,,A,,,0,17,17,25,1,,,,,,,,,,,,,,,
,,,,,,,,,,,space,,1001,2020-05-06_12h16.21.161,ANTCPTp,2020.1.2,MacIntel,60,,,,,,,,,,,,,,,,,,,space,1,0.38,,,,,,I,,,0,18,18,8,1,,,,,,,,,,,,,,,
,,,,,,,,,,,space,,1001,2020-05-06_12h16.21.161,ANTCPTp,2020.1.2,MacIntel,60,,,,,,,,,,,,,,,,,,,space,1,0.34,,,,,,V,,,0,19,19,21,1,,,,,,,,,,,,,,,
,,,,,,,,,,,space,,1001,2020-05-06_12h16.21.161,ANTCPTp,2020.1.2,MacIntel,60,,,,,,,,,,,,,,,,,,,space,1,0.229,,,,,,O,,,0,20,20,14,1,,,,,,,,,,,,,,,
,,,,,,,,,,,space,,1001,2020-05-06_12h16.21.161,ANTCPTp,2020.1.2,MacIntel,60,,,,,,,,,,,,,,,,,,,space,1,0.299,,,,,,N,,,0,21,21,13,1,,,,,,,,,,,,,,,
,,,,,,,,,,,,,1001,2020-05-06_12h16.21.161,ANTCPTp,2020.1.2,MacIntel,60,,,,,,,,,,,,,,,,,,,,1,,,,,,,X,,,0,22,22,26,1,,,,,,,,,,,,,,,
,,,,,,,,,,,space,,1001,2020-05-06_12h16.21.161,ANTCPTp,2020.1.2,MacIntel,60,,,,,,,,,,,,,,,,,,,space,1,0.348,,,,,,W,,,0,23,23,22,1,,,,,,,,,,,,,,,
,,,,,,,,,,,,,1001,2020-05-06_12h16.21.161,ANTCPTp,2020.1.2,MacIntel,60,,,,,,,,,,,,,,,,,,,space,0,0.325,,,,,,X,,,0,24,24,29,1,,,,,,,,,,,,,,,
,,,,,,,,,,,,,1001,2020-05-06_12h16.21.161,ANTCPTp,2020.1.2,MacIntel,60,,,,,,,,,,,,,,,,,,,,1,,,,,,,X,,,0,25,25,27,1,,,,,,,,,,,,,,,
,,,,,,,,,,,space,,1001,2020-05-06_12h16.21.161,ANTCPTp,2020.1.2,MacIntel,60,,,,,,,,,,,,,,,,,,,space,1,0.364,,,,,,D,,,0,26,26,3,1,,,,,,,,,,,,,,,
,,,,,,,,,,,space,,1001,2020-05-06_12h16.21.161,ANTCPTp,2020.1.2,MacIntel,60,,,,,,,,,,,,,,,,,,,space,1,0.371,,,,,,E,,,0,27,27,4,1,,,,,,,,,,,,,,,
,,,,,,,,,,,space,,1001,2020-05-06_12h16.21.161,ANTCPTp,2020.1.2,MacIntel,60,,,,,,,,,,,,,,,,,,,space,1,0.406,,,,,,S,,,0,28,28,18,1,,,,,,,,,,,,,,,
,,,,,,,,,,,space,,1001,2020-05-06_12h16.21.161,ANTCPTp,2020.1.2,MacIntel,60,,,,,,,,,,,,,,,,,,,space,1,0.341,,,,,,R,,,0,29,29,17,1,,,,,,,,,,,,,,,
,,,,,,,,,,,space,,1001,2020-05-06_12h16.21.161,ANTCPTp,2020.1.2,MacIntel,60,,,,,,,,,,,,,,,,,,,space,1,0.429,,,,,,N,2,7.508,,,,,,0,0,0,9,1,,,,,,,,,,
,,,,,,,,,,,space,,1001,2020-05-06_12h16.21.161,ANTCPTp,2020.1.2,MacIntel,60,,,,,,,,,,,,,,,,,,,space,1,0.313,,,,,,D,,,,,,,,0,1,1,1,1,,,,,,,,,,
,,,,,,,,,,,space,,1001,2020-05-06_12h16.21.161,ANTCPTp,2020.1.2,MacIntel,60,,,,,,,,,,,,,,,,,,,space,1,0.285,,,,,,T,,,,,,,,0,2,2,14,1,,,,,,,,,,
,,,,,,,,,,,space,,1001,2020-05-06_12h16.21.161,ANTCPTp,2020.1.2,MacIntel,60,,,,,,,,,,,,,,,,,,,space,1,0.321,,,,,,H,,,,,,,,0,3,3,5,1,,,,,,,,,,
,,,,,,,,,,,,,1001,2020-05-06_12h16.21.161,ANTCPTp,2020.1.2,MacIntel,60,,,,,,,,,,,,,,,,,,,,1,,,,,,,X,,,,,,,,0,4,4,21,1,,,,,,,,,,
,,,,,,,,,,,space,,1001,2020-05-06_12h16.21.161,ANTCPTp,2020.1.2,MacIntel,60,,,,,,,,,,,,,,,,,,,space,1,0.337,,,,,,B,,,,,,,,0,5,5,0,1,,,,,,,,,,
,,,,,,,,,,,space,,1001,2020-05-06_12h16.21.161,ANTCPTp,2020.1.2,MacIntel,60,,,,,,,,,,,,,,,,,,,space,1,0.356,,,,,,Q,,,,,,,,0,6,6,11,1,,,,,,,,,,
,,,,,,,,,,,space,,1001,2020-05-06_12h16.21.161,ANTCPTp,2020.1.2,MacIntel,60,,,,,,,,,,,,,,,,,,,space,1,0.313,,,,,,S,,,,,,,,0,7,7,13,1,,,,,,,,,,
,,,,,,,,,,,space,,1001,2020-05-06_12h16.21.161,ANTCPTp,2020.1.2,MacIntel,60,,,,,,,,,,,,,,,,,,,space,1,0.293,,,,,,A,,,,,,,,0,8,8,19,1,,,,,,,,,,
,,,,,,,,,,,space,,1001,2020-05-06_12h16.21.161,ANTCPTp,2020.1.2,MacIntel,60,,,,,,,,,,,,,,,,,,,space,1,0.43,,,,,,K,,,,,,,,0,9,9,6,1,,,,,,,,,,
,,,,,,,,,,,space,,1001,2020-05-06_12h16.21.161,ANTCPTp,2020.1.2,MacIntel,60,,,,,,,,,,,,,,,,,,,space,1,0.334,,,,,,F,,,,,,,,0,10,10,3,1,,,,,,,,,,
,,,,,,,,,,,space,,1001,2020-05-06_12h16.21.161,ANTCPTp,2020.1.2,MacIntel,60,,,,,,,,,,,,,,,,,,,space,1,0.291,,,,,,O,,,,,,,,0,11,11,10,1,,,,,,,,,,
,,,,,,,,,,,space,,1001,2020-05-06_12h16.21.161,ANTCPTp,2020.1.2,MacIntel,60,,,,,,,,,,,,,,,,,,,space,1,0.472,,,,,,Y,,,,,,,,0,12,12,17,1,,,,,,,,,,
,,,,,,,,,,,,,1001,2020-05-06_12h16.21.161,ANTCPTp,2020.1.2,MacIntel,60,,,,,,,,,,,,,,,,,,,,1,,,,,,,X,,,,,,,,0,13,13,20,1,,,,,,,,,,
,,,,,,,,,,,space,,1001,2020-05-06_12h16.21.161,ANTCPTp,2020.1.2,MacIntel,60,,,,,,,,,,,,,,,,,,,space,1,0.399,,,,,,E,,,,,,,,0,14,14,2,1,,,,,,,,,,
,,,,,,,,,,,space,,1001,2020-05-06_12h16.21.161,ANTCPTp,2020.1.2,MacIntel,60,,,,,,,,,,,,,,,,,,,space,1,0.342,,,,,,W,,,,,,,,0,15,15,16,1,,,,,,,,,,
,,,,,,,,,,,space,,1001,2020-05-06_12h16.21.161,ANTCPTp,2020.1.2,MacIntel,60,,,,,,,,,,,,,,,,,,,space,1,0.279,,,,,,G,,,,,,,,0,16,16,4,1,,,,,,,,,,
,,,,,,,,,,,space,,1001,2020-05-06_12h16.21.161,ANTCPTp,2020.1.2,MacIntel,60,,,,,,,,,,,,,,,,,,,space,1,0.3,,,,,,M,,,,,,,,0,17,17,8,1,,,,,,,,,,
,,,,,,,,,,,space,,1001,2020-05-06_12h16.21.161,ANTCPTp,2020.1.2,MacIntel,60,,,,,,,,,,,,,,,,,,,space,1,0.414,,,,,,Z,,,,,,,,0,18,18,18,1,,,,,,,,,,
,,,,,,,,,,,space,,1001,2020-05-06_12h16.21.161,ANTCPTp,2020.1.2,MacIntel,60,,,,,,,,,,,,,,,,,,,space,1,0.298,,,,,,U,,,,,,,,0,19,19,15,1,,,,,,,,,,
,,,,,,,,,,,space,,1001,2020-05-06_12h16.21.161,ANTCPTp,2020.1.2,MacIntel,60,,,,,,,,,,,,,,,,,,,space,1,0.283,,,,,,R,,,,,,,,0,20,20,12,1,,,,,,,,,,
,,,,,,,,,,,space,,1001,2020-05-06_12h16.21.161,ANTCPTp,2020.1.2,MacIntel,60,,,,,,,,,,,,,,,,,,,space,1,0.3,,,,,,L,,,,,,,,0,21,21,7,1,,,,,,,,,,
,,,,,,,,,,,space,,1001,2020-05-06_12h16.21.161,ANTCPTp,2020.1.2,MacIntel,60,,,,,,,,,,,,,,,,,,,space,1,0.35,,,,,,G,2,5.672,,,,,,,,,,,0,0,0,6,1,,,,,
,,,,,,,,,,,space,,1001,2020-05-06_12h16.21.161,ANTCPTp,2020.1.2,MacIntel,60,,,,,,,,,,,,,,,,,,,,0,,,,,,,D,,,,,,,,,,,,,0,1,1,3,1,,,,,
,,,,,,,,,,,space,,1001,2020-05-06_12h16.21.161,ANTCPTp,2020.1.2,MacIntel,60,,,,,,,,,,,,,,,,,,,space,1,0.418,,,,,,E,,,,,,,,,,,,,0,2,2,4,1,,,,,
,,,,,,,,,,,space,,1001,2020-05-06_12h16.21.161,ANTCPTp,2020.1.2,MacIntel,60,,,,,,,,,,,,,,,,,,,space,1,0.256,,,,,,N,,,,,,,,,,,,,0,3,3,13,1,,,,,
,,,,,,,,,,,space,,1001,2020-05-06_12h16.21.161,ANTCPTp,2020.1.2,MacIntel,60,,,,,,,,,,,,,,,,,,,,0,,,,,,,C,,,,,,,,,,,,,0,4,4,2,1,,,,,
,,,,,,,,,,,space,,1001,2020-05-06_12h16.21.161,ANTCPTp,2020.1.2,MacIntel,60,,,,,,,,,,,,,,,,,,,space,1,0.382,,,,,,Y,,,,,,,,,,,,,0,5,5,22,1,,,,,
,,,,,,,,,,,,,1001,2020-05-06_12h16.21.161,ANTCPTp,2020.1.2,MacIntel,60,,,,,,,,,,,,,,,,,,,,1,,,,,,,X,,,,,,,,,,,,,0,6,6,25,1,,,,,
,,,,,,,,,,,space,,1001,2020-05-06_12h16.21.161,ANTCPTp,2020.1.2,MacIntel,60,,,,,,,,,,,,,,,,,,,space,1,0.406,,,,,,Z,,,,,,,,,,,,,0,7,7,23,1,,,,,
,,,,,,,,,,,space,,1001,2020-05-06_12h16.21.161,ANTCPTp,2020.1.2,MacIntel,60,,,,,,,,,,,,,,,,,,,space,1,0.316,,,,,,M,,,,,,,,,,,,,0,8,8,12,1,,,,,
,,,,,,,,,,,space,,1001,2020-05-06_12h16.21.161,ANTCPTp,2020.1.2,MacIntel,60,,,,,,,,,,,,,,,,,,,space,1,0.306,,,,,,Q,,,,,,,,,,,,,0,9,9,16,1,,,,,
,,,,,,,,,,,,,1001,2020-05-06_12h16.21.161,ANTCPTp,2020.1.2,MacIntel,60,,,,,,,,,,,,,,,,,,,,1,,,,,,,X,,,,,,,,,,,,,0,10,10,26,1,,,,,
,,,,,,,,,,,space,,1001,2020-05-06_12h16.21.161,ANTCPTp,2020.1.2,MacIntel,60,,,,,,,,,,,,,,,,,,,space,1,0.29,,,,,,O,,,,,,,,,,,,,0,11,11,14,1,,,,,
,,,,,,,,,,,space,,1001,2020-05-06_12h16.21.161,ANTCPTp,2020.1.2,MacIntel,60,,,,,,,,,,,,,,,,,,,space,1,0.34,,,,,,L,,,,,,,,,,,,,0,12,12,11,1,,,,,
,,,,,,,,,,,space,,1001,2020-05-06_12h16.21.161,ANTCPTp,2020.1.2,MacIntel,60,,,,,,,,,,,,,,,,,,,space,1,0.28,,,,,,H,,,,,,,,,,,,,0,13,13,7,1,,,,,
,,,,,,,,,,,space,,1001,2020-05-06_12h16.21.161,ANTCPTp,2020.1.2,MacIntel,60,,,,,,,,,,,,,,,,,,,space,1,0.29,,,,,,S,,,,,,,,,,,,,0,14,14,18,1,,,,,
,,,,,,,,,,,space,,1001,2020-05-06_12h16.21.161,ANTCPTp,2020.1.2,MacIntel,60,,,,,,,,,,,,,,,,,,,space,1,0.539,,,,,,K,,,,,,,,,,,,,0,15,15,10,1,,,,,
,,,,,,,,,,,space,,1001,2020-05-06_12h16.21.161,ANTCPTp,2020.1.2,MacIntel,60,,,,,,,,,,,,,,,,,,,space,1,0.307,,,,,,P,,,,,,,,,,,,,0,16,16,15,1,,,,,
,,,,,,,,,,,space,,1001,2020-05-06_12h16.21.161,ANTCPTp,2020.1.2,MacIntel,60,,,,,,,,,,,,,,,,,,,space,1,0.008,,,,,,V,,,,,,,,,,,,,0,17,17,20,1,,,,,
,,,,,,,,,,,space,,1001,2020-05-06_12h16.21.161,ANTCPTp,2020.1.2,MacIntel,60,,,,,,,,,,,,,,,,,,,space,1,0.339,,,,,,A,,,,,,,,,,,,,0,18,18,0,1,,,,,
,,,,,,,,,,,space,,1001,2020-05-06_12h16.21.161,ANTCPTp,2020.1.2,MacIntel,60,,,,,,,,,,,,,,,,,,,space,1,0.277,,,,,,I,,,,,,,,,,,,,0,19,19,8,1,,,,,
,,,,,,,,,,,space,,1001,2020-05-06_12h16.21.161,ANTCPTp,2020.1.2,MacIntel,60,,,,,,,,,,,,,,,,,,,space,1,0.215,,,,,,B,,,,,,,,,,,,,0,20,20,1,1,,,,,
,,,,,,,,,,,space,,1001,2020-05-06_12h16.21.161,ANTCPTp,2020.1.2,MacIntel,60,,,,,,,,,,,,,,,,,,,space,1,0.295,,,,,,U,,,,,,,,,,,,,0,21,21,19,1,,,,,
,,,,,,,,,,,space,,1001,2020-05-06_12h16.21.161,ANTCPTp,2020.1.2,MacIntel,60,,,,,,,,,,,,,,,,,,,space,1,0.29,,,,,,W,,,,,,,,,,,,,0,22,22,21,1,,,,,
,,,,,,,,,,,space,,1001,2020-05-06_12h16.21.161,ANTCPTp,2020.1.2,MacIntel,60,,,,,,,,,,,,,,,,,,,,0,,,,,,,F,,,,,,,,,,,,,0,23,23,5,1,,,,,
,,,,,,,,,,,,,1001,2020-05-06_12h16.21.161,ANTCPTp,2020.1.2,MacIntel,60,,,,,,,,,,,,,,,,,,,,1,,,,,,,X,,,,,,,,,,,,,0,24,24,24,1,,,,,
,,,,,,,,,,,space,,1001,2020-05-06_12h16.21.161,ANTCPTp,2020.1.2,MacIntel,60,,,,,,,,,,,,,,,,,,,,0,,,,,,,R,,,,,,,,,,,,,0,25,25,17,1,,,,,
,,,,,,,,,,,space,,1001,2020-05-06_12h16.21.161,ANTCPTp,2020.1.2,MacIntel,60,,,,,,,,,,,,,,,,,,,space,1,0.315,,,,,,J,,,,,,,,,,,,,0,26,26,9,1,,,,,
,,,,,,,,,,,,,1001,2020-05-06_12h16.21.161,ANTCPTp,2020.1.2,MacIntel,60,,,,,,,,,,,,,,,,,,,,,,,,,,,,5,23.637,,,,,,,,,,,,,,,,2,0,2,0,1
