fixDuration,resp.keys,resp.corr,resp.rt,pracLoop.thisRepN,pracLoop.thisTrialN,pracLoop.thisN,pracLoop.thisIndex,pracLoop.ran,cue,tar,corrAns,targOrientation,Please enter your Participant ID,date,expName,psychopyVersion,OS,frameRate
1.1,left,1,1.094,0,0,0,14,1,stim/centre.png,stim/congRight.png,left,180,1,2020-10-30_10h32.52.329,ANTCPTp,2020.1.2,Win32,60
0.8,left,1,0.912,0,1,1,19,1,stim/blank.png,stim/incongLeft.png,left,0,1,2020-10-30_10h32.52.329,ANTCPTp,2020.1.2,Win32,60
1.3,right,1,0.797,0,2,2,21,1,stim/both.png,stim/incongLeft.png,right,180,1,2020-10-30_10h32.52.329,ANTCPTp,2020.1.2,Win32,60
0.45,right,1,0.756,0,3,3,5,1,stim/both.png,stim/congLeft.png,right,180,1,2020-10-30_10h32.52.329,ANTCPTp,2020.1.2,Win32,60
0.95,,0,,0,4,4,1,1,stim/both.png,stim/congLeft.png,left,0,1,2020-10-30_10h32.52.329,ANTCPTp,2020.1.2,Win32,60
