fixDuration,resp.keys,resp.corr,pracLoop.thisRepN,pracLoop.thisTrialN,pracLoop.thisN,pracLoop.thisIndex,pracLoop.ran,cue,tar,corrAns,targOrientation,Please enter your Participant ID,date,expName,psychopyVersion,OS,frameRate,resp.rt,instResp.keys,instResp.rt,mainLoop.thisRepN,mainLoop.thisTrialN,mainLoop.thisN,mainLoop.thisIndex,mainLoop.ran,blockLoop.thisRepN,blockLoop.thisTrialN,blockLoop.thisN,blockLoop.thisIndex,blockLoop.ran,key_resp.keys,key_resp.rt,probe_response3.keys,probe_response3.rt,getready_resp.keys,getready_resp.rt,response.keys,response.corr,trials.thisRepN,trials.thisTrialN,trials.thisN,trials.thisIndex,trials.ran,letter,response.rt,probe_response.keys,probe_response.rt,trials_2.thisRepN,trials_2.thisTrialN,trials_2.thisN,trials_2.thisIndex,trials_2.ran,trials_3.thisRepN,trials_3.thisTrialN,trials_3.thisN,trials_3.thisIndex,trials_3.ran,trials_4.thisRepN,trials_4.thisTrialN,trials_4.thisN,trials_4.thisIndex,trials_4.ran,trials_5.thisRepN,trials_5.thisTrialN,trials_5.thisN,trials_5.thisIndex,trials_5.ran
0.45,,0,0,0,0,14,1,stim/centre.png,stim/congRight.png,left,180,2050,2020-05-26_16h52.13.167,ANTCPTp,2020.1.2,Win32,60,,,,,,,,,,,,,,,,,,,,,,,,,,,,,,,,,,,,,,,,,,,,,,,,,,
1.05,right,1,0,1,1,5,1,stim/both.png,stim/congLeft.png,right,180,2050,2020-05-26_16h52.13.167,ANTCPTp,2020.1.2,Win32,60,0.75179,,,,,,,,,,,,,,,,,,,,,,,,,,,,,,,,,,,,,,,,,,,,,,,,,
1,right,1,0,2,2,20,1,stim/lower.png,stim/incongLeft.png,right,180,2050,2020-05-26_16h52.13.167,ANTCPTp,2020.1.2,Win32,60,1.22565,,,,,,,,,,,,,,,,,,,,,,,,,,,,,,,,,,,,,,,,,,,,,,,,,
0.65,left,1,0,3,3,19,1,stim/blank.png,stim/incongLeft.png,left,0,2050,2020-05-26_16h52.13.167,ANTCPTp,2020.1.2,Win32,60,1.12289,,,,,,,,,,,,,,,,,,,,,,,,,,,,,,,,,,,,,,,,,,,,,,,,,
1.15,left,1,0,4,4,13,1,stim/both.png,stim/congRight.png,left,180,2050,2020-05-26_16h52.13.167,ANTCPTp,2020.1.2,Win32,60,0.668895,,,,,,,,,,,,,,,,,,,,,,,,,,,,,,,,,,,,,,,,,,,,,,,,,
0.6,right,1,0,5,5,21,1,stim/both.png,stim/incongLeft.png,right,180,2050,2020-05-26_16h52.13.167,ANTCPTp,2020.1.2,Win32,60,0.74681,,,,,,,,,,,,,,,,,,,,,,,,,,,,,,,,,,,,,,,,,,,,,,,,,
0.65,left,1,0,6,6,3,1,stim/blank.png,stim/congLeft.png,left,0,2050,2020-05-26_16h52.13.167,ANTCPTp,2020.1.2,Win32,60,0.886605,,,,,,,,,,,,,,,,,,,,,,,,,,,,,,,,,,,,,,,,,,,,,,,,,
0.5,left,1,0,7,7,18,1,stim/centre.png,stim/incongLeft.png,left,0,2050,2020-05-26_16h52.13.167,ANTCPTp,2020.1.2,Win32,60,0.83599,,,,,,,,,,,,,,,,,,,,,,,,,,,,,,,,,,,,,,,,,,,,,,,,,
1.25,left,1,0,8,8,16,1,stim/upper.png,stim/incongLeft.png,left,0,2050,2020-05-26_16h52.13.167,ANTCPTp,2020.1.2,Win32,60,0.701395,,,,,,,,,,,,,,,,,,,,,,,,,,,,,,,,,,,,,,,,,,,,,,,,,
0.65,right,1,0,9,9,8,1,stim/upper.png,stim/congRight.png,right,0,2050,2020-05-26_16h52.13.167,ANTCPTp,2020.1.2,Win32,60,0.54227,,,,,,,,,,,,,,,,,,,,,,,,,,,,,,,,,,,,,,,,,,,,,,,,,
1.25,left,1,0,10,10,17,1,stim/both.png,stim/incongLeft.png,left,0,2050,2020-05-26_16h52.13.167,ANTCPTp,2020.1.2,Win32,60,0.784145,,,,,,,,,,,,,,,,,,,,,,,,,,,,,,,,,,,,,,,,,,,,,,,,,
0.8,left,1,0,11,11,0,1,stim/upper.png,stim/congLeft.png,left,0,2050,2020-05-26_16h52.13.167,ANTCPTp,2020.1.2,Win32,60,0.629775,,,,,,,,,,,,,,,,,,,,,,,,,,,,,,,,,,,,,,,,,,,,,,,,,
1.45,right,1,0,12,12,6,1,stim/centre.png,stim/congLeft.png,right,180,2050,2020-05-26_16h52.13.167,ANTCPTp,2020.1.2,Win32,60,0.61004,,,,,,,,,,,,,,,,,,,,,,,,,,,,,,,,,,,,,,,,,,,,,,,,,
1.4,left,1,0,13,13,2,1,stim/centre.png,stim/congLeft.png,left,0,2050,2020-05-26_16h52.13.167,ANTCPTp,2020.1.2,Win32,60,0.58461,,,,,,,,,,,,,,,,,,,,,,,,,,,,,,,,,,,,,,,,,,,,,,,,,
1.05,right,1,0,14,14,23,1,stim/blank.png,stim/incongLeft.png,right,180,2050,2020-05-26_16h52.13.167,ANTCPTp,2020.1.2,Win32,60,1.06244,,,,,,,,,,,,,,,,,,,,,,,,,,,,,,,,,,,,,,,,,,,,,,,,,
0.4,left,1,0,15,15,15,1,stim/blank.png,stim/congRight.png,left,180,2050,2020-05-26_16h52.13.167,ANTCPTp,2020.1.2,Win32,60,0.71002,,,,,,,,,,,,,,,,,,,,,,,,,,,,,,,,,,,,,,,,,,,,,,,,,
1,left,1,0,16,16,1,1,stim/both.png,stim/congLeft.png,left,0,2050,2020-05-26_16h52.13.167,ANTCPTp,2020.1.2,Win32,60,0.6024,,,,,,,,,,,,,,,,,,,,,,,,,,,,,,,,,,,,,,,,,,,,,,,,,
0.85,right,1,0,17,17,11,1,stim/blank.png,stim/congRight.png,right,0,2050,2020-05-26_16h52.13.167,ANTCPTp,2020.1.2,Win32,60,0.55233,,,,,,,,,,,,,,,,,,,,,,,,,,,,,,,,,,,,,,,,,,,,,,,,,
1,right,1,0,18,18,22,1,stim/centre.png,stim/incongLeft.png,right,180,2050,2020-05-26_16h52.13.167,ANTCPTp,2020.1.2,Win32,60,0.80302,,,,,,,,,,,,,,,,,,,,,,,,,,,,,,,,,,,,,,,,,,,,,,,,,
0.7,right,1,0,19,19,7,1,stim/blank.png,stim/congLeft.png,right,180,2050,2020-05-26_16h52.13.167,ANTCPTp,2020.1.2,Win32,60,0.669925,,,,,,,,,,,,,,,,,,,,,,,,,,,,,,,,,,,,,,,,,,,,,,,,,
1.4,right,1,0,20,20,10,1,stim/centre.png,stim/congRight.png,right,0,2050,2020-05-26_16h52.13.167,ANTCPTp,2020.1.2,Win32,60,0.520365,,,,,,,,,,,,,,,,,,,,,,,,,,,,,,,,,,,,,,,,,,,,,,,,,
0.4,right,1,0,21,21,4,1,stim/lower.png,stim/congLeft.png,right,180,2050,2020-05-26_16h52.13.167,ANTCPTp,2020.1.2,Win32,60,0.57541,,,,,,,,,,,,,,,,,,,,,,,,,,,,,,,,,,,,,,,,,,,,,,,,,
0.8,right,1,0,22,22,9,1,stim/both.png,stim/congRight.png,right,0,2050,2020-05-26_16h52.13.167,ANTCPTp,2020.1.2,Win32,60,0.597615,,,,,,,,,,,,,,,,,,,,,,,,,,,,,,,,,,,,,,,,,,,,,,,,,
1.2,left,1,0,23,23,12,1,stim/lower.png,stim/congRight.png,left,180,2050,2020-05-26_16h52.13.167,ANTCPTp,2020.1.2,Win32,60,0.54352,,,,,,,,,,,,,,,,,,,,,,,,,,,,,,,,,,,,,,,,,,,,,,,,,
0.5,left,1,,,,,,stim/blank.png,stim/congLeft.png,left,0,2050,2020-05-26_16h52.13.167,ANTCPTp,2020.1.2,Win32,60,0.604965,space,8.03169,0,0,0,3,1,,,,,,,,,,,,,,,,,,,,,,,,,,,,,,,,,,,,,,,,,,
0.75,left,1,,,,,,stim/centre.png,stim/congRight.png,left,180,2050,2020-05-26_16h52.13.167,ANTCPTp,2020.1.2,Win32,60,0.596855,,,0,1,1,14,1,,,,,,,,,,,,,,,,,,,,,,,,,,,,,,,,,,,,,,,,,,
0.55,right,1,,,,,,stim/both.png,stim/incongRight.png,right,0,2050,2020-05-26_16h52.13.167,ANTCPTp,2020.1.2,Win32,60,0.61232,,,0,2,2,25,1,,,,,,,,,,,,,,,,,,,,,,,,,,,,,,,,,,,,,,,,,,
1.55,left,1,,,,,,stim/both.png,stim/incongRight.png,left,180,2050,2020-05-26_16h52.13.167,ANTCPTp,2020.1.2,Win32,60,0.79521,,,0,3,3,29,1,,,,,,,,,,,,,,,,,,,,,,,,,,,,,,,,,,,,,,,,,,
0.95,left,1,,,,,,stim/blank.png,stim/incongLeft.png,left,0,2050,2020-05-26_16h52.13.167,ANTCPTp,2020.1.2,Win32,60,0.65312,,,0,4,4,19,1,,,,,,,,,,,,,,,,,,,,,,,,,,,,,,,,,,,,,,,,,,
1.5,right,1,,,,,,stim/centre.png,stim/congRight.png,right,0,2050,2020-05-26_16h52.13.167,ANTCPTp,2020.1.2,Win32,60,0.53766,,,0,5,5,10,1,,,,,,,,,,,,,,,,,,,,,,,,,,,,,,,,,,,,,,,,,,
0.5,left,1,,,,,,stim/upper.png,stim/neutralLeft.png,left,0,2050,2020-05-26_16h52.13.167,ANTCPTp,2020.1.2,Win32,60,0.51861,,,0,6,6,32,1,,,,,,,,,,,,,,,,,,,,,,,,,,,,,,,,,,,,,,,,,,
1.3,right,1,,,,,,stim/both.png,stim/neutralRight.png,right,0,2050,2020-05-26_16h52.13.167,ANTCPTp,2020.1.2,Win32,60,0.554025,,,0,7,7,41,1,,,,,,,,,,,,,,,,,,,,,,,,,,,,,,,,,,,,,,,,,,
0.55,left,1,,,,,,stim/blank.png,stim/neutralLeft.png,left,0,2050,2020-05-26_16h52.13.167,ANTCPTp,2020.1.2,Win32,60,0.570045,,,0,8,8,35,1,,,,,,,,,,,,,,,,,,,,,,,,,,,,,,,,,,,,,,,,,,
1.05,right,1,,,,,,stim/upper.png,stim/congRight.png,right,0,2050,2020-05-26_16h52.13.167,ANTCPTp,2020.1.2,Win32,60,0.464085,,,0,9,9,8,1,,,,,,,,,,,,,,,,,,,,,,,,,,,,,,,,,,,,,,,,,,
1.15,left,1,,,,,,stim/lower.png,stim/incongRight.png,left,180,2050,2020-05-26_16h52.13.167,ANTCPTp,2020.1.2,Win32,60,0.939165,,,0,10,10,28,1,,,,,,,,,,,,,,,,,,,,,,,,,,,,,,,,,,,,,,,,,,
0.75,left,1,,,,,,stim/upper.png,stim/incongLeft.png,left,0,2050,2020-05-26_16h52.13.167,ANTCPTp,2020.1.2,Win32,60,0.639045,,,0,11,11,16,1,,,,,,,,,,,,,,,,,,,,,,,,,,,,,,,,,,,,,,,,,,
1.05,left,1,,,,,,stim/both.png,stim/neutralRight.png,left,180,2050,2020-05-26_16h52.13.167,ANTCPTp,2020.1.2,Win32,60,0.79327,,,0,12,12,45,1,,,,,,,,,,,,,,,,,,,,,,,,,,,,,,,,,,,,,,,,,,
1.45,right,1,,,,,,stim/upper.png,stim/incongRight.png,right,0,2050,2020-05-26_16h52.13.167,ANTCPTp,2020.1.2,Win32,60,0.55609,,,0,13,13,24,1,,,,,,,,,,,,,,,,,,,,,,,,,,,,,,,,,,,,,,,,,,
1.2,right,1,,,,,,stim/blank.png,stim/congRight.png,right,0,2050,2020-05-26_16h52.13.167,ANTCPTp,2020.1.2,Win32,60,0.72152,,,0,14,14,11,1,,,,,,,,,,,,,,,,,,,,,,,,,,,,,,,,,,,,,,,,,,
1.35,right,1,,,,,,stim/blank.png,stim/incongRight.png,right,0,2050,2020-05-26_16h52.13.167,ANTCPTp,2020.1.2,Win32,60,0.61345,,,0,15,15,27,1,,,,,,,,,,,,,,,,,,,,,,,,,,,,,,,,,,,,,,,,,,
1.15,left,1,,,,,,stim/lower.png,stim/neutralRight.png,left,180,2050,2020-05-26_16h52.13.167,ANTCPTp,2020.1.2,Win32,60,0.588435,,,0,16,16,44,1,,,,,,,,,,,,,,,,,,,,,,,,,,,,,,,,,,,,,,,,,,
0.9,right,1,,,,,,stim/blank.png,stim/incongLeft.png,right,180,2050,2020-05-26_16h52.13.167,ANTCPTp,2020.1.2,Win32,60,0.972675,,,0,17,17,23,1,,,,,,,,,,,,,,,,,,,,,,,,,,,,,,,,,,,,,,,,,,
1.4,right,1,,,,,,stim/centre.png,stim/neutralRight.png,right,0,2050,2020-05-26_16h52.13.167,ANTCPTp,2020.1.2,Win32,60,0.628855,,,0,18,18,42,1,,,,,,,,,,,,,,,,,,,,,,,,,,,,,,,,,,,,,,,,,,
1.5,right,1,,,,,,stim/blank.png,stim/neutralLeft.png,right,180,2050,2020-05-26_16h52.13.167,ANTCPTp,2020.1.2,Win32,60,0.803575,,,0,19,19,39,1,,,,,,,,,,,,,,,,,,,,,,,,,,,,,,,,,,,,,,,,,,
1.25,left,1,,,,,,stim/both.png,stim/congLeft.png,left,0,2050,2020-05-26_16h52.13.167,ANTCPTp,2020.1.2,Win32,60,0.59919,,,0,20,20,1,1,,,,,,,,,,,,,,,,,,,,,,,,,,,,,,,,,,,,,,,,,,
0.65,right,1,,,,,,stim/both.png,stim/congRight.png,right,0,2050,2020-05-26_16h52.13.167,ANTCPTp,2020.1.2,Win32,60,0.56223,,,0,21,21,9,1,,,,,,,,,,,,,,,,,,,,,,,,,,,,,,,,,,,,,,,,,,
0.65,right,1,,,,,,stim/centre.png,stim/incongLeft.png,right,180,2050,2020-05-26_16h52.13.167,ANTCPTp,2020.1.2,Win32,60,0.7375,,,0,22,22,22,1,,,,,,,,,,,,,,,,,,,,,,,,,,,,,,,,,,,,,,,,,,
1.15,left,1,,,,,,stim/centre.png,stim/incongRight.png,left,180,2050,2020-05-26_16h52.13.167,ANTCPTp,2020.1.2,Win32,60,0.852675,,,0,23,23,30,1,,,,,,,,,,,,,,,,,,,,,,,,,,,,,,,,,,,,,,,,,,
1.2,right,1,,,,,,stim/lower.png,stim/congLeft.png,right,180,2050,2020-05-26_16h52.13.167,ANTCPTp,2020.1.2,Win32,60,0.725565,,,0,24,24,4,1,,,,,,,,,,,,,,,,,,,,,,,,,,,,,,,,,,,,,,,,,,
0.8,left,1,,,,,,stim/both.png,stim/incongLeft.png,left,0,2050,2020-05-26_16h52.13.167,ANTCPTp,2020.1.2,Win32,60,0.65989,,,0,25,25,17,1,,,,,,,,,,,,,,,,,,,,,,,,,,,,,,,,,,,,,,,,,,
1.3,right,1,,,,,,stim/centre.png,stim/incongRight.png,right,0,2050,2020-05-26_16h52.13.167,ANTCPTp,2020.1.2,Win32,60,0.63716,,,0,26,26,26,1,,,,,,,,,,,,,,,,,,,,,,,,,,,,,,,,,,,,,,,,,,
0.65,right,1,,,,,,stim/blank.png,stim/congLeft.png,right,180,2050,2020-05-26_16h52.13.167,ANTCPTp,2020.1.2,Win32,60,0.58977,,,0,27,27,7,1,,,,,,,,,,,,,,,,,,,,,,,,,,,,,,,,,,,,,,,,,,
0.75,left,1,,,,,,stim/blank.png,stim/incongRight.png,left,180,2050,2020-05-26_16h52.13.167,ANTCPTp,2020.1.2,Win32,60,0.82356,,,0,28,28,31,1,,,,,,,,,,,,,,,,,,,,,,,,,,,,,,,,,,,,,,,,,,
1.45,right,1,,,,,,stim/lower.png,stim/neutralLeft.png,right,180,2050,2020-05-26_16h52.13.167,ANTCPTp,2020.1.2,Win32,60,0.620885,,,0,29,29,36,1,,,,,,,,,,,,,,,,,,,,,,,,,,,,,,,,,,,,,,,,,,
0.85,right,1,,,,,,stim/lower.png,stim/incongLeft.png,right,180,2050,2020-05-26_16h52.13.167,ANTCPTp,2020.1.2,Win32,60,0.686225,,,0,30,30,20,1,,,,,,,,,,,,,,,,,,,,,,,,,,,,,,,,,,,,,,,,,,
1.05,left,1,,,,,,stim/blank.png,stim/neutralRight.png,left,180,2050,2020-05-26_16h52.13.167,ANTCPTp,2020.1.2,Win32,60,0.62132,,,0,31,31,47,1,,,,,,,,,,,,,,,,,,,,,,,,,,,,,,,,,,,,,,,,,,
0.75,right,1,,,,,,stim/both.png,stim/neutralLeft.png,right,180,2050,2020-05-26_16h52.13.167,ANTCPTp,2020.1.2,Win32,60,0.53867,,,0,32,32,37,1,,,,,,,,,,,,,,,,,,,,,,,,,,,,,,,,,,,,,,,,,,
1.4,right,1,,,,,,stim/both.png,stim/incongLeft.png,right,180,2050,2020-05-26_16h52.13.167,ANTCPTp,2020.1.2,Win32,60,0.641705,,,0,33,33,21,1,,,,,,,,,,,,,,,,,,,,,,,,,,,,,,,,,,,,,,,,,,
1.35,left,1,,,,,,stim/both.png,stim/congRight.png,left,180,2050,2020-05-26_16h52.13.167,ANTCPTp,2020.1.2,Win32,60,0.558565,,,0,34,34,13,1,,,,,,,,,,,,,,,,,,,,,,,,,,,,,,,,,,,,,,,,,,
0.4,left,1,,,,,,stim/centre.png,stim/neutralRight.png,left,180,2050,2020-05-26_16h52.13.167,ANTCPTp,2020.1.2,Win32,60,0.75772,,,0,35,35,46,1,,,,,,,,,,,,,,,,,,,,,,,,,,,,,,,,,,,,,,,,,,
0.95,left,1,,,,,,stim/upper.png,stim/congLeft.png,left,0,2050,2020-05-26_16h52.13.167,ANTCPTp,2020.1.2,Win32,60,0.72957,,,0,36,36,0,1,,,,,,,,,,,,,,,,,,,,,,,,,,,,,,,,,,,,,,,,,,
0.5,right,1,,,,,,stim/centre.png,stim/congLeft.png,right,180,2050,2020-05-26_16h52.13.167,ANTCPTp,2020.1.2,Win32,60,0.586375,,,0,37,37,6,1,,,,,,,,,,,,,,,,,,,,,,,,,,,,,,,,,,,,,,,,,,
0.65,left,1,,,,,,stim/centre.png,stim/congLeft.png,left,0,2050,2020-05-26_16h52.13.167,ANTCPTp,2020.1.2,Win32,60,0.668555,,,0,38,38,2,1,,,,,,,,,,,,,,,,,,,,,,,,,,,,,,,,,,,,,,,,,,
0.95,left,1,,,,,,stim/centre.png,stim/neutralLeft.png,left,0,2050,2020-05-26_16h52.13.167,ANTCPTp,2020.1.2,Win32,60,0.68762,,,0,39,39,34,1,,,,,,,,,,,,,,,,,,,,,,,,,,,,,,,,,,,,,,,,,,
0.6,right,1,,,,,,stim/centre.png,stim/neutralLeft.png,right,180,2050,2020-05-26_16h52.13.167,ANTCPTp,2020.1.2,Win32,60,0.72366,,,0,40,40,38,1,,,,,,,,,,,,,,,,,,,,,,,,,,,,,,,,,,,,,,,,,,
1.55,left,1,,,,,,stim/both.png,stim/neutralLeft.png,left,0,2050,2020-05-26_16h52.13.167,ANTCPTp,2020.1.2,Win32,60,0.57194,,,0,41,41,33,1,,,,,,,,,,,,,,,,,,,,,,,,,,,,,,,,,,,,,,,,,,
1.5,right,1,,,,,,stim/both.png,stim/congLeft.png,right,180,2050,2020-05-26_16h52.13.167,ANTCPTp,2020.1.2,Win32,60,0.574705,,,0,42,42,5,1,,,,,,,,,,,,,,,,,,,,,,,,,,,,,,,,,,,,,,,,,,
0.6,left,1,,,,,,stim/centre.png,stim/incongLeft.png,left,0,2050,2020-05-26_16h52.13.167,ANTCPTp,2020.1.2,Win32,60,0.686785,,,0,43,43,18,1,,,,,,,,,,,,,,,,,,,,,,,,,,,,,,,,,,,,,,,,,,
0.9,right,1,,,,,,stim/upper.png,stim/neutralRight.png,right,0,2050,2020-05-26_16h52.13.167,ANTCPTp,2020.1.2,Win32,60,0.660085,,,0,44,44,40,1,,,,,,,,,,,,,,,,,,,,,,,,,,,,,,,,,,,,,,,,,,
0.6,left,1,,,,,,stim/lower.png,stim/congRight.png,left,180,2050,2020-05-26_16h52.13.167,ANTCPTp,2020.1.2,Win32,60,0.657575,,,0,45,45,12,1,,,,,,,,,,,,,,,,,,,,,,,,,,,,,,,,,,,,,,,,,,
0.4,right,1,,,,,,stim/blank.png,stim/neutralRight.png,right,0,2050,2020-05-26_16h52.13.167,ANTCPTp,2020.1.2,Win32,60,0.63894,,,0,46,46,43,1,,,,,,,,,,,,,,,,,,,,,,,,,,,,,,,,,,,,,,,,,,
0.4,left,1,,,,,,stim/blank.png,stim/congRight.png,left,180,2050,2020-05-26_16h52.13.167,ANTCPTp,2020.1.2,Win32,60,0.604555,,,0,47,47,15,1,,,,,,,,,,,,,,,,,,,,,,,,,,,,,,,,,,,,,,,,,,
0.8,right,1,,,,,,stim/lower.png,stim/congLeft.png,right,180,2050,2020-05-26_16h52.13.167,ANTCPTp,2020.1.2,Win32,60,0.54833,,,1,0,48,4,1,,,,,,,,,,,,,,,,,,,,,,,,,,,,,,,,,,,,,,,,,,
1.5,left,1,,,,,,stim/centre.png,stim/congRight.png,left,180,2050,2020-05-26_16h52.13.167,ANTCPTp,2020.1.2,Win32,60,0.541955,,,1,1,49,14,1,,,,,,,,,,,,,,,,,,,,,,,,,,,,,,,,,,,,,,,,,,
0.8,right,1,,,,,,stim/blank.png,stim/congRight.png,right,0,2050,2020-05-26_16h52.13.167,ANTCPTp,2020.1.2,Win32,60,0.70336,,,1,2,50,11,1,,,,,,,,,,,,,,,,,,,,,,,,,,,,,,,,,,,,,,,,,,
1.45,left,1,,,,,,stim/both.png,stim/congRight.png,left,180,2050,2020-05-26_16h52.13.167,ANTCPTp,2020.1.2,Win32,60,0.524815,,,1,3,51,13,1,,,,,,,,,,,,,,,,,,,,,,,,,,,,,,,,,,,,,,,,,,
1.15,right,1,,,,,,stim/centre.png,stim/incongRight.png,right,0,2050,2020-05-26_16h52.13.167,ANTCPTp,2020.1.2,Win32,60,0.702455,,,1,4,52,26,1,,,,,,,,,,,,,,,,,,,,,,,,,,,,,,,,,,,,,,,,,,
0.5,left,1,,,,,,stim/both.png,stim/incongLeft.png,left,0,2050,2020-05-26_16h52.13.167,ANTCPTp,2020.1.2,Win32,60,0.679055,,,1,5,53,17,1,,,,,,,,,,,,,,,,,,,,,,,,,,,,,,,,,,,,,,,,,,
1.5,right,1,,,,,,stim/blank.png,stim/neutralLeft.png,right,180,2050,2020-05-26_16h52.13.167,ANTCPTp,2020.1.2,Win32,60,0.700275,,,1,6,54,39,1,,,,,,,,,,,,,,,,,,,,,,,,,,,,,,,,,,,,,,,,,,
1.3,right,1,,,,,,stim/both.png,stim/neutralLeft.png,right,180,2050,2020-05-26_16h52.13.167,ANTCPTp,2020.1.2,Win32,60,0.584005,,,1,7,55,37,1,,,,,,,,,,,,,,,,,,,,,,,,,,,,,,,,,,,,,,,,,,
0.55,right,1,,,,,,stim/centre.png,stim/congRight.png,right,0,2050,2020-05-26_16h52.13.167,ANTCPTp,2020.1.2,Win32,60,0.56955,,,1,8,56,10,1,,,,,,,,,,,,,,,,,,,,,,,,,,,,,,,,,,,,,,,,,,
0.4,right,1,,,,,,stim/blank.png,stim/congLeft.png,right,180,2050,2020-05-26_16h52.13.167,ANTCPTp,2020.1.2,Win32,60,0.688555,,,1,9,57,7,1,,,,,,,,,,,,,,,,,,,,,,,,,,,,,,,,,,,,,,,,,,
0.9,left,1,,,,,,stim/blank.png,stim/neutralLeft.png,left,0,2050,2020-05-26_16h52.13.167,ANTCPTp,2020.1.2,Win32,60,0.719205,,,1,10,58,35,1,,,,,,,,,,,,,,,,,,,,,,,,,,,,,,,,,,,,,,,,,,
0.4,right,1,,,,,,stim/blank.png,stim/incongRight.png,right,0,2050,2020-05-26_16h52.13.167,ANTCPTp,2020.1.2,Win32,60,0.619255,,,1,11,59,27,1,,,,,,,,,,,,,,,,,,,,,,,,,,,,,,,,,,,,,,,,,,
0.75,right,1,,,,,,stim/upper.png,stim/neutralRight.png,right,0,2050,2020-05-26_16h52.13.167,ANTCPTp,2020.1.2,Win32,60,0.49704,,,1,12,60,40,1,,,,,,,,,,,,,,,,,,,,,,,,,,,,,,,,,,,,,,,,,,
0.75,left,1,,,,,,stim/upper.png,stim/congLeft.png,left,0,2050,2020-05-26_16h52.13.167,ANTCPTp,2020.1.2,Win32,60,0.554865,,,1,13,61,0,1,,,,,,,,,,,,,,,,,,,,,,,,,,,,,,,,,,,,,,,,,,
1,right,1,,,,,,stim/upper.png,stim/incongRight.png,right,0,2050,2020-05-26_16h52.13.167,ANTCPTp,2020.1.2,Win32,60,0.4532,,,1,14,62,24,1,,,,,,,,,,,,,,,,,,,,,,,,,,,,,,,,,,,,,,,,,,
0.55,left,1,,,,,,stim/centre.png,stim/incongRight.png,left,180,2050,2020-05-26_16h52.13.167,ANTCPTp,2020.1.2,Win32,60,0.955565,,,1,15,63,30,1,,,,,,,,,,,,,,,,,,,,,,,,,,,,,,,,,,,,,,,,,,
0.65,right,1,,,,,,stim/both.png,stim/incongLeft.png,right,180,2050,2020-05-26_16h52.13.167,ANTCPTp,2020.1.2,Win32,60,0.873905,,,1,16,64,21,1,,,,,,,,,,,,,,,,,,,,,,,,,,,,,,,,,,,,,,,,,,
0.9,right,1,,,,,,stim/lower.png,stim/neutralLeft.png,right,180,2050,2020-05-26_16h52.13.167,ANTCPTp,2020.1.2,Win32,60,0.652995,,,1,17,65,36,1,,,,,,,,,,,,,,,,,,,,,,,,,,,,,,,,,,,,,,,,,,
1.05,left,1,,,,,,stim/centre.png,stim/neutralRight.png,left,180,2050,2020-05-26_16h52.13.167,ANTCPTp,2020.1.2,Win32,60,0.62556,,,1,18,66,46,1,,,,,,,,,,,,,,,,,,,,,,,,,,,,,,,,,,,,,,,,,,
1.55,left,1,,,,,,stim/blank.png,stim/incongRight.png,left,180,2050,2020-05-26_16h52.13.167,ANTCPTp,2020.1.2,Win32,60,0.839805,,,1,19,67,31,1,,,,,,,,,,,,,,,,,,,,,,,,,,,,,,,,,,,,,,,,,,
1.4,left,1,,,,,,stim/both.png,stim/neutralRight.png,left,180,2050,2020-05-26_16h52.13.167,ANTCPTp,2020.1.2,Win32,60,0.66972,,,1,20,68,45,1,,,,,,,,,,,,,,,,,,,,,,,,,,,,,,,,,,,,,,,,,,
0.6,left,1,,,,,,stim/both.png,stim/neutralLeft.png,left,0,2050,2020-05-26_16h52.13.167,ANTCPTp,2020.1.2,Win32,60,0.71881,,,1,21,69,33,1,,,,,,,,,,,,,,,,,,,,,,,,,,,,,,,,,,,,,,,,,,
0.65,right,1,,,,,,stim/centre.png,stim/congLeft.png,right,180,2050,2020-05-26_16h52.13.167,ANTCPTp,2020.1.2,Win32,60,0.692175,,,1,22,70,6,1,,,,,,,,,,,,,,,,,,,,,,,,,,,,,,,,,,,,,,,,,,
0.7,right,1,,,,,,stim/centre.png,stim/neutralLeft.png,right,180,2050,2020-05-26_16h52.13.167,ANTCPTp,2020.1.2,Win32,60,0.563655,,,1,23,71,38,1,,,,,,,,,,,,,,,,,,,,,,,,,,,,,,,,,,,,,,,,,,
0.55,right,1,,,,,,stim/both.png,stim/incongRight.png,right,0,2050,2020-05-26_16h52.13.167,ANTCPTp,2020.1.2,Win32,60,0.837385,,,1,24,72,25,1,,,,,,,,,,,,,,,,,,,,,,,,,,,,,,,,,,,,,,,,,,
1.4,left,1,,,,,,stim/blank.png,stim/neutralRight.png,left,180,2050,2020-05-26_16h52.13.167,ANTCPTp,2020.1.2,Win32,60,0.62493,,,1,25,73,47,1,,,,,,,,,,,,,,,,,,,,,,,,,,,,,,,,,,,,,,,,,,
1.15,left,1,,,,,,stim/upper.png,stim/neutralLeft.png,left,0,2050,2020-05-26_16h52.13.167,ANTCPTp,2020.1.2,Win32,60,0.585905,,,1,26,74,32,1,,,,,,,,,,,,,,,,,,,,,,,,,,,,,,,,,,,,,,,,,,
0.7,right,1,,,,,,stim/lower.png,stim/incongLeft.png,right,180,2050,2020-05-26_16h52.13.167,ANTCPTp,2020.1.2,Win32,60,0.576235,,,1,27,75,20,1,,,,,,,,,,,,,,,,,,,,,,,,,,,,,,,,,,,,,,,,,,
0.7,right,1,,,,,,stim/both.png,stim/congLeft.png,right,180,2050,2020-05-26_16h52.13.167,ANTCPTp,2020.1.2,Win32,60,0.58199,,,1,28,76,5,1,,,,,,,,,,,,,,,,,,,,,,,,,,,,,,,,,,,,,,,,,,
0.45,left,1,,,,,,stim/blank.png,stim/congLeft.png,left,0,2050,2020-05-26_16h52.13.167,ANTCPTp,2020.1.2,Win32,60,0.689785,,,1,29,77,3,1,,,,,,,,,,,,,,,,,,,,,,,,,,,,,,,,,,,,,,,,,,
0.45,right,1,,,,,,stim/blank.png,stim/incongLeft.png,right,180,2050,2020-05-26_16h52.13.167,ANTCPTp,2020.1.2,Win32,60,0.73879,,,1,30,78,23,1,,,,,,,,,,,,,,,,,,,,,,,,,,,,,,,,,,,,,,,,,,
1.1,left,1,,,,,,stim/lower.png,stim/neutralRight.png,left,180,2050,2020-05-26_16h52.13.167,ANTCPTp,2020.1.2,Win32,60,0.648015,,,1,31,79,44,1,,,,,,,,,,,,,,,,,,,,,,,,,,,,,,,,,,,,,,,,,,
0.7,left,1,,,,,,stim/lower.png,stim/congRight.png,left,180,2050,2020-05-26_16h52.13.167,ANTCPTp,2020.1.2,Win32,60,0.52638,,,1,32,80,12,1,,,,,,,,,,,,,,,,,,,,,,,,,,,,,,,,,,,,,,,,,,
0.6,right,1,,,,,,stim/centre.png,stim/incongLeft.png,right,180,2050,2020-05-26_16h52.13.167,ANTCPTp,2020.1.2,Win32,60,0.609535,,,1,33,81,22,1,,,,,,,,,,,,,,,,,,,,,,,,,,,,,,,,,,,,,,,,,,
1.05,right,1,,,,,,stim/both.png,stim/congRight.png,right,0,2050,2020-05-26_16h52.13.167,ANTCPTp,2020.1.2,Win32,60,0.75386,,,1,34,82,9,1,,,,,,,,,,,,,,,,,,,,,,,,,,,,,,,,,,,,,,,,,,
1.2,right,1,,,,,,stim/both.png,stim/neutralRight.png,right,0,2050,2020-05-26_16h52.13.167,ANTCPTp,2020.1.2,Win32,60,0.567985,,,1,35,83,41,1,,,,,,,,,,,,,,,,,,,,,,,,,,,,,,,,,,,,,,,,,,
1,left,1,,,,,,stim/blank.png,stim/incongLeft.png,left,0,2050,2020-05-26_16h52.13.167,ANTCPTp,2020.1.2,Win32,60,0.892505,,,1,36,84,19,1,,,,,,,,,,,,,,,,,,,,,,,,,,,,,,,,,,,,,,,,,,
1.4,left,1,,,,,,stim/centre.png,stim/incongLeft.png,left,0,2050,2020-05-26_16h52.13.167,ANTCPTp,2020.1.2,Win32,60,0.72384,,,1,37,85,18,1,,,,,,,,,,,,,,,,,,,,,,,,,,,,,,,,,,,,,,,,,,
1.4,right,1,,,,,,stim/centre.png,stim/neutralRight.png,right,0,2050,2020-05-26_16h52.13.167,ANTCPTp,2020.1.2,Win32,60,0.62366,,,1,38,86,42,1,,,,,,,,,,,,,,,,,,,,,,,,,,,,,,,,,,,,,,,,,,
0.75,left,1,,,,,,stim/both.png,stim/incongRight.png,left,180,2050,2020-05-26_16h52.13.167,ANTCPTp,2020.1.2,Win32,60,0.80261,,,1,39,87,29,1,,,,,,,,,,,,,,,,,,,,,,,,,,,,,,,,,,,,,,,,,,
1.25,left,1,,,,,,stim/blank.png,stim/congRight.png,left,180,2050,2020-05-26_16h52.13.167,ANTCPTp,2020.1.2,Win32,60,0.641085,,,1,40,88,15,1,,,,,,,,,,,,,,,,,,,,,,,,,,,,,,,,,,,,,,,,,,
0.7,left,1,,,,,,stim/centre.png,stim/neutralLeft.png,left,0,2050,2020-05-26_16h52.13.167,ANTCPTp,2020.1.2,Win32,60,0.62093,,,1,41,89,34,1,,,,,,,,,,,,,,,,,,,,,,,,,,,,,,,,,,,,,,,,,,
0.9,right,1,,,,,,stim/blank.png,stim/neutralRight.png,right,0,2050,2020-05-26_16h52.13.167,ANTCPTp,2020.1.2,Win32,60,0.65377,,,1,42,90,43,1,,,,,,,,,,,,,,,,,,,,,,,,,,,,,,,,,,,,,,,,,,
0.8,left,1,,,,,,stim/upper.png,stim/incongLeft.png,left,0,2050,2020-05-26_16h52.13.167,ANTCPTp,2020.1.2,Win32,60,0.73775,,,1,43,91,16,1,,,,,,,,,,,,,,,,,,,,,,,,,,,,,,,,,,,,,,,,,,
1.35,left,1,,,,,,stim/lower.png,stim/incongRight.png,left,180,2050,2020-05-26_16h52.13.167,ANTCPTp,2020.1.2,Win32,60,0.993375,,,1,44,92,28,1,,,,,,,,,,,,,,,,,,,,,,,,,,,,,,,,,,,,,,,,,,
1.55,left,1,,,,,,stim/centre.png,stim/congLeft.png,left,0,2050,2020-05-26_16h52.13.167,ANTCPTp,2020.1.2,Win32,60,0.55324,,,1,45,93,2,1,,,,,,,,,,,,,,,,,,,,,,,,,,,,,,,,,,,,,,,,,,
0.55,left,1,,,,,,stim/both.png,stim/congLeft.png,left,0,2050,2020-05-26_16h52.13.167,ANTCPTp,2020.1.2,Win32,60,0.56123,,,1,46,94,1,1,,,,,,,,,,,,,,,,,,,,,,,,,,,,,,,,,,,,,,,,,,
1.3,right,1,,,,,,stim/upper.png,stim/congRight.png,right,0,2050,2020-05-26_16h52.13.167,ANTCPTp,2020.1.2,Win32,60,0.50168,,,1,47,95,8,1,,,,,,,,,,,,,,,,,,,,,,,,,,,,,,,,,,,,,,,,,,
,,,,,,,,,,,,2050,2020-05-26_16h52.13.167,ANTCPTp,2020.1.2,Win32,60,,,,,,,,,0,0,0,0,1,,,,,,,,,,,,,,,,,,,,,,,,,,,,,,,,,,,,,
1.05,right,1,,,,,,stim/blank.png,stim/congLeft.png,right,180,2050,2020-05-26_16h52.13.167,ANTCPTp,2020.1.2,Win32,60,0.721005,,,0,0,0,7,1,,,,,,,,,,,,,,,,,,,,,,,,,,,,,,,,,,,,,,,,,,
1.4,right,1,,,,,,stim/both.png,stim/incongLeft.png,right,180,2050,2020-05-26_16h52.13.167,ANTCPTp,2020.1.2,Win32,60,0.97575,,,0,1,1,21,1,,,,,,,,,,,,,,,,,,,,,,,,,,,,,,,,,,,,,,,,,,
0.85,right,1,,,,,,stim/lower.png,stim/congLeft.png,right,180,2050,2020-05-26_16h52.13.167,ANTCPTp,2020.1.2,Win32,60,0.628025,,,0,2,2,4,1,,,,,,,,,,,,,,,,,,,,,,,,,,,,,,,,,,,,,,,,,,
1.4,left,1,,,,,,stim/centre.png,stim/neutralLeft.png,left,0,2050,2020-05-26_16h52.13.167,ANTCPTp,2020.1.2,Win32,60,0.68808,,,0,3,3,34,1,,,,,,,,,,,,,,,,,,,,,,,,,,,,,,,,,,,,,,,,,,
0.45,left,1,,,,,,stim/blank.png,stim/incongLeft.png,left,0,2050,2020-05-26_16h52.13.167,ANTCPTp,2020.1.2,Win32,60,0.809465,,,0,4,4,19,1,,,,,,,,,,,,,,,,,,,,,,,,,,,,,,,,,,,,,,,,,,
0.6,right,1,,,,,,stim/blank.png,stim/neutralLeft.png,right,180,2050,2020-05-26_16h52.13.167,ANTCPTp,2020.1.2,Win32,60,0.769375,,,0,5,5,39,1,,,,,,,,,,,,,,,,,,,,,,,,,,,,,,,,,,,,,,,,,,
1.3,left,1,,,,,,stim/centre.png,stim/incongLeft.png,left,0,2050,2020-05-26_16h52.13.167,ANTCPTp,2020.1.2,Win32,60,0.78511,,,0,6,6,18,1,,,,,,,,,,,,,,,,,,,,,,,,,,,,,,,,,,,,,,,,,,
0.85,left,1,,,,,,stim/lower.png,stim/congRight.png,left,180,2050,2020-05-26_16h52.13.167,ANTCPTp,2020.1.2,Win32,60,0.57321,,,0,7,7,12,1,,,,,,,,,,,,,,,,,,,,,,,,,,,,,,,,,,,,,,,,,,
0.75,left,1,,,,,,stim/blank.png,stim/congRight.png,left,180,2050,2020-05-26_16h52.13.167,ANTCPTp,2020.1.2,Win32,60,0.61831,,,0,8,8,15,1,,,,,,,,,,,,,,,,,,,,,,,,,,,,,,,,,,,,,,,,,,
0.85,right,1,,,,,,stim/both.png,stim/congRight.png,right,0,2050,2020-05-26_16h52.13.167,ANTCPTp,2020.1.2,Win32,60,0.61048,,,0,9,9,9,1,,,,,,,,,,,,,,,,,,,,,,,,,,,,,,,,,,,,,,,,,,
1.45,right,1,,,,,,stim/lower.png,stim/neutralLeft.png,right,180,2050,2020-05-26_16h52.13.167,ANTCPTp,2020.1.2,Win32,60,0.72558,,,0,10,10,36,1,,,,,,,,,,,,,,,,,,,,,,,,,,,,,,,,,,,,,,,,,,
1.5,right,1,,,,,,stim/centre.png,stim/neutralLeft.png,right,180,2050,2020-05-26_16h52.13.167,ANTCPTp,2020.1.2,Win32,60,0.67979,,,0,11,11,38,1,,,,,,,,,,,,,,,,,,,,,,,,,,,,,,,,,,,,,,,,,,
0.9,left,1,,,,,,stim/both.png,stim/congRight.png,left,180,2050,2020-05-26_16h52.13.167,ANTCPTp,2020.1.2,Win32,60,0.687005,,,0,12,12,13,1,,,,,,,,,,,,,,,,,,,,,,,,,,,,,,,,,,,,,,,,,,
0.5,left,1,,,,,,stim/blank.png,stim/congLeft.png,left,0,2050,2020-05-26_16h52.13.167,ANTCPTp,2020.1.2,Win32,60,0.821775,,,0,13,13,3,1,,,,,,,,,,,,,,,,,,,,,,,,,,,,,,,,,,,,,,,,,,
0.65,left,1,,,,,,stim/lower.png,stim/incongRight.png,left,180,2050,2020-05-26_16h52.13.167,ANTCPTp,2020.1.2,Win32,60,0.76126,,,0,14,14,28,1,,,,,,,,,,,,,,,,,,,,,,,,,,,,,,,,,,,,,,,,,,
1.1,right,1,,,,,,stim/lower.png,stim/incongLeft.png,right,180,2050,2020-05-26_16h52.13.167,ANTCPTp,2020.1.2,Win32,60,0.869495,,,0,15,15,20,1,,,,,,,,,,,,,,,,,,,,,,,,,,,,,,,,,,,,,,,,,,
0.65,right,1,,,,,,stim/blank.png,stim/incongRight.png,right,0,2050,2020-05-26_16h52.13.167,ANTCPTp,2020.1.2,Win32,60,0.77153,,,0,16,16,27,1,,,,,,,,,,,,,,,,,,,,,,,,,,,,,,,,,,,,,,,,,,
1.45,right,1,,,,,,stim/blank.png,stim/neutralRight.png,right,0,2050,2020-05-26_16h52.13.167,ANTCPTp,2020.1.2,Win32,60,0.653605,,,0,17,17,43,1,,,,,,,,,,,,,,,,,,,,,,,,,,,,,,,,,,,,,,,,,,
0.55,left,1,,,,,,stim/both.png,stim/incongLeft.png,left,0,2050,2020-05-26_16h52.13.167,ANTCPTp,2020.1.2,Win32,60,0.97176,,,0,18,18,17,1,,,,,,,,,,,,,,,,,,,,,,,,,,,,,,,,,,,,,,,,,,
1.55,right,1,,,,,,stim/centre.png,stim/congLeft.png,right,180,2050,2020-05-26_16h52.13.167,ANTCPTp,2020.1.2,Win32,60,0.683715,,,0,19,19,6,1,,,,,,,,,,,,,,,,,,,,,,,,,,,,,,,,,,,,,,,,,,
1.55,left,1,,,,,,stim/both.png,stim/congLeft.png,left,0,2050,2020-05-26_16h52.13.167,ANTCPTp,2020.1.2,Win32,60,0.63904,,,0,20,20,1,1,,,,,,,,,,,,,,,,,,,,,,,,,,,,,,,,,,,,,,,,,,
1.1,left,1,,,,,,stim/upper.png,stim/neutralLeft.png,left,0,2050,2020-05-26_16h52.13.167,ANTCPTp,2020.1.2,Win32,60,0.57043,,,0,21,21,32,1,,,,,,,,,,,,,,,,,,,,,,,,,,,,,,,,,,,,,,,,,,
0.55,right,1,,,,,,stim/upper.png,stim/congRight.png,right,0,2050,2020-05-26_16h52.13.167,ANTCPTp,2020.1.2,Win32,60,0.592605,,,0,22,22,8,1,,,,,,,,,,,,,,,,,,,,,,,,,,,,,,,,,,,,,,,,,,
1.1,left,1,,,,,,stim/both.png,stim/neutralRight.png,left,180,2050,2020-05-26_16h52.13.167,ANTCPTp,2020.1.2,Win32,60,0.772445,,,0,23,23,45,1,,,,,,,,,,,,,,,,,,,,,,,,,,,,,,,,,,,,,,,,,,
0.6,right,1,,,,,,stim/both.png,stim/congLeft.png,right,180,2050,2020-05-26_16h52.13.167,ANTCPTp,2020.1.2,Win32,60,0.59494,,,0,24,24,5,1,,,,,,,,,,,,,,,,,,,,,,,,,,,,,,,,,,,,,,,,,,
0.6,left,1,,,,,,stim/lower.png,stim/neutralRight.png,left,180,2050,2020-05-26_16h52.13.167,ANTCPTp,2020.1.2,Win32,60,0.60838,,,0,25,25,44,1,,,,,,,,,,,,,,,,,,,,,,,,,,,,,,,,,,,,,,,,,,
1.3,left,1,,,,,,stim/centre.png,stim/congLeft.png,left,0,2050,2020-05-26_16h52.13.167,ANTCPTp,2020.1.2,Win32,60,0.61858,,,0,26,26,2,1,,,,,,,,,,,,,,,,,,,,,,,,,,,,,,,,,,,,,,,,,,
0.8,left,1,,,,,,stim/centre.png,stim/neutralRight.png,left,180,2050,2020-05-26_16h52.13.167,ANTCPTp,2020.1.2,Win32,60,0.6359,,,0,27,27,46,1,,,,,,,,,,,,,,,,,,,,,,,,,,,,,,,,,,,,,,,,,,
1.45,right,1,,,,,,stim/blank.png,stim/incongLeft.png,right,180,2050,2020-05-26_16h52.13.167,ANTCPTp,2020.1.2,Win32,60,0.869535,,,0,28,28,23,1,,,,,,,,,,,,,,,,,,,,,,,,,,,,,,,,,,,,,,,,,,
0.65,left,1,,,,,,stim/centre.png,stim/congRight.png,left,180,2050,2020-05-26_16h52.13.167,ANTCPTp,2020.1.2,Win32,60,0.581385,,,0,29,29,14,1,,,,,,,,,,,,,,,,,,,,,,,,,,,,,,,,,,,,,,,,,,
0.6,right,1,,,,,,stim/upper.png,stim/incongRight.png,right,0,2050,2020-05-26_16h52.13.167,ANTCPTp,2020.1.2,Win32,60,0.619035,,,0,30,30,24,1,,,,,,,,,,,,,,,,,,,,,,,,,,,,,,,,,,,,,,,,,,
1.5,left,1,,,,,,stim/blank.png,stim/neutralLeft.png,left,0,2050,2020-05-26_16h52.13.167,ANTCPTp,2020.1.2,Win32,60,0.608385,,,0,31,31,35,1,,,,,,,,,,,,,,,,,,,,,,,,,,,,,,,,,,,,,,,,,,
1.1,right,1,,,,,,stim/upper.png,stim/neutralRight.png,right,0,2050,2020-05-26_16h52.13.167,ANTCPTp,2020.1.2,Win32,60,0.56086,,,0,32,32,40,1,,,,,,,,,,,,,,,,,,,,,,,,,,,,,,,,,,,,,,,,,,
1.05,left,1,,,,,,stim/upper.png,stim/congLeft.png,left,0,2050,2020-05-26_16h52.13.167,ANTCPTp,2020.1.2,Win32,60,0.552535,,,0,33,33,0,1,,,,,,,,,,,,,,,,,,,,,,,,,,,,,,,,,,,,,,,,,,
1.45,right,0,,,,,,stim/both.png,stim/incongRight.png,left,180,2050,2020-05-26_16h52.13.167,ANTCPTp,2020.1.2,Win32,60,0.70339,,,0,34,34,29,1,,,,,,,,,,,,,,,,,,,,,,,,,,,,,,,,,,,,,,,,,,
1.15,right,1,,,,,,stim/centre.png,stim/neutralRight.png,right,0,2050,2020-05-26_16h52.13.167,ANTCPTp,2020.1.2,Win32,60,0.683185,,,0,35,35,42,1,,,,,,,,,,,,,,,,,,,,,,,,,,,,,,,,,,,,,,,,,,
0.4,left,1,,,,,,stim/blank.png,stim/incongRight.png,left,180,2050,2020-05-26_16h52.13.167,ANTCPTp,2020.1.2,Win32,60,0.92492,,,0,36,36,31,1,,,,,,,,,,,,,,,,,,,,,,,,,,,,,,,,,,,,,,,,,,
0.7,right,1,,,,,,stim/centre.png,stim/incongRight.png,right,0,2050,2020-05-26_16h52.13.167,ANTCPTp,2020.1.2,Win32,60,0.724245,,,0,37,37,26,1,,,,,,,,,,,,,,,,,,,,,,,,,,,,,,,,,,,,,,,,,,
0.55,right,1,,,,,,stim/blank.png,stim/congRight.png,right,0,2050,2020-05-26_16h52.13.167,ANTCPTp,2020.1.2,Win32,60,0.65513,,,0,38,38,11,1,,,,,,,,,,,,,,,,,,,,,,,,,,,,,,,,,,,,,,,,,,
1,right,1,,,,,,stim/centre.png,stim/incongLeft.png,right,180,2050,2020-05-26_16h52.13.167,ANTCPTp,2020.1.2,Win32,60,0.70636,,,0,39,39,22,1,,,,,,,,,,,,,,,,,,,,,,,,,,,,,,,,,,,,,,,,,,
1.35,right,1,,,,,,stim/centre.png,stim/congRight.png,right,0,2050,2020-05-26_16h52.13.167,ANTCPTp,2020.1.2,Win32,60,0.622915,,,0,40,40,10,1,,,,,,,,,,,,,,,,,,,,,,,,,,,,,,,,,,,,,,,,,,
0.4,right,1,,,,,,stim/both.png,stim/neutralRight.png,right,0,2050,2020-05-26_16h52.13.167,ANTCPTp,2020.1.2,Win32,60,0.59761,,,0,41,41,41,1,,,,,,,,,,,,,,,,,,,,,,,,,,,,,,,,,,,,,,,,,,
1.4,left,1,,,,,,stim/both.png,stim/neutralLeft.png,left,0,2050,2020-05-26_16h52.13.167,ANTCPTp,2020.1.2,Win32,60,0.62448,,,0,42,42,33,1,,,,,,,,,,,,,,,,,,,,,,,,,,,,,,,,,,,,,,,,,,
0.7,right,1,,,,,,stim/both.png,stim/neutralLeft.png,right,180,2050,2020-05-26_16h52.13.167,ANTCPTp,2020.1.2,Win32,60,0.67111,,,0,43,43,37,1,,,,,,,,,,,,,,,,,,,,,,,,,,,,,,,,,,,,,,,,,,
1.5,left,1,,,,,,stim/blank.png,stim/neutralRight.png,left,180,2050,2020-05-26_16h52.13.167,ANTCPTp,2020.1.2,Win32,60,0.653175,,,0,44,44,47,1,,,,,,,,,,,,,,,,,,,,,,,,,,,,,,,,,,,,,,,,,,
0.45,left,1,,,,,,stim/upper.png,stim/incongLeft.png,left,0,2050,2020-05-26_16h52.13.167,ANTCPTp,2020.1.2,Win32,60,0.739115,,,0,45,45,16,1,,,,,,,,,,,,,,,,,,,,,,,,,,,,,,,,,,,,,,,,,,
1.05,right,1,,,,,,stim/both.png,stim/incongRight.png,right,0,2050,2020-05-26_16h52.13.167,ANTCPTp,2020.1.2,Win32,60,0.769545,,,0,46,46,25,1,,,,,,,,,,,,,,,,,,,,,,,,,,,,,,,,,,,,,,,,,,
0.65,left,1,,,,,,stim/centre.png,stim/incongRight.png,left,180,2050,2020-05-26_16h52.13.167,ANTCPTp,2020.1.2,Win32,60,0.75769,,,0,47,47,30,1,,,,,,,,,,,,,,,,,,,,,,,,,,,,,,,,,,,,,,,,,,
1.55,right,1,,,,,,stim/both.png,stim/neutralLeft.png,right,180,2050,2020-05-26_16h52.13.167,ANTCPTp,2020.1.2,Win32,60,0.771045,,,1,0,48,37,1,,,,,,,,,,,,,,,,,,,,,,,,,,,,,,,,,,,,,,,,,,
1.15,left,1,,,,,,stim/lower.png,stim/congRight.png,left,180,2050,2020-05-26_16h52.13.167,ANTCPTp,2020.1.2,Win32,60,0.678145,,,1,1,49,12,1,,,,,,,,,,,,,,,,,,,,,,,,,,,,,,,,,,,,,,,,,,
0.75,left,1,,,,,,stim/blank.png,stim/congRight.png,left,180,2050,2020-05-26_16h52.13.167,ANTCPTp,2020.1.2,Win32,60,0.6692,,,1,2,50,15,1,,,,,,,,,,,,,,,,,,,,,,,,,,,,,,,,,,,,,,,,,,
0.95,right,1,,,,,,stim/centre.png,stim/neutralRight.png,right,0,2050,2020-05-26_16h52.13.167,ANTCPTp,2020.1.2,Win32,60,0.602525,,,1,3,51,42,1,,,,,,,,,,,,,,,,,,,,,,,,,,,,,,,,,,,,,,,,,,
0.7,left,1,,,,,,stim/centre.png,stim/congRight.png,left,180,2050,2020-05-26_16h52.13.167,ANTCPTp,2020.1.2,Win32,60,0.593165,,,1,4,52,14,1,,,,,,,,,,,,,,,,,,,,,,,,,,,,,,,,,,,,,,,,,,
1,right,1,,,,,,stim/blank.png,stim/neutralRight.png,right,0,2050,2020-05-26_16h52.13.167,ANTCPTp,2020.1.2,Win32,60,0.637315,,,1,5,53,43,1,,,,,,,,,,,,,,,,,,,,,,,,,,,,,,,,,,,,,,,,,,
0.9,right,1,,,,,,stim/blank.png,stim/congLeft.png,right,180,2050,2020-05-26_16h52.13.167,ANTCPTp,2020.1.2,Win32,60,0.652495,,,1,6,54,7,1,,,,,,,,,,,,,,,,,,,,,,,,,,,,,,,,,,,,,,,,,,
1.45,left,1,,,,,,stim/both.png,stim/incongLeft.png,left,0,2050,2020-05-26_16h52.13.167,ANTCPTp,2020.1.2,Win32,60,0.71467,,,1,7,55,17,1,,,,,,,,,,,,,,,,,,,,,,,,,,,,,,,,,,,,,,,,,,
1.25,right,1,,,,,,stim/blank.png,stim/neutralLeft.png,right,180,2050,2020-05-26_16h52.13.167,ANTCPTp,2020.1.2,Win32,60,0.719875,,,1,8,56,39,1,,,,,,,,,,,,,,,,,,,,,,,,,,,,,,,,,,,,,,,,,,
1.1,right,1,,,,,,stim/blank.png,stim/congRight.png,right,0,2050,2020-05-26_16h52.13.167,ANTCPTp,2020.1.2,Win32,60,0.61212,,,1,9,57,11,1,,,,,,,,,,,,,,,,,,,,,,,,,,,,,,,,,,,,,,,,,,
1.45,right,1,,,,,,stim/upper.png,stim/neutralRight.png,right,0,2050,2020-05-26_16h52.13.167,ANTCPTp,2020.1.2,Win32,60,0.63845,,,1,10,58,40,1,,,,,,,,,,,,,,,,,,,,,,,,,,,,,,,,,,,,,,,,,,
1,right,1,,,,,,stim/centre.png,stim/neutralLeft.png,right,180,2050,2020-05-26_16h52.13.167,ANTCPTp,2020.1.2,Win32,60,0.68631,,,1,11,59,38,1,,,,,,,,,,,,,,,,,,,,,,,,,,,,,,,,,,,,,,,,,,
0.45,left,1,,,,,,stim/lower.png,stim/incongRight.png,left,180,2050,2020-05-26_16h52.13.167,ANTCPTp,2020.1.2,Win32,60,0.80362,,,1,12,60,28,1,,,,,,,,,,,,,,,,,,,,,,,,,,,,,,,,,,,,,,,,,,
1,left,1,,,,,,stim/upper.png,stim/congLeft.png,left,0,2050,2020-05-26_16h52.13.167,ANTCPTp,2020.1.2,Win32,60,0.6357,,,1,13,61,0,1,,,,,,,,,,,,,,,,,,,,,,,,,,,,,,,,,,,,,,,,,,
0.55,right,1,,,,,,stim/centre.png,stim/congRight.png,right,0,2050,2020-05-26_16h52.13.167,ANTCPTp,2020.1.2,Win32,60,0.65536,,,1,14,62,10,1,,,,,,,,,,,,,,,,,,,,,,,,,,,,,,,,,,,,,,,,,,
1.25,left,1,,,,,,stim/upper.png,stim/incongLeft.png,left,0,2050,2020-05-26_16h52.13.167,ANTCPTp,2020.1.2,Win32,60,0.759825,,,1,15,63,16,1,,,,,,,,,,,,,,,,,,,,,,,,,,,,,,,,,,,,,,,,,,
0.9,left,1,,,,,,stim/lower.png,stim/neutralRight.png,left,180,2050,2020-05-26_16h52.13.167,ANTCPTp,2020.1.2,Win32,60,0.603125,,,1,16,64,44,1,,,,,,,,,,,,,,,,,,,,,,,,,,,,,,,,,,,,,,,,,,
0.4,right,1,,,,,,stim/both.png,stim/incongLeft.png,right,180,2050,2020-05-26_16h52.13.167,ANTCPTp,2020.1.2,Win32,60,0.955055,,,1,17,65,21,1,,,,,,,,,,,,,,,,,,,,,,,,,,,,,,,,,,,,,,,,,,
0.45,left,1,,,,,,stim/both.png,stim/congRight.png,left,180,2050,2020-05-26_16h52.13.167,ANTCPTp,2020.1.2,Win32,60,0.608915,,,1,18,66,13,1,,,,,,,,,,,,,,,,,,,,,,,,,,,,,,,,,,,,,,,,,,
1.2,left,1,,,,,,stim/centre.png,stim/neutralLeft.png,left,0,2050,2020-05-26_16h52.13.167,ANTCPTp,2020.1.2,Win32,60,0.613105,,,1,19,67,34,1,,,,,,,,,,,,,,,,,,,,,,,,,,,,,,,,,,,,,,,,,,
1.3,right,1,,,,,,stim/lower.png,stim/neutralLeft.png,right,180,2050,2020-05-26_16h52.13.167,ANTCPTp,2020.1.2,Win32,60,0.619365,,,1,20,68,36,1,,,,,,,,,,,,,,,,,,,,,,,,,,,,,,,,,,,,,,,,,,
1.25,right,1,,,,,,stim/centre.png,stim/incongRight.png,right,0,2050,2020-05-26_16h52.13.167,ANTCPTp,2020.1.2,Win32,60,0.702905,,,1,21,69,26,1,,,,,,,,,,,,,,,,,,,,,,,,,,,,,,,,,,,,,,,,,,
0.5,left,1,,,,,,stim/both.png,stim/incongRight.png,left,180,2050,2020-05-26_16h52.13.167,ANTCPTp,2020.1.2,Win32,60,0.7412,,,1,22,70,29,1,,,,,,,,,,,,,,,,,,,,,,,,,,,,,,,,,,,,,,,,,,
0.7,right,1,,,,,,stim/upper.png,stim/incongRight.png,right,0,2050,2020-05-26_16h52.13.167,ANTCPTp,2020.1.2,Win32,60,0.62588,,,1,23,71,24,1,,,,,,,,,,,,,,,,,,,,,,,,,,,,,,,,,,,,,,,,,,
0.9,left,1,,,,,,stim/upper.png,stim/neutralLeft.png,left,0,2050,2020-05-26_16h52.13.167,ANTCPTp,2020.1.2,Win32,60,0.627135,,,1,24,72,32,1,,,,,,,,,,,,,,,,,,,,,,,,,,,,,,,,,,,,,,,,,,
1,left,1,,,,,,stim/blank.png,stim/incongRight.png,left,180,2050,2020-05-26_16h52.13.167,ANTCPTp,2020.1.2,Win32,60,0.92827,,,1,25,73,31,1,,,,,,,,,,,,,,,,,,,,,,,,,,,,,,,,,,,,,,,,,,
1.2,right,1,,,,,,stim/upper.png,stim/congRight.png,right,0,2050,2020-05-26_16h52.13.167,ANTCPTp,2020.1.2,Win32,60,0.55311,,,1,26,74,8,1,,,,,,,,,,,,,,,,,,,,,,,,,,,,,,,,,,,,,,,,,,
1.15,right,1,,,,,,stim/blank.png,stim/incongLeft.png,right,180,2050,2020-05-26_16h52.13.167,ANTCPTp,2020.1.2,Win32,60,0.803705,,,1,27,75,23,1,,,,,,,,,,,,,,,,,,,,,,,,,,,,,,,,,,,,,,,,,,
0.45,left,1,,,,,,stim/blank.png,stim/incongLeft.png,left,0,2050,2020-05-26_16h52.13.167,ANTCPTp,2020.1.2,Win32,60,0.78579,,,1,28,76,19,1,,,,,,,,,,,,,,,,,,,,,,,,,,,,,,,,,,,,,,,,,,
1.3,left,1,,,,,,stim/both.png,stim/neutralLeft.png,left,0,2050,2020-05-26_16h52.13.167,ANTCPTp,2020.1.2,Win32,60,0.60651,,,1,29,77,33,1,,,,,,,,,,,,,,,,,,,,,,,,,,,,,,,,,,,,,,,,,,
1.55,left,1,,,,,,stim/both.png,stim/congLeft.png,left,0,2050,2020-05-26_16h52.13.167,ANTCPTp,2020.1.2,Win32,60,0.59051,,,1,30,78,1,1,,,,,,,,,,,,,,,,,,,,,,,,,,,,,,,,,,,,,,,,,,
1.55,right,1,,,,,,stim/both.png,stim/congLeft.png,right,180,2050,2020-05-26_16h52.13.167,ANTCPTp,2020.1.2,Win32,60,0.70672,,,1,31,79,5,1,,,,,,,,,,,,,,,,,,,,,,,,,,,,,,,,,,,,,,,,,,
0.7,left,1,,,,,,stim/blank.png,stim/congLeft.png,left,0,2050,2020-05-26_16h52.13.167,ANTCPTp,2020.1.2,Win32,60,0.58523,,,1,32,80,3,1,,,,,,,,,,,,,,,,,,,,,,,,,,,,,,,,,,,,,,,,,,
1,left,1,,,,,,stim/centre.png,stim/congLeft.png,left,0,2050,2020-05-26_16h52.13.167,ANTCPTp,2020.1.2,Win32,60,0.53574,,,1,33,81,2,1,,,,,,,,,,,,,,,,,,,,,,,,,,,,,,,,,,,,,,,,,,
1.05,right,1,,,,,,stim/centre.png,stim/congLeft.png,right,180,2050,2020-05-26_16h52.13.167,ANTCPTp,2020.1.2,Win32,60,0.602745,,,1,34,82,6,1,,,,,,,,,,,,,,,,,,,,,,,,,,,,,,,,,,,,,,,,,,
1.45,right,1,,,,,,stim/centre.png,stim/incongLeft.png,right,180,2050,2020-05-26_16h52.13.167,ANTCPTp,2020.1.2,Win32,60,0.8393,,,1,35,83,22,1,,,,,,,,,,,,,,,,,,,,,,,,,,,,,,,,,,,,,,,,,,
1.35,right,1,,,,,,stim/both.png,stim/congRight.png,right,0,2050,2020-05-26_16h52.13.167,ANTCPTp,2020.1.2,Win32,60,0.604675,,,1,36,84,9,1,,,,,,,,,,,,,,,,,,,,,,,,,,,,,,,,,,,,,,,,,,
0.8,left,1,,,,,,stim/centre.png,stim/incongLeft.png,left,0,2050,2020-05-26_16h52.13.167,ANTCPTp,2020.1.2,Win32,60,0.823705,,,1,37,85,18,1,,,,,,,,,,,,,,,,,,,,,,,,,,,,,,,,,,,,,,,,,,
1.3,left,1,,,,,,stim/centre.png,stim/incongRight.png,left,180,2050,2020-05-26_16h52.13.167,ANTCPTp,2020.1.2,Win32,60,0.769835,,,1,38,86,30,1,,,,,,,,,,,,,,,,,,,,,,,,,,,,,,,,,,,,,,,,,,
0.45,right,1,,,,,,stim/lower.png,stim/congLeft.png,right,180,2050,2020-05-26_16h52.13.167,ANTCPTp,2020.1.2,Win32,60,0.838605,,,1,39,87,4,1,,,,,,,,,,,,,,,,,,,,,,,,,,,,,,,,,,,,,,,,,,
0.4,left,1,,,,,,stim/blank.png,stim/neutralRight.png,left,180,2050,2020-05-26_16h52.13.167,ANTCPTp,2020.1.2,Win32,60,0.690335,,,1,40,88,47,1,,,,,,,,,,,,,,,,,,,,,,,,,,,,,,,,,,,,,,,,,,
0.95,right,1,,,,,,stim/blank.png,stim/incongRight.png,right,0,2050,2020-05-26_16h52.13.167,ANTCPTp,2020.1.2,Win32,60,0.768105,,,1,41,89,27,1,,,,,,,,,,,,,,,,,,,,,,,,,,,,,,,,,,,,,,,,,,
0.9,left,1,,,,,,stim/both.png,stim/neutralRight.png,left,180,2050,2020-05-26_16h52.13.167,ANTCPTp,2020.1.2,Win32,60,0.569495,,,1,42,90,45,1,,,,,,,,,,,,,,,,,,,,,,,,,,,,,,,,,,,,,,,,,,
1.55,right,1,,,,,,stim/lower.png,stim/incongLeft.png,right,180,2050,2020-05-26_16h52.13.167,ANTCPTp,2020.1.2,Win32,60,0.834395,,,1,43,91,20,1,,,,,,,,,,,,,,,,,,,,,,,,,,,,,,,,,,,,,,,,,,
1.55,left,1,,,,,,stim/blank.png,stim/neutralLeft.png,left,0,2050,2020-05-26_16h52.13.167,ANTCPTp,2020.1.2,Win32,60,0.654045,,,1,44,92,35,1,,,,,,,,,,,,,,,,,,,,,,,,,,,,,,,,,,,,,,,,,,
1.35,left,1,,,,,,stim/centre.png,stim/neutralRight.png,left,180,2050,2020-05-26_16h52.13.167,ANTCPTp,2020.1.2,Win32,60,0.64028,,,1,45,93,46,1,,,,,,,,,,,,,,,,,,,,,,,,,,,,,,,,,,,,,,,,,,
0.75,right,1,,,,,,stim/both.png,stim/neutralRight.png,right,0,2050,2020-05-26_16h52.13.167,ANTCPTp,2020.1.2,Win32,60,0.589155,,,1,46,94,41,1,,,,,,,,,,,,,,,,,,,,,,,,,,,,,,,,,,,,,,,,,,
1.15,right,1,,,,,,stim/both.png,stim/incongRight.png,right,0,2050,2020-05-26_16h52.13.167,ANTCPTp,2020.1.2,Win32,60,0.73595,,,1,47,95,25,1,,,,,,,,,,,,,,,,,,,,,,,,,,,,,,,,,,,,,,,,,,
,,,,,,,,,,,,2050,2020-05-26_16h52.13.167,ANTCPTp,2020.1.2,Win32,60,,,,,,,,,1,0,1,0,1,,,,,,,,,,,,,,,,,,,,,,,,,,,,,,,,,,,,,
0.4,left,1,,,,,,stim/upper.png,stim/neutralLeft.png,left,0,2050,2020-05-26_16h52.13.167,ANTCPTp,2020.1.2,Win32,60,0.61964,,,0,0,0,32,1,,,,,,,,,,,,,,,,,,,,,,,,,,,,,,,,,,,,,,,,,,
0.7,right,1,,,,,,stim/blank.png,stim/neutralLeft.png,right,180,2050,2020-05-26_16h52.13.167,ANTCPTp,2020.1.2,Win32,60,0.5733,,,0,1,1,39,1,,,,,,,,,,,,,,,,,,,,,,,,,,,,,,,,,,,,,,,,,,
1.05,left,1,,,,,,stim/centre.png,stim/neutralLeft.png,left,0,2050,2020-05-26_16h52.13.167,ANTCPTp,2020.1.2,Win32,60,0.539575,,,0,2,2,34,1,,,,,,,,,,,,,,,,,,,,,,,,,,,,,,,,,,,,,,,,,,
0.7,left,1,,,,,,stim/centre.png,stim/incongRight.png,left,180,2050,2020-05-26_16h52.13.167,ANTCPTp,2020.1.2,Win32,60,0.688425,,,0,3,3,30,1,,,,,,,,,,,,,,,,,,,,,,,,,,,,,,,,,,,,,,,,,,
1.35,right,1,,,,,,stim/centre.png,stim/incongRight.png,right,0,2050,2020-05-26_16h52.13.167,ANTCPTp,2020.1.2,Win32,60,0.642635,,,0,4,4,26,1,,,,,,,,,,,,,,,,,,,,,,,,,,,,,,,,,,,,,,,,,,
1.15,right,1,,,,,,stim/upper.png,stim/congRight.png,right,0,2050,2020-05-26_16h52.13.167,ANTCPTp,2020.1.2,Win32,60,0.619625,,,0,5,5,8,1,,,,,,,,,,,,,,,,,,,,,,,,,,,,,,,,,,,,,,,,,,
1.15,left,1,,,,,,stim/blank.png,stim/incongRight.png,left,180,2050,2020-05-26_16h52.13.167,ANTCPTp,2020.1.2,Win32,60,0.756675,,,0,6,6,31,1,,,,,,,,,,,,,,,,,,,,,,,,,,,,,,,,,,,,,,,,,,
0.95,right,1,,,,,,stim/lower.png,stim/congLeft.png,right,180,2050,2020-05-26_16h52.13.167,ANTCPTp,2020.1.2,Win32,60,0.60207,,,0,7,7,4,1,,,,,,,,,,,,,,,,,,,,,,,,,,,,,,,,,,,,,,,,,,
0.9,right,1,,,,,,stim/upper.png,stim/neutralRight.png,right,0,2050,2020-05-26_16h52.13.167,ANTCPTp,2020.1.2,Win32,60,0.57548,,,0,8,8,40,1,,,,,,,,,,,,,,,,,,,,,,,,,,,,,,,,,,,,,,,,,,
0.8,right,1,,,,,,stim/blank.png,stim/incongRight.png,right,0,2050,2020-05-26_16h52.13.167,ANTCPTp,2020.1.2,Win32,60,0.91127,,,0,9,9,27,1,,,,,,,,,,,,,,,,,,,,,,,,,,,,,,,,,,,,,,,,,,
1.15,left,1,,,,,,stim/both.png,stim/congRight.png,left,180,2050,2020-05-26_16h52.13.167,ANTCPTp,2020.1.2,Win32,60,0.626085,,,0,10,10,13,1,,,,,,,,,,,,,,,,,,,,,,,,,,,,,,,,,,,,,,,,,,
1.55,right,1,,,,,,stim/blank.png,stim/congRight.png,right,0,2050,2020-05-26_16h52.13.167,ANTCPTp,2020.1.2,Win32,60,0.52635,,,0,11,11,11,1,,,,,,,,,,,,,,,,,,,,,,,,,,,,,,,,,,,,,,,,,,
0.85,left,1,,,,,,stim/both.png,stim/incongLeft.png,left,0,2050,2020-05-26_16h52.13.167,ANTCPTp,2020.1.2,Win32,60,0.872325,,,0,12,12,17,1,,,,,,,,,,,,,,,,,,,,,,,,,,,,,,,,,,,,,,,,,,
0.4,right,1,,,,,,stim/both.png,stim/incongRight.png,right,0,2050,2020-05-26_16h52.13.167,ANTCPTp,2020.1.2,Win32,60,0.70322,,,0,13,13,25,1,,,,,,,,,,,,,,,,,,,,,,,,,,,,,,,,,,,,,,,,,,
0.8,left,1,,,,,,stim/both.png,stim/congLeft.png,left,0,2050,2020-05-26_16h52.13.167,ANTCPTp,2020.1.2,Win32,60,0.552005,,,0,14,14,1,1,,,,,,,,,,,,,,,,,,,,,,,,,,,,,,,,,,,,,,,,,,
0.55,left,1,,,,,,stim/lower.png,stim/incongRight.png,left,180,2050,2020-05-26_16h52.13.167,ANTCPTp,2020.1.2,Win32,60,0.688555,,,0,15,15,28,1,,,,,,,,,,,,,,,,,,,,,,,,,,,,,,,,,,,,,,,,,,
0.55,right,1,,,,,,stim/centre.png,stim/congRight.png,right,0,2050,2020-05-26_16h52.13.167,ANTCPTp,2020.1.2,Win32,60,0.581085,,,0,16,16,10,1,,,,,,,,,,,,,,,,,,,,,,,,,,,,,,,,,,,,,,,,,,
0.8,left,1,,,,,,stim/blank.png,stim/congLeft.png,left,0,2050,2020-05-26_16h52.13.167,ANTCPTp,2020.1.2,Win32,60,0.55354,,,0,17,17,3,1,,,,,,,,,,,,,,,,,,,,,,,,,,,,,,,,,,,,,,,,,,
0.7,right,1,,,,,,stim/centre.png,stim/neutralRight.png,right,0,2050,2020-05-26_16h52.13.167,ANTCPTp,2020.1.2,Win32,60,0.57384,,,0,18,18,42,1,,,,,,,,,,,,,,,,,,,,,,,,,,,,,,,,,,,,,,,,,,
0.8,left,1,,,,,,stim/upper.png,stim/incongLeft.png,left,0,2050,2020-05-26_16h52.13.167,ANTCPTp,2020.1.2,Win32,60,0.69294,,,0,19,19,16,1,,,,,,,,,,,,,,,,,,,,,,,,,,,,,,,,,,,,,,,,,,
1.4,left,1,,,,,,stim/blank.png,stim/neutralRight.png,left,180,2050,2020-05-26_16h52.13.167,ANTCPTp,2020.1.2,Win32,60,0.7753,,,0,20,20,47,1,,,,,,,,,,,,,,,,,,,,,,,,,,,,,,,,,,,,,,,,,,
1.4,left,1,,,,,,stim/both.png,stim/neutralRight.png,left,180,2050,2020-05-26_16h52.13.167,ANTCPTp,2020.1.2,Win32,60,0.659035,,,0,21,21,45,1,,,,,,,,,,,,,,,,,,,,,,,,,,,,,,,,,,,,,,,,,,
1.15,right,1,,,,,,stim/both.png,stim/congLeft.png,right,180,2050,2020-05-26_16h52.13.167,ANTCPTp,2020.1.2,Win32,60,0.69754,,,0,22,22,5,1,,,,,,,,,,,,,,,,,,,,,,,,,,,,,,,,,,,,,,,,,,
1.1,left,1,,,,,,stim/blank.png,stim/neutralLeft.png,left,0,2050,2020-05-26_16h52.13.167,ANTCPTp,2020.1.2,Win32,60,0.58656,,,0,23,23,35,1,,,,,,,,,,,,,,,,,,,,,,,,,,,,,,,,,,,,,,,,,,
1.3,right,0,,,,,,stim/both.png,stim/incongRight.png,left,180,2050,2020-05-26_16h52.13.167,ANTCPTp,2020.1.2,Win32,60,0.536145,,,0,24,24,29,1,,,,,,,,,,,,,,,,,,,,,,,,,,,,,,,,,,,,,,,,,,
0.65,left,1,,,,,,stim/centre.png,stim/incongLeft.png,left,0,2050,2020-05-26_16h52.13.167,ANTCPTp,2020.1.2,Win32,60,0.769875,,,0,25,25,18,1,,,,,,,,,,,,,,,,,,,,,,,,,,,,,,,,,,,,,,,,,,
1.15,right,1,,,,,,stim/lower.png,stim/neutralLeft.png,right,180,2050,2020-05-26_16h52.13.167,ANTCPTp,2020.1.2,Win32,60,0.726,,,0,26,26,36,1,,,,,,,,,,,,,,,,,,,,,,,,,,,,,,,,,,,,,,,,,,
1.15,right,1,,,,,,stim/upper.png,stim/incongRight.png,right,0,2050,2020-05-26_16h52.13.167,ANTCPTp,2020.1.2,Win32,60,0.836685,,,0,27,27,24,1,,,,,,,,,,,,,,,,,,,,,,,,,,,,,,,,,,,,,,,,,,
1.3,left,1,,,,,,stim/centre.png,stim/congRight.png,left,180,2050,2020-05-26_16h52.13.167,ANTCPTp,2020.1.2,Win32,60,0.576375,,,0,28,28,14,1,,,,,,,,,,,,,,,,,,,,,,,,,,,,,,,,,,,,,,,,,,
0.6,right,1,,,,,,stim/blank.png,stim/incongLeft.png,right,180,2050,2020-05-26_16h52.13.167,ANTCPTp,2020.1.2,Win32,60,0.807235,,,0,29,29,23,1,,,,,,,,,,,,,,,,,,,,,,,,,,,,,,,,,,,,,,,,,,
0.9,left,1,,,,,,stim/lower.png,stim/congRight.png,left,180,2050,2020-05-26_16h52.13.167,ANTCPTp,2020.1.2,Win32,60,0.535355,,,0,30,30,12,1,,,,,,,,,,,,,,,,,,,,,,,,,,,,,,,,,,,,,,,,,,
0.95,right,1,,,,,,stim/blank.png,stim/neutralRight.png,right,0,2050,2020-05-26_16h52.13.167,ANTCPTp,2020.1.2,Win32,60,0.627355,,,0,31,31,43,1,,,,,,,,,,,,,,,,,,,,,,,,,,,,,,,,,,,,,,,,,,
0.65,left,1,,,,,,stim/centre.png,stim/neutralRight.png,left,180,2050,2020-05-26_16h52.13.167,ANTCPTp,2020.1.2,Win32,60,0.638625,,,0,32,32,46,1,,,,,,,,,,,,,,,,,,,,,,,,,,,,,,,,,,,,,,,,,,
1.5,right,1,,,,,,stim/blank.png,stim/congLeft.png,right,180,2050,2020-05-26_16h52.13.167,ANTCPTp,2020.1.2,Win32,60,0.637535,,,0,33,33,7,1,,,,,,,,,,,,,,,,,,,,,,,,,,,,,,,,,,,,,,,,,,
1.05,right,1,,,,,,stim/both.png,stim/congRight.png,right,0,2050,2020-05-26_16h52.13.167,ANTCPTp,2020.1.2,Win32,60,0.60615,,,0,34,34,9,1,,,,,,,,,,,,,,,,,,,,,,,,,,,,,,,,,,,,,,,,,,
0.5,right,1,,,,,,stim/both.png,stim/neutralRight.png,right,0,2050,2020-05-26_16h52.13.167,ANTCPTp,2020.1.2,Win32,60,0.65859,,,0,35,35,41,1,,,,,,,,,,,,,,,,,,,,,,,,,,,,,,,,,,,,,,,,,,
0.95,right,1,,,,,,stim/both.png,stim/neutralLeft.png,right,180,2050,2020-05-26_16h52.13.167,ANTCPTp,2020.1.2,Win32,60,0.68697,,,0,36,36,37,1,,,,,,,,,,,,,,,,,,,,,,,,,,,,,,,,,,,,,,,,,,
0.85,left,1,,,,,,stim/blank.png,stim/incongLeft.png,left,0,2050,2020-05-26_16h52.13.167,ANTCPTp,2020.1.2,Win32,60,0.8561,,,0,37,37,19,1,,,,,,,,,,,,,,,,,,,,,,,,,,,,,,,,,,,,,,,,,,
1.35,right,1,,,,,,stim/both.png,stim/incongLeft.png,right,180,2050,2020-05-26_16h52.13.167,ANTCPTp,2020.1.2,Win32,60,0.97191,,,0,38,38,21,1,,,,,,,,,,,,,,,,,,,,,,,,,,,,,,,,,,,,,,,,,,
1.35,left,1,,,,,,stim/both.png,stim/neutralLeft.png,left,0,2050,2020-05-26_16h52.13.167,ANTCPTp,2020.1.2,Win32,60,0.550075,,,0,39,39,33,1,,,,,,,,,,,,,,,,,,,,,,,,,,,,,,,,,,,,,,,,,,
1.55,right,1,,,,,,stim/lower.png,stim/incongLeft.png,right,180,2050,2020-05-26_16h52.13.167,ANTCPTp,2020.1.2,Win32,60,0.72107,,,0,40,40,20,1,,,,,,,,,,,,,,,,,,,,,,,,,,,,,,,,,,,,,,,,,,
1.05,right,1,,,,,,stim/centre.png,stim/neutralLeft.png,right,180,2050,2020-05-26_16h52.13.167,ANTCPTp,2020.1.2,Win32,60,0.673125,,,0,41,41,38,1,,,,,,,,,,,,,,,,,,,,,,,,,,,,,,,,,,,,,,,,,,
0.45,left,1,,,,,,stim/upper.png,stim/congLeft.png,left,0,2050,2020-05-26_16h52.13.167,ANTCPTp,2020.1.2,Win32,60,0.642425,,,0,42,42,0,1,,,,,,,,,,,,,,,,,,,,,,,,,,,,,,,,,,,,,,,,,,
1.25,left,1,,,,,,stim/lower.png,stim/neutralRight.png,left,180,2050,2020-05-26_16h52.13.167,ANTCPTp,2020.1.2,Win32,60,0.653225,,,0,43,43,44,1,,,,,,,,,,,,,,,,,,,,,,,,,,,,,,,,,,,,,,,,,,
1.4,right,1,,,,,,stim/centre.png,stim/incongLeft.png,right,180,2050,2020-05-26_16h52.13.167,ANTCPTp,2020.1.2,Win32,60,0.86335,,,0,44,44,22,1,,,,,,,,,,,,,,,,,,,,,,,,,,,,,,,,,,,,,,,,,,
1.5,right,1,,,,,,stim/centre.png,stim/congLeft.png,right,180,2050,2020-05-26_16h52.13.167,ANTCPTp,2020.1.2,Win32,60,0.58565,,,0,45,45,6,1,,,,,,,,,,,,,,,,,,,,,,,,,,,,,,,,,,,,,,,,,,
0.9,left,1,,,,,,stim/blank.png,stim/congRight.png,left,180,2050,2020-05-26_16h52.13.167,ANTCPTp,2020.1.2,Win32,60,0.61902,,,0,46,46,15,1,,,,,,,,,,,,,,,,,,,,,,,,,,,,,,,,,,,,,,,,,,
0.65,left,1,,,,,,stim/centre.png,stim/congLeft.png,left,0,2050,2020-05-26_16h52.13.167,ANTCPTp,2020.1.2,Win32,60,0.57042,,,0,47,47,2,1,,,,,,,,,,,,,,,,,,,,,,,,,,,,,,,,,,,,,,,,,,
0.8,right,1,,,,,,stim/centre.png,stim/neutralRight.png,right,0,2050,2020-05-26_16h52.13.167,ANTCPTp,2020.1.2,Win32,60,0.60335,,,1,0,48,42,1,,,,,,,,,,,,,,,,,,,,,,,,,,,,,,,,,,,,,,,,,,
1.4,right,1,,,,,,stim/blank.png,stim/congRight.png,right,0,2050,2020-05-26_16h52.13.167,ANTCPTp,2020.1.2,Win32,60,0.60632,,,1,1,49,11,1,,,,,,,,,,,,,,,,,,,,,,,,,,,,,,,,,,,,,,,,,,
1.15,left,1,,,,,,stim/centre.png,stim/congRight.png,left,180,2050,2020-05-26_16h52.13.167,ANTCPTp,2020.1.2,Win32,60,0.55801,,,1,2,50,14,1,,,,,,,,,,,,,,,,,,,,,,,,,,,,,,,,,,,,,,,,,,
1.45,left,1,,,,,,stim/blank.png,stim/neutralRight.png,left,180,2050,2020-05-26_16h52.13.167,ANTCPTp,2020.1.2,Win32,60,0.58604,,,1,3,51,47,1,,,,,,,,,,,,,,,,,,,,,,,,,,,,,,,,,,,,,,,,,,
1.3,left,1,,,,,,stim/blank.png,stim/incongRight.png,left,180,2050,2020-05-26_16h52.13.167,ANTCPTp,2020.1.2,Win32,60,0.73796,,,1,4,52,31,1,,,,,,,,,,,,,,,,,,,,,,,,,,,,,,,,,,,,,,,,,,
0.75,left,1,,,,,,stim/blank.png,stim/congRight.png,left,180,2050,2020-05-26_16h52.13.167,ANTCPTp,2020.1.2,Win32,60,0.60566,,,1,5,53,15,1,,,,,,,,,,,,,,,,,,,,,,,,,,,,,,,,,,,,,,,,,,
1.1,left,1,,,,,,stim/both.png,stim/incongRight.png,left,180,2050,2020-05-26_16h52.13.167,ANTCPTp,2020.1.2,Win32,60,0.789875,,,1,6,54,29,1,,,,,,,,,,,,,,,,,,,,,,,,,,,,,,,,,,,,,,,,,,
1.5,left,1,,,,,,stim/lower.png,stim/incongRight.png,left,180,2050,2020-05-26_16h52.13.167,ANTCPTp,2020.1.2,Win32,60,0.652185,,,1,7,55,28,1,,,,,,,,,,,,,,,,,,,,,,,,,,,,,,,,,,,,,,,,,,
0.9,right,1,,,,,,stim/upper.png,stim/neutralRight.png,right,0,2050,2020-05-26_16h52.13.167,ANTCPTp,2020.1.2,Win32,60,0.67701,,,1,8,56,40,1,,,,,,,,,,,,,,,,,,,,,,,,,,,,,,,,,,,,,,,,,,
1.4,left,1,,,,,,stim/lower.png,stim/neutralRight.png,left,180,2050,2020-05-26_16h52.13.167,ANTCPTp,2020.1.2,Win32,60,0.549825,,,1,9,57,44,1,,,,,,,,,,,,,,,,,,,,,,,,,,,,,,,,,,,,,,,,,,
0.5,left,1,,,,,,stim/both.png,stim/neutralRight.png,left,180,2050,2020-05-26_16h52.13.167,ANTCPTp,2020.1.2,Win32,60,0.74056,,,1,10,58,45,1,,,,,,,,,,,,,,,,,,,,,,,,,,,,,,,,,,,,,,,,,,
0.5,right,1,,,,,,stim/upper.png,stim/congRight.png,right,0,2050,2020-05-26_16h52.13.167,ANTCPTp,2020.1.2,Win32,60,0.61884,,,1,11,59,8,1,,,,,,,,,,,,,,,,,,,,,,,,,,,,,,,,,,,,,,,,,,
0.65,left,1,,,,,,stim/centre.png,stim/incongRight.png,left,180,2050,2020-05-26_16h52.13.167,ANTCPTp,2020.1.2,Win32,60,0.597645,,,1,12,60,30,1,,,,,,,,,,,,,,,,,,,,,,,,,,,,,,,,,,,,,,,,,,
0.8,right,1,,,,,,stim/blank.png,stim/incongLeft.png,right,180,2050,2020-05-26_16h52.13.167,ANTCPTp,2020.1.2,Win32,60,0.81244,,,1,13,61,23,1,,,,,,,,,,,,,,,,,,,,,,,,,,,,,,,,,,,,,,,,,,
1.3,right,1,,,,,,stim/both.png,stim/neutralRight.png,right,0,2050,2020-05-26_16h52.13.167,ANTCPTp,2020.1.2,Win32,60,0.611295,,,1,14,62,41,1,,,,,,,,,,,,,,,,,,,,,,,,,,,,,,,,,,,,,,,,,,
1.5,left,1,,,,,,stim/upper.png,stim/congLeft.png,left,0,2050,2020-05-26_16h52.13.167,ANTCPTp,2020.1.2,Win32,60,0.55673,,,1,15,63,0,1,,,,,,,,,,,,,,,,,,,,,,,,,,,,,,,,,,,,,,,,,,
1.15,left,1,,,,,,stim/both.png,stim/congRight.png,left,180,2050,2020-05-26_16h52.13.167,ANTCPTp,2020.1.2,Win32,60,0.61987,,,1,16,64,13,1,,,,,,,,,,,,,,,,,,,,,,,,,,,,,,,,,,,,,,,,,,
0.55,right,1,,,,,,stim/both.png,stim/incongRight.png,right,0,2050,2020-05-26_16h52.13.167,ANTCPTp,2020.1.2,Win32,60,0.70321,,,1,17,65,25,1,,,,,,,,,,,,,,,,,,,,,,,,,,,,,,,,,,,,,,,,,,
0.75,left,1,,,,,,stim/blank.png,stim/neutralLeft.png,left,0,2050,2020-05-26_16h52.13.167,ANTCPTp,2020.1.2,Win32,60,0.68683,,,1,18,66,35,1,,,,,,,,,,,,,,,,,,,,,,,,,,,,,,,,,,,,,,,,,,
0.8,right,1,,,,,,stim/both.png,stim/congRight.png,right,0,2050,2020-05-26_16h52.13.167,ANTCPTp,2020.1.2,Win32,60,0.61142,,,1,19,67,9,1,,,,,,,,,,,,,,,,,,,,,,,,,,,,,,,,,,,,,,,,,,
0.7,left,1,,,,,,stim/upper.png,stim/neutralLeft.png,left,0,2050,2020-05-26_16h52.13.167,ANTCPTp,2020.1.2,Win32,60,0.503775,,,1,20,68,32,1,,,,,,,,,,,,,,,,,,,,,,,,,,,,,,,,,,,,,,,,,,
1.4,right,1,,,,,,stim/centre.png,stim/incongRight.png,right,0,2050,2020-05-26_16h52.13.167,ANTCPTp,2020.1.2,Win32,60,0.62581,,,1,21,69,26,1,,,,,,,,,,,,,,,,,,,,,,,,,,,,,,,,,,,,,,,,,,
1,right,1,,,,,,stim/lower.png,stim/incongLeft.png,right,180,2050,2020-05-26_16h52.13.167,ANTCPTp,2020.1.2,Win32,60,0.736055,,,1,22,70,20,1,,,,,,,,,,,,,,,,,,,,,,,,,,,,,,,,,,,,,,,,,,
1.5,right,1,,,,,,stim/both.png,stim/congLeft.png,right,180,2050,2020-05-26_16h52.13.167,ANTCPTp,2020.1.2,Win32,60,0.62845,,,1,23,71,5,1,,,,,,,,,,,,,,,,,,,,,,,,,,,,,,,,,,,,,,,,,,
0.85,right,1,,,,,,stim/both.png,stim/incongLeft.png,right,180,2050,2020-05-26_16h52.13.167,ANTCPTp,2020.1.2,Win32,60,0.896345,,,1,24,72,21,1,,,,,,,,,,,,,,,,,,,,,,,,,,,,,,,,,,,,,,,,,,
0.6,left,1,,,,,,stim/centre.png,stim/incongLeft.png,left,0,2050,2020-05-26_16h52.13.167,ANTCPTp,2020.1.2,Win32,60,0.960595,,,1,25,73,18,1,,,,,,,,,,,,,,,,,,,,,,,,,,,,,,,,,,,,,,,,,,
1.05,left,1,,,,,,stim/blank.png,stim/incongLeft.png,left,0,2050,2020-05-26_16h52.13.167,ANTCPTp,2020.1.2,Win32,60,0.752435,,,1,26,74,19,1,,,,,,,,,,,,,,,,,,,,,,,,,,,,,,,,,,,,,,,,,,
0.8,left,1,,,,,,stim/both.png,stim/congLeft.png,left,0,2050,2020-05-26_16h52.13.167,ANTCPTp,2020.1.2,Win32,60,0.539985,,,1,27,75,1,1,,,,,,,,,,,,,,,,,,,,,,,,,,,,,,,,,,,,,,,,,,
0.6,right,1,,,,,,stim/blank.png,stim/neutralRight.png,right,0,2050,2020-05-26_16h52.13.167,ANTCPTp,2020.1.2,Win32,60,0.6927,,,1,28,76,43,1,,,,,,,,,,,,,,,,,,,,,,,,,,,,,,,,,,,,,,,,,,
0.9,right,1,,,,,,stim/upper.png,stim/incongRight.png,right,0,2050,2020-05-26_16h52.13.167,ANTCPTp,2020.1.2,Win32,60,0.69057,,,1,29,77,24,1,,,,,,,,,,,,,,,,,,,,,,,,,,,,,,,,,,,,,,,,,,
0.8,right,1,,,,,,stim/blank.png,stim/incongRight.png,right,0,2050,2020-05-26_16h52.13.167,ANTCPTp,2020.1.2,Win32,60,0.661995,,,1,30,78,27,1,,,,,,,,,,,,,,,,,,,,,,,,,,,,,,,,,,,,,,,,,,
0.55,left,1,,,,,,stim/centre.png,stim/neutralRight.png,left,180,2050,2020-05-26_16h52.13.167,ANTCPTp,2020.1.2,Win32,60,0.904135,,,1,31,79,46,1,,,,,,,,,,,,,,,,,,,,,,,,,,,,,,,,,,,,,,,,,,
1.2,left,1,,,,,,stim/centre.png,stim/neutralLeft.png,left,0,2050,2020-05-26_16h52.13.167,ANTCPTp,2020.1.2,Win32,60,0.6433,,,1,32,80,34,1,,,,,,,,,,,,,,,,,,,,,,,,,,,,,,,,,,,,,,,,,,
1.45,right,1,,,,,,stim/blank.png,stim/congLeft.png,right,180,2050,2020-05-26_16h52.13.167,ANTCPTp,2020.1.2,Win32,60,0.72012,,,1,33,81,7,1,,,,,,,,,,,,,,,,,,,,,,,,,,,,,,,,,,,,,,,,,,
1,right,1,,,,,,stim/centre.png,stim/congLeft.png,right,180,2050,2020-05-26_16h52.13.167,ANTCPTp,2020.1.2,Win32,60,0.620445,,,1,34,82,6,1,,,,,,,,,,,,,,,,,,,,,,,,,,,,,,,,,,,,,,,,,,
0.85,right,1,,,,,,stim/lower.png,stim/congLeft.png,right,180,2050,2020-05-26_16h52.13.167,ANTCPTp,2020.1.2,Win32,60,0.53135,,,1,35,83,4,1,,,,,,,,,,,,,,,,,,,,,,,,,,,,,,,,,,,,,,,,,,
1.25,left,1,,,,,,stim/lower.png,stim/congRight.png,left,180,2050,2020-05-26_16h52.13.167,ANTCPTp,2020.1.2,Win32,60,0.664755,,,1,36,84,12,1,,,,,,,,,,,,,,,,,,,,,,,,,,,,,,,,,,,,,,,,,,
0.5,right,1,,,,,,stim/centre.png,stim/incongLeft.png,right,180,2050,2020-05-26_16h52.13.167,ANTCPTp,2020.1.2,Win32,60,0.74273,,,1,37,85,22,1,,,,,,,,,,,,,,,,,,,,,,,,,,,,,,,,,,,,,,,,,,
1.3,right,1,,,,,,stim/lower.png,stim/neutralLeft.png,right,180,2050,2020-05-26_16h52.13.167,ANTCPTp,2020.1.2,Win32,60,0.642175,,,1,38,86,36,1,,,,,,,,,,,,,,,,,,,,,,,,,,,,,,,,,,,,,,,,,,
1.25,left,1,,,,,,stim/blank.png,stim/congLeft.png,left,0,2050,2020-05-26_16h52.13.167,ANTCPTp,2020.1.2,Win32,60,0.73663,,,1,39,87,3,1,,,,,,,,,,,,,,,,,,,,,,,,,,,,,,,,,,,,,,,,,,
0.95,left,1,,,,,,stim/centre.png,stim/congLeft.png,left,0,2050,2020-05-26_16h52.13.167,ANTCPTp,2020.1.2,Win32,60,0.68585,,,1,40,88,2,1,,,,,,,,,,,,,,,,,,,,,,,,,,,,,,,,,,,,,,,,,,
0.75,right,1,,,,,,stim/centre.png,stim/neutralLeft.png,right,180,2050,2020-05-26_16h52.13.167,ANTCPTp,2020.1.2,Win32,60,0.684775,,,1,41,89,38,1,,,,,,,,,,,,,,,,,,,,,,,,,,,,,,,,,,,,,,,,,,
0.6,right,1,,,,,,stim/centre.png,stim/congRight.png,right,0,2050,2020-05-26_16h52.13.167,ANTCPTp,2020.1.2,Win32,60,0.64396,,,1,42,90,10,1,,,,,,,,,,,,,,,,,,,,,,,,,,,,,,,,,,,,,,,,,,
0.55,right,1,,,,,,stim/both.png,stim/neutralLeft.png,right,180,2050,2020-05-26_16h52.13.167,ANTCPTp,2020.1.2,Win32,60,0.7946,,,1,43,91,37,1,,,,,,,,,,,,,,,,,,,,,,,,,,,,,,,,,,,,,,,,,,
0.85,left,1,,,,,,stim/upper.png,stim/incongLeft.png,left,0,2050,2020-05-26_16h52.13.167,ANTCPTp,2020.1.2,Win32,60,0.74215,,,1,44,92,16,1,,,,,,,,,,,,,,,,,,,,,,,,,,,,,,,,,,,,,,,,,,
0.4,left,1,,,,,,stim/both.png,stim/neutralLeft.png,left,0,2050,2020-05-26_16h52.13.167,ANTCPTp,2020.1.2,Win32,60,0.640015,,,1,45,93,33,1,,,,,,,,,,,,,,,,,,,,,,,,,,,,,,,,,,,,,,,,,,
1.15,left,1,,,,,,stim/both.png,stim/incongLeft.png,left,0,2050,2020-05-26_16h52.13.167,ANTCPTp,2020.1.2,Win32,60,0.7261,,,1,46,94,17,1,,,,,,,,,,,,,,,,,,,,,,,,,,,,,,,,,,,,,,,,,,
1.1,right,1,,,,,,stim/blank.png,stim/neutralLeft.png,right,180,2050,2020-05-26_16h52.13.167,ANTCPTp,2020.1.2,Win32,60,0.722585,,,1,47,95,39,1,,,,,,,,,,,,,,,,,,,,,,,,,,,,,,,,,,,,,,,,,,
,,,,,,,,,,,,2050,2020-05-26_16h52.13.167,ANTCPTp,2020.1.2,Win32,60,,,,,,,,,,,,,,space,14.18374,space,24.765455,space,6.59739,,1,0,0,0,16,1,X,,,,,,,,,,,,,,,,,,,,,,,
,,,,,,,,,,space,,2050,2020-05-26_16h52.13.167,ANTCPTp,2020.1.2,Win32,60,,,,,,,,,,,,,,,,,,,,space,1,0,1,1,7,1,N,0.549645,,,,,,,,,,,,,,,,,,,,,,
,,,,,,,,,,space,,2050,2020-05-26_16h52.13.167,ANTCPTp,2020.1.2,Win32,60,,,,,,,,,,,,,,,,,,,,space,1,0,2,2,13,1,W,0.467215,,,,,,,,,,,,,,,,,,,,,,
,,,,,,,,,,space,,2050,2020-05-26_16h52.13.167,ANTCPTp,2020.1.2,Win32,60,,,,,,,,,,,,,,,,,,,,space,1,0,3,3,1,1,B,0.406925,,,,,,,,,,,,,,,,,,,,,,
,,,,,,,,,,space,,2050,2020-05-26_16h52.13.167,ANTCPTp,2020.1.2,Win32,60,,,,,,,,,,,,,,,,,,,,space,1,0,4,4,9,1,P,0.370145,,,,,,,,,,,,,,,,,,,,,,
,,,,,,,,,,space,,2050,2020-05-26_16h52.13.167,ANTCPTp,2020.1.2,Win32,60,,,,,,,,,,,,,,,,,,,,space,1,0,5,5,3,1,D,0.475335,,,,,,,,,,,,,,,,,,,,,,
,,,,,,,,,,space,,2050,2020-05-26_16h52.13.167,ANTCPTp,2020.1.2,Win32,60,,,,,,,,,,,,,,,,,,,,space,1,0,6,6,12,1,V,0.45075,,,,,,,,,,,,,,,,,,,,,,
,,,,,,,,,,space,,2050,2020-05-26_16h52.13.167,ANTCPTp,2020.1.2,Win32,60,,,,,,,,,,,,,,,,,,,,space,1,0,7,7,5,1,F,0.384585,,,,,,,,,,,,,,,,,,,,,,
,,,,,,,,,,space,,2050,2020-05-26_16h52.13.167,ANTCPTp,2020.1.2,Win32,60,,,,,,,,,,,,,,,,,,,,space,1,0,8,8,2,1,C,0.40564,,,,,,,,,,,,,,,,,,,,,,
,,,,,,,,,,space,,2050,2020-05-26_16h52.13.167,ANTCPTp,2020.1.2,Win32,60,,,,,,,,,,,,,,,,,,,,space,1,0,9,9,0,1,A,0.46721,,,,,,,,,,,,,,,,,,,,,,
,,,,,,,,,,space,,2050,2020-05-26_16h52.13.167,ANTCPTp,2020.1.2,Win32,60,,,,,,,,,,,,,,,,,,,,space,1,0,10,10,8,1,O,0.45716,,,,,,,,,,,,,,,,,,,,,,
,,,,,,,,,,space,,2050,2020-05-26_16h52.13.167,ANTCPTp,2020.1.2,Win32,60,,,,,,,,,,,,,,,,,,,,space,1,0,11,11,6,1,J,0.47685,,,,,,,,,,,,,,,,,,,,,,
,,,,,,,,,,space,,2050,2020-05-26_16h52.13.167,ANTCPTp,2020.1.2,Win32,60,,,,,,,,,,,,,,,,,,,,space,1,0,12,12,4,1,E,0.45132,,,,,,,,,,,,,,,,,,,,,,
,,,,,,,,,,space,,2050,2020-05-26_16h52.13.167,ANTCPTp,2020.1.2,Win32,60,,,,,,,,,,,,,,,,,,,,space,1,0,13,13,10,1,Q,0.4412,,,,,,,,,,,,,,,,,,,,,,
,,,,,,,,,,space,,2050,2020-05-26_16h52.13.167,ANTCPTp,2020.1.2,Win32,60,,,,,,,,,,,,,,,,,,,,space,1,0,14,14,14,1,Y,0.51191,,,,,,,,,,,,,,,,,,,,,,
,,,,,,,,,,space,,2050,2020-05-26_16h52.13.167,ANTCPTp,2020.1.2,Win32,60,,,,,,,,,,,,,,,,,,,,space,1,0,15,15,11,1,U,0.48535,,,,,,,,,,,,,,,,,,,,,,
,,,,,,,,,,,,2050,2020-05-26_16h52.13.167,ANTCPTp,2020.1.2,Win32,60,,,,,,,,,,,,,,,,,,,,,1,0,16,16,15,1,X,,,,,,,,,,,,,,,,,,,,,,,
,,,,,,,,,,space,,2050,2020-05-26_16h52.13.167,ANTCPTp,2020.1.2,Win32,60,,,,,,,,,,,,,,,,,,,,space,1,,,,,,V,0.78705,1,3.54785,0,0,0,21,1,,,,,,,,,,,,,,,
,,,,,,,,,,,,2050,2020-05-26_16h52.13.167,ANTCPTp,2020.1.2,Win32,60,,,,,,,,,,,,,,,,,,,,,1,,,,,,X,,,,0,1,1,29,1,,,,,,,,,,,,,,,
,,,,,,,,,,space,,2050,2020-05-26_16h52.13.167,ANTCPTp,2020.1.2,Win32,60,,,,,,,,,,,,,,,,,,,,space,1,,,,,,Q,0.429295,,,0,2,2,16,1,,,,,,,,,,,,,,,
,,,,,,,,,,space,,2050,2020-05-26_16h52.13.167,ANTCPTp,2020.1.2,Win32,60,,,,,,,,,,,,,,,,,,,,space,1,,,,,,J,0.495515,,,0,3,3,9,1,,,,,,,,,,,,,,,
,,,,,,,,,,space,,2050,2020-05-26_16h52.13.167,ANTCPTp,2020.1.2,Win32,60,,,,,,,,,,,,,,,,,,,,space,1,,,,,,C,0.36213,,,0,4,4,2,1,,,,,,,,,,,,,,,
,,,,,,,,,,space,,2050,2020-05-26_16h52.13.167,ANTCPTp,2020.1.2,Win32,60,,,,,,,,,,,,,,,,,,,,space,1,,,,,,L,0.384775,,,0,5,5,11,1,,,,,,,,,,,,,,,
,,,,,,,,,,,,2050,2020-05-26_16h52.13.167,ANTCPTp,2020.1.2,Win32,60,,,,,,,,,,,,,,,,,,,,space,0,,,,,,X,0.35314,,,0,6,6,26,1,,,,,,,,,,,,,,,
,,,,,,,,,,space,,2050,2020-05-26_16h52.13.167,ANTCPTp,2020.1.2,Win32,60,,,,,,,,,,,,,,,,,,,,space,1,,,,,,T,0.395835,,,0,7,7,19,1,,,,,,,,,,,,,,,
,,,,,,,,,,space,,2050,2020-05-26_16h52.13.167,ANTCPTp,2020.1.2,Win32,60,,,,,,,,,,,,,,,,,,,,space,1,,,,,,P,0.438,,,0,8,8,15,1,,,,,,,,,,,,,,,
,,,,,,,,,,space,,2050,2020-05-26_16h52.13.167,ANTCPTp,2020.1.2,Win32,60,,,,,,,,,,,,,,,,,,,,space,1,,,,,,E,0.390815,,,0,9,9,4,1,,,,,,,,,,,,,,,
,,,,,,,,,,space,,2050,2020-05-26_16h52.13.167,ANTCPTp,2020.1.2,Win32,60,,,,,,,,,,,,,,,,,,,,space,1,,,,,,A,0.42697,,,0,10,10,25,1,,,,,,,,,,,,,,,
,,,,,,,,,,,,2050,2020-05-26_16h52.13.167,ANTCPTp,2020.1.2,Win32,60,,,,,,,,,,,,,,,,,,,,,1,,,,,,X,,,,0,11,11,28,1,,,,,,,,,,,,,,,
,,,,,,,,,,space,,2050,2020-05-26_16h52.13.167,ANTCPTp,2020.1.2,Win32,60,,,,,,,,,,,,,,,,,,,,space,1,,,,,,D,0.45213,,,0,12,12,3,1,,,,,,,,,,,,,,,
,,,,,,,,,,space,,2050,2020-05-26_16h52.13.167,ANTCPTp,2020.1.2,Win32,60,,,,,,,,,,,,,,,,,,,,space,1,,,,,,U,0.40527,,,0,13,13,20,1,,,,,,,,,,,,,,,
,,,,,,,,,,space,,2050,2020-05-26_16h52.13.167,ANTCPTp,2020.1.2,Win32,60,,,,,,,,,,,,,,,,,,,,space,1,,,,,,W,0.385925,,,0,14,14,22,1,,,,,,,,,,,,,,,
,,,,,,,,,,space,,2050,2020-05-26_16h52.13.167,ANTCPTp,2020.1.2,Win32,60,,,,,,,,,,,,,,,,,,,,space,1,,,,,,M,0.51831,,,0,15,15,12,1,,,,,,,,,,,,,,,
,,,,,,,,,,space,,2050,2020-05-26_16h52.13.167,ANTCPTp,2020.1.2,Win32,60,,,,,,,,,,,,,,,,,,,,space,1,,,,,,B,0.523705,,,0,16,16,1,1,,,,,,,,,,,,,,,
,,,,,,,,,,space,,2050,2020-05-26_16h52.13.167,ANTCPTp,2020.1.2,Win32,60,,,,,,,,,,,,,,,,,,,,space,1,,,,,,K,0.517995,,,0,17,17,10,1,,,,,,,,,,,,,,,
,,,,,,,,,,space,,2050,2020-05-26_16h52.13.167,ANTCPTp,2020.1.2,Win32,60,,,,,,,,,,,,,,,,,,,,space,1,,,,,,G,0.47188,,,0,18,18,6,1,,,,,,,,,,,,,,,
,,,,,,,,,,space,,2050,2020-05-26_16h52.13.167,ANTCPTp,2020.1.2,Win32,60,,,,,,,,,,,,,,,,,,,,space,1,,,,,,R,0.49109,,,0,19,19,17,1,,,,,,,,,,,,,,,
,,,,,,,,,,,,2050,2020-05-26_16h52.13.167,ANTCPTp,2020.1.2,Win32,60,,,,,,,,,,,,,,,,,,,,,1,,,,,,X,,,,0,20,20,27,1,,,,,,,,,,,,,,,
,,,,,,,,,,space,,2050,2020-05-26_16h52.13.167,ANTCPTp,2020.1.2,Win32,60,,,,,,,,,,,,,,,,,,,,space,1,,,,,,S,0.418165,,,0,21,21,18,1,,,,,,,,,,,,,,,
,,,,,,,,,,space,,2050,2020-05-26_16h52.13.167,ANTCPTp,2020.1.2,Win32,60,,,,,,,,,,,,,,,,,,,,space,1,,,,,,A,0.41747,,,0,22,22,0,1,,,,,,,,,,,,,,,
,,,,,,,,,,space,,2050,2020-05-26_16h52.13.167,ANTCPTp,2020.1.2,Win32,60,,,,,,,,,,,,,,,,,,,,space,1,,,,,,O,0.434935,,,0,23,23,14,1,,,,,,,,,,,,,,,
,,,,,,,,,,space,,2050,2020-05-26_16h52.13.167,ANTCPTp,2020.1.2,Win32,60,,,,,,,,,,,,,,,,,,,,space,1,,,,,,F,0.41222,,,0,24,24,5,1,,,,,,,,,,,,,,,
,,,,,,,,,,space,,2050,2020-05-26_16h52.13.167,ANTCPTp,2020.1.2,Win32,60,,,,,,,,,,,,,,,,,,,,space,1,,,,,,Z,0.524185,,,0,25,25,24,1,,,,,,,,,,,,,,,
,,,,,,,,,,space,,2050,2020-05-26_16h52.13.167,ANTCPTp,2020.1.2,Win32,60,,,,,,,,,,,,,,,,,,,,space,1,,,,,,I,0.451095,,,0,26,26,8,1,,,,,,,,,,,,,,,
,,,,,,,,,,space,,2050,2020-05-26_16h52.13.167,ANTCPTp,2020.1.2,Win32,60,,,,,,,,,,,,,,,,,,,,space,1,,,,,,N,0.427615,,,0,27,27,13,1,,,,,,,,,,,,,,,
,,,,,,,,,,space,,2050,2020-05-26_16h52.13.167,ANTCPTp,2020.1.2,Win32,60,,,,,,,,,,,,,,,,,,,,space,1,,,,,,H,0.433355,,,0,28,28,7,1,,,,,,,,,,,,,,,
,,,,,,,,,,space,,2050,2020-05-26_16h52.13.167,ANTCPTp,2020.1.2,Win32,60,,,,,,,,,,,,,,,,,,,,space,1,,,,,,Y,0.48779,,,0,29,29,23,1,,,,,,,,,,,,,,,
,,,,,,,,,,space,,2050,2020-05-26_16h52.13.167,ANTCPTp,2020.1.2,Win32,60,,,,,,,,,,,,,,,,,,,,space,1,,,,,,H,0.53592,1,3.519625,,,,,,0,0,0,5,1,,,,,,,,,,
,,,,,,,,,,space,,2050,2020-05-26_16h52.13.167,ANTCPTp,2020.1.2,Win32,60,,,,,,,,,,,,,,,,,,,,space,1,,,,,,G,0.46808,,,,,,,,0,1,1,4,1,,,,,,,,,,
,,,,,,,,,,,,2050,2020-05-26_16h52.13.167,ANTCPTp,2020.1.2,Win32,60,,,,,,,,,,,,,,,,,,,,,1,,,,,,X,,,,,,,,,0,2,2,21,1,,,,,,,,,,
,,,,,,,,,,space,,2050,2020-05-26_16h52.13.167,ANTCPTp,2020.1.2,Win32,60,,,,,,,,,,,,,,,,,,,,space,1,,,,,,T,0.48504,,,,,,,,0,3,3,14,1,,,,,,,,,,
,,,,,,,,,,space,,2050,2020-05-26_16h52.13.167,ANTCPTp,2020.1.2,Win32,60,,,,,,,,,,,,,,,,,,,,space,1,,,,,,Y,0.46833,,,,,,,,0,4,4,17,1,,,,,,,,,,
,,,,,,,,,,space,,2050,2020-05-26_16h52.13.167,ANTCPTp,2020.1.2,Win32,60,,,,,,,,,,,,,,,,,,,,space,1,,,,,,L,0.44137,,,,,,,,0,5,5,7,1,,,,,,,,,,
,,,,,,,,,,space,,2050,2020-05-26_16h52.13.167,ANTCPTp,2020.1.2,Win32,60,,,,,,,,,,,,,,,,,,,,space,1,,,,,,U,0.420535,,,,,,,,0,6,6,15,1,,,,,,,,,,
,,,,,,,,,,space,,2050,2020-05-26_16h52.13.167,ANTCPTp,2020.1.2,Win32,60,,,,,,,,,,,,,,,,,,,,space,1,,,,,,K,0.45472,,,,,,,,0,7,7,6,1,,,,,,,,,,
,,,,,,,,,,space,,2050,2020-05-26_16h52.13.167,ANTCPTp,2020.1.2,Win32,60,,,,,,,,,,,,,,,,,,,,space,1,,,,,,B,0.408175,,,,,,,,0,8,8,0,1,,,,,,,,,,
,,,,,,,,,,space,,2050,2020-05-26_16h52.13.167,ANTCPTp,2020.1.2,Win32,60,,,,,,,,,,,,,,,,,,,,space,1,,,,,,S,0.421365,,,,,,,,0,9,9,13,1,,,,,,,,,,
,,,,,,,,,,space,,2050,2020-05-26_16h52.13.167,ANTCPTp,2020.1.2,Win32,60,,,,,,,,,,,,,,,,,,,,space,1,,,,,,F,0.40786,,,,,,,,0,10,10,3,1,,,,,,,,,,
,,,,,,,,,,space,,2050,2020-05-26_16h52.13.167,ANTCPTp,2020.1.2,Win32,60,,,,,,,,,,,,,,,,,,,,space,1,,,,,,Z,0.44359,,,,,,,,0,11,11,18,1,,,,,,,,,,
,,,,,,,,,,space,,2050,2020-05-26_16h52.13.167,ANTCPTp,2020.1.2,Win32,60,,,,,,,,,,,,,,,,,,,,space,1,,,,,,E,0.43583,,,,,,,,0,12,12,2,1,,,,,,,,,,
,,,,,,,,,,space,,2050,2020-05-26_16h52.13.167,ANTCPTp,2020.1.2,Win32,60,,,,,,,,,,,,,,,,,,,,space,1,,,,,,N,0.43992,,,,,,,,0,13,13,9,1,,,,,,,,,,
,,,,,,,,,,space,,2050,2020-05-26_16h52.13.167,ANTCPTp,2020.1.2,Win32,60,,,,,,,,,,,,,,,,,,,,space,1,,,,,,R,0.457045,,,,,,,,0,14,14,12,1,,,,,,,,,,
,,,,,,,,,,space,,2050,2020-05-26_16h52.13.167,ANTCPTp,2020.1.2,Win32,60,,,,,,,,,,,,,,,,,,,,space,1,,,,,,M,0.45435,,,,,,,,0,15,15,8,1,,,,,,,,,,
,,,,,,,,,,space,,2050,2020-05-26_16h52.13.167,ANTCPTp,2020.1.2,Win32,60,,,,,,,,,,,,,,,,,,,,space,1,,,,,,A,0.48971,,,,,,,,0,16,16,19,1,,,,,,,,,,
,,,,,,,,,,,,2050,2020-05-26_16h52.13.167,ANTCPTp,2020.1.2,Win32,60,,,,,,,,,,,,,,,,,,,,,1,,,,,,X,,,,,,,,,0,17,17,20,1,,,,,,,,,,
,,,,,,,,,,space,,2050,2020-05-26_16h52.13.167,ANTCPTp,2020.1.2,Win32,60,,,,,,,,,,,,,,,,,,,,space,1,,,,,,W,0.384235,,,,,,,,0,18,18,16,1,,,,,,,,,,
,,,,,,,,,,space,,2050,2020-05-26_16h52.13.167,ANTCPTp,2020.1.2,Win32,60,,,,,,,,,,,,,,,,,,,,space,1,,,,,,D,0.45696,,,,,,,,0,19,19,1,1,,,,,,,,,,
,,,,,,,,,,space,,2050,2020-05-26_16h52.13.167,ANTCPTp,2020.1.2,Win32,60,,,,,,,,,,,,,,,,,,,,space,1,,,,,,Q,0.429795,,,,,,,,0,20,20,11,1,,,,,,,,,,
,,,,,,,,,,space,,2050,2020-05-26_16h52.13.167,ANTCPTp,2020.1.2,Win32,60,,,,,,,,,,,,,,,,,,,,space,1,,,,,,O,0.40531,,,,,,,,0,21,21,10,1,,,,,,,,,,
,,,,,,,,,,space,,2050,2020-05-26_16h52.13.167,ANTCPTp,2020.1.2,Win32,60,,,,,,,,,,,,,,,,,,,,space,1,,,,,,Z,0.56969,1,4.86771,,,,,,,,,,,0,0,0,23,1,,,,,
,,,,,,,,,,space,,2050,2020-05-26_16h52.13.167,ANTCPTp,2020.1.2,Win32,60,,,,,,,,,,,,,,,,,,,,space,1,,,,,,H,0.43609,,,,,,,,,,,,,0,1,1,7,1,,,,,
,,,,,,,,,,space,,2050,2020-05-26_16h52.13.167,ANTCPTp,2020.1.2,Win32,60,,,,,,,,,,,,,,,,,,,,space,1,,,,,,D,0.41843,,,,,,,,,,,,,0,2,2,3,1,,,,,
,,,,,,,,,,space,,2050,2020-05-26_16h52.13.167,ANTCPTp,2020.1.2,Win32,60,,,,,,,,,,,,,,,,,,,,space,1,,,,,,B,0.434735,,,,,,,,,,,,,0,3,3,1,1,,,,,
,,,,,,,,,,space,,2050,2020-05-26_16h52.13.167,ANTCPTp,2020.1.2,Win32,60,,,,,,,,,,,,,,,,,,,,space,1,,,,,,O,0.47002,,,,,,,,,,,,,0,4,4,14,1,,,,,
,,,,,,,,,,space,,2050,2020-05-26_16h52.13.167,ANTCPTp,2020.1.2,Win32,60,,,,,,,,,,,,,,,,,,,,space,1,,,,,,K,0.529725,,,,,,,,,,,,,0,5,5,10,1,,,,,
,,,,,,,,,,,,2050,2020-05-26_16h52.13.167,ANTCPTp,2020.1.2,Win32,60,,,,,,,,,,,,,,,,,,,,,1,,,,,,X,,,,,,,,,,,,,,0,6,6,25,1,,,,,
,,,,,,,,,,space,,2050,2020-05-26_16h52.13.167,ANTCPTp,2020.1.2,Win32,60,,,,,,,,,,,,,,,,,,,,space,1,,,,,,N,0.47168,,,,,,,,,,,,,0,7,7,13,1,,,,,
,,,,,,,,,,space,,2050,2020-05-26_16h52.13.167,ANTCPTp,2020.1.2,Win32,60,,,,,,,,,,,,,,,,,,,,space,1,,,,,,G,0.45493,,,,,,,,,,,,,0,8,8,6,1,,,,,
,,,,,,,,,,space,,2050,2020-05-26_16h52.13.167,ANTCPTp,2020.1.2,Win32,60,,,,,,,,,,,,,,,,,,,,space,1,,,,,,I,0.47286,,,,,,,,,,,,,0,9,9,8,1,,,,,
,,,,,,,,,,,,2050,2020-05-26_16h52.13.167,ANTCPTp,2020.1.2,Win32,60,,,,,,,,,,,,,,,,,,,,,1,,,,,,X,,,,,,,,,,,,,,0,10,10,24,1,,,,,
,,,,,,,,,,space,,2050,2020-05-26_16h52.13.167,ANTCPTp,2020.1.2,Win32,60,,,,,,,,,,,,,,,,,,,,space,1,,,,,,A,0.43186,,,,,,,,,,,,,0,11,11,0,1,,,,,
,,,,,,,,,,space,,2050,2020-05-26_16h52.13.167,ANTCPTp,2020.1.2,Win32,60,,,,,,,,,,,,,,,,,,,,space,1,,,,,,L,0.48895,,,,,,,,,,,,,0,12,12,11,1,,,,,
,,,,,,,,,,space,,2050,2020-05-26_16h52.13.167,ANTCPTp,2020.1.2,Win32,60,,,,,,,,,,,,,,,,,,,,space,1,,,,,,J,0.50257,,,,,,,,,,,,,0,13,13,9,1,,,,,
,,,,,,,,,,,,2050,2020-05-26_16h52.13.167,ANTCPTp,2020.1.2,Win32,60,,,,,,,,,,,,,,,,,,,,,1,,,,,,X,,,,,,,,,,,,,,0,14,14,26,1,,,,,
,,,,,,,,,,space,,2050,2020-05-26_16h52.13.167,ANTCPTp,2020.1.2,Win32,60,,,,,,,,,,,,,,,,,,,,space,1,,,,,,C,0.45824,,,,,,,,,,,,,0,15,15,2,1,,,,,
,,,,,,,,,,space,,2050,2020-05-26_16h52.13.167,ANTCPTp,2020.1.2,Win32,60,,,,,,,,,,,,,,,,,,,,space,1,,,,,,R,0.49595,,,,,,,,,,,,,0,16,16,17,1,,,,,
,,,,,,,,,,space,,2050,2020-05-26_16h52.13.167,ANTCPTp,2020.1.2,Win32,60,,,,,,,,,,,,,,,,,,,,space,1,,,,,,Q,0.45634,,,,,,,,,,,,,0,17,17,16,1,,,,,
,,,,,,,,,,space,,2050,2020-05-26_16h52.13.167,ANTCPTp,2020.1.2,Win32,60,,,,,,,,,,,,,,,,,,,,space,1,,,,,,F,0.51913,,,,,,,,,,,,,0,18,18,5,1,,,,,
,,,,,,,,,,space,,2050,2020-05-26_16h52.13.167,ANTCPTp,2020.1.2,Win32,60,,,,,,,,,,,,,,,,,,,,space,1,,,,,,M,0.422235,,,,,,,,,,,,,0,19,19,12,1,,,,,
,,,,,,,,,,space,,2050,2020-05-26_16h52.13.167,ANTCPTp,2020.1.2,Win32,60,,,,,,,,,,,,,,,,,,,,space,1,,,,,,U,0.46696,,,,,,,,,,,,,0,20,20,19,1,,,,,
,,,,,,,,,,space,,2050,2020-05-26_16h52.13.167,ANTCPTp,2020.1.2,Win32,60,,,,,,,,,,,,,,,,,,,,space,1,,,,,,V,0.475115,,,,,,,,,,,,,0,21,21,20,1,,,,,
,,,,,,,,,,space,,2050,2020-05-26_16h52.13.167,ANTCPTp,2020.1.2,Win32,60,,,,,,,,,,,,,,,,,,,,space,1,,,,,,S,0.45637,,,,,,,,,,,,,0,22,22,18,1,,,,,
,,,,,,,,,,space,,2050,2020-05-26_16h52.13.167,ANTCPTp,2020.1.2,Win32,60,,,,,,,,,,,,,,,,,,,,space,1,,,,,,E,0.45434,,,,,,,,,,,,,0,23,23,4,1,,,,,
,,,,,,,,,,space,,2050,2020-05-26_16h52.13.167,ANTCPTp,2020.1.2,Win32,60,,,,,,,,,,,,,,,,,,,,space,1,,,,,,W,0.436995,,,,,,,,,,,,,0,24,24,21,1,,,,,
,,,,,,,,,,space,,2050,2020-05-26_16h52.13.167,ANTCPTp,2020.1.2,Win32,60,,,,,,,,,,,,,,,,,,,,space,1,,,,,,P,0.438725,,,,,,,,,,,,,0,25,25,15,1,,,,,
,,,,,,,,,,space,,2050,2020-05-26_16h52.13.167,ANTCPTp,2020.1.2,Win32,60,,,,,,,,,,,,,,,,,,,,space,1,,,,,,Y,0.468045,,,,,,,,,,,,,0,26,26,22,1,,,,,
,,,,,,,,,,,,2050,2020-05-26_16h52.13.167,ANTCPTp,2020.1.2,Win32,60,,,,,,,,,,,,,,,,,,,,,,,,,,,,,1,1.9777,,,,,,,,,,,,,,,,0,0,0,0,1
,,,,,,,,,,space,,2050,2020-05-26_16h52.13.167,ANTCPTp,2020.1.2,Win32,60,,,,,,,,,,,,,,,,,,,,space,1,0,0,0,13,1,W,0.88054,,,,,,,,,,,,,,,,,,,,,,
,,,,,,,,,,space,,2050,2020-05-26_16h52.13.167,ANTCPTp,2020.1.2,Win32,60,,,,,,,,,,,,,,,,,,,,space,1,0,1,1,5,1,F,0.406955,,,,,,,,,,,,,,,,,,,,,,
,,,,,,,,,,space,,2050,2020-05-26_16h52.13.167,ANTCPTp,2020.1.2,Win32,60,,,,,,,,,,,,,,,,,,,,space,1,0,2,2,8,1,O,0.374135,,,,,,,,,,,,,,,,,,,,,,
,,,,,,,,,,,,2050,2020-05-26_16h52.13.167,ANTCPTp,2020.1.2,Win32,60,,,,,,,,,,,,,,,,,,,,space,0,0,3,3,15,1,X,0.40733,,,,,,,,,,,,,,,,,,,,,,
,,,,,,,,,,space,,2050,2020-05-26_16h52.13.167,ANTCPTp,2020.1.2,Win32,60,,,,,,,,,,,,,,,,,,,,space,1,0,4,4,10,1,Q,0.4046,,,,,,,,,,,,,,,,,,,,,,
,,,,,,,,,,space,,2050,2020-05-26_16h52.13.167,ANTCPTp,2020.1.2,Win32,60,,,,,,,,,,,,,,,,,,,,space,1,0,5,5,7,1,N,0.406865,,,,,,,,,,,,,,,,,,,,,,
,,,,,,,,,,space,,2050,2020-05-26_16h52.13.167,ANTCPTp,2020.1.2,Win32,60,,,,,,,,,,,,,,,,,,,,space,1,0,6,6,6,1,J,0.44134,,,,,,,,,,,,,,,,,,,,,,
,,,,,,,,,,space,,2050,2020-05-26_16h52.13.167,ANTCPTp,2020.1.2,Win32,60,,,,,,,,,,,,,,,,,,,,space,1,0,7,7,2,1,C,0.421805,,,,,,,,,,,,,,,,,,,,,,
,,,,,,,,,,space,,2050,2020-05-26_16h52.13.167,ANTCPTp,2020.1.2,Win32,60,,,,,,,,,,,,,,,,,,,,space,1,0,8,8,9,1,P,0.44915,,,,,,,,,,,,,,,,,,,,,,
,,,,,,,,,,space,,2050,2020-05-26_16h52.13.167,ANTCPTp,2020.1.2,Win32,60,,,,,,,,,,,,,,,,,,,,space,1,0,9,9,1,1,B,0.412315,,,,,,,,,,,,,,,,,,,,,,
,,,,,,,,,,space,,2050,2020-05-26_16h52.13.167,ANTCPTp,2020.1.2,Win32,60,,,,,,,,,,,,,,,,,,,,space,1,0,10,10,3,1,D,0.508765,,,,,,,,,,,,,,,,,,,,,,
,,,,,,,,,,space,,2050,2020-05-26_16h52.13.167,ANTCPTp,2020.1.2,Win32,60,,,,,,,,,,,,,,,,,,,,space,1,0,11,11,14,1,Y,0.501305,,,,,,,,,,,,,,,,,,,,,,
,,,,,,,,,,space,,2050,2020-05-26_16h52.13.167,ANTCPTp,2020.1.2,Win32,60,,,,,,,,,,,,,,,,,,,,space,1,0,12,12,11,1,U,0.485705,,,,,,,,,,,,,,,,,,,,,,
,,,,,,,,,,space,,2050,2020-05-26_16h52.13.167,ANTCPTp,2020.1.2,Win32,60,,,,,,,,,,,,,,,,,,,,space,1,0,13,13,4,1,E,0.4349,,,,,,,,,,,,,,,,,,,,,,
,,,,,,,,,,space,,2050,2020-05-26_16h52.13.167,ANTCPTp,2020.1.2,Win32,60,,,,,,,,,,,,,,,,,,,,space,1,0,14,14,0,1,A,0.454485,,,,,,,,,,,,,,,,,,,,,,
,,,,,,,,,,space,,2050,2020-05-26_16h52.13.167,ANTCPTp,2020.1.2,Win32,60,,,,,,,,,,,,,,,,,,,,space,1,0,15,15,12,1,V,0.485335,,,,,,,,,,,,,,,,,,,,,,
,,,,,,,,,,,,2050,2020-05-26_16h52.13.167,ANTCPTp,2020.1.2,Win32,60,,,,,,,,,,,,,,,,,,,,,1,0,16,16,16,1,X,,,,,,,,,,,,,,,,,,,,,,,
,,,,,,,,,,space,,2050,2020-05-26_16h52.13.167,ANTCPTp,2020.1.2,Win32,60,,,,,,,,,,,,,,,,,,,,space,1,,,,,,A,0.467235,1,8.994145,0,0,0,0,1,,,,,,,,,,,,,,,
,,,,,,,,,,space,,2050,2020-05-26_16h52.13.167,ANTCPTp,2020.1.2,Win32,60,,,,,,,,,,,,,,,,,,,,space,1,,,,,,R,0.445535,,,0,1,1,17,1,,,,,,,,,,,,,,,
,,,,,,,,,,space,,2050,2020-05-26_16h52.13.167,ANTCPTp,2020.1.2,Win32,60,,,,,,,,,,,,,,,,,,,,space,1,,,,,,E,0.454035,,,0,2,2,4,1,,,,,,,,,,,,,,,
,,,,,,,,,,space,,2050,2020-05-26_16h52.13.167,ANTCPTp,2020.1.2,Win32,60,,,,,,,,,,,,,,,,,,,,space,1,,,,,,D,0.439595,,,0,3,3,3,1,,,,,,,,,,,,,,,
,,,,,,,,,,space,,2050,2020-05-26_16h52.13.167,ANTCPTp,2020.1.2,Win32,60,,,,,,,,,,,,,,,,,,,,space,1,,,,,,V,0.446175,,,0,4,4,21,1,,,,,,,,,,,,,,,
,,,,,,,,,,space,,2050,2020-05-26_16h52.13.167,ANTCPTp,2020.1.2,Win32,60,,,,,,,,,,,,,,,,,,,,space,1,,,,,,T,0.52076,,,0,5,5,19,1,,,,,,,,,,,,,,,
,,,,,,,,,,space,,2050,2020-05-26_16h52.13.167,ANTCPTp,2020.1.2,Win32,60,,,,,,,,,,,,,,,,,,,,space,1,,,,,,H,0.422915,,,0,6,6,7,1,,,,,,,,,,,,,,,
,,,,,,,,,,,,2050,2020-05-26_16h52.13.167,ANTCPTp,2020.1.2,Win32,60,,,,,,,,,,,,,,,,,,,,,1,,,,,,X,,,,0,7,7,28,1,,,,,,,,,,,,,,,
,,,,,,,,,,space,,2050,2020-05-26_16h52.13.167,ANTCPTp,2020.1.2,Win32,60,,,,,,,,,,,,,,,,,,,,space,1,,,,,,C,0.45433,,,0,8,8,2,1,,,,,,,,,,,,,,,
,,,,,,,,,,space,,2050,2020-05-26_16h52.13.167,ANTCPTp,2020.1.2,Win32,60,,,,,,,,,,,,,,,,,,,,space,1,,,,,,I,0.47471,,,0,9,9,8,1,,,,,,,,,,,,,,,
,,,,,,,,,,space,,2050,2020-05-26_16h52.13.167,ANTCPTp,2020.1.2,Win32,60,,,,,,,,,,,,,,,,,,,,space,1,,,,,,N,0.45345,,,0,10,10,13,1,,,,,,,,,,,,,,,
,,,,,,,,,,space,,2050,2020-05-26_16h52.13.167,ANTCPTp,2020.1.2,Win32,60,,,,,,,,,,,,,,,,,,,,space,1,,,,,,A,0.391225,,,0,11,11,25,1,,,,,,,,,,,,,,,
,,,,,,,,,,space,,2050,2020-05-26_16h52.13.167,ANTCPTp,2020.1.2,Win32,60,,,,,,,,,,,,,,,,,,,,space,1,,,,,,M,0.46898,,,0,12,12,12,1,,,,,,,,,,,,,,,
,,,,,,,,,,space,,2050,2020-05-26_16h52.13.167,ANTCPTp,2020.1.2,Win32,60,,,,,,,,,,,,,,,,,,,,space,1,,,,,,Z,0.417275,,,0,13,13,24,1,,,,,,,,,,,,,,,
,,,,,,,,,,space,,2050,2020-05-26_16h52.13.167,ANTCPTp,2020.1.2,Win32,60,,,,,,,,,,,,,,,,,,,,space,1,,,,,,K,0.45545,,,0,14,14,10,1,,,,,,,,,,,,,,,
,,,,,,,,,,space,,2050,2020-05-26_16h52.13.167,ANTCPTp,2020.1.2,Win32,60,,,,,,,,,,,,,,,,,,,,space,1,,,,,,F,0.39592,,,0,15,15,5,1,,,,,,,,,,,,,,,
,,,,,,,,,,space,,2050,2020-05-26_16h52.13.167,ANTCPTp,2020.1.2,Win32,60,,,,,,,,,,,,,,,,,,,,space,1,,,,,,L,0.422185,,,0,16,16,11,1,,,,,,,,,,,,,,,
,,,,,,,,,,space,,2050,2020-05-26_16h52.13.167,ANTCPTp,2020.1.2,Win32,60,,,,,,,,,,,,,,,,,,,,space,1,,,,,,B,0.42582,,,0,17,17,1,1,,,,,,,,,,,,,,,
,,,,,,,,,,space,,2050,2020-05-26_16h52.13.167,ANTCPTp,2020.1.2,Win32,60,,,,,,,,,,,,,,,,,,,,space,1,,,,,,S,0.403605,,,0,18,18,18,1,,,,,,,,,,,,,,,
,,,,,,,,,,space,,2050,2020-05-26_16h52.13.167,ANTCPTp,2020.1.2,Win32,60,,,,,,,,,,,,,,,,,,,,space,1,,,,,,O,0.484755,,,0,19,19,14,1,,,,,,,,,,,,,,,
,,,,,,,,,,,,2050,2020-05-26_16h52.13.167,ANTCPTp,2020.1.2,Win32,60,,,,,,,,,,,,,,,,,,,,,1,,,,,,X,,,,0,20,20,29,1,,,,,,,,,,,,,,,
,,,,,,,,,,space,,2050,2020-05-26_16h52.13.167,ANTCPTp,2020.1.2,Win32,60,,,,,,,,,,,,,,,,,,,,space,1,,,,,,Y,0.52528,,,0,21,21,23,1,,,,,,,,,,,,,,,
,,,,,,,,,,space,,2050,2020-05-26_16h52.13.167,ANTCPTp,2020.1.2,Win32,60,,,,,,,,,,,,,,,,,,,,space,1,,,,,,Q,0.470855,,,0,22,22,16,1,,,,,,,,,,,,,,,
,,,,,,,,,,space,,2050,2020-05-26_16h52.13.167,ANTCPTp,2020.1.2,Win32,60,,,,,,,,,,,,,,,,,,,,space,1,,,,,,W,0.436625,,,0,23,23,22,1,,,,,,,,,,,,,,,
,,,,,,,,,,space,,2050,2020-05-26_16h52.13.167,ANTCPTp,2020.1.2,Win32,60,,,,,,,,,,,,,,,,,,,,space,1,,,,,,J,0.444695,,,0,24,24,9,1,,,,,,,,,,,,,,,
,,,,,,,,,,space,,2050,2020-05-26_16h52.13.167,ANTCPTp,2020.1.2,Win32,60,,,,,,,,,,,,,,,,,,,,space,1,,,,,,G,0.438505,,,0,25,25,6,1,,,,,,,,,,,,,,,
,,,,,,,,,,,,2050,2020-05-26_16h52.13.167,ANTCPTp,2020.1.2,Win32,60,,,,,,,,,,,,,,,,,,,,,1,,,,,,X,,,,0,26,26,27,1,,,,,,,,,,,,,,,
,,,,,,,,,,space,,2050,2020-05-26_16h52.13.167,ANTCPTp,2020.1.2,Win32,60,,,,,,,,,,,,,,,,,,,,space,1,,,,,,P,0.502525,,,0,27,27,15,1,,,,,,,,,,,,,,,
,,,,,,,,,,,,2050,2020-05-26_16h52.13.167,ANTCPTp,2020.1.2,Win32,60,,,,,,,,,,,,,,,,,,,,space,0,,,,,,X,0.407615,,,0,28,28,26,1,,,,,,,,,,,,,,,
,,,,,,,,,,space,,2050,2020-05-26_16h52.13.167,ANTCPTp,2020.1.2,Win32,60,,,,,,,,,,,,,,,,,,,,space,1,,,,,,U,0.48158,,,0,29,29,20,1,,,,,,,,,,,,,,,
,,,,,,,,,,space,,2050,2020-05-26_16h52.13.167,ANTCPTp,2020.1.2,Win32,60,,,,,,,,,,,,,,,,,,,,space,1,,,,,,D,0.45292,1,2.29358,,,,,,0,0,0,1,1,,,,,,,,,,
,,,,,,,,,,space,,2050,2020-05-26_16h52.13.167,ANTCPTp,2020.1.2,Win32,60,,,,,,,,,,,,,,,,,,,,space,1,,,,,,L,0.420055,,,,,,,,0,1,1,7,1,,,,,,,,,,
,,,,,,,,,,space,,2050,2020-05-26_16h52.13.167,ANTCPTp,2020.1.2,Win32,60,,,,,,,,,,,,,,,,,,,,space,1,,,,,,K,0.451655,,,,,,,,0,2,2,6,1,,,,,,,,,,
,,,,,,,,,,,,2050,2020-05-26_16h52.13.167,ANTCPTp,2020.1.2,Win32,60,,,,,,,,,,,,,,,,,,,,,1,,,,,,X,,,,,,,,,0,3,3,21,1,,,,,,,,,,
,,,,,,,,,,space,,2050,2020-05-26_16h52.13.167,ANTCPTp,2020.1.2,Win32,60,,,,,,,,,,,,,,,,,,,,space,1,,,,,,S,0.47899,,,,,,,,0,4,4,13,1,,,,,,,,,,
,,,,,,,,,,space,,2050,2020-05-26_16h52.13.167,ANTCPTp,2020.1.2,Win32,60,,,,,,,,,,,,,,,,,,,,space,1,,,,,,Y,0.546445,,,,,,,,0,5,5,17,1,,,,,,,,,,
,,,,,,,,,,space,,2050,2020-05-26_16h52.13.167,ANTCPTp,2020.1.2,Win32,60,,,,,,,,,,,,,,,,,,,,space,1,,,,,,U,0.40217,,,,,,,,0,6,6,15,1,,,,,,,,,,
,,,,,,,,,,space,,2050,2020-05-26_16h52.13.167,ANTCPTp,2020.1.2,Win32,60,,,,,,,,,,,,,,,,,,,,space,1,,,,,,E,0.457065,,,,,,,,0,7,7,2,1,,,,,,,,,,
,,,,,,,,,,space,,2050,2020-05-26_16h52.13.167,ANTCPTp,2020.1.2,Win32,60,,,,,,,,,,,,,,,,,,,,space,1,,,,,,N,0.443955,,,,,,,,0,8,8,9,1,,,,,,,,,,
,,,,,,,,,,space,,2050,2020-05-26_16h52.13.167,ANTCPTp,2020.1.2,Win32,60,,,,,,,,,,,,,,,,,,,,space,1,,,,,,Q,0.44652,,,,,,,,0,9,9,11,1,,,,,,,,,,
,,,,,,,,,,space,,2050,2020-05-26_16h52.13.167,ANTCPTp,2020.1.2,Win32,60,,,,,,,,,,,,,,,,,,,,space,1,,,,,,O,0.4906,,,,,,,,0,10,10,10,1,,,,,,,,,,
,,,,,,,,,,space,,2050,2020-05-26_16h52.13.167,ANTCPTp,2020.1.2,Win32,60,,,,,,,,,,,,,,,,,,,,space,1,,,,,,A,0.393885,,,,,,,,0,11,11,19,1,,,,,,,,,,
,,,,,,,,,,space,,2050,2020-05-26_16h52.13.167,ANTCPTp,2020.1.2,Win32,60,,,,,,,,,,,,,,,,,,,,space,1,,,,,,F,0.478145,,,,,,,,0,12,12,3,1,,,,,,,,,,
,,,,,,,,,,space,,2050,2020-05-26_16h52.13.167,ANTCPTp,2020.1.2,Win32,60,,,,,,,,,,,,,,,,,,,,space,1,,,,,,T,0.5195,,,,,,,,0,13,13,14,1,,,,,,,,,,
,,,,,,,,,,space,,2050,2020-05-26_16h52.13.167,ANTCPTp,2020.1.2,Win32,60,,,,,,,,,,,,,,,,,,,,space,1,,,,,,H,0.472955,,,,,,,,0,14,14,5,1,,,,,,,,,,
,,,,,,,,,,space,,2050,2020-05-26_16h52.13.167,ANTCPTp,2020.1.2,Win32,60,,,,,,,,,,,,,,,,,,,,space,1,,,,,,R,0.46092,,,,,,,,0,15,15,12,1,,,,,,,,,,
,,,,,,,,,,space,,2050,2020-05-26_16h52.13.167,ANTCPTp,2020.1.2,Win32,60,,,,,,,,,,,,,,,,,,,,space,1,,,,,,M,0.437735,,,,,,,,0,16,16,8,1,,,,,,,,,,
,,,,,,,,,,,,2050,2020-05-26_16h52.13.167,ANTCPTp,2020.1.2,Win32,60,,,,,,,,,,,,,,,,,,,,,1,,,,,,X,,,,,,,,,0,17,17,20,1,,,,,,,,,,
,,,,,,,,,,space,,2050,2020-05-26_16h52.13.167,ANTCPTp,2020.1.2,Win32,60,,,,,,,,,,,,,,,,,,,,space,1,,,,,,Z,0.485545,,,,,,,,0,18,18,18,1,,,,,,,,,,
,,,,,,,,,,space,,2050,2020-05-26_16h52.13.167,ANTCPTp,2020.1.2,Win32,60,,,,,,,,,,,,,,,,,,,,space,1,,,,,,G,0.488685,,,,,,,,0,19,19,4,1,,,,,,,,,,
,,,,,,,,,,space,,2050,2020-05-26_16h52.13.167,ANTCPTp,2020.1.2,Win32,60,,,,,,,,,,,,,,,,,,,,space,1,,,,,,B,0.42584,,,,,,,,0,20,20,0,1,,,,,,,,,,
,,,,,,,,,,space,,2050,2020-05-26_16h52.13.167,ANTCPTp,2020.1.2,Win32,60,,,,,,,,,,,,,,,,,,,,space,1,,,,,,W,0.46893,,,,,,,,0,21,21,16,1,,,,,,,,,,
,,,,,,,,,,,,2050,2020-05-26_16h52.13.167,ANTCPTp,2020.1.2,Win32,60,,,,,,,,,,,,,,,,,,,,,1,,,,,,X,,1,2.01318,,,,,,,,,,,0,0,0,25,1,,,,,
,,,,,,,,,,space,,2050,2020-05-26_16h52.13.167,ANTCPTp,2020.1.2,Win32,60,,,,,,,,,,,,,,,,,,,,space,1,,,,,,D,0.423335,,,,,,,,,,,,,0,1,1,3,1,,,,,
,,,,,,,,,,space,,2050,2020-05-26_16h52.13.167,ANTCPTp,2020.1.2,Win32,60,,,,,,,,,,,,,,,,,,,,space,1,,,,,,R,0.424825,,,,,,,,,,,,,0,2,2,17,1,,,,,
,,,,,,,,,,space,,2050,2020-05-26_16h52.13.167,ANTCPTp,2020.1.2,Win32,60,,,,,,,,,,,,,,,,,,,,space,1,,,,,,Q,0.440925,,,,,,,,,,,,,0,3,3,16,1,,,,,
,,,,,,,,,,space,,2050,2020-05-26_16h52.13.167,ANTCPTp,2020.1.2,Win32,60,,,,,,,,,,,,,,,,,,,,space,1,,,,,,W,0.478995,,,,,,,,,,,,,0,4,4,21,1,,,,,
,,,,,,,,,,space,,2050,2020-05-26_16h52.13.167,ANTCPTp,2020.1.2,Win32,60,,,,,,,,,,,,,,,,,,,,space,1,,,,,,H,0.44026,,,,,,,,,,,,,0,5,5,7,1,,,,,
,,,,,,,,,,space,,2050,2020-05-26_16h52.13.167,ANTCPTp,2020.1.2,Win32,60,,,,,,,,,,,,,,,,,,,,space,1,,,,,,Y,0.50791,,,,,,,,,,,,,0,6,6,22,1,,,,,
,,,,,,,,,,space,,2050,2020-05-26_16h52.13.167,ANTCPTp,2020.1.2,Win32,60,,,,,,,,,,,,,,,,,,,,space,1,,,,,,P,0.454785,,,,,,,,,,,,,0,7,7,15,1,,,,,
,,,,,,,,,,space,,2050,2020-05-26_16h52.13.167,ANTCPTp,2020.1.2,Win32,60,,,,,,,,,,,,,,,,,,,,space,1,,,,,,M,0.45044,,,,,,,,,,,,,0,8,8,12,1,,,,,
,,,,,,,,,,space,,2050,2020-05-26_16h52.13.167,ANTCPTp,2020.1.2,Win32,60,,,,,,,,,,,,,,,,,,,,space,1,,,,,,J,0.40649,,,,,,,,,,,,,0,9,9,9,1,,,,,
,,,,,,,,,,space,,2050,2020-05-26_16h52.13.167,ANTCPTp,2020.1.2,Win32,60,,,,,,,,,,,,,,,,,,,,space,1,,,,,,N,0.418935,,,,,,,,,,,,,0,10,10,13,1,,,,,
,,,,,,,,,,space,,2050,2020-05-26_16h52.13.167,ANTCPTp,2020.1.2,Win32,60,,,,,,,,,,,,,,,,,,,,space,1,,,,,,I,0.436095,,,,,,,,,,,,,0,11,11,8,1,,,,,
,,,,,,,,,,space,,2050,2020-05-26_16h52.13.167,ANTCPTp,2020.1.2,Win32,60,,,,,,,,,,,,,,,,,,,,space,1,,,,,,S,0.45478,,,,,,,,,,,,,0,12,12,18,1,,,,,
,,,,,,,,,,space,,2050,2020-05-26_16h52.13.167,ANTCPTp,2020.1.2,Win32,60,,,,,,,,,,,,,,,,,,,,space,1,,,,,,C,0.46833,,,,,,,,,,,,,0,13,13,2,1,,,,,
,,,,,,,,,,space,,2050,2020-05-26_16h52.13.167,ANTCPTp,2020.1.2,Win32,60,,,,,,,,,,,,,,,,,,,,space,1,,,,,,G,0.443345,,,,,,,,,,,,,0,14,14,6,1,,,,,
,,,,,,,,,,,,2050,2020-05-26_16h52.13.167,ANTCPTp,2020.1.2,Win32,60,,,,,,,,,,,,,,,,,,,,,1,,,,,,X,,,,,,,,,,,,,,0,15,15,26,1,,,,,
,,,,,,,,,,space,,2050,2020-05-26_16h52.13.167,ANTCPTp,2020.1.2,Win32,60,,,,,,,,,,,,,,,,,,,,space,1,,,,,,U,0.467375,,,,,,,,,,,,,0,16,16,19,1,,,,,
,,,,,,,,,,space,,2050,2020-05-26_16h52.13.167,ANTCPTp,2020.1.2,Win32,60,,,,,,,,,,,,,,,,,,,,space,1,,,,,,K,0.428755,,,,,,,,,,,,,0,17,17,10,1,,,,,
,,,,,,,,,,space,,2050,2020-05-26_16h52.13.167,ANTCPTp,2020.1.2,Win32,60,,,,,,,,,,,,,,,,,,,,space,1,,,,,,E,0.40137,,,,,,,,,,,,,0,18,18,4,1,,,,,
,,,,,,,,,,space,,2050,2020-05-26_16h52.13.167,ANTCPTp,2020.1.2,Win32,60,,,,,,,,,,,,,,,,,,,,space,1,,,,,,V,0.456865,,,,,,,,,,,,,0,19,19,20,1,,,,,
,,,,,,,,,,space,,2050,2020-05-26_16h52.13.167,ANTCPTp,2020.1.2,Win32,60,,,,,,,,,,,,,,,,,,,,space,1,,,,,,L,0.4285,,,,,,,,,,,,,0,20,20,11,1,,,,,
,,,,,,,,,,space,,2050,2020-05-26_16h52.13.167,ANTCPTp,2020.1.2,Win32,60,,,,,,,,,,,,,,,,,,,,space,1,,,,,,O,0.385025,,,,,,,,,,,,,0,21,21,14,1,,,,,
,,,,,,,,,,space,,2050,2020-05-26_16h52.13.167,ANTCPTp,2020.1.2,Win32,60,,,,,,,,,,,,,,,,,,,,space,1,,,,,,B,0.422215,,,,,,,,,,,,,0,22,22,1,1,,,,,
,,,,,,,,,,space,,2050,2020-05-26_16h52.13.167,ANTCPTp,2020.1.2,Win32,60,,,,,,,,,,,,,,,,,,,,space,1,,,,,,A,0.384905,,,,,,,,,,,,,0,23,23,0,1,,,,,
,,,,,,,,,,space,,2050,2020-05-26_16h52.13.167,ANTCPTp,2020.1.2,Win32,60,,,,,,,,,,,,,,,,,,,,space,1,,,,,,F,0.45199,,,,,,,,,,,,,0,24,24,5,1,,,,,
,,,,,,,,,,space,,2050,2020-05-26_16h52.13.167,ANTCPTp,2020.1.2,Win32,60,,,,,,,,,,,,,,,,,,,,space,1,,,,,,Z,0.562985,,,,,,,,,,,,,0,25,25,23,1,,,,,
,,,,,,,,,,,,2050,2020-05-26_16h52.13.167,ANTCPTp,2020.1.2,Win32,60,,,,,,,,,,,,,,,,,,,,,1,,,,,,X,,,,,,,,,,,,,,0,26,26,24,1,,,,,
,,,,,,,,,,,,2050,2020-05-26_16h52.13.167,ANTCPTp,2020.1.2,Win32,60,,,,,,,,,,,,,,,,,,,,,,,,,,,,,1,7.093815,,,,,,,,,,,,,,,,1,0,1,0,1
,,,,,,,,,,,,2050,2020-05-26_16h52.13.167,ANTCPTp,2020.1.2,Win32,60,,,,,,,,,,,,,,,,,,,,,1,0,0,0,15,1,X,,,,,,,,,,,,,,,,,,,,,,,
,,,,,,,,,,space,,2050,2020-05-26_16h52.13.167,ANTCPTp,2020.1.2,Win32,60,,,,,,,,,,,,,,,,,,,,space,1,0,1,1,14,1,Y,0.422,,,,,,,,,,,,,,,,,,,,,,
,,,,,,,,,,space,,2050,2020-05-26_16h52.13.167,ANTCPTp,2020.1.2,Win32,60,,,,,,,,,,,,,,,,,,,,space,1,0,2,2,8,1,O,0.40175,,,,,,,,,,,,,,,,,,,,,,
,,,,,,,,,,space,,2050,2020-05-26_16h52.13.167,ANTCPTp,2020.1.2,Win32,60,,,,,,,,,,,,,,,,,,,,space,1,0,3,3,4,1,E,0.33614,,,,,,,,,,,,,,,,,,,,,,
,,,,,,,,,,space,,2050,2020-05-26_16h52.13.167,ANTCPTp,2020.1.2,Win32,60,,,,,,,,,,,,,,,,,,,,space,1,0,4,4,0,1,A,0.35675,,,,,,,,,,,,,,,,,,,,,,
,,,,,,,,,,,,2050,2020-05-26_16h52.13.167,ANTCPTp,2020.1.2,Win32,60,,,,,,,,,,,,,,,,,,,,,1,0,5,5,16,1,X,,,,,,,,,,,,,,,,,,,,,,,
,,,,,,,,,,space,,2050,2020-05-26_16h52.13.167,ANTCPTp,2020.1.2,Win32,60,,,,,,,,,,,,,,,,,,,,space,1,0,6,6,10,1,Q,0.44325,,,,,,,,,,,,,,,,,,,,,,
,,,,,,,,,,space,,2050,2020-05-26_16h52.13.167,ANTCPTp,2020.1.2,Win32,60,,,,,,,,,,,,,,,,,,,,space,1,0,7,7,2,1,C,0.453185,,,,,,,,,,,,,,,,,,,,,,
,,,,,,,,,,space,,2050,2020-05-26_16h52.13.167,ANTCPTp,2020.1.2,Win32,60,,,,,,,,,,,,,,,,,,,,space,1,0,8,8,11,1,U,0.43914,,,,,,,,,,,,,,,,,,,,,,
,,,,,,,,,,space,,2050,2020-05-26_16h52.13.167,ANTCPTp,2020.1.2,Win32,60,,,,,,,,,,,,,,,,,,,,space,1,0,9,9,13,1,W,0.4248,,,,,,,,,,,,,,,,,,,,,,
,,,,,,,,,,space,,2050,2020-05-26_16h52.13.167,ANTCPTp,2020.1.2,Win32,60,,,,,,,,,,,,,,,,,,,,space,1,0,10,10,1,1,B,0.435245,,,,,,,,,,,,,,,,,,,,,,
,,,,,,,,,,space,,2050,2020-05-26_16h52.13.167,ANTCPTp,2020.1.2,Win32,60,,,,,,,,,,,,,,,,,,,,space,1,0,11,11,6,1,J,0.407705,,,,,,,,,,,,,,,,,,,,,,
,,,,,,,,,,space,,2050,2020-05-26_16h52.13.167,ANTCPTp,2020.1.2,Win32,60,,,,,,,,,,,,,,,,,,,,space,1,0,12,12,7,1,N,0.487465,,,,,,,,,,,,,,,,,,,,,,
,,,,,,,,,,space,,2050,2020-05-26_16h52.13.167,ANTCPTp,2020.1.2,Win32,60,,,,,,,,,,,,,,,,,,,,space,1,0,13,13,9,1,P,0.46041,,,,,,,,,,,,,,,,,,,,,,
,,,,,,,,,,space,,2050,2020-05-26_16h52.13.167,ANTCPTp,2020.1.2,Win32,60,,,,,,,,,,,,,,,,,,,,space,1,0,14,14,3,1,D,0.50212,,,,,,,,,,,,,,,,,,,,,,
,,,,,,,,,,space,,2050,2020-05-26_16h52.13.167,ANTCPTp,2020.1.2,Win32,60,,,,,,,,,,,,,,,,,,,,space,1,0,15,15,12,1,V,0.43615,,,,,,,,,,,,,,,,,,,,,,
,,,,,,,,,,space,,2050,2020-05-26_16h52.13.167,ANTCPTp,2020.1.2,Win32,60,,,,,,,,,,,,,,,,,,,,space,1,0,16,16,5,1,F,0.43781,,,,,,,,,,,,,,,,,,,,,,
,,,,,,,,,,space,,2050,2020-05-26_16h52.13.167,ANTCPTp,2020.1.2,Win32,60,,,,,,,,,,,,,,,,,,,,space,1,,,,,,B,0.520955,1,2.05936,0,0,0,1,1,,,,,,,,,,,,,,,
,,,,,,,,,,space,,2050,2020-05-26_16h52.13.167,ANTCPTp,2020.1.2,Win32,60,,,,,,,,,,,,,,,,,,,,space,1,,,,,,W,0.457125,,,0,1,1,22,1,,,,,,,,,,,,,,,
,,,,,,,,,,space,,2050,2020-05-26_16h52.13.167,ANTCPTp,2020.1.2,Win32,60,,,,,,,,,,,,,,,,,,,,space,1,,,,,,P,0.406235,,,0,2,2,15,1,,,,,,,,,,,,,,,
,,,,,,,,,,,,2050,2020-05-26_16h52.13.167,ANTCPTp,2020.1.2,Win32,60,,,,,,,,,,,,,,,,,,,,,1,,,,,,X,,,,0,3,3,27,1,,,,,,,,,,,,,,,
,,,,,,,,,,space,,2050,2020-05-26_16h52.13.167,ANTCPTp,2020.1.2,Win32,60,,,,,,,,,,,,,,,,,,,,space,1,,,,,,R,0.42173,,,0,4,4,17,1,,,,,,,,,,,,,,,
,,,,,,,,,,space,,2050,2020-05-26_16h52.13.167,ANTCPTp,2020.1.2,Win32,60,,,,,,,,,,,,,,,,,,,,space,1,,,,,,S,0.38508,,,0,5,5,18,1,,,,,,,,,,,,,,,
,,,,,,,,,,space,,2050,2020-05-26_16h52.13.167,ANTCPTp,2020.1.2,Win32,60,,,,,,,,,,,,,,,,,,,,space,1,,,,,,C,0.46895,,,0,6,6,2,1,,,,,,,,,,,,,,,
,,,,,,,,,,space,,2050,2020-05-26_16h52.13.167,ANTCPTp,2020.1.2,Win32,60,,,,,,,,,,,,,,,,,,,,space,1,,,,,,Q,0.45102,,,0,7,7,16,1,,,,,,,,,,,,,,,
,,,,,,,,,,space,,2050,2020-05-26_16h52.13.167,ANTCPTp,2020.1.2,Win32,60,,,,,,,,,,,,,,,,,,,,space,1,,,,,,G,0.434835,,,0,8,8,6,1,,,,,,,,,,,,,,,
,,,,,,,,,,space,,2050,2020-05-26_16h52.13.167,ANTCPTp,2020.1.2,Win32,60,,,,,,,,,,,,,,,,,,,,space,1,,,,,,F,0.43698,,,0,9,9,5,1,,,,,,,,,,,,,,,
,,,,,,,,,,space,,2050,2020-05-26_16h52.13.167,ANTCPTp,2020.1.2,Win32,60,,,,,,,,,,,,,,,,,,,,space,1,,,,,,N,0.44649,,,0,10,10,13,1,,,,,,,,,,,,,,,
,,,,,,,,,,space,,2050,2020-05-26_16h52.13.167,ANTCPTp,2020.1.2,Win32,60,,,,,,,,,,,,,,,,,,,,space,1,,,,,,Y,0.420415,,,0,11,11,23,1,,,,,,,,,,,,,,,
,,,,,,,,,,space,,2050,2020-05-26_16h52.13.167,ANTCPTp,2020.1.2,Win32,60,,,,,,,,,,,,,,,,,,,,space,1,,,,,,H,0.4853,,,0,12,12,7,1,,,,,,,,,,,,,,,
,,,,,,,,,,space,,2050,2020-05-26_16h52.13.167,ANTCPTp,2020.1.2,Win32,60,,,,,,,,,,,,,,,,,,,,space,1,,,,,,U,0.446635,,,0,13,13,20,1,,,,,,,,,,,,,,,
,,,,,,,,,,space,,2050,2020-05-26_16h52.13.167,ANTCPTp,2020.1.2,Win32,60,,,,,,,,,,,,,,,,,,,,space,1,,,,,,K,0.525065,,,0,14,14,10,1,,,,,,,,,,,,,,,
,,,,,,,,,,space,,2050,2020-05-26_16h52.13.167,ANTCPTp,2020.1.2,Win32,60,,,,,,,,,,,,,,,,,,,,space,1,,,,,,I,0.46649,,,0,15,15,8,1,,,,,,,,,,,,,,,
,,,,,,,,,,space,,2050,2020-05-26_16h52.13.167,ANTCPTp,2020.1.2,Win32,60,,,,,,,,,,,,,,,,,,,,space,1,,,,,,L,0.490445,,,0,16,16,11,1,,,,,,,,,,,,,,,
,,,,,,,,,,,,2050,2020-05-26_16h52.13.167,ANTCPTp,2020.1.2,Win32,60,,,,,,,,,,,,,,,,,,,,,1,,,,,,X,,,,0,17,17,29,1,,,,,,,,,,,,,,,
,,,,,,,,,,space,,2050,2020-05-26_16h52.13.167,ANTCPTp,2020.1.2,Win32,60,,,,,,,,,,,,,,,,,,,,space,1,,,,,,E,0.41023,,,0,18,18,4,1,,,,,,,,,,,,,,,
,,,,,,,,,,space,,2050,2020-05-26_16h52.13.167,ANTCPTp,2020.1.2,Win32,60,,,,,,,,,,,,,,,,,,,,space,1,,,,,,T,0.43703,,,0,19,19,19,1,,,,,,,,,,,,,,,
,,,,,,,,,,space,,2050,2020-05-26_16h52.13.167,ANTCPTp,2020.1.2,Win32,60,,,,,,,,,,,,,,,,,,,,space,1,,,,,,V,0.43636,,,0,20,20,21,1,,,,,,,,,,,,,,,
,,,,,,,,,,space,,2050,2020-05-26_16h52.13.167,ANTCPTp,2020.1.2,Win32,60,,,,,,,,,,,,,,,,,,,,space,1,,,,,,A,0.424545,,,0,21,21,25,1,,,,,,,,,,,,,,,
,,,,,,,,,,space,,2050,2020-05-26_16h52.13.167,ANTCPTp,2020.1.2,Win32,60,,,,,,,,,,,,,,,,,,,,space,1,,,,,,D,0.436995,,,0,22,22,3,1,,,,,,,,,,,,,,,
,,,,,,,,,,space,,2050,2020-05-26_16h52.13.167,ANTCPTp,2020.1.2,Win32,60,,,,,,,,,,,,,,,,,,,,space,1,,,,,,A,0.422675,,,0,23,23,0,1,,,,,,,,,,,,,,,
,,,,,,,,,,space,,2050,2020-05-26_16h52.13.167,ANTCPTp,2020.1.2,Win32,60,,,,,,,,,,,,,,,,,,,,space,1,,,,,,J,0.411255,,,0,24,24,9,1,,,,,,,,,,,,,,,
,,,,,,,,,,space,,2050,2020-05-26_16h52.13.167,ANTCPTp,2020.1.2,Win32,60,,,,,,,,,,,,,,,,,,,,space,1,,,,,,M,0.42143,,,0,25,25,12,1,,,,,,,,,,,,,,,
,,,,,,,,,,,,2050,2020-05-26_16h52.13.167,ANTCPTp,2020.1.2,Win32,60,,,,,,,,,,,,,,,,,,,,,1,,,,,,X,,,,0,26,26,26,1,,,,,,,,,,,,,,,
,,,,,,,,,,space,,2050,2020-05-26_16h52.13.167,ANTCPTp,2020.1.2,Win32,60,,,,,,,,,,,,,,,,,,,,space,1,,,,,,O,0.38682,,,0,27,27,14,1,,,,,,,,,,,,,,,
,,,,,,,,,,,,2050,2020-05-26_16h52.13.167,ANTCPTp,2020.1.2,Win32,60,,,,,,,,,,,,,,,,,,,,,1,,,,,,X,,,,0,28,28,28,1,,,,,,,,,,,,,,,
,,,,,,,,,,space,,2050,2020-05-26_16h52.13.167,ANTCPTp,2020.1.2,Win32,60,,,,,,,,,,,,,,,,,,,,space,1,,,,,,Z,0.46962,,,0,29,29,24,1,,,,,,,,,,,,,,,
,,,,,,,,,,space,,2050,2020-05-26_16h52.13.167,ANTCPTp,2020.1.2,Win32,60,,,,,,,,,,,,,,,,,,,,space,1,,,,,,A,0.523945,1,10.984925,,,,,,0,0,0,19,1,,,,,,,,,,
,,,,,,,,,,space,,2050,2020-05-26_16h52.13.167,ANTCPTp,2020.1.2,Win32,60,,,,,,,,,,,,,,,,,,,,space,1,,,,,,N,0.440195,,,,,,,,0,1,1,9,1,,,,,,,,,,
,,,,,,,,,,space,,2050,2020-05-26_16h52.13.167,ANTCPTp,2020.1.2,Win32,60,,,,,,,,,,,,,,,,,,,,space,1,,,,,,L,0.436675,,,,,,,,0,2,2,7,1,,,,,,,,,,
,,,,,,,,,,space,,2050,2020-05-26_16h52.13.167,ANTCPTp,2020.1.2,Win32,60,,,,,,,,,,,,,,,,,,,,space,1,,,,,,D,0.36949,,,,,,,,0,3,3,1,1,,,,,,,,,,
,,,,,,,,,,space,,2050,2020-05-26_16h52.13.167,ANTCPTp,2020.1.2,Win32,60,,,,,,,,,,,,,,,,,,,,space,1,,,,,,T,0.45638,,,,,,,,0,4,4,14,1,,,,,,,,,,
,,,,,,,,,,space,,2050,2020-05-26_16h52.13.167,ANTCPTp,2020.1.2,Win32,60,,,,,,,,,,,,,,,,,,,,space,1,,,,,,M,0.3847,,,,,,,,0,5,5,8,1,,,,,,,,,,
,,,,,,,,,,space,,2050,2020-05-26_16h52.13.167,ANTCPTp,2020.1.2,Win32,60,,,,,,,,,,,,,,,,,,,,space,1,,,,,,W,0.421955,,,,,,,,0,6,6,16,1,,,,,,,,,,
,,,,,,,,,,space,,2050,2020-05-26_16h52.13.167,ANTCPTp,2020.1.2,Win32,60,,,,,,,,,,,,,,,,,,,,space,1,,,,,,S,0.451635,,,,,,,,0,7,7,13,1,,,,,,,,,,
,,,,,,,,,,space,,2050,2020-05-26_16h52.13.167,ANTCPTp,2020.1.2,Win32,60,,,,,,,,,,,,,,,,,,,,space,1,,,,,,H,0.371895,,,,,,,,0,8,8,5,1,,,,,,,,,,
,,,,,,,,,,space,,2050,2020-05-26_16h52.13.167,ANTCPTp,2020.1.2,Win32,60,,,,,,,,,,,,,,,,,,,,space,1,,,,,,O,0.38455,,,,,,,,0,9,9,10,1,,,,,,,,,,
,,,,,,,,,,space,,2050,2020-05-26_16h52.13.167,ANTCPTp,2020.1.2,Win32,60,,,,,,,,,,,,,,,,,,,,space,1,,,,,,F,0.35575,,,,,,,,0,10,10,3,1,,,,,,,,,,
,,,,,,,,,,space,,2050,2020-05-26_16h52.13.167,ANTCPTp,2020.1.2,Win32,60,,,,,,,,,,,,,,,,,,,,space,1,,,,,,E,0.4517,,,,,,,,0,11,11,2,1,,,,,,,,,,
,,,,,,,,,,,,2050,2020-05-26_16h52.13.167,ANTCPTp,2020.1.2,Win32,60,,,,,,,,,,,,,,,,,,,,,1,,,,,,X,,,,,,,,,0,12,12,21,1,,,,,,,,,,
,,,,,,,,,,space,,2050,2020-05-26_16h52.13.167,ANTCPTp,2020.1.2,Win32,60,,,,,,,,,,,,,,,,,,,,space,1,,,,,,U,0.42516,,,,,,,,0,13,13,15,1,,,,,,,,,,
,,,,,,,,,,space,,2050,2020-05-26_16h52.13.167,ANTCPTp,2020.1.2,Win32,60,,,,,,,,,,,,,,,,,,,,space,1,,,,,,Y,0.43928,,,,,,,,0,14,14,17,1,,,,,,,,,,
,,,,,,,,,,,,2050,2020-05-26_16h52.13.167,ANTCPTp,2020.1.2,Win32,60,,,,,,,,,,,,,,,,,,,,,1,,,,,,X,,,,,,,,,0,15,15,20,1,,,,,,,,,,
,,,,,,,,,,space,,2050,2020-05-26_16h52.13.167,ANTCPTp,2020.1.2,Win32,60,,,,,,,,,,,,,,,,,,,,space,1,,,,,,G,0.42234,,,,,,,,0,16,16,4,1,,,,,,,,,,
,,,,,,,,,,space,,2050,2020-05-26_16h52.13.167,ANTCPTp,2020.1.2,Win32,60,,,,,,,,,,,,,,,,,,,,space,1,,,,,,K,0.488985,,,,,,,,0,17,17,6,1,,,,,,,,,,
,,,,,,,,,,space,,2050,2020-05-26_16h52.13.167,ANTCPTp,2020.1.2,Win32,60,,,,,,,,,,,,,,,,,,,,space,1,,,,,,R,0.40277,,,,,,,,0,18,18,12,1,,,,,,,,,,
,,,,,,,,,,space,,2050,2020-05-26_16h52.13.167,ANTCPTp,2020.1.2,Win32,60,,,,,,,,,,,,,,,,,,,,space,1,,,,,,Z,0.354865,,,,,,,,0,19,19,18,1,,,,,,,,,,
,,,,,,,,,,space,,2050,2020-05-26_16h52.13.167,ANTCPTp,2020.1.2,Win32,60,,,,,,,,,,,,,,,,,,,,space,1,,,,,,Q,0.405595,,,,,,,,0,20,20,11,1,,,,,,,,,,
,,,,,,,,,,space,,2050,2020-05-26_16h52.13.167,ANTCPTp,2020.1.2,Win32,60,,,,,,,,,,,,,,,,,,,,space,1,,,,,,B,0.409745,,,,,,,,0,21,21,0,1,,,,,,,,,,
,,,,,,,,,,,,2050,2020-05-26_16h52.13.167,ANTCPTp,2020.1.2,Win32,60,,,,,,,,,,,,,,,,,,,,,1,,,,,,X,,1,9.440795,,,,,,,,,,,0,0,0,24,1,,,,,
,,,,,,,,,,space,,2050,2020-05-26_16h52.13.167,ANTCPTp,2020.1.2,Win32,60,,,,,,,,,,,,,,,,,,,,space,1,,,,,,L,0.43032,,,,,,,,,,,,,0,1,1,11,1,,,,,
,,,,,,,,,,space,,2050,2020-05-26_16h52.13.167,ANTCPTp,2020.1.2,Win32,60,,,,,,,,,,,,,,,,,,,,space,1,,,,,,V,0.45428,,,,,,,,,,,,,0,2,2,20,1,,,,,
,,,,,,,,,,space,,2050,2020-05-26_16h52.13.167,ANTCPTp,2020.1.2,Win32,60,,,,,,,,,,,,,,,,,,,,space,1,,,,,,D,0.38474,,,,,,,,,,,,,0,3,3,3,1,,,,,
,,,,,,,,,,,,2050,2020-05-26_16h52.13.167,ANTCPTp,2020.1.2,Win32,60,,,,,,,,,,,,,,,,,,,,,1,,,,,,X,,,,,,,,,,,,,,0,4,4,26,1,,,,,
,,,,,,,,,,space,,2050,2020-05-26_16h52.13.167,ANTCPTp,2020.1.2,Win32,60,,,,,,,,,,,,,,,,,,,,space,1,,,,,,Z,0.384985,,,,,,,,,,,,,0,5,5,23,1,,,,,
,,,,,,,,,,space,,2050,2020-05-26_16h52.13.167,ANTCPTp,2020.1.2,Win32,60,,,,,,,,,,,,,,,,,,,,space,1,,,,,,P,0.37833,,,,,,,,,,,,,0,6,6,15,1,,,,,
,,,,,,,,,,space,,2050,2020-05-26_16h52.13.167,ANTCPTp,2020.1.2,Win32,60,,,,,,,,,,,,,,,,,,,,space,1,,,,,,N,0.38756,,,,,,,,,,,,,0,7,7,13,1,,,,,
,,,,,,,,,,space,,2050,2020-05-26_16h52.13.167,ANTCPTp,2020.1.2,Win32,60,,,,,,,,,,,,,,,,,,,,space,1,,,,,,U,0.41866,,,,,,,,,,,,,0,8,8,19,1,,,,,
,,,,,,,,,,space,,2050,2020-05-26_16h52.13.167,ANTCPTp,2020.1.2,Win32,60,,,,,,,,,,,,,,,,,,,,space,1,,,,,,W,0.406625,,,,,,,,,,,,,0,9,9,21,1,,,,,
,,,,,,,,,,space,,2050,2020-05-26_16h52.13.167,ANTCPTp,2020.1.2,Win32,60,,,,,,,,,,,,,,,,,,,,space,1,,,,,,I,0.418295,,,,,,,,,,,,,0,10,10,8,1,,,,,
,,,,,,,,,,,,2050,2020-05-26_16h52.13.167,ANTCPTp,2020.1.2,Win32,60,,,,,,,,,,,,,,,,,,,,,1,,,,,,X,,,,,,,,,,,,,,0,11,11,25,1,,,,,
,,,,,,,,,,space,,2050,2020-05-26_16h52.13.167,ANTCPTp,2020.1.2,Win32,60,,,,,,,,,,,,,,,,,,,,space,1,,,,,,Y,0.4234,,,,,,,,,,,,,0,12,12,22,1,,,,,
,,,,,,,,,,space,,2050,2020-05-26_16h52.13.167,ANTCPTp,2020.1.2,Win32,60,,,,,,,,,,,,,,,,,,,,space,1,,,,,,E,0.420635,,,,,,,,,,,,,0,13,13,4,1,,,,,
,,,,,,,,,,space,,2050,2020-05-26_16h52.13.167,ANTCPTp,2020.1.2,Win32,60,,,,,,,,,,,,,,,,,,,,space,1,,,,,,R,0.434545,,,,,,,,,,,,,0,14,14,17,1,,,,,
,,,,,,,,,,space,,2050,2020-05-26_16h52.13.167,ANTCPTp,2020.1.2,Win32,60,,,,,,,,,,,,,,,,,,,,space,1,,,,,,B,0.4129,,,,,,,,,,,,,0,15,15,1,1,,,,,
,,,,,,,,,,space,,2050,2020-05-26_16h52.13.167,ANTCPTp,2020.1.2,Win32,60,,,,,,,,,,,,,,,,,,,,space,1,,,,,,F,0.423925,,,,,,,,,,,,,0,16,16,5,1,,,,,
,,,,,,,,,,space,,2050,2020-05-26_16h52.13.167,ANTCPTp,2020.1.2,Win32,60,,,,,,,,,,,,,,,,,,,,space,1,,,,,,O,0.40856,,,,,,,,,,,,,0,17,17,14,1,,,,,
,,,,,,,,,,space,,2050,2020-05-26_16h52.13.167,ANTCPTp,2020.1.2,Win32,60,,,,,,,,,,,,,,,,,,,,space,1,,,,,,Q,0.41804,,,,,,,,,,,,,0,18,18,16,1,,,,,
,,,,,,,,,,space,,2050,2020-05-26_16h52.13.167,ANTCPTp,2020.1.2,Win32,60,,,,,,,,,,,,,,,,,,,,space,1,,,,,,J,0.453005,,,,,,,,,,,,,0,19,19,9,1,,,,,
,,,,,,,,,,space,,2050,2020-05-26_16h52.13.167,ANTCPTp,2020.1.2,Win32,60,,,,,,,,,,,,,,,,,,,,space,1,,,,,,M,0.391405,,,,,,,,,,,,,0,20,20,12,1,,,,,
,,,,,,,,,,space,,2050,2020-05-26_16h52.13.167,ANTCPTp,2020.1.2,Win32,60,,,,,,,,,,,,,,,,,,,,space,1,,,,,,A,0.43548,,,,,,,,,,,,,0,21,21,0,1,,,,,
,,,,,,,,,,space,,2050,2020-05-26_16h52.13.167,ANTCPTp,2020.1.2,Win32,60,,,,,,,,,,,,,,,,,,,,space,1,,,,,,G,0.47919,,,,,,,,,,,,,0,22,22,6,1,,,,,
,,,,,,,,,,space,,2050,2020-05-26_16h52.13.167,ANTCPTp,2020.1.2,Win32,60,,,,,,,,,,,,,,,,,,,,space,1,,,,,,K,0.45642,,,,,,,,,,,,,0,23,23,10,1,,,,,
,,,,,,,,,,space,,2050,2020-05-26_16h52.13.167,ANTCPTp,2020.1.2,Win32,60,,,,,,,,,,,,,,,,,,,,space,1,,,,,,C,0.40529,,,,,,,,,,,,,0,24,24,2,1,,,,,
,,,,,,,,,,space,,2050,2020-05-26_16h52.13.167,ANTCPTp,2020.1.2,Win32,60,,,,,,,,,,,,,,,,,,,,space,1,,,,,,S,0.40607,,,,,,,,,,,,,0,25,25,18,1,,,,,
,,,,,,,,,,space,,2050,2020-05-26_16h52.13.167,ANTCPTp,2020.1.2,Win32,60,,,,,,,,,,,,,,,,,,,,space,1,,,,,,H,0.434145,,,,,,,,,,,,,0,26,26,7,1,,,,,
,,,,,,,,,,,,2050,2020-05-26_16h52.13.167,ANTCPTp,2020.1.2,Win32,60,,,,,,,,,,,,,,,,,,,,,,,,,,,,,1,4.72036,,,,,,,,,,,,,,,,2,0,2,0,1
