fixDuration,resp.keys,resp.corr,pracLoop.thisRepN,pracLoop.thisTrialN,pracLoop.thisN,pracLoop.thisIndex,pracLoop.ran,cue,tar,corrAns,targOrientation,Please enter your Participant ID,date,expName,psychopyVersion,OS,frameRate,resp.rt,instResp.keys,instResp.rt,mainLoop.thisRepN,mainLoop.thisTrialN,mainLoop.thisN,mainLoop.thisIndex,mainLoop.ran,blockLoop.thisRepN,blockLoop.thisTrialN,blockLoop.thisN,blockLoop.thisIndex,blockLoop.ran,key_resp.keys,key_resp.rt,probe_response3.keys,probe_response3.rt,getready_resp.keys,getready_resp.rt,response.keys,response.corr,response.rt,trials.thisRepN,trials.thisTrialN,trials.thisN,trials.thisIndex,trials.ran,letter,probe_response.keys,probe_response.rt,trials_2.thisRepN,trials_2.thisTrialN,trials_2.thisN,trials_2.thisIndex,trials_2.ran,trials_3.thisRepN,trials_3.thisTrialN,trials_3.thisN,trials_3.thisIndex,trials_3.ran,trials_4.thisRepN,trials_4.thisTrialN,trials_4.thisN,trials_4.thisIndex,trials_4.ran,trials_5.thisRepN,trials_5.thisTrialN,trials_5.thisN,trials_5.thisIndex,trials_5.ran
1.25,,0,0,0,0,18,1,stim/centre.png,stim/incongLeft.png,left,0,2025,2020-05-17_15h17.41.968,ANTCPTp,2020.1.2,Win32,60,,,,,,,,,,,,,,,,,,,,,,,,,,,,,,,,,,,,,,,,,,,,,,,,,,
0.8,right,1,0,1,1,6,1,stim/centre.png,stim/congLeft.png,right,180,2025,2020-05-17_15h17.41.968,ANTCPTp,2020.1.2,Win32,60,0.56943,,,,,,,,,,,,,,,,,,,,,,,,,,,,,,,,,,,,,,,,,,,,,,,,,
0.85,right,1,0,2,2,11,1,stim/blank.png,stim/congRight.png,right,0,2025,2020-05-17_15h17.41.968,ANTCPTp,2020.1.2,Win32,60,0.536385,,,,,,,,,,,,,,,,,,,,,,,,,,,,,,,,,,,,,,,,,,,,,,,,,
1.5,right,0,0,3,3,19,1,stim/blank.png,stim/incongLeft.png,left,0,2025,2020-05-17_15h17.41.968,ANTCPTp,2020.1.2,Win32,60,1.00156,,,,,,,,,,,,,,,,,,,,,,,,,,,,,,,,,,,,,,,,,,,,,,,,,
1.05,left,1,0,4,4,12,1,stim/lower.png,stim/congRight.png,left,180,2025,2020-05-17_15h17.41.968,ANTCPTp,2020.1.2,Win32,60,0.634215,,,,,,,,,,,,,,,,,,,,,,,,,,,,,,,,,,,,,,,,,,,,,,,,,
1.2,left,1,0,5,5,15,1,stim/blank.png,stim/congRight.png,left,180,2025,2020-05-17_15h17.41.968,ANTCPTp,2020.1.2,Win32,60,0.518845,,,,,,,,,,,,,,,,,,,,,,,,,,,,,,,,,,,,,,,,,,,,,,,,,
0.5,left,1,0,6,6,16,1,stim/upper.png,stim/incongLeft.png,left,0,2025,2020-05-17_15h17.41.968,ANTCPTp,2020.1.2,Win32,60,0.805945,,,,,,,,,,,,,,,,,,,,,,,,,,,,,,,,,,,,,,,,,,,,,,,,,
1.45,right,1,0,7,7,22,1,stim/centre.png,stim/incongLeft.png,right,180,2025,2020-05-17_15h17.41.968,ANTCPTp,2020.1.2,Win32,60,1.17099,,,,,,,,,,,,,,,,,,,,,,,,,,,,,,,,,,,,,,,,,,,,,,,,,
1.2,left,1,0,8,8,1,1,stim/both.png,stim/congLeft.png,left,0,2025,2020-05-17_15h17.41.968,ANTCPTp,2020.1.2,Win32,60,0.59313,,,,,,,,,,,,,,,,,,,,,,,,,,,,,,,,,,,,,,,,,,,,,,,,,
0.45,left,1,0,9,9,3,1,stim/blank.png,stim/congLeft.png,left,0,2025,2020-05-17_15h17.41.968,ANTCPTp,2020.1.2,Win32,60,0.450695,,,,,,,,,,,,,,,,,,,,,,,,,,,,,,,,,,,,,,,,,,,,,,,,,
0.55,right,1,0,10,10,20,1,stim/lower.png,stim/incongLeft.png,right,180,2025,2020-05-17_15h17.41.968,ANTCPTp,2020.1.2,Win32,60,0.739375,,,,,,,,,,,,,,,,,,,,,,,,,,,,,,,,,,,,,,,,,,,,,,,,,
1.1,right,1,0,11,11,21,1,stim/both.png,stim/incongLeft.png,right,180,2025,2020-05-17_15h17.41.968,ANTCPTp,2020.1.2,Win32,60,0.70711,,,,,,,,,,,,,,,,,,,,,,,,,,,,,,,,,,,,,,,,,,,,,,,,,
1.05,right,1,0,12,12,8,1,stim/upper.png,stim/congRight.png,right,0,2025,2020-05-17_15h17.41.968,ANTCPTp,2020.1.2,Win32,60,0.468285,,,,,,,,,,,,,,,,,,,,,,,,,,,,,,,,,,,,,,,,,,,,,,,,,
1.4,right,1,0,13,13,9,1,stim/both.png,stim/congRight.png,right,0,2025,2020-05-17_15h17.41.968,ANTCPTp,2020.1.2,Win32,60,0.469355,,,,,,,,,,,,,,,,,,,,,,,,,,,,,,,,,,,,,,,,,,,,,,,,,
1,left,1,0,14,14,0,1,stim/upper.png,stim/congLeft.png,left,0,2025,2020-05-17_15h17.41.968,ANTCPTp,2020.1.2,Win32,60,0.389375,,,,,,,,,,,,,,,,,,,,,,,,,,,,,,,,,,,,,,,,,,,,,,,,,
0.65,left,1,0,15,15,13,1,stim/both.png,stim/congRight.png,left,180,2025,2020-05-17_15h17.41.968,ANTCPTp,2020.1.2,Win32,60,0.513725,,,,,,,,,,,,,,,,,,,,,,,,,,,,,,,,,,,,,,,,,,,,,,,,,
0.75,right,1,0,16,16,10,1,stim/centre.png,stim/congRight.png,right,0,2025,2020-05-17_15h17.41.968,ANTCPTp,2020.1.2,Win32,60,0.403605,,,,,,,,,,,,,,,,,,,,,,,,,,,,,,,,,,,,,,,,,,,,,,,,,
1.4,left,1,0,17,17,14,1,stim/centre.png,stim/congRight.png,left,180,2025,2020-05-17_15h17.41.968,ANTCPTp,2020.1.2,Win32,60,0.451335,,,,,,,,,,,,,,,,,,,,,,,,,,,,,,,,,,,,,,,,,,,,,,,,,
0.6,right,1,0,18,18,4,1,stim/lower.png,stim/congLeft.png,right,180,2025,2020-05-17_15h17.41.968,ANTCPTp,2020.1.2,Win32,60,0.379695,,,,,,,,,,,,,,,,,,,,,,,,,,,,,,,,,,,,,,,,,,,,,,,,,
1.55,right,1,0,19,19,5,1,stim/both.png,stim/congLeft.png,right,180,2025,2020-05-17_15h17.41.968,ANTCPTp,2020.1.2,Win32,60,0.390055,,,,,,,,,,,,,,,,,,,,,,,,,,,,,,,,,,,,,,,,,,,,,,,,,
0.9,right,0,0,20,20,17,1,stim/both.png,stim/incongLeft.png,left,0,2025,2020-05-17_15h17.41.968,ANTCPTp,2020.1.2,Win32,60,0.46943,,,,,,,,,,,,,,,,,,,,,,,,,,,,,,,,,,,,,,,,,,,,,,,,,
0.85,right,1,0,21,21,7,1,stim/blank.png,stim/congLeft.png,right,180,2025,2020-05-17_15h17.41.968,ANTCPTp,2020.1.2,Win32,60,0.467805,,,,,,,,,,,,,,,,,,,,,,,,,,,,,,,,,,,,,,,,,,,,,,,,,
0.75,left,1,0,22,22,2,1,stim/centre.png,stim/congLeft.png,left,0,2025,2020-05-17_15h17.41.968,ANTCPTp,2020.1.2,Win32,60,0.405705,,,,,,,,,,,,,,,,,,,,,,,,,,,,,,,,,,,,,,,,,,,,,,,,,
1.4,right,1,0,23,23,23,1,stim/blank.png,stim/incongLeft.png,right,180,2025,2020-05-17_15h17.41.968,ANTCPTp,2020.1.2,Win32,60,0.635895,,,,,,,,,,,,,,,,,,,,,,,,,,,,,,,,,,,,,,,,,,,,,,,,,
1,right,1,,,,,,stim/blank.png,stim/neutralLeft.png,right,180,2025,2020-05-17_15h17.41.968,ANTCPTp,2020.1.2,Win32,60,0.525455,space,11.35436,0,0,0,39,1,,,,,,,,,,,,,,,,,,,,,,,,,,,,,,,,,,,,,,,,,,
1.1,left,1,,,,,,stim/upper.png,stim/incongLeft.png,left,0,2025,2020-05-17_15h17.41.968,ANTCPTp,2020.1.2,Win32,60,0.65163,,,0,1,1,16,1,,,,,,,,,,,,,,,,,,,,,,,,,,,,,,,,,,,,,,,,,,
0.85,right,0,,,,,,stim/centre.png,stim/incongRight.png,left,180,2025,2020-05-17_15h17.41.968,ANTCPTp,2020.1.2,Win32,60,0.46989,,,0,2,2,30,1,,,,,,,,,,,,,,,,,,,,,,,,,,,,,,,,,,,,,,,,,,
0.8,left,1,,,,,,stim/blank.png,stim/congLeft.png,left,0,2025,2020-05-17_15h17.41.968,ANTCPTp,2020.1.2,Win32,60,0.470325,,,0,3,3,3,1,,,,,,,,,,,,,,,,,,,,,,,,,,,,,,,,,,,,,,,,,,
1.2,right,1,,,,,,stim/upper.png,stim/congRight.png,right,0,2025,2020-05-17_15h17.41.968,ANTCPTp,2020.1.2,Win32,60,0.503025,,,0,4,4,8,1,,,,,,,,,,,,,,,,,,,,,,,,,,,,,,,,,,,,,,,,,,
0.95,right,1,,,,,,stim/upper.png,stim/neutralRight.png,right,0,2025,2020-05-17_15h17.41.968,ANTCPTp,2020.1.2,Win32,60,0.454085,,,0,5,5,40,1,,,,,,,,,,,,,,,,,,,,,,,,,,,,,,,,,,,,,,,,,,
0.9,left,1,,,,,,stim/centre.png,stim/neutralRight.png,left,180,2025,2020-05-17_15h17.41.968,ANTCPTp,2020.1.2,Win32,60,0.53553,,,0,6,6,46,1,,,,,,,,,,,,,,,,,,,,,,,,,,,,,,,,,,,,,,,,,,
1.4,left,1,,,,,,stim/centre.png,stim/congRight.png,left,180,2025,2020-05-17_15h17.41.968,ANTCPTp,2020.1.2,Win32,60,0.479185,,,0,7,7,14,1,,,,,,,,,,,,,,,,,,,,,,,,,,,,,,,,,,,,,,,,,,
0.4,left,1,,,,,,stim/blank.png,stim/neutralRight.png,left,180,2025,2020-05-17_15h17.41.968,ANTCPTp,2020.1.2,Win32,60,0.47293,,,0,8,8,47,1,,,,,,,,,,,,,,,,,,,,,,,,,,,,,,,,,,,,,,,,,,
0.4,right,1,,,,,,stim/blank.png,stim/incongLeft.png,right,180,2025,2020-05-17_15h17.41.968,ANTCPTp,2020.1.2,Win32,60,0.63402,,,0,9,9,23,1,,,,,,,,,,,,,,,,,,,,,,,,,,,,,,,,,,,,,,,,,,
1.5,right,1,,,,,,stim/lower.png,stim/congLeft.png,right,180,2025,2020-05-17_15h17.41.968,ANTCPTp,2020.1.2,Win32,60,0.46164,,,0,10,10,4,1,,,,,,,,,,,,,,,,,,,,,,,,,,,,,,,,,,,,,,,,,,
0.7,left,1,,,,,,stim/upper.png,stim/neutralLeft.png,left,0,2025,2020-05-17_15h17.41.968,ANTCPTp,2020.1.2,Win32,60,0.50499,,,0,11,11,32,1,,,,,,,,,,,,,,,,,,,,,,,,,,,,,,,,,,,,,,,,,,
0.7,left,1,,,,,,stim/centre.png,stim/congLeft.png,left,0,2025,2020-05-17_15h17.41.968,ANTCPTp,2020.1.2,Win32,60,0.43543,,,0,12,12,2,1,,,,,,,,,,,,,,,,,,,,,,,,,,,,,,,,,,,,,,,,,,
0.6,right,1,,,,,,stim/centre.png,stim/congRight.png,right,0,2025,2020-05-17_15h17.41.968,ANTCPTp,2020.1.2,Win32,60,0.44701,,,0,13,13,10,1,,,,,,,,,,,,,,,,,,,,,,,,,,,,,,,,,,,,,,,,,,
0.75,left,1,,,,,,stim/lower.png,stim/congRight.png,left,180,2025,2020-05-17_15h17.41.968,ANTCPTp,2020.1.2,Win32,60,0.43715,,,0,14,14,12,1,,,,,,,,,,,,,,,,,,,,,,,,,,,,,,,,,,,,,,,,,,
1,left,1,,,,,,stim/both.png,stim/congRight.png,left,180,2025,2020-05-17_15h17.41.968,ANTCPTp,2020.1.2,Win32,60,0.51813,,,0,15,15,13,1,,,,,,,,,,,,,,,,,,,,,,,,,,,,,,,,,,,,,,,,,,
0.6,left,1,,,,,,stim/both.png,stim/neutralLeft.png,left,0,2025,2020-05-17_15h17.41.968,ANTCPTp,2020.1.2,Win32,60,0.529245,,,0,16,16,33,1,,,,,,,,,,,,,,,,,,,,,,,,,,,,,,,,,,,,,,,,,,
1.1,right,1,,,,,,stim/centre.png,stim/congLeft.png,right,180,2025,2020-05-17_15h17.41.968,ANTCPTp,2020.1.2,Win32,60,0.401695,,,0,17,17,6,1,,,,,,,,,,,,,,,,,,,,,,,,,,,,,,,,,,,,,,,,,,
0.65,left,1,,,,,,stim/blank.png,stim/incongRight.png,left,180,2025,2020-05-17_15h17.41.968,ANTCPTp,2020.1.2,Win32,60,0.626025,,,0,18,18,31,1,,,,,,,,,,,,,,,,,,,,,,,,,,,,,,,,,,,,,,,,,,
1.05,right,1,,,,,,stim/both.png,stim/neutralLeft.png,right,180,2025,2020-05-17_15h17.41.968,ANTCPTp,2020.1.2,Win32,60,0.41958,,,0,19,19,37,1,,,,,,,,,,,,,,,,,,,,,,,,,,,,,,,,,,,,,,,,,,
1,left,1,,,,,,stim/both.png,stim/congLeft.png,left,0,2025,2020-05-17_15h17.41.968,ANTCPTp,2020.1.2,Win32,60,0.442985,,,0,20,20,1,1,,,,,,,,,,,,,,,,,,,,,,,,,,,,,,,,,,,,,,,,,,
0.6,right,1,,,,,,stim/blank.png,stim/neutralRight.png,right,0,2025,2020-05-17_15h17.41.968,ANTCPTp,2020.1.2,Win32,60,0.485615,,,0,21,21,43,1,,,,,,,,,,,,,,,,,,,,,,,,,,,,,,,,,,,,,,,,,,
0.55,right,0,,,,,,stim/lower.png,stim/incongRight.png,left,180,2025,2020-05-17_15h17.41.968,ANTCPTp,2020.1.2,Win32,60,0.46898,,,0,22,22,28,1,,,,,,,,,,,,,,,,,,,,,,,,,,,,,,,,,,,,,,,,,,
0.55,right,1,,,,,,stim/blank.png,stim/congLeft.png,right,180,2025,2020-05-17_15h17.41.968,ANTCPTp,2020.1.2,Win32,60,0.500425,,,0,23,23,7,1,,,,,,,,,,,,,,,,,,,,,,,,,,,,,,,,,,,,,,,,,,
0.95,right,1,,,,,,stim/centre.png,stim/neutralLeft.png,right,180,2025,2020-05-17_15h17.41.968,ANTCPTp,2020.1.2,Win32,60,0.472925,,,0,24,24,38,1,,,,,,,,,,,,,,,,,,,,,,,,,,,,,,,,,,,,,,,,,,
0.5,right,1,,,,,,stim/lower.png,stim/neutralLeft.png,right,180,2025,2020-05-17_15h17.41.968,ANTCPTp,2020.1.2,Win32,60,0.477155,,,0,25,25,36,1,,,,,,,,,,,,,,,,,,,,,,,,,,,,,,,,,,,,,,,,,,
1.4,right,1,,,,,,stim/both.png,stim/incongRight.png,right,0,2025,2020-05-17_15h17.41.968,ANTCPTp,2020.1.2,Win32,60,0.588245,,,0,26,26,25,1,,,,,,,,,,,,,,,,,,,,,,,,,,,,,,,,,,,,,,,,,,
1.25,right,0,,,,,,stim/centre.png,stim/incongLeft.png,left,0,2025,2020-05-17_15h17.41.968,ANTCPTp,2020.1.2,Win32,60,0.45008,,,0,27,27,18,1,,,,,,,,,,,,,,,,,,,,,,,,,,,,,,,,,,,,,,,,,,
0.7,right,1,,,,,,stim/both.png,stim/congRight.png,right,0,2025,2020-05-17_15h17.41.968,ANTCPTp,2020.1.2,Win32,60,0.51783,,,0,28,28,9,1,,,,,,,,,,,,,,,,,,,,,,,,,,,,,,,,,,,,,,,,,,
0.65,left,1,,,,,,stim/both.png,stim/incongRight.png,left,180,2025,2020-05-17_15h17.41.968,ANTCPTp,2020.1.2,Win32,60,0.647855,,,0,29,29,29,1,,,,,,,,,,,,,,,,,,,,,,,,,,,,,,,,,,,,,,,,,,
0.8,right,1,,,,,,stim/both.png,stim/congLeft.png,right,180,2025,2020-05-17_15h17.41.968,ANTCPTp,2020.1.2,Win32,60,0.54221,,,0,30,30,5,1,,,,,,,,,,,,,,,,,,,,,,,,,,,,,,,,,,,,,,,,,,
0.85,right,1,,,,,,stim/centre.png,stim/neutralRight.png,right,0,2025,2020-05-17_15h17.41.968,ANTCPTp,2020.1.2,Win32,60,0.549745,,,0,31,31,42,1,,,,,,,,,,,,,,,,,,,,,,,,,,,,,,,,,,,,,,,,,,
0.4,right,1,,,,,,stim/blank.png,stim/congRight.png,right,0,2025,2020-05-17_15h17.41.968,ANTCPTp,2020.1.2,Win32,60,0.496345,,,0,32,32,11,1,,,,,,,,,,,,,,,,,,,,,,,,,,,,,,,,,,,,,,,,,,
1.45,right,1,,,,,,stim/upper.png,stim/incongRight.png,right,0,2025,2020-05-17_15h17.41.968,ANTCPTp,2020.1.2,Win32,60,0.620175,,,0,33,33,24,1,,,,,,,,,,,,,,,,,,,,,,,,,,,,,,,,,,,,,,,,,,
0.55,left,1,,,,,,stim/lower.png,stim/neutralRight.png,left,180,2025,2020-05-17_15h17.41.968,ANTCPTp,2020.1.2,Win32,60,0.56073,,,0,34,34,44,1,,,,,,,,,,,,,,,,,,,,,,,,,,,,,,,,,,,,,,,,,,
1,left,1,,,,,,stim/blank.png,stim/neutralLeft.png,left,0,2025,2020-05-17_15h17.41.968,ANTCPTp,2020.1.2,Win32,60,0.493015,,,0,35,35,35,1,,,,,,,,,,,,,,,,,,,,,,,,,,,,,,,,,,,,,,,,,,
1.05,left,1,,,,,,stim/both.png,stim/neutralRight.png,left,180,2025,2020-05-17_15h17.41.968,ANTCPTp,2020.1.2,Win32,60,0.44937,,,0,36,36,45,1,,,,,,,,,,,,,,,,,,,,,,,,,,,,,,,,,,,,,,,,,,
1.1,right,1,,,,,,stim/both.png,stim/neutralRight.png,right,0,2025,2020-05-17_15h17.41.968,ANTCPTp,2020.1.2,Win32,60,0.471305,,,0,37,37,41,1,,,,,,,,,,,,,,,,,,,,,,,,,,,,,,,,,,,,,,,,,,
0.55,right,1,,,,,,stim/blank.png,stim/incongRight.png,right,0,2025,2020-05-17_15h17.41.968,ANTCPTp,2020.1.2,Win32,60,0.482925,,,0,38,38,27,1,,,,,,,,,,,,,,,,,,,,,,,,,,,,,,,,,,,,,,,,,,
1.55,left,1,,,,,,stim/centre.png,stim/neutralLeft.png,left,0,2025,2020-05-17_15h17.41.968,ANTCPTp,2020.1.2,Win32,60,0.490445,,,0,39,39,34,1,,,,,,,,,,,,,,,,,,,,,,,,,,,,,,,,,,,,,,,,,,
0.65,left,1,,,,,,stim/upper.png,stim/congLeft.png,left,0,2025,2020-05-17_15h17.41.968,ANTCPTp,2020.1.2,Win32,60,0.41712,,,0,40,40,0,1,,,,,,,,,,,,,,,,,,,,,,,,,,,,,,,,,,,,,,,,,,
1.1,right,1,,,,,,stim/both.png,stim/incongLeft.png,right,180,2025,2020-05-17_15h17.41.968,ANTCPTp,2020.1.2,Win32,60,0.62092,,,0,41,41,21,1,,,,,,,,,,,,,,,,,,,,,,,,,,,,,,,,,,,,,,,,,,
1,left,1,,,,,,stim/blank.png,stim/congRight.png,left,180,2025,2020-05-17_15h17.41.968,ANTCPTp,2020.1.2,Win32,60,0.679405,,,0,42,42,15,1,,,,,,,,,,,,,,,,,,,,,,,,,,,,,,,,,,,,,,,,,,
1.05,left,0,,,,,,stim/lower.png,stim/incongLeft.png,right,180,2025,2020-05-17_15h17.41.968,ANTCPTp,2020.1.2,Win32,60,0.41192,,,0,43,43,20,1,,,,,,,,,,,,,,,,,,,,,,,,,,,,,,,,,,,,,,,,,,
1.45,left,1,,,,,,stim/blank.png,stim/incongLeft.png,left,0,2025,2020-05-17_15h17.41.968,ANTCPTp,2020.1.2,Win32,60,0.58632,,,0,44,44,19,1,,,,,,,,,,,,,,,,,,,,,,,,,,,,,,,,,,,,,,,,,,
0.55,right,1,,,,,,stim/centre.png,stim/incongRight.png,right,0,2025,2020-05-17_15h17.41.968,ANTCPTp,2020.1.2,Win32,60,0.554485,,,0,45,45,26,1,,,,,,,,,,,,,,,,,,,,,,,,,,,,,,,,,,,,,,,,,,
1.55,left,1,,,,,,stim/both.png,stim/incongLeft.png,left,0,2025,2020-05-17_15h17.41.968,ANTCPTp,2020.1.2,Win32,60,0.60301,,,0,46,46,17,1,,,,,,,,,,,,,,,,,,,,,,,,,,,,,,,,,,,,,,,,,,
0.6,right,1,,,,,,stim/centre.png,stim/incongLeft.png,right,180,2025,2020-05-17_15h17.41.968,ANTCPTp,2020.1.2,Win32,60,0.57101,,,0,47,47,22,1,,,,,,,,,,,,,,,,,,,,,,,,,,,,,,,,,,,,,,,,,,
1.55,right,1,,,,,,stim/centre.png,stim/neutralLeft.png,right,180,2025,2020-05-17_15h17.41.968,ANTCPTp,2020.1.2,Win32,60,0.50372,,,1,0,48,38,1,,,,,,,,,,,,,,,,,,,,,,,,,,,,,,,,,,,,,,,,,,
1.55,right,1,,,,,,stim/centre.png,stim/congLeft.png,right,180,2025,2020-05-17_15h17.41.968,ANTCPTp,2020.1.2,Win32,60,0.42561,,,1,1,49,6,1,,,,,,,,,,,,,,,,,,,,,,,,,,,,,,,,,,,,,,,,,,
1.35,right,1,,,,,,stim/centre.png,stim/incongRight.png,right,0,2025,2020-05-17_15h17.41.968,ANTCPTp,2020.1.2,Win32,60,0.61334,,,1,2,50,26,1,,,,,,,,,,,,,,,,,,,,,,,,,,,,,,,,,,,,,,,,,,
0.55,left,1,,,,,,stim/both.png,stim/congLeft.png,left,0,2025,2020-05-17_15h17.41.968,ANTCPTp,2020.1.2,Win32,60,0.52922,,,1,3,51,1,1,,,,,,,,,,,,,,,,,,,,,,,,,,,,,,,,,,,,,,,,,,
0.7,right,1,,,,,,stim/lower.png,stim/neutralLeft.png,right,180,2025,2020-05-17_15h17.41.968,ANTCPTp,2020.1.2,Win32,60,0.523615,,,1,4,52,36,1,,,,,,,,,,,,,,,,,,,,,,,,,,,,,,,,,,,,,,,,,,
0.4,left,1,,,,,,stim/both.png,stim/congRight.png,left,180,2025,2020-05-17_15h17.41.968,ANTCPTp,2020.1.2,Win32,60,0.473545,,,1,5,53,13,1,,,,,,,,,,,,,,,,,,,,,,,,,,,,,,,,,,,,,,,,,,
0.75,left,0,,,,,,stim/lower.png,stim/incongLeft.png,right,180,2025,2020-05-17_15h17.41.968,ANTCPTp,2020.1.2,Win32,60,0.427565,,,1,6,54,20,1,,,,,,,,,,,,,,,,,,,,,,,,,,,,,,,,,,,,,,,,,,
1.35,left,1,,,,,,stim/lower.png,stim/neutralRight.png,left,180,2025,2020-05-17_15h17.41.968,ANTCPTp,2020.1.2,Win32,60,0.455195,,,1,7,55,44,1,,,,,,,,,,,,,,,,,,,,,,,,,,,,,,,,,,,,,,,,,,
1.1,left,1,,,,,,stim/both.png,stim/neutralLeft.png,left,0,2025,2020-05-17_15h17.41.968,ANTCPTp,2020.1.2,Win32,60,0.77562,,,1,8,56,33,1,,,,,,,,,,,,,,,,,,,,,,,,,,,,,,,,,,,,,,,,,,
1.15,right,1,,,,,,stim/centre.png,stim/incongLeft.png,right,180,2025,2020-05-17_15h17.41.968,ANTCPTp,2020.1.2,Win32,60,0.569815,,,1,9,57,22,1,,,,,,,,,,,,,,,,,,,,,,,,,,,,,,,,,,,,,,,,,,
0.8,right,1,,,,,,stim/upper.png,stim/incongRight.png,right,0,2025,2020-05-17_15h17.41.968,ANTCPTp,2020.1.2,Win32,60,0.586305,,,1,10,58,24,1,,,,,,,,,,,,,,,,,,,,,,,,,,,,,,,,,,,,,,,,,,
1.45,right,0,,,,,,stim/blank.png,stim/incongLeft.png,left,0,2025,2020-05-17_15h17.41.968,ANTCPTp,2020.1.2,Win32,60,0.478615,,,1,11,59,19,1,,,,,,,,,,,,,,,,,,,,,,,,,,,,,,,,,,,,,,,,,,
0.7,right,1,,,,,,stim/lower.png,stim/congLeft.png,right,180,2025,2020-05-17_15h17.41.968,ANTCPTp,2020.1.2,Win32,60,0.47509,,,1,12,60,4,1,,,,,,,,,,,,,,,,,,,,,,,,,,,,,,,,,,,,,,,,,,
0.75,left,1,,,,,,stim/blank.png,stim/congRight.png,left,180,2025,2020-05-17_15h17.41.968,ANTCPTp,2020.1.2,Win32,60,0.504675,,,1,13,61,15,1,,,,,,,,,,,,,,,,,,,,,,,,,,,,,,,,,,,,,,,,,,
1.05,left,1,,,,,,stim/blank.png,stim/neutralRight.png,left,180,2025,2020-05-17_15h17.41.968,ANTCPTp,2020.1.2,Win32,60,0.45294,,,1,14,62,47,1,,,,,,,,,,,,,,,,,,,,,,,,,,,,,,,,,,,,,,,,,,
0.55,left,1,,,,,,stim/blank.png,stim/neutralLeft.png,left,0,2025,2020-05-17_15h17.41.968,ANTCPTp,2020.1.2,Win32,60,0.570215,,,1,15,63,35,1,,,,,,,,,,,,,,,,,,,,,,,,,,,,,,,,,,,,,,,,,,
1.3,left,1,,,,,,stim/upper.png,stim/congLeft.png,left,0,2025,2020-05-17_15h17.41.968,ANTCPTp,2020.1.2,Win32,60,0.493165,,,1,16,64,0,1,,,,,,,,,,,,,,,,,,,,,,,,,,,,,,,,,,,,,,,,,,
1.5,right,1,,,,,,stim/both.png,stim/neutralRight.png,right,0,2025,2020-05-17_15h17.41.968,ANTCPTp,2020.1.2,Win32,60,0.368265,,,1,17,65,41,1,,,,,,,,,,,,,,,,,,,,,,,,,,,,,,,,,,,,,,,,,,
0.45,left,1,,,,,,stim/both.png,stim/incongLeft.png,left,0,2025,2020-05-17_15h17.41.968,ANTCPTp,2020.1.2,Win32,60,0.58986,,,1,18,66,17,1,,,,,,,,,,,,,,,,,,,,,,,,,,,,,,,,,,,,,,,,,,
0.9,left,1,,,,,,stim/centre.png,stim/incongLeft.png,left,0,2025,2020-05-17_15h17.41.968,ANTCPTp,2020.1.2,Win32,60,0.55199,,,1,19,67,18,1,,,,,,,,,,,,,,,,,,,,,,,,,,,,,,,,,,,,,,,,,,
0.55,left,1,,,,,,stim/centre.png,stim/neutralRight.png,left,180,2025,2020-05-17_15h17.41.968,ANTCPTp,2020.1.2,Win32,60,0.58965,,,1,20,68,46,1,,,,,,,,,,,,,,,,,,,,,,,,,,,,,,,,,,,,,,,,,,
1.55,right,1,,,,,,stim/both.png,stim/congRight.png,right,0,2025,2020-05-17_15h17.41.968,ANTCPTp,2020.1.2,Win32,60,0.436555,,,1,21,69,9,1,,,,,,,,,,,,,,,,,,,,,,,,,,,,,,,,,,,,,,,,,,
0.6,left,1,,,,,,stim/upper.png,stim/incongLeft.png,left,0,2025,2020-05-17_15h17.41.968,ANTCPTp,2020.1.2,Win32,60,0.533505,,,1,22,70,16,1,,,,,,,,,,,,,,,,,,,,,,,,,,,,,,,,,,,,,,,,,,
0.9,right,1,,,,,,stim/upper.png,stim/neutralRight.png,right,0,2025,2020-05-17_15h17.41.968,ANTCPTp,2020.1.2,Win32,60,0.403665,,,1,23,71,40,1,,,,,,,,,,,,,,,,,,,,,,,,,,,,,,,,,,,,,,,,,,
1.35,right,1,,,,,,stim/both.png,stim/incongLeft.png,right,180,2025,2020-05-17_15h17.41.968,ANTCPTp,2020.1.2,Win32,60,0.704015,,,1,24,72,21,1,,,,,,,,,,,,,,,,,,,,,,,,,,,,,,,,,,,,,,,,,,
0.7,right,1,,,,,,stim/blank.png,stim/incongRight.png,right,0,2025,2020-05-17_15h17.41.968,ANTCPTp,2020.1.2,Win32,60,0.48519,,,1,25,73,27,1,,,,,,,,,,,,,,,,,,,,,,,,,,,,,,,,,,,,,,,,,,
1.45,left,1,,,,,,stim/centre.png,stim/incongRight.png,left,180,2025,2020-05-17_15h17.41.968,ANTCPTp,2020.1.2,Win32,60,0.67166,,,1,26,74,30,1,,,,,,,,,,,,,,,,,,,,,,,,,,,,,,,,,,,,,,,,,,
1.25,left,1,,,,,,stim/blank.png,stim/incongRight.png,left,180,2025,2020-05-17_15h17.41.968,ANTCPTp,2020.1.2,Win32,60,0.616715,,,1,27,75,31,1,,,,,,,,,,,,,,,,,,,,,,,,,,,,,,,,,,,,,,,,,,
0.9,left,1,,,,,,stim/centre.png,stim/congLeft.png,left,0,2025,2020-05-17_15h17.41.968,ANTCPTp,2020.1.2,Win32,60,0.504385,,,1,28,76,2,1,,,,,,,,,,,,,,,,,,,,,,,,,,,,,,,,,,,,,,,,,,
1.2,left,1,,,,,,stim/lower.png,stim/congRight.png,left,180,2025,2020-05-17_15h17.41.968,ANTCPTp,2020.1.2,Win32,60,0.491115,,,1,29,77,12,1,,,,,,,,,,,,,,,,,,,,,,,,,,,,,,,,,,,,,,,,,,
0.5,right,1,,,,,,stim/blank.png,stim/neutralRight.png,right,0,2025,2020-05-17_15h17.41.968,ANTCPTp,2020.1.2,Win32,60,0.438275,,,1,30,78,43,1,,,,,,,,,,,,,,,,,,,,,,,,,,,,,,,,,,,,,,,,,,
0.4,left,1,,,,,,stim/both.png,stim/incongRight.png,left,180,2025,2020-05-17_15h17.41.968,ANTCPTp,2020.1.2,Win32,60,0.66925,,,1,31,79,29,1,,,,,,,,,,,,,,,,,,,,,,,,,,,,,,,,,,,,,,,,,,
0.65,left,1,,,,,,stim/centre.png,stim/congRight.png,left,180,2025,2020-05-17_15h17.41.968,ANTCPTp,2020.1.2,Win32,60,0.44533,,,1,32,80,14,1,,,,,,,,,,,,,,,,,,,,,,,,,,,,,,,,,,,,,,,,,,
1.4,right,1,,,,,,stim/blank.png,stim/congLeft.png,right,180,2025,2020-05-17_15h17.41.968,ANTCPTp,2020.1.2,Win32,60,0.47032,,,1,33,81,7,1,,,,,,,,,,,,,,,,,,,,,,,,,,,,,,,,,,,,,,,,,,
1.1,right,1,,,,,,stim/both.png,stim/neutralLeft.png,right,180,2025,2020-05-17_15h17.41.968,ANTCPTp,2020.1.2,Win32,60,0.455045,,,1,34,82,37,1,,,,,,,,,,,,,,,,,,,,,,,,,,,,,,,,,,,,,,,,,,
0.8,left,0,,,,,,stim/both.png,stim/incongRight.png,right,0,2025,2020-05-17_15h17.41.968,ANTCPTp,2020.1.2,Win32,60,0.442715,,,1,35,83,25,1,,,,,,,,,,,,,,,,,,,,,,,,,,,,,,,,,,,,,,,,,,
0.75,right,1,,,,,,stim/blank.png,stim/congRight.png,right,0,2025,2020-05-17_15h17.41.968,ANTCPTp,2020.1.2,Win32,60,0.47899,,,1,36,84,11,1,,,,,,,,,,,,,,,,,,,,,,,,,,,,,,,,,,,,,,,,,,
1.25,right,1,,,,,,stim/centre.png,stim/neutralRight.png,right,0,2025,2020-05-17_15h17.41.968,ANTCPTp,2020.1.2,Win32,60,0.48688,,,1,37,85,42,1,,,,,,,,,,,,,,,,,,,,,,,,,,,,,,,,,,,,,,,,,,
1.25,left,1,,,,,,stim/lower.png,stim/incongRight.png,left,180,2025,2020-05-17_15h17.41.968,ANTCPTp,2020.1.2,Win32,60,0.63936,,,1,38,86,28,1,,,,,,,,,,,,,,,,,,,,,,,,,,,,,,,,,,,,,,,,,,
1.55,right,1,,,,,,stim/blank.png,stim/neutralLeft.png,right,180,2025,2020-05-17_15h17.41.968,ANTCPTp,2020.1.2,Win32,60,0.596655,,,1,39,87,39,1,,,,,,,,,,,,,,,,,,,,,,,,,,,,,,,,,,,,,,,,,,
0.75,right,1,,,,,,stim/upper.png,stim/congRight.png,right,0,2025,2020-05-17_15h17.41.968,ANTCPTp,2020.1.2,Win32,60,0.584285,,,1,40,88,8,1,,,,,,,,,,,,,,,,,,,,,,,,,,,,,,,,,,,,,,,,,,
1.35,right,1,,,,,,stim/both.png,stim/congLeft.png,right,180,2025,2020-05-17_15h17.41.968,ANTCPTp,2020.1.2,Win32,60,0.46858,,,1,41,89,5,1,,,,,,,,,,,,,,,,,,,,,,,,,,,,,,,,,,,,,,,,,,
1.45,left,0,,,,,,stim/blank.png,stim/incongLeft.png,right,180,2025,2020-05-17_15h17.41.968,ANTCPTp,2020.1.2,Win32,60,0.490605,,,1,42,90,23,1,,,,,,,,,,,,,,,,,,,,,,,,,,,,,,,,,,,,,,,,,,
1.55,left,1,,,,,,stim/upper.png,stim/neutralLeft.png,left,0,2025,2020-05-17_15h17.41.968,ANTCPTp,2020.1.2,Win32,60,0.50215,,,1,43,91,32,1,,,,,,,,,,,,,,,,,,,,,,,,,,,,,,,,,,,,,,,,,,
0.8,left,1,,,,,,stim/both.png,stim/neutralRight.png,left,180,2025,2020-05-17_15h17.41.968,ANTCPTp,2020.1.2,Win32,60,0.635545,,,1,44,92,45,1,,,,,,,,,,,,,,,,,,,,,,,,,,,,,,,,,,,,,,,,,,
1,left,1,,,,,,stim/centre.png,stim/neutralLeft.png,left,0,2025,2020-05-17_15h17.41.968,ANTCPTp,2020.1.2,Win32,60,0.484285,,,1,45,93,34,1,,,,,,,,,,,,,,,,,,,,,,,,,,,,,,,,,,,,,,,,,,
0.85,left,1,,,,,,stim/blank.png,stim/congLeft.png,left,0,2025,2020-05-17_15h17.41.968,ANTCPTp,2020.1.2,Win32,60,0.483965,,,1,46,94,3,1,,,,,,,,,,,,,,,,,,,,,,,,,,,,,,,,,,,,,,,,,,
1.15,right,1,,,,,,stim/centre.png,stim/congRight.png,right,0,2025,2020-05-17_15h17.41.968,ANTCPTp,2020.1.2,Win32,60,0.44173,,,1,47,95,10,1,,,,,,,,,,,,,,,,,,,,,,,,,,,,,,,,,,,,,,,,,,
,,,,,,,,,,,,2025,2020-05-17_15h17.41.968,ANTCPTp,2020.1.2,Win32,60,,,,,,,,,0,0,0,0,1,,,,,,,,,,,,,,,,,,,,,,,,,,,,,,,,,,,,,
1.05,right,1,,,,,,stim/both.png,stim/neutralLeft.png,right,180,2025,2020-05-17_15h17.41.968,ANTCPTp,2020.1.2,Win32,60,0.47833,,,0,0,0,37,1,,,,,,,,,,,,,,,,,,,,,,,,,,,,,,,,,,,,,,,,,,
1.1,right,1,,,,,,stim/blank.png,stim/neutralLeft.png,right,180,2025,2020-05-17_15h17.41.968,ANTCPTp,2020.1.2,Win32,60,0.454515,,,0,1,1,39,1,,,,,,,,,,,,,,,,,,,,,,,,,,,,,,,,,,,,,,,,,,
1.4,left,1,,,,,,stim/lower.png,stim/incongRight.png,left,180,2025,2020-05-17_15h17.41.968,ANTCPTp,2020.1.2,Win32,60,0.65348,,,0,2,2,28,1,,,,,,,,,,,,,,,,,,,,,,,,,,,,,,,,,,,,,,,,,,
0.95,left,1,,,,,,stim/centre.png,stim/neutralLeft.png,left,0,2025,2020-05-17_15h17.41.968,ANTCPTp,2020.1.2,Win32,60,0.52099,,,0,3,3,34,1,,,,,,,,,,,,,,,,,,,,,,,,,,,,,,,,,,,,,,,,,,
0.95,right,1,,,,,,stim/upper.png,stim/neutralRight.png,right,0,2025,2020-05-17_15h17.41.968,ANTCPTp,2020.1.2,Win32,60,0.557005,,,0,4,4,40,1,,,,,,,,,,,,,,,,,,,,,,,,,,,,,,,,,,,,,,,,,,
1.15,right,1,,,,,,stim/lower.png,stim/neutralLeft.png,right,180,2025,2020-05-17_15h17.41.968,ANTCPTp,2020.1.2,Win32,60,0.452505,,,0,5,5,36,1,,,,,,,,,,,,,,,,,,,,,,,,,,,,,,,,,,,,,,,,,,
0.85,left,1,,,,,,stim/centre.png,stim/incongRight.png,left,180,2025,2020-05-17_15h17.41.968,ANTCPTp,2020.1.2,Win32,60,0.68543,,,0,6,6,30,1,,,,,,,,,,,,,,,,,,,,,,,,,,,,,,,,,,,,,,,,,,
0.9,right,1,,,,,,stim/centre.png,stim/congRight.png,right,0,2025,2020-05-17_15h17.41.968,ANTCPTp,2020.1.2,Win32,60,0.432465,,,0,7,7,10,1,,,,,,,,,,,,,,,,,,,,,,,,,,,,,,,,,,,,,,,,,,
1.5,right,1,,,,,,stim/both.png,stim/incongLeft.png,right,180,2025,2020-05-17_15h17.41.968,ANTCPTp,2020.1.2,Win32,60,0.76757,,,0,8,8,21,1,,,,,,,,,,,,,,,,,,,,,,,,,,,,,,,,,,,,,,,,,,
1.4,right,1,,,,,,stim/both.png,stim/congRight.png,right,0,2025,2020-05-17_15h17.41.968,ANTCPTp,2020.1.2,Win32,60,0.471365,,,0,9,9,9,1,,,,,,,,,,,,,,,,,,,,,,,,,,,,,,,,,,,,,,,,,,
1.05,right,1,,,,,,stim/centre.png,stim/neutralLeft.png,right,180,2025,2020-05-17_15h17.41.968,ANTCPTp,2020.1.2,Win32,60,0.490495,,,0,10,10,38,1,,,,,,,,,,,,,,,,,,,,,,,,,,,,,,,,,,,,,,,,,,
0.45,left,1,,,,,,stim/blank.png,stim/congLeft.png,left,0,2025,2020-05-17_15h17.41.968,ANTCPTp,2020.1.2,Win32,60,0.516605,,,0,11,11,3,1,,,,,,,,,,,,,,,,,,,,,,,,,,,,,,,,,,,,,,,,,,
0.75,right,1,,,,,,stim/both.png,stim/congLeft.png,right,180,2025,2020-05-17_15h17.41.968,ANTCPTp,2020.1.2,Win32,60,0.46709,,,0,12,12,5,1,,,,,,,,,,,,,,,,,,,,,,,,,,,,,,,,,,,,,,,,,,
1.1,left,1,,,,,,stim/centre.png,stim/neutralRight.png,left,180,2025,2020-05-17_15h17.41.968,ANTCPTp,2020.1.2,Win32,60,0.519,,,0,13,13,46,1,,,,,,,,,,,,,,,,,,,,,,,,,,,,,,,,,,,,,,,,,,
1.4,right,1,,,,,,stim/blank.png,stim/congRight.png,right,0,2025,2020-05-17_15h17.41.968,ANTCPTp,2020.1.2,Win32,60,0.485575,,,0,14,14,11,1,,,,,,,,,,,,,,,,,,,,,,,,,,,,,,,,,,,,,,,,,,
1.55,right,1,,,,,,stim/both.png,stim/incongRight.png,right,0,2025,2020-05-17_15h17.41.968,ANTCPTp,2020.1.2,Win32,60,0.71768,,,0,15,15,25,1,,,,,,,,,,,,,,,,,,,,,,,,,,,,,,,,,,,,,,,,,,
0.75,left,1,,,,,,stim/both.png,stim/congRight.png,left,180,2025,2020-05-17_15h17.41.968,ANTCPTp,2020.1.2,Win32,60,0.45816,,,0,16,16,13,1,,,,,,,,,,,,,,,,,,,,,,,,,,,,,,,,,,,,,,,,,,
0.6,left,1,,,,,,stim/centre.png,stim/congRight.png,left,180,2025,2020-05-17_15h17.41.968,ANTCPTp,2020.1.2,Win32,60,0.659315,,,0,17,17,14,1,,,,,,,,,,,,,,,,,,,,,,,,,,,,,,,,,,,,,,,,,,
1.2,right,1,,,,,,stim/blank.png,stim/neutralRight.png,right,0,2025,2020-05-17_15h17.41.968,ANTCPTp,2020.1.2,Win32,60,0.58489,,,0,18,18,43,1,,,,,,,,,,,,,,,,,,,,,,,,,,,,,,,,,,,,,,,,,,
0.6,right,1,,,,,,stim/lower.png,stim/congLeft.png,right,180,2025,2020-05-17_15h17.41.968,ANTCPTp,2020.1.2,Win32,60,0.47837,,,0,19,19,4,1,,,,,,,,,,,,,,,,,,,,,,,,,,,,,,,,,,,,,,,,,,
0.8,left,1,,,,,,stim/upper.png,stim/neutralLeft.png,left,0,2025,2020-05-17_15h17.41.968,ANTCPTp,2020.1.2,Win32,60,0.53738,,,0,20,20,32,1,,,,,,,,,,,,,,,,,,,,,,,,,,,,,,,,,,,,,,,,,,
0.95,right,1,,,,,,stim/upper.png,stim/incongRight.png,right,0,2025,2020-05-17_15h17.41.968,ANTCPTp,2020.1.2,Win32,60,0.646835,,,0,21,21,24,1,,,,,,,,,,,,,,,,,,,,,,,,,,,,,,,,,,,,,,,,,,
1.35,left,1,,,,,,stim/centre.png,stim/incongLeft.png,left,0,2025,2020-05-17_15h17.41.968,ANTCPTp,2020.1.2,Win32,60,0.619895,,,0,22,22,18,1,,,,,,,,,,,,,,,,,,,,,,,,,,,,,,,,,,,,,,,,,,
1.5,left,1,,,,,,stim/blank.png,stim/neutralLeft.png,left,0,2025,2020-05-17_15h17.41.968,ANTCPTp,2020.1.2,Win32,60,0.48018,,,0,23,23,35,1,,,,,,,,,,,,,,,,,,,,,,,,,,,,,,,,,,,,,,,,,,
1.1,right,1,,,,,,stim/blank.png,stim/incongRight.png,right,0,2025,2020-05-17_15h17.41.968,ANTCPTp,2020.1.2,Win32,60,0.552645,,,0,24,24,27,1,,,,,,,,,,,,,,,,,,,,,,,,,,,,,,,,,,,,,,,,,,
1.15,left,1,,,,,,stim/centre.png,stim/congLeft.png,left,0,2025,2020-05-17_15h17.41.968,ANTCPTp,2020.1.2,Win32,60,0.4513,,,0,25,25,2,1,,,,,,,,,,,,,,,,,,,,,,,,,,,,,,,,,,,,,,,,,,
1.25,left,1,,,,,,stim/both.png,stim/neutralRight.png,left,180,2025,2020-05-17_15h17.41.968,ANTCPTp,2020.1.2,Win32,60,0.634665,,,0,26,26,45,1,,,,,,,,,,,,,,,,,,,,,,,,,,,,,,,,,,,,,,,,,,
1.2,right,1,,,,,,stim/lower.png,stim/incongLeft.png,right,180,2025,2020-05-17_15h17.41.968,ANTCPTp,2020.1.2,Win32,60,0.55125,,,0,27,27,20,1,,,,,,,,,,,,,,,,,,,,,,,,,,,,,,,,,,,,,,,,,,
1.45,left,1,,,,,,stim/lower.png,stim/neutralRight.png,left,180,2025,2020-05-17_15h17.41.968,ANTCPTp,2020.1.2,Win32,60,0.425215,,,0,28,28,44,1,,,,,,,,,,,,,,,,,,,,,,,,,,,,,,,,,,,,,,,,,,
0.8,right,1,,,,,,stim/blank.png,stim/congLeft.png,right,180,2025,2020-05-17_15h17.41.968,ANTCPTp,2020.1.2,Win32,60,0.62102,,,0,29,29,7,1,,,,,,,,,,,,,,,,,,,,,,,,,,,,,,,,,,,,,,,,,,
1.45,left,1,,,,,,stim/blank.png,stim/incongLeft.png,left,0,2025,2020-05-17_15h17.41.968,ANTCPTp,2020.1.2,Win32,60,0.587005,,,0,30,30,19,1,,,,,,,,,,,,,,,,,,,,,,,,,,,,,,,,,,,,,,,,,,
1.15,left,1,,,,,,stim/both.png,stim/congLeft.png,left,0,2025,2020-05-17_15h17.41.968,ANTCPTp,2020.1.2,Win32,60,0.450915,,,0,31,31,1,1,,,,,,,,,,,,,,,,,,,,,,,,,,,,,,,,,,,,,,,,,,
0.45,left,1,,,,,,stim/both.png,stim/incongLeft.png,left,0,2025,2020-05-17_15h17.41.968,ANTCPTp,2020.1.2,Win32,60,0.60867,,,0,32,32,17,1,,,,,,,,,,,,,,,,,,,,,,,,,,,,,,,,,,,,,,,,,,
0.55,left,1,,,,,,stim/blank.png,stim/neutralRight.png,left,180,2025,2020-05-17_15h17.41.968,ANTCPTp,2020.1.2,Win32,60,0.47722,,,0,33,33,47,1,,,,,,,,,,,,,,,,,,,,,,,,,,,,,,,,,,,,,,,,,,
1.4,left,1,,,,,,stim/both.png,stim/incongRight.png,left,180,2025,2020-05-17_15h17.41.968,ANTCPTp,2020.1.2,Win32,60,0.77291,,,0,34,34,29,1,,,,,,,,,,,,,,,,,,,,,,,,,,,,,,,,,,,,,,,,,,
0.85,right,1,,,,,,stim/blank.png,stim/incongLeft.png,right,180,2025,2020-05-17_15h17.41.968,ANTCPTp,2020.1.2,Win32,60,0.56835,,,0,35,35,23,1,,,,,,,,,,,,,,,,,,,,,,,,,,,,,,,,,,,,,,,,,,
0.5,left,1,,,,,,stim/lower.png,stim/congRight.png,left,180,2025,2020-05-17_15h17.41.968,ANTCPTp,2020.1.2,Win32,60,0.446605,,,0,36,36,12,1,,,,,,,,,,,,,,,,,,,,,,,,,,,,,,,,,,,,,,,,,,
0.75,right,1,,,,,,stim/upper.png,stim/congRight.png,right,0,2025,2020-05-17_15h17.41.968,ANTCPTp,2020.1.2,Win32,60,0.403775,,,0,37,37,8,1,,,,,,,,,,,,,,,,,,,,,,,,,,,,,,,,,,,,,,,,,,
1.05,left,1,,,,,,stim/upper.png,stim/congLeft.png,left,0,2025,2020-05-17_15h17.41.968,ANTCPTp,2020.1.2,Win32,60,0.42649,,,0,38,38,0,1,,,,,,,,,,,,,,,,,,,,,,,,,,,,,,,,,,,,,,,,,,
0.65,right,0,,,,,,stim/blank.png,stim/incongRight.png,left,180,2025,2020-05-17_15h17.41.968,ANTCPTp,2020.1.2,Win32,60,0.38624,,,0,39,39,31,1,,,,,,,,,,,,,,,,,,,,,,,,,,,,,,,,,,,,,,,,,,
1.55,left,1,,,,,,stim/blank.png,stim/congRight.png,left,180,2025,2020-05-17_15h17.41.968,ANTCPTp,2020.1.2,Win32,60,0.488045,,,0,40,40,15,1,,,,,,,,,,,,,,,,,,,,,,,,,,,,,,,,,,,,,,,,,,
0.85,right,1,,,,,,stim/centre.png,stim/congLeft.png,right,180,2025,2020-05-17_15h17.41.968,ANTCPTp,2020.1.2,Win32,60,0.503665,,,0,41,41,6,1,,,,,,,,,,,,,,,,,,,,,,,,,,,,,,,,,,,,,,,,,,
1.35,left,1,,,,,,stim/both.png,stim/neutralLeft.png,left,0,2025,2020-05-17_15h17.41.968,ANTCPTp,2020.1.2,Win32,60,0.968575,,,0,42,42,33,1,,,,,,,,,,,,,,,,,,,,,,,,,,,,,,,,,,,,,,,,,,
1.5,right,1,,,,,,stim/centre.png,stim/neutralRight.png,right,0,2025,2020-05-17_15h17.41.968,ANTCPTp,2020.1.2,Win32,60,0.42226,,,0,43,43,42,1,,,,,,,,,,,,,,,,,,,,,,,,,,,,,,,,,,,,,,,,,,
0.75,left,0,,,,,,stim/centre.png,stim/incongRight.png,right,0,2025,2020-05-17_15h17.41.968,ANTCPTp,2020.1.2,Win32,60,0.450735,,,0,44,44,26,1,,,,,,,,,,,,,,,,,,,,,,,,,,,,,,,,,,,,,,,,,,
1.2,right,1,,,,,,stim/centre.png,stim/incongLeft.png,right,180,2025,2020-05-17_15h17.41.968,ANTCPTp,2020.1.2,Win32,60,0.74905,,,0,45,45,22,1,,,,,,,,,,,,,,,,,,,,,,,,,,,,,,,,,,,,,,,,,,
0.6,right,1,,,,,,stim/both.png,stim/neutralRight.png,right,0,2025,2020-05-17_15h17.41.968,ANTCPTp,2020.1.2,Win32,60,0.48613,,,0,46,46,41,1,,,,,,,,,,,,,,,,,,,,,,,,,,,,,,,,,,,,,,,,,,
1.55,left,1,,,,,,stim/upper.png,stim/incongLeft.png,left,0,2025,2020-05-17_15h17.41.968,ANTCPTp,2020.1.2,Win32,60,0.68678,,,0,47,47,16,1,,,,,,,,,,,,,,,,,,,,,,,,,,,,,,,,,,,,,,,,,,
1.15,left,1,,,,,,stim/blank.png,stim/congRight.png,left,180,2025,2020-05-17_15h17.41.968,ANTCPTp,2020.1.2,Win32,60,0.47136,,,1,0,48,15,1,,,,,,,,,,,,,,,,,,,,,,,,,,,,,,,,,,,,,,,,,,
1.5,right,1,,,,,,stim/centre.png,stim/neutralRight.png,right,0,2025,2020-05-17_15h17.41.968,ANTCPTp,2020.1.2,Win32,60,0.492235,,,1,1,49,42,1,,,,,,,,,,,,,,,,,,,,,,,,,,,,,,,,,,,,,,,,,,
1.35,right,1,,,,,,stim/upper.png,stim/incongRight.png,right,0,2025,2020-05-17_15h17.41.968,ANTCPTp,2020.1.2,Win32,60,0.557685,,,1,2,50,24,1,,,,,,,,,,,,,,,,,,,,,,,,,,,,,,,,,,,,,,,,,,
0.9,left,1,,,,,,stim/centre.png,stim/neutralRight.png,left,180,2025,2020-05-17_15h17.41.968,ANTCPTp,2020.1.2,Win32,60,0.41773,,,1,3,51,46,1,,,,,,,,,,,,,,,,,,,,,,,,,,,,,,,,,,,,,,,,,,
0.85,right,1,,,,,,stim/both.png,stim/incongLeft.png,right,180,2025,2020-05-17_15h17.41.968,ANTCPTp,2020.1.2,Win32,60,0.62015,,,1,4,52,21,1,,,,,,,,,,,,,,,,,,,,,,,,,,,,,,,,,,,,,,,,,,
1.3,right,1,,,,,,stim/upper.png,stim/neutralRight.png,right,0,2025,2020-05-17_15h17.41.968,ANTCPTp,2020.1.2,Win32,60,0.587645,,,1,5,53,40,1,,,,,,,,,,,,,,,,,,,,,,,,,,,,,,,,,,,,,,,,,,
0.7,right,1,,,,,,stim/both.png,stim/congRight.png,right,0,2025,2020-05-17_15h17.41.968,ANTCPTp,2020.1.2,Win32,60,0.56766,,,1,6,54,9,1,,,,,,,,,,,,,,,,,,,,,,,,,,,,,,,,,,,,,,,,,,
0.7,right,1,,,,,,stim/blank.png,stim/congLeft.png,right,180,2025,2020-05-17_15h17.41.968,ANTCPTp,2020.1.2,Win32,60,0.61105,,,1,7,55,7,1,,,,,,,,,,,,,,,,,,,,,,,,,,,,,,,,,,,,,,,,,,
0.6,left,1,,,,,,stim/centre.png,stim/congLeft.png,left,0,2025,2020-05-17_15h17.41.968,ANTCPTp,2020.1.2,Win32,60,0.421235,,,1,8,56,2,1,,,,,,,,,,,,,,,,,,,,,,,,,,,,,,,,,,,,,,,,,,
0.7,right,1,,,,,,stim/both.png,stim/neutralRight.png,right,0,2025,2020-05-17_15h17.41.968,ANTCPTp,2020.1.2,Win32,60,0.42635,,,1,9,57,41,1,,,,,,,,,,,,,,,,,,,,,,,,,,,,,,,,,,,,,,,,,,
1.55,left,0,,,,,,stim/blank.png,stim/incongLeft.png,right,180,2025,2020-05-17_15h17.41.968,ANTCPTp,2020.1.2,Win32,60,0.41878,,,1,10,58,23,1,,,,,,,,,,,,,,,,,,,,,,,,,,,,,,,,,,,,,,,,,,
1.15,left,1,,,,,,stim/both.png,stim/congRight.png,left,180,2025,2020-05-17_15h17.41.968,ANTCPTp,2020.1.2,Win32,60,0.505085,,,1,11,59,13,1,,,,,,,,,,,,,,,,,,,,,,,,,,,,,,,,,,,,,,,,,,
0.8,left,1,,,,,,stim/blank.png,stim/neutralLeft.png,left,0,2025,2020-05-17_15h17.41.968,ANTCPTp,2020.1.2,Win32,60,0.544225,,,1,12,60,35,1,,,,,,,,,,,,,,,,,,,,,,,,,,,,,,,,,,,,,,,,,,
0.7,right,1,,,,,,stim/lower.png,stim/neutralLeft.png,right,180,2025,2020-05-17_15h17.41.968,ANTCPTp,2020.1.2,Win32,60,0.45122,,,1,13,61,36,1,,,,,,,,,,,,,,,,,,,,,,,,,,,,,,,,,,,,,,,,,,
1.05,right,0,,,,,,stim/lower.png,stim/incongRight.png,left,180,2025,2020-05-17_15h17.41.968,ANTCPTp,2020.1.2,Win32,60,0.424725,,,1,14,62,28,1,,,,,,,,,,,,,,,,,,,,,,,,,,,,,,,,,,,,,,,,,,
0.9,left,1,,,,,,stim/blank.png,stim/incongRight.png,left,180,2025,2020-05-17_15h17.41.968,ANTCPTp,2020.1.2,Win32,60,0.67045,,,1,15,63,31,1,,,,,,,,,,,,,,,,,,,,,,,,,,,,,,,,,,,,,,,,,,
1.2,left,1,,,,,,stim/both.png,stim/incongLeft.png,left,0,2025,2020-05-17_15h17.41.968,ANTCPTp,2020.1.2,Win32,60,0.768045,,,1,16,64,17,1,,,,,,,,,,,,,,,,,,,,,,,,,,,,,,,,,,,,,,,,,,
0.45,right,1,,,,,,stim/blank.png,stim/neutralLeft.png,right,180,2025,2020-05-17_15h17.41.968,ANTCPTp,2020.1.2,Win32,60,0.551645,,,1,17,65,39,1,,,,,,,,,,,,,,,,,,,,,,,,,,,,,,,,,,,,,,,,,,
0.95,right,1,,,,,,stim/blank.png,stim/congRight.png,right,0,2025,2020-05-17_15h17.41.968,ANTCPTp,2020.1.2,Win32,60,0.55392,,,1,18,66,11,1,,,,,,,,,,,,,,,,,,,,,,,,,,,,,,,,,,,,,,,,,,
1.55,right,1,,,,,,stim/centre.png,stim/congLeft.png,right,180,2025,2020-05-17_15h17.41.968,ANTCPTp,2020.1.2,Win32,60,0.621345,,,1,19,67,6,1,,,,,,,,,,,,,,,,,,,,,,,,,,,,,,,,,,,,,,,,,,
0.95,right,1,,,,,,stim/upper.png,stim/congRight.png,right,0,2025,2020-05-17_15h17.41.968,ANTCPTp,2020.1.2,Win32,60,0.48455,,,1,20,68,8,1,,,,,,,,,,,,,,,,,,,,,,,,,,,,,,,,,,,,,,,,,,
1,left,1,,,,,,stim/centre.png,stim/congRight.png,left,180,2025,2020-05-17_15h17.41.968,ANTCPTp,2020.1.2,Win32,60,0.418075,,,1,21,69,14,1,,,,,,,,,,,,,,,,,,,,,,,,,,,,,,,,,,,,,,,,,,
0.6,left,1,,,,,,stim/upper.png,stim/neutralLeft.png,left,0,2025,2020-05-17_15h17.41.968,ANTCPTp,2020.1.2,Win32,60,0.594115,,,1,22,70,32,1,,,,,,,,,,,,,,,,,,,,,,,,,,,,,,,,,,,,,,,,,,
0.4,right,1,,,,,,stim/both.png,stim/congLeft.png,right,180,2025,2020-05-17_15h17.41.968,ANTCPTp,2020.1.2,Win32,60,0.493005,,,1,23,71,5,1,,,,,,,,,,,,,,,,,,,,,,,,,,,,,,,,,,,,,,,,,,
0.4,left,1,,,,,,stim/both.png,stim/neutralLeft.png,left,0,2025,2020-05-17_15h17.41.968,ANTCPTp,2020.1.2,Win32,60,0.44365,,,1,24,72,33,1,,,,,,,,,,,,,,,,,,,,,,,,,,,,,,,,,,,,,,,,,,
0.5,right,1,,,,,,stim/centre.png,stim/incongRight.png,right,0,2025,2020-05-17_15h17.41.968,ANTCPTp,2020.1.2,Win32,60,0.6966,,,1,25,73,26,1,,,,,,,,,,,,,,,,,,,,,,,,,,,,,,,,,,,,,,,,,,
1.2,left,1,,,,,,stim/blank.png,stim/incongLeft.png,left,0,2025,2020-05-17_15h17.41.968,ANTCPTp,2020.1.2,Win32,60,0.606455,,,1,26,74,19,1,,,,,,,,,,,,,,,,,,,,,,,,,,,,,,,,,,,,,,,,,,
0.5,left,1,,,,,,stim/blank.png,stim/neutralRight.png,left,180,2025,2020-05-17_15h17.41.968,ANTCPTp,2020.1.2,Win32,60,0.61892,,,1,27,75,47,1,,,,,,,,,,,,,,,,,,,,,,,,,,,,,,,,,,,,,,,,,,
0.4,left,1,,,,,,stim/both.png,stim/congLeft.png,left,0,2025,2020-05-17_15h17.41.968,ANTCPTp,2020.1.2,Win32,60,0.49768,,,1,28,76,1,1,,,,,,,,,,,,,,,,,,,,,,,,,,,,,,,,,,,,,,,,,,
0.95,right,1,,,,,,stim/lower.png,stim/incongLeft.png,right,180,2025,2020-05-17_15h17.41.968,ANTCPTp,2020.1.2,Win32,60,0.527105,,,1,29,77,20,1,,,,,,,,,,,,,,,,,,,,,,,,,,,,,,,,,,,,,,,,,,
1.25,right,1,,,,,,stim/blank.png,stim/incongRight.png,right,0,2025,2020-05-17_15h17.41.968,ANTCPTp,2020.1.2,Win32,60,0.65265,,,1,30,78,27,1,,,,,,,,,,,,,,,,,,,,,,,,,,,,,,,,,,,,,,,,,,
0.7,left,1,,,,,,stim/lower.png,stim/neutralRight.png,left,180,2025,2020-05-17_15h17.41.968,ANTCPTp,2020.1.2,Win32,60,0.46831,,,1,31,79,44,1,,,,,,,,,,,,,,,,,,,,,,,,,,,,,,,,,,,,,,,,,,
1.55,left,1,,,,,,stim/both.png,stim/incongRight.png,left,180,2025,2020-05-17_15h17.41.968,ANTCPTp,2020.1.2,Win32,60,0.651325,,,1,32,80,29,1,,,,,,,,,,,,,,,,,,,,,,,,,,,,,,,,,,,,,,,,,,
1.45,left,0,,,,,,stim/centre.png,stim/incongLeft.png,right,180,2025,2020-05-17_15h17.41.968,ANTCPTp,2020.1.2,Win32,60,0.416395,,,1,33,81,22,1,,,,,,,,,,,,,,,,,,,,,,,,,,,,,,,,,,,,,,,,,,
0.85,left,1,,,,,,stim/upper.png,stim/congLeft.png,left,0,2025,2020-05-17_15h17.41.968,ANTCPTp,2020.1.2,Win32,60,0.484465,,,1,34,82,0,1,,,,,,,,,,,,,,,,,,,,,,,,,,,,,,,,,,,,,,,,,,
1.05,left,1,,,,,,stim/both.png,stim/neutralRight.png,left,180,2025,2020-05-17_15h17.41.968,ANTCPTp,2020.1.2,Win32,60,0.654795,,,1,35,83,45,1,,,,,,,,,,,,,,,,,,,,,,,,,,,,,,,,,,,,,,,,,,
1.4,left,1,,,,,,stim/centre.png,stim/neutralLeft.png,left,0,2025,2020-05-17_15h17.41.968,ANTCPTp,2020.1.2,Win32,60,0.476265,,,1,36,84,34,1,,,,,,,,,,,,,,,,,,,,,,,,,,,,,,,,,,,,,,,,,,
0.65,left,0,,,,,,stim/both.png,stim/incongRight.png,right,0,2025,2020-05-17_15h17.41.968,ANTCPTp,2020.1.2,Win32,60,0.49075,,,1,37,85,25,1,,,,,,,,,,,,,,,,,,,,,,,,,,,,,,,,,,,,,,,,,,
0.55,left,1,,,,,,stim/blank.png,stim/congLeft.png,left,0,2025,2020-05-17_15h17.41.968,ANTCPTp,2020.1.2,Win32,60,0.48642,,,1,38,86,3,1,,,,,,,,,,,,,,,,,,,,,,,,,,,,,,,,,,,,,,,,,,
1.05,right,1,,,,,,stim/both.png,stim/neutralLeft.png,right,180,2025,2020-05-17_15h17.41.968,ANTCPTp,2020.1.2,Win32,60,0.50129,,,1,39,87,37,1,,,,,,,,,,,,,,,,,,,,,,,,,,,,,,,,,,,,,,,,,,
0.9,left,1,,,,,,stim/upper.png,stim/incongLeft.png,left,0,2025,2020-05-17_15h17.41.968,ANTCPTp,2020.1.2,Win32,60,0.75483,,,1,40,88,16,1,,,,,,,,,,,,,,,,,,,,,,,,,,,,,,,,,,,,,,,,,,
0.8,right,0,,,,,,stim/centre.png,stim/incongRight.png,left,180,2025,2020-05-17_15h17.41.968,ANTCPTp,2020.1.2,Win32,60,0.43565,,,1,41,89,30,1,,,,,,,,,,,,,,,,,,,,,,,,,,,,,,,,,,,,,,,,,,
0.65,right,1,,,,,,stim/lower.png,stim/congLeft.png,right,180,2025,2020-05-17_15h17.41.968,ANTCPTp,2020.1.2,Win32,60,0.53607,,,1,42,90,4,1,,,,,,,,,,,,,,,,,,,,,,,,,,,,,,,,,,,,,,,,,,
1.45,left,1,,,,,,stim/centre.png,stim/incongLeft.png,left,0,2025,2020-05-17_15h17.41.968,ANTCPTp,2020.1.2,Win32,60,0.6422,,,1,43,91,18,1,,,,,,,,,,,,,,,,,,,,,,,,,,,,,,,,,,,,,,,,,,
0.5,right,1,,,,,,stim/centre.png,stim/neutralLeft.png,right,180,2025,2020-05-17_15h17.41.968,ANTCPTp,2020.1.2,Win32,60,0.570645,,,1,44,92,38,1,,,,,,,,,,,,,,,,,,,,,,,,,,,,,,,,,,,,,,,,,,
1.15,right,1,,,,,,stim/blank.png,stim/neutralRight.png,right,0,2025,2020-05-17_15h17.41.968,ANTCPTp,2020.1.2,Win32,60,0.48654,,,1,45,93,43,1,,,,,,,,,,,,,,,,,,,,,,,,,,,,,,,,,,,,,,,,,,
0.95,left,1,,,,,,stim/lower.png,stim/congRight.png,left,180,2025,2020-05-17_15h17.41.968,ANTCPTp,2020.1.2,Win32,60,0.479255,,,1,46,94,12,1,,,,,,,,,,,,,,,,,,,,,,,,,,,,,,,,,,,,,,,,,,
0.6,right,1,,,,,,stim/centre.png,stim/congRight.png,right,0,2025,2020-05-17_15h17.41.968,ANTCPTp,2020.1.2,Win32,60,0.45208,,,1,47,95,10,1,,,,,,,,,,,,,,,,,,,,,,,,,,,,,,,,,,,,,,,,,,
,,,,,,,,,,,,2025,2020-05-17_15h17.41.968,ANTCPTp,2020.1.2,Win32,60,,,,,,,,,1,0,1,0,1,,,,,,,,,,,,,,,,,,,,,,,,,,,,,,,,,,,,,
1.5,right,1,,,,,,stim/both.png,stim/incongRight.png,right,0,2025,2020-05-17_15h17.41.968,ANTCPTp,2020.1.2,Win32,60,0.65318,,,0,0,0,25,1,,,,,,,,,,,,,,,,,,,,,,,,,,,,,,,,,,,,,,,,,,
0.6,right,1,,,,,,stim/both.png,stim/congRight.png,right,0,2025,2020-05-17_15h17.41.968,ANTCPTp,2020.1.2,Win32,60,0.612975,,,0,1,1,9,1,,,,,,,,,,,,,,,,,,,,,,,,,,,,,,,,,,,,,,,,,,
1.15,left,1,,,,,,stim/both.png,stim/incongLeft.png,left,0,2025,2020-05-17_15h17.41.968,ANTCPTp,2020.1.2,Win32,60,0.560025,,,0,2,2,17,1,,,,,,,,,,,,,,,,,,,,,,,,,,,,,,,,,,,,,,,,,,
0.65,right,1,,,,,,stim/both.png,stim/neutralLeft.png,right,180,2025,2020-05-17_15h17.41.968,ANTCPTp,2020.1.2,Win32,60,0.55596,,,0,3,3,37,1,,,,,,,,,,,,,,,,,,,,,,,,,,,,,,,,,,,,,,,,,,
0.85,left,1,,,,,,stim/blank.png,stim/congRight.png,left,180,2025,2020-05-17_15h17.41.968,ANTCPTp,2020.1.2,Win32,60,0.558115,,,0,4,4,15,1,,,,,,,,,,,,,,,,,,,,,,,,,,,,,,,,,,,,,,,,,,
1.5,left,1,,,,,,stim/blank.png,stim/neutralRight.png,left,180,2025,2020-05-17_15h17.41.968,ANTCPTp,2020.1.2,Win32,60,0.54212,,,0,5,5,47,1,,,,,,,,,,,,,,,,,,,,,,,,,,,,,,,,,,,,,,,,,,
1.2,left,1,,,,,,stim/both.png,stim/incongRight.png,left,180,2025,2020-05-17_15h17.41.968,ANTCPTp,2020.1.2,Win32,60,0.93924,,,0,6,6,29,1,,,,,,,,,,,,,,,,,,,,,,,,,,,,,,,,,,,,,,,,,,
0.7,left,1,,,,,,stim/lower.png,stim/congRight.png,left,180,2025,2020-05-17_15h17.41.968,ANTCPTp,2020.1.2,Win32,60,0.508035,,,0,7,7,12,1,,,,,,,,,,,,,,,,,,,,,,,,,,,,,,,,,,,,,,,,,,
0.45,right,1,,,,,,stim/centre.png,stim/congRight.png,right,0,2025,2020-05-17_15h17.41.968,ANTCPTp,2020.1.2,Win32,60,0.485575,,,0,8,8,10,1,,,,,,,,,,,,,,,,,,,,,,,,,,,,,,,,,,,,,,,,,,
0.4,right,1,,,,,,stim/blank.png,stim/congLeft.png,right,180,2025,2020-05-17_15h17.41.968,ANTCPTp,2020.1.2,Win32,60,0.55267,,,0,9,9,7,1,,,,,,,,,,,,,,,,,,,,,,,,,,,,,,,,,,,,,,,,,,
1.5,left,1,,,,,,stim/centre.png,stim/congLeft.png,left,0,2025,2020-05-17_15h17.41.968,ANTCPTp,2020.1.2,Win32,60,0.424655,,,0,10,10,2,1,,,,,,,,,,,,,,,,,,,,,,,,,,,,,,,,,,,,,,,,,,
0.85,left,1,,,,,,stim/upper.png,stim/incongLeft.png,left,0,2025,2020-05-17_15h17.41.968,ANTCPTp,2020.1.2,Win32,60,0.592605,,,0,11,11,16,1,,,,,,,,,,,,,,,,,,,,,,,,,,,,,,,,,,,,,,,,,,
1.4,right,1,,,,,,stim/upper.png,stim/incongRight.png,right,0,2025,2020-05-17_15h17.41.968,ANTCPTp,2020.1.2,Win32,60,0.58784,,,0,12,12,24,1,,,,,,,,,,,,,,,,,,,,,,,,,,,,,,,,,,,,,,,,,,
1.4,left,1,,,,,,stim/blank.png,stim/neutralLeft.png,left,0,2025,2020-05-17_15h17.41.968,ANTCPTp,2020.1.2,Win32,60,0.485405,,,0,13,13,35,1,,,,,,,,,,,,,,,,,,,,,,,,,,,,,,,,,,,,,,,,,,
0.75,right,1,,,,,,stim/blank.png,stim/neutralRight.png,right,0,2025,2020-05-17_15h17.41.968,ANTCPTp,2020.1.2,Win32,60,0.49992,,,0,14,14,43,1,,,,,,,,,,,,,,,,,,,,,,,,,,,,,,,,,,,,,,,,,,
0.65,right,1,,,,,,stim/upper.png,stim/neutralRight.png,right,0,2025,2020-05-17_15h17.41.968,ANTCPTp,2020.1.2,Win32,60,0.40394,,,0,15,15,40,1,,,,,,,,,,,,,,,,,,,,,,,,,,,,,,,,,,,,,,,,,,
1.55,right,1,,,,,,stim/centre.png,stim/congLeft.png,right,180,2025,2020-05-17_15h17.41.968,ANTCPTp,2020.1.2,Win32,60,0.484415,,,0,16,16,6,1,,,,,,,,,,,,,,,,,,,,,,,,,,,,,,,,,,,,,,,,,,
0.45,left,1,,,,,,stim/both.png,stim/congLeft.png,left,0,2025,2020-05-17_15h17.41.968,ANTCPTp,2020.1.2,Win32,60,0.438815,,,0,17,17,1,1,,,,,,,,,,,,,,,,,,,,,,,,,,,,,,,,,,,,,,,,,,
0.65,left,1,,,,,,stim/centre.png,stim/incongLeft.png,left,0,2025,2020-05-17_15h17.41.968,ANTCPTp,2020.1.2,Win32,60,0.524975,,,0,18,18,18,1,,,,,,,,,,,,,,,,,,,,,,,,,,,,,,,,,,,,,,,,,,
0.5,left,1,,,,,,stim/blank.png,stim/congLeft.png,left,0,2025,2020-05-17_15h17.41.968,ANTCPTp,2020.1.2,Win32,60,0.43721,,,0,19,19,3,1,,,,,,,,,,,,,,,,,,,,,,,,,,,,,,,,,,,,,,,,,,
0.45,right,0,,,,,,stim/blank.png,stim/incongRight.png,left,180,2025,2020-05-17_15h17.41.968,ANTCPTp,2020.1.2,Win32,60,0.511475,,,0,20,20,31,1,,,,,,,,,,,,,,,,,,,,,,,,,,,,,,,,,,,,,,,,,,
1.35,right,1,,,,,,stim/lower.png,stim/incongLeft.png,right,180,2025,2020-05-17_15h17.41.968,ANTCPTp,2020.1.2,Win32,60,0.6335,,,0,21,21,20,1,,,,,,,,,,,,,,,,,,,,,,,,,,,,,,,,,,,,,,,,,,
1.3,left,1,,,,,,stim/lower.png,stim/incongRight.png,left,180,2025,2020-05-17_15h17.41.968,ANTCPTp,2020.1.2,Win32,60,0.61768,,,0,22,22,28,1,,,,,,,,,,,,,,,,,,,,,,,,,,,,,,,,,,,,,,,,,,
1.35,left,1,,,,,,stim/both.png,stim/congRight.png,left,180,2025,2020-05-17_15h17.41.968,ANTCPTp,2020.1.2,Win32,60,0.515535,,,0,23,23,13,1,,,,,,,,,,,,,,,,,,,,,,,,,,,,,,,,,,,,,,,,,,
1.05,right,1,,,,,,stim/blank.png,stim/congRight.png,right,0,2025,2020-05-17_15h17.41.968,ANTCPTp,2020.1.2,Win32,60,0.524325,,,0,24,24,11,1,,,,,,,,,,,,,,,,,,,,,,,,,,,,,,,,,,,,,,,,,,
1.3,left,1,,,,,,stim/upper.png,stim/neutralLeft.png,left,0,2025,2020-05-17_15h17.41.968,ANTCPTp,2020.1.2,Win32,60,0.401735,,,0,25,25,32,1,,,,,,,,,,,,,,,,,,,,,,,,,,,,,,,,,,,,,,,,,,
1.2,left,1,,,,,,stim/both.png,stim/neutralRight.png,left,180,2025,2020-05-17_15h17.41.968,ANTCPTp,2020.1.2,Win32,60,0.545915,,,0,26,26,45,1,,,,,,,,,,,,,,,,,,,,,,,,,,,,,,,,,,,,,,,,,,
1.35,right,1,,,,,,stim/blank.png,stim/neutralLeft.png,right,180,2025,2020-05-17_15h17.41.968,ANTCPTp,2020.1.2,Win32,60,0.470305,,,0,27,27,39,1,,,,,,,,,,,,,,,,,,,,,,,,,,,,,,,,,,,,,,,,,,
1.1,right,0,,,,,,stim/centre.png,stim/incongRight.png,left,180,2025,2020-05-17_15h17.41.968,ANTCPTp,2020.1.2,Win32,60,0.427455,,,0,28,28,30,1,,,,,,,,,,,,,,,,,,,,,,,,,,,,,,,,,,,,,,,,,,
0.4,right,1,,,,,,stim/centre.png,stim/incongLeft.png,right,180,2025,2020-05-17_15h17.41.968,ANTCPTp,2020.1.2,Win32,60,0.70136,,,0,29,29,22,1,,,,,,,,,,,,,,,,,,,,,,,,,,,,,,,,,,,,,,,,,,
1.1,left,1,,,,,,stim/both.png,stim/neutralLeft.png,left,0,2025,2020-05-17_15h17.41.968,ANTCPTp,2020.1.2,Win32,60,0.50516,,,0,30,30,33,1,,,,,,,,,,,,,,,,,,,,,,,,,,,,,,,,,,,,,,,,,,
0.65,right,1,,,,,,stim/blank.png,stim/incongLeft.png,right,180,2025,2020-05-17_15h17.41.968,ANTCPTp,2020.1.2,Win32,60,0.68542,,,0,31,31,23,1,,,,,,,,,,,,,,,,,,,,,,,,,,,,,,,,,,,,,,,,,,
1.05,right,1,,,,,,stim/centre.png,stim/neutralLeft.png,right,180,2025,2020-05-17_15h17.41.968,ANTCPTp,2020.1.2,Win32,60,0.5208,,,0,32,32,38,1,,,,,,,,,,,,,,,,,,,,,,,,,,,,,,,,,,,,,,,,,,
1.25,left,1,,,,,,stim/centre.png,stim/neutralRight.png,left,180,2025,2020-05-17_15h17.41.968,ANTCPTp,2020.1.2,Win32,60,0.48767,,,0,33,33,46,1,,,,,,,,,,,,,,,,,,,,,,,,,,,,,,,,,,,,,,,,,,
0.9,right,1,,,,,,stim/blank.png,stim/incongRight.png,right,0,2025,2020-05-17_15h17.41.968,ANTCPTp,2020.1.2,Win32,60,0.537035,,,0,34,34,27,1,,,,,,,,,,,,,,,,,,,,,,,,,,,,,,,,,,,,,,,,,,
0.6,right,1,,,,,,stim/both.png,stim/neutralRight.png,right,0,2025,2020-05-17_15h17.41.968,ANTCPTp,2020.1.2,Win32,60,0.45502,,,0,35,35,41,1,,,,,,,,,,,,,,,,,,,,,,,,,,,,,,,,,,,,,,,,,,
0.9,right,1,,,,,,stim/both.png,stim/incongLeft.png,right,180,2025,2020-05-17_15h17.41.968,ANTCPTp,2020.1.2,Win32,60,0.550635,,,0,36,36,21,1,,,,,,,,,,,,,,,,,,,,,,,,,,,,,,,,,,,,,,,,,,
0.75,right,1,,,,,,stim/centre.png,stim/neutralRight.png,right,0,2025,2020-05-17_15h17.41.968,ANTCPTp,2020.1.2,Win32,60,0.483595,,,0,37,37,42,1,,,,,,,,,,,,,,,,,,,,,,,,,,,,,,,,,,,,,,,,,,
1.15,right,1,,,,,,stim/centre.png,stim/incongRight.png,right,0,2025,2020-05-17_15h17.41.968,ANTCPTp,2020.1.2,Win32,60,0.568735,,,0,38,38,26,1,,,,,,,,,,,,,,,,,,,,,,,,,,,,,,,,,,,,,,,,,,
0.95,right,1,,,,,,stim/lower.png,stim/neutralLeft.png,right,180,2025,2020-05-17_15h17.41.968,ANTCPTp,2020.1.2,Win32,60,0.435785,,,0,39,39,36,1,,,,,,,,,,,,,,,,,,,,,,,,,,,,,,,,,,,,,,,,,,
1.4,left,1,,,,,,stim/centre.png,stim/congRight.png,left,180,2025,2020-05-17_15h17.41.968,ANTCPTp,2020.1.2,Win32,60,0.44063,,,0,40,40,14,1,,,,,,,,,,,,,,,,,,,,,,,,,,,,,,,,,,,,,,,,,,
0.95,right,1,,,,,,stim/upper.png,stim/congRight.png,right,0,2025,2020-05-17_15h17.41.968,ANTCPTp,2020.1.2,Win32,60,0.444045,,,0,41,41,8,1,,,,,,,,,,,,,,,,,,,,,,,,,,,,,,,,,,,,,,,,,,
0.45,left,1,,,,,,stim/centre.png,stim/neutralLeft.png,left,0,2025,2020-05-17_15h17.41.968,ANTCPTp,2020.1.2,Win32,60,0.736045,,,0,42,42,34,1,,,,,,,,,,,,,,,,,,,,,,,,,,,,,,,,,,,,,,,,,,
1.05,right,1,,,,,,stim/lower.png,stim/congLeft.png,right,180,2025,2020-05-17_15h17.41.968,ANTCPTp,2020.1.2,Win32,60,0.415545,,,0,43,43,4,1,,,,,,,,,,,,,,,,,,,,,,,,,,,,,,,,,,,,,,,,,,
1.2,left,1,,,,,,stim/lower.png,stim/neutralRight.png,left,180,2025,2020-05-17_15h17.41.968,ANTCPTp,2020.1.2,Win32,60,0.451815,,,0,44,44,44,1,,,,,,,,,,,,,,,,,,,,,,,,,,,,,,,,,,,,,,,,,,
0.75,right,0,,,,,,stim/blank.png,stim/incongLeft.png,left,0,2025,2020-05-17_15h17.41.968,ANTCPTp,2020.1.2,Win32,60,0.44339,,,0,45,45,19,1,,,,,,,,,,,,,,,,,,,,,,,,,,,,,,,,,,,,,,,,,,
1.2,left,1,,,,,,stim/upper.png,stim/congLeft.png,left,0,2025,2020-05-17_15h17.41.968,ANTCPTp,2020.1.2,Win32,60,0.508565,,,0,46,46,0,1,,,,,,,,,,,,,,,,,,,,,,,,,,,,,,,,,,,,,,,,,,
0.75,right,1,,,,,,stim/both.png,stim/congLeft.png,right,180,2025,2020-05-17_15h17.41.968,ANTCPTp,2020.1.2,Win32,60,0.493025,,,0,47,47,5,1,,,,,,,,,,,,,,,,,,,,,,,,,,,,,,,,,,,,,,,,,,
1.55,left,1,,,,,,stim/blank.png,stim/incongLeft.png,left,0,2025,2020-05-17_15h17.41.968,ANTCPTp,2020.1.2,Win32,60,0.59113,,,1,0,48,19,1,,,,,,,,,,,,,,,,,,,,,,,,,,,,,,,,,,,,,,,,,,
0.65,left,1,,,,,,stim/blank.png,stim/neutralLeft.png,left,0,2025,2020-05-17_15h17.41.968,ANTCPTp,2020.1.2,Win32,60,0.468215,,,1,1,49,35,1,,,,,,,,,,,,,,,,,,,,,,,,,,,,,,,,,,,,,,,,,,
0.65,right,1,,,,,,stim/upper.png,stim/neutralRight.png,right,0,2025,2020-05-17_15h17.41.968,ANTCPTp,2020.1.2,Win32,60,0.505355,,,1,2,50,40,1,,,,,,,,,,,,,,,,,,,,,,,,,,,,,,,,,,,,,,,,,,
1.35,left,1,,,,,,stim/both.png,stim/incongRight.png,left,180,2025,2020-05-17_15h17.41.968,ANTCPTp,2020.1.2,Win32,60,0.67024,,,1,3,51,29,1,,,,,,,,,,,,,,,,,,,,,,,,,,,,,,,,,,,,,,,,,,
1.2,left,1,,,,,,stim/blank.png,stim/incongRight.png,left,180,2025,2020-05-17_15h17.41.968,ANTCPTp,2020.1.2,Win32,60,0.588795,,,1,4,52,31,1,,,,,,,,,,,,,,,,,,,,,,,,,,,,,,,,,,,,,,,,,,
0.5,right,1,,,,,,stim/both.png,stim/congRight.png,right,0,2025,2020-05-17_15h17.41.968,ANTCPTp,2020.1.2,Win32,60,0.52003,,,1,5,53,9,1,,,,,,,,,,,,,,,,,,,,,,,,,,,,,,,,,,,,,,,,,,
1.35,left,1,,,,,,stim/both.png,stim/incongLeft.png,left,0,2025,2020-05-17_15h17.41.968,ANTCPTp,2020.1.2,Win32,60,0.537615,,,1,6,54,17,1,,,,,,,,,,,,,,,,,,,,,,,,,,,,,,,,,,,,,,,,,,
0.95,right,1,,,,,,stim/lower.png,stim/congLeft.png,right,180,2025,2020-05-17_15h17.41.968,ANTCPTp,2020.1.2,Win32,60,0.51803,,,1,7,55,4,1,,,,,,,,,,,,,,,,,,,,,,,,,,,,,,,,,,,,,,,,,,
0.75,left,1,,,,,,stim/centre.png,stim/neutralRight.png,left,180,2025,2020-05-17_15h17.41.968,ANTCPTp,2020.1.2,Win32,60,0.50339,,,1,8,56,46,1,,,,,,,,,,,,,,,,,,,,,,,,,,,,,,,,,,,,,,,,,,
1.45,left,1,,,,,,stim/lower.png,stim/incongRight.png,left,180,2025,2020-05-17_15h17.41.968,ANTCPTp,2020.1.2,Win32,60,0.560355,,,1,9,57,28,1,,,,,,,,,,,,,,,,,,,,,,,,,,,,,,,,,,,,,,,,,,
1.5,left,1,,,,,,stim/both.png,stim/congLeft.png,left,0,2025,2020-05-17_15h17.41.968,ANTCPTp,2020.1.2,Win32,60,0.437215,,,1,10,58,1,1,,,,,,,,,,,,,,,,,,,,,,,,,,,,,,,,,,,,,,,,,,
0.6,right,1,,,,,,stim/centre.png,stim/congLeft.png,right,180,2025,2020-05-17_15h17.41.968,ANTCPTp,2020.1.2,Win32,60,0.48592,,,1,11,59,6,1,,,,,,,,,,,,,,,,,,,,,,,,,,,,,,,,,,,,,,,,,,
1.1,left,1,,,,,,stim/centre.png,stim/congLeft.png,left,0,2025,2020-05-17_15h17.41.968,ANTCPTp,2020.1.2,Win32,60,0.387495,,,1,12,60,2,1,,,,,,,,,,,,,,,,,,,,,,,,,,,,,,,,,,,,,,,,,,
0.7,left,1,,,,,,stim/upper.png,stim/incongLeft.png,left,0,2025,2020-05-17_15h17.41.968,ANTCPTp,2020.1.2,Win32,60,0.50749,,,1,13,61,16,1,,,,,,,,,,,,,,,,,,,,,,,,,,,,,,,,,,,,,,,,,,
0.8,left,1,,,,,,stim/both.png,stim/neutralLeft.png,left,0,2025,2020-05-17_15h17.41.968,ANTCPTp,2020.1.2,Win32,60,0.410355,,,1,14,62,33,1,,,,,,,,,,,,,,,,,,,,,,,,,,,,,,,,,,,,,,,,,,
1.45,left,1,,,,,,stim/lower.png,stim/congRight.png,left,180,2025,2020-05-17_15h17.41.968,ANTCPTp,2020.1.2,Win32,60,0.443085,,,1,15,63,12,1,,,,,,,,,,,,,,,,,,,,,,,,,,,,,,,,,,,,,,,,,,
0.9,left,1,,,,,,stim/centre.png,stim/neutralLeft.png,left,0,2025,2020-05-17_15h17.41.968,ANTCPTp,2020.1.2,Win32,60,0.43852,,,1,16,64,34,1,,,,,,,,,,,,,,,,,,,,,,,,,,,,,,,,,,,,,,,,,,
0.5,right,1,,,,,,stim/blank.png,stim/congLeft.png,right,180,2025,2020-05-17_15h17.41.968,ANTCPTp,2020.1.2,Win32,60,0.435755,,,1,17,65,7,1,,,,,,,,,,,,,,,,,,,,,,,,,,,,,,,,,,,,,,,,,,
1.5,right,1,,,,,,stim/blank.png,stim/incongLeft.png,right,180,2025,2020-05-17_15h17.41.968,ANTCPTp,2020.1.2,Win32,60,0.79309,,,1,18,66,23,1,,,,,,,,,,,,,,,,,,,,,,,,,,,,,,,,,,,,,,,,,,
0.7,right,0,,,,,,stim/centre.png,stim/incongRight.png,left,180,2025,2020-05-17_15h17.41.968,ANTCPTp,2020.1.2,Win32,60,0.424205,,,1,19,67,30,1,,,,,,,,,,,,,,,,,,,,,,,,,,,,,,,,,,,,,,,,,,
1.55,left,1,,,,,,stim/blank.png,stim/congLeft.png,left,0,2025,2020-05-17_15h17.41.968,ANTCPTp,2020.1.2,Win32,60,1.09982,,,1,20,68,3,1,,,,,,,,,,,,,,,,,,,,,,,,,,,,,,,,,,,,,,,,,,
0.5,right,1,,,,,,stim/both.png,stim/incongRight.png,right,0,2025,2020-05-17_15h17.41.968,ANTCPTp,2020.1.2,Win32,60,0.58129,,,1,21,69,25,1,,,,,,,,,,,,,,,,,,,,,,,,,,,,,,,,,,,,,,,,,,
1.2,right,1,,,,,,stim/blank.png,stim/neutralLeft.png,right,180,2025,2020-05-17_15h17.41.968,ANTCPTp,2020.1.2,Win32,60,0.47065,,,1,22,70,39,1,,,,,,,,,,,,,,,,,,,,,,,,,,,,,,,,,,,,,,,,,,
1.55,left,1,,,,,,stim/lower.png,stim/neutralRight.png,left,180,2025,2020-05-17_15h17.41.968,ANTCPTp,2020.1.2,Win32,60,0.419725,,,1,23,71,44,1,,,,,,,,,,,,,,,,,,,,,,,,,,,,,,,,,,,,,,,,,,
0.7,right,1,,,,,,stim/lower.png,stim/neutralLeft.png,right,180,2025,2020-05-17_15h17.41.968,ANTCPTp,2020.1.2,Win32,60,0.499515,,,1,24,72,36,1,,,,,,,,,,,,,,,,,,,,,,,,,,,,,,,,,,,,,,,,,,
0.4,left,0,,,,,,stim/both.png,stim/incongLeft.png,right,180,2025,2020-05-17_15h17.41.968,ANTCPTp,2020.1.2,Win32,60,0.4083,,,1,25,73,21,1,,,,,,,,,,,,,,,,,,,,,,,,,,,,,,,,,,,,,,,,,,
0.8,left,1,,,,,,stim/upper.png,stim/neutralLeft.png,left,0,2025,2020-05-17_15h17.41.968,ANTCPTp,2020.1.2,Win32,60,0.522825,,,1,26,74,32,1,,,,,,,,,,,,,,,,,,,,,,,,,,,,,,,,,,,,,,,,,,
1.2,right,1,,,,,,stim/centre.png,stim/neutralLeft.png,right,180,2025,2020-05-17_15h17.41.968,ANTCPTp,2020.1.2,Win32,60,0.53553,,,1,27,75,38,1,,,,,,,,,,,,,,,,,,,,,,,,,,,,,,,,,,,,,,,,,,
0.9,right,1,,,,,,stim/both.png,stim/neutralRight.png,right,0,2025,2020-05-17_15h17.41.968,ANTCPTp,2020.1.2,Win32,60,0.53281,,,1,28,76,41,1,,,,,,,,,,,,,,,,,,,,,,,,,,,,,,,,,,,,,,,,,,
0.85,right,1,,,,,,stim/centre.png,stim/incongRight.png,right,0,2025,2020-05-17_15h17.41.968,ANTCPTp,2020.1.2,Win32,60,0.583205,,,1,29,77,26,1,,,,,,,,,,,,,,,,,,,,,,,,,,,,,,,,,,,,,,,,,,
1.35,right,1,,,,,,stim/both.png,stim/congLeft.png,right,180,2025,2020-05-17_15h17.41.968,ANTCPTp,2020.1.2,Win32,60,0.60187,,,1,30,78,5,1,,,,,,,,,,,,,,,,,,,,,,,,,,,,,,,,,,,,,,,,,,
0.7,left,1,,,,,,stim/both.png,stim/neutralRight.png,left,180,2025,2020-05-17_15h17.41.968,ANTCPTp,2020.1.2,Win32,60,0.45643,,,1,31,79,45,1,,,,,,,,,,,,,,,,,,,,,,,,,,,,,,,,,,,,,,,,,,
1.45,right,1,,,,,,stim/centre.png,stim/neutralRight.png,right,0,2025,2020-05-17_15h17.41.968,ANTCPTp,2020.1.2,Win32,60,0.45545,,,1,32,80,42,1,,,,,,,,,,,,,,,,,,,,,,,,,,,,,,,,,,,,,,,,,,
1.05,right,0,,,,,,stim/centre.png,stim/incongLeft.png,left,0,2025,2020-05-17_15h17.41.968,ANTCPTp,2020.1.2,Win32,60,0.406215,,,1,33,81,18,1,,,,,,,,,,,,,,,,,,,,,,,,,,,,,,,,,,,,,,,,,,
0.6,right,1,,,,,,stim/centre.png,stim/incongLeft.png,right,180,2025,2020-05-17_15h17.41.968,ANTCPTp,2020.1.2,Win32,60,0.60348,,,1,34,82,22,1,,,,,,,,,,,,,,,,,,,,,,,,,,,,,,,,,,,,,,,,,,
0.45,left,1,,,,,,stim/blank.png,stim/neutralRight.png,left,180,2025,2020-05-17_15h17.41.968,ANTCPTp,2020.1.2,Win32,60,0.47484,,,1,35,83,47,1,,,,,,,,,,,,,,,,,,,,,,,,,,,,,,,,,,,,,,,,,,
0.45,right,1,,,,,,stim/blank.png,stim/neutralRight.png,right,0,2025,2020-05-17_15h17.41.968,ANTCPTp,2020.1.2,Win32,60,0.535435,,,1,36,84,43,1,,,,,,,,,,,,,,,,,,,,,,,,,,,,,,,,,,,,,,,,,,
0.6,right,1,,,,,,stim/lower.png,stim/incongLeft.png,right,180,2025,2020-05-17_15h17.41.968,ANTCPTp,2020.1.2,Win32,60,0.550535,,,1,37,85,20,1,,,,,,,,,,,,,,,,,,,,,,,,,,,,,,,,,,,,,,,,,,
0.75,left,1,,,,,,stim/centre.png,stim/congRight.png,left,180,2025,2020-05-17_15h17.41.968,ANTCPTp,2020.1.2,Win32,60,0.462195,,,1,38,86,14,1,,,,,,,,,,,,,,,,,,,,,,,,,,,,,,,,,,,,,,,,,,
1.35,right,1,,,,,,stim/centre.png,stim/congRight.png,right,0,2025,2020-05-17_15h17.41.968,ANTCPTp,2020.1.2,Win32,60,0.45372,,,1,39,87,10,1,,,,,,,,,,,,,,,,,,,,,,,,,,,,,,,,,,,,,,,,,,
1.35,right,1,,,,,,stim/upper.png,stim/congRight.png,right,0,2025,2020-05-17_15h17.41.968,ANTCPTp,2020.1.2,Win32,60,0.484705,,,1,40,88,8,1,,,,,,,,,,,,,,,,,,,,,,,,,,,,,,,,,,,,,,,,,,
0.55,left,1,,,,,,stim/upper.png,stim/congLeft.png,left,0,2025,2020-05-17_15h17.41.968,ANTCPTp,2020.1.2,Win32,60,0.45856,,,1,41,89,0,1,,,,,,,,,,,,,,,,,,,,,,,,,,,,,,,,,,,,,,,,,,
0.8,left,0,,,,,,stim/upper.png,stim/incongRight.png,right,0,2025,2020-05-17_15h17.41.968,ANTCPTp,2020.1.2,Win32,60,0.41169,,,1,42,90,24,1,,,,,,,,,,,,,,,,,,,,,,,,,,,,,,,,,,,,,,,,,,
0.5,right,1,,,,,,stim/both.png,stim/neutralLeft.png,right,180,2025,2020-05-17_15h17.41.968,ANTCPTp,2020.1.2,Win32,60,0.55381,,,1,43,91,37,1,,,,,,,,,,,,,,,,,,,,,,,,,,,,,,,,,,,,,,,,,,
1,left,1,,,,,,stim/blank.png,stim/congRight.png,left,180,2025,2020-05-17_15h17.41.968,ANTCPTp,2020.1.2,Win32,60,0.4701,,,1,44,92,15,1,,,,,,,,,,,,,,,,,,,,,,,,,,,,,,,,,,,,,,,,,,
1.05,right,1,,,,,,stim/blank.png,stim/incongRight.png,right,0,2025,2020-05-17_15h17.41.968,ANTCPTp,2020.1.2,Win32,60,0.58841,,,1,45,93,27,1,,,,,,,,,,,,,,,,,,,,,,,,,,,,,,,,,,,,,,,,,,
1.2,left,1,,,,,,stim/both.png,stim/congRight.png,left,180,2025,2020-05-17_15h17.41.968,ANTCPTp,2020.1.2,Win32,60,0.53691,,,1,46,94,13,1,,,,,,,,,,,,,,,,,,,,,,,,,,,,,,,,,,,,,,,,,,
0.9,right,1,,,,,,stim/blank.png,stim/congRight.png,right,0,2025,2020-05-17_15h17.41.968,ANTCPTp,2020.1.2,Win32,60,0.578995,,,1,47,95,11,1,,,,,,,,,,,,,,,,,,,,,,,,,,,,,,,,,,,,,,,,,,
,,,,,,,,,,space,,2025,2020-05-17_15h17.41.968,ANTCPTp,2020.1.2,Win32,60,,,,,,,,,,,,,,space,51.51486,space,56.732405,space,10.498905,space,1,0.57498,0,0,0,14,1,Y,,,,,,,,,,,,,,,,,,,,,,
,,,,,,,,,,space,,2025,2020-05-17_15h17.41.968,ANTCPTp,2020.1.2,Win32,60,,,,,,,,,,,,,,,,,,,,space,1,0.38903,0,1,1,8,1,O,,,,,,,,,,,,,,,,,,,,,,
,,,,,,,,,,space,,2025,2020-05-17_15h17.41.968,ANTCPTp,2020.1.2,Win32,60,,,,,,,,,,,,,,,,,,,,space,1,0.394985,0,2,2,7,1,N,,,,,,,,,,,,,,,,,,,,,,
,,,,,,,,,,space,,2025,2020-05-17_15h17.41.968,ANTCPTp,2020.1.2,Win32,60,,,,,,,,,,,,,,,,,,,,space,1,0.38472,0,3,3,6,1,J,,,,,,,,,,,,,,,,,,,,,,
,,,,,,,,,,space,,2025,2020-05-17_15h17.41.968,ANTCPTp,2020.1.2,Win32,60,,,,,,,,,,,,,,,,,,,,space,1,0.279755,0,4,4,13,1,W,,,,,,,,,,,,,,,,,,,,,,
,,,,,,,,,,space,,2025,2020-05-17_15h17.41.968,ANTCPTp,2020.1.2,Win32,60,,,,,,,,,,,,,,,,,,,,space,1,0.304365,0,5,5,4,1,E,,,,,,,,,,,,,,,,,,,,,,
,,,,,,,,,,space,,2025,2020-05-17_15h17.41.968,ANTCPTp,2020.1.2,Win32,60,,,,,,,,,,,,,,,,,,,,space,1,0.32728,0,6,6,11,1,U,,,,,,,,,,,,,,,,,,,,,,
,,,,,,,,,,,,2025,2020-05-17_15h17.41.968,ANTCPTp,2020.1.2,Win32,60,,,,,,,,,,,,,,,,,,,,space,0,0.266335,0,7,7,15,1,X,,,,,,,,,,,,,,,,,,,,,,
,,,,,,,,,,space,,2025,2020-05-17_15h17.41.968,ANTCPTp,2020.1.2,Win32,60,,,,,,,,,,,,,,,,,,,,space,1,0.25209,0,8,8,9,1,P,,,,,,,,,,,,,,,,,,,,,,
,,,,,,,,,,space,,2025,2020-05-17_15h17.41.968,ANTCPTp,2020.1.2,Win32,60,,,,,,,,,,,,,,,,,,,,space,1,0.352725,0,9,9,2,1,C,,,,,,,,,,,,,,,,,,,,,,
,,,,,,,,,,,,2025,2020-05-17_15h17.41.968,ANTCPTp,2020.1.2,Win32,60,,,,,,,,,,,,,,,,,,,,space,0,0.361655,0,10,10,16,1,X,,,,,,,,,,,,,,,,,,,,,,
,,,,,,,,,,space,,2025,2020-05-17_15h17.41.968,ANTCPTp,2020.1.2,Win32,60,,,,,,,,,,,,,,,,,,,,space,1,0.33322,0,11,11,3,1,D,,,,,,,,,,,,,,,,,,,,,,
,,,,,,,,,,space,,2025,2020-05-17_15h17.41.968,ANTCPTp,2020.1.2,Win32,60,,,,,,,,,,,,,,,,,,,,space,1,0.383605,0,12,12,5,1,F,,,,,,,,,,,,,,,,,,,,,,
,,,,,,,,,,space,,2025,2020-05-17_15h17.41.968,ANTCPTp,2020.1.2,Win32,60,,,,,,,,,,,,,,,,,,,,space,1,0.43225,0,13,13,10,1,Q,,,,,,,,,,,,,,,,,,,,,,
,,,,,,,,,,space,,2025,2020-05-17_15h17.41.968,ANTCPTp,2020.1.2,Win32,60,,,,,,,,,,,,,,,,,,,,space,1,0.4857,0,14,14,12,1,V,,,,,,,,,,,,,,,,,,,,,,
,,,,,,,,,,space,,2025,2020-05-17_15h17.41.968,ANTCPTp,2020.1.2,Win32,60,,,,,,,,,,,,,,,,,,,,space,1,0.41841,0,15,15,0,1,A,,,,,,,,,,,,,,,,,,,,,,
,,,,,,,,,,space,,2025,2020-05-17_15h17.41.968,ANTCPTp,2020.1.2,Win32,60,,,,,,,,,,,,,,,,,,,,space,1,0.38938,0,16,16,1,1,B,,,,,,,,,,,,,,,,,,,,,,
,,,,,,,,,,space,,2025,2020-05-17_15h17.41.968,ANTCPTp,2020.1.2,Win32,60,,,,,,,,,,,,,,,,,,,,space,1,0.55849,,,,,,S,1,14.88281,0,0,0,18,1,,,,,,,,,,,,,,,
,,,,,,,,,,space,,2025,2020-05-17_15h17.41.968,ANTCPTp,2020.1.2,Win32,60,,,,,,,,,,,,,,,,,,,,space,1,0.35187,,,,,,O,,,0,1,1,14,1,,,,,,,,,,,,,,,
,,,,,,,,,,space,,2025,2020-05-17_15h17.41.968,ANTCPTp,2020.1.2,Win32,60,,,,,,,,,,,,,,,,,,,,space,1,0.405915,,,,,,F,,,0,2,2,5,1,,,,,,,,,,,,,,,
,,,,,,,,,,space,,2025,2020-05-17_15h17.41.968,ANTCPTp,2020.1.2,Win32,60,,,,,,,,,,,,,,,,,,,,space,1,0.37134,,,,,,H,,,0,3,3,7,1,,,,,,,,,,,,,,,
,,,,,,,,,,space,,2025,2020-05-17_15h17.41.968,ANTCPTp,2020.1.2,Win32,60,,,,,,,,,,,,,,,,,,,,space,1,0.40151,,,,,,Y,,,0,4,4,23,1,,,,,,,,,,,,,,,
,,,,,,,,,,space,,2025,2020-05-17_15h17.41.968,ANTCPTp,2020.1.2,Win32,60,,,,,,,,,,,,,,,,,,,,space,1,0.363905,,,,,,C,,,0,5,5,2,1,,,,,,,,,,,,,,,
,,,,,,,,,,space,,2025,2020-05-17_15h17.41.968,ANTCPTp,2020.1.2,Win32,60,,,,,,,,,,,,,,,,,,,,space,1,0.35599,,,,,,V,,,0,6,6,21,1,,,,,,,,,,,,,,,
,,,,,,,,,,space,,2025,2020-05-17_15h17.41.968,ANTCPTp,2020.1.2,Win32,60,,,,,,,,,,,,,,,,,,,,space,1,0.341155,,,,,,J,,,0,7,7,9,1,,,,,,,,,,,,,,,
,,,,,,,,,,space,,2025,2020-05-17_15h17.41.968,ANTCPTp,2020.1.2,Win32,60,,,,,,,,,,,,,,,,,,,,space,1,0.38954,,,,,,A,,,0,8,8,25,1,,,,,,,,,,,,,,,
,,,,,,,,,,space,,2025,2020-05-17_15h17.41.968,ANTCPTp,2020.1.2,Win32,60,,,,,,,,,,,,,,,,,,,,space,1,0.388725,,,,,,U,,,0,9,9,20,1,,,,,,,,,,,,,,,
,,,,,,,,,,space,,2025,2020-05-17_15h17.41.968,ANTCPTp,2020.1.2,Win32,60,,,,,,,,,,,,,,,,,,,,space,1,0.35718,,,,,,P,,,0,10,10,15,1,,,,,,,,,,,,,,,
,,,,,,,,,,space,,2025,2020-05-17_15h17.41.968,ANTCPTp,2020.1.2,Win32,60,,,,,,,,,,,,,,,,,,,,space,1,0.364485,,,,,,R,,,0,11,11,17,1,,,,,,,,,,,,,,,
,,,,,,,,,,space,,2025,2020-05-17_15h17.41.968,ANTCPTp,2020.1.2,Win32,60,,,,,,,,,,,,,,,,,,,,space,1,0.369155,,,,,,D,,,0,12,12,3,1,,,,,,,,,,,,,,,
,,,,,,,,,,space,,2025,2020-05-17_15h17.41.968,ANTCPTp,2020.1.2,Win32,60,,,,,,,,,,,,,,,,,,,,space,1,0.339815,,,,,,B,,,0,13,13,1,1,,,,,,,,,,,,,,,
,,,,,,,,,,space,,2025,2020-05-17_15h17.41.968,ANTCPTp,2020.1.2,Win32,60,,,,,,,,,,,,,,,,,,,,space,1,0.42746,,,,,,W,,,0,14,14,22,1,,,,,,,,,,,,,,,
,,,,,,,,,,space,,2025,2020-05-17_15h17.41.968,ANTCPTp,2020.1.2,Win32,60,,,,,,,,,,,,,,,,,,,,space,1,0.40376,,,,,,E,,,0,15,15,4,1,,,,,,,,,,,,,,,
,,,,,,,,,,,,2025,2020-05-17_15h17.41.968,ANTCPTp,2020.1.2,Win32,60,,,,,,,,,,,,,,,,,,,,,1,,,,,,,X,,,0,16,16,28,1,,,,,,,,,,,,,,,
,,,,,,,,,,,,2025,2020-05-17_15h17.41.968,ANTCPTp,2020.1.2,Win32,60,,,,,,,,,,,,,,,,,,,,,1,,,,,,,X,,,0,17,17,29,1,,,,,,,,,,,,,,,
,,,,,,,,,,,,2025,2020-05-17_15h17.41.968,ANTCPTp,2020.1.2,Win32,60,,,,,,,,,,,,,,,,,,,,,1,,,,,,,X,,,0,18,18,26,1,,,,,,,,,,,,,,,
,,,,,,,,,,space,,2025,2020-05-17_15h17.41.968,ANTCPTp,2020.1.2,Win32,60,,,,,,,,,,,,,,,,,,,,space,1,0.410645,,,,,,Q,,,0,19,19,16,1,,,,,,,,,,,,,,,
,,,,,,,,,,space,,2025,2020-05-17_15h17.41.968,ANTCPTp,2020.1.2,Win32,60,,,,,,,,,,,,,,,,,,,,space,1,0.379605,,,,,,M,,,0,20,20,12,1,,,,,,,,,,,,,,,
,,,,,,,,,,space,,2025,2020-05-17_15h17.41.968,ANTCPTp,2020.1.2,Win32,60,,,,,,,,,,,,,,,,,,,,space,1,0.43269,,,,,,I,,,0,21,21,8,1,,,,,,,,,,,,,,,
,,,,,,,,,,,,2025,2020-05-17_15h17.41.968,ANTCPTp,2020.1.2,Win32,60,,,,,,,,,,,,,,,,,,,,,1,,,,,,,X,,,0,22,22,27,1,,,,,,,,,,,,,,,
,,,,,,,,,,space,,2025,2020-05-17_15h17.41.968,ANTCPTp,2020.1.2,Win32,60,,,,,,,,,,,,,,,,,,,,space,1,0.43443,,,,,,T,,,0,23,23,19,1,,,,,,,,,,,,,,,
,,,,,,,,,,space,,2025,2020-05-17_15h17.41.968,ANTCPTp,2020.1.2,Win32,60,,,,,,,,,,,,,,,,,,,,space,1,0.336055,,,,,,Z,,,0,24,24,24,1,,,,,,,,,,,,,,,
,,,,,,,,,,space,,2025,2020-05-17_15h17.41.968,ANTCPTp,2020.1.2,Win32,60,,,,,,,,,,,,,,,,,,,,space,1,0.353005,,,,,,G,,,0,25,25,6,1,,,,,,,,,,,,,,,
,,,,,,,,,,space,,2025,2020-05-17_15h17.41.968,ANTCPTp,2020.1.2,Win32,60,,,,,,,,,,,,,,,,,,,,space,1,0.40764,,,,,,L,,,0,26,26,11,1,,,,,,,,,,,,,,,
,,,,,,,,,,space,,2025,2020-05-17_15h17.41.968,ANTCPTp,2020.1.2,Win32,60,,,,,,,,,,,,,,,,,,,,space,1,0.40708,,,,,,K,,,0,27,27,10,1,,,,,,,,,,,,,,,
,,,,,,,,,,space,,2025,2020-05-17_15h17.41.968,ANTCPTp,2020.1.2,Win32,60,,,,,,,,,,,,,,,,,,,,space,1,0.3519,,,,,,A,,,0,28,28,0,1,,,,,,,,,,,,,,,
,,,,,,,,,,space,,2025,2020-05-17_15h17.41.968,ANTCPTp,2020.1.2,Win32,60,,,,,,,,,,,,,,,,,,,,space,1,0.3283,,,,,,N,,,0,29,29,13,1,,,,,,,,,,,,,,,
,,,,,,,,,,space,,2025,2020-05-17_15h17.41.968,ANTCPTp,2020.1.2,Win32,60,,,,,,,,,,,,,,,,,,,,space,1,0.412885,,,,,,O,1,2.10651,,,,,,0,0,0,10,1,,,,,,,,,,
,,,,,,,,,,space,,2025,2020-05-17_15h17.41.968,ANTCPTp,2020.1.2,Win32,60,,,,,,,,,,,,,,,,,,,,space,1,0.33802,,,,,,Q,,,,,,,,0,1,1,11,1,,,,,,,,,,
,,,,,,,,,,space,,2025,2020-05-17_15h17.41.968,ANTCPTp,2020.1.2,Win32,60,,,,,,,,,,,,,,,,,,,,space,1,0.40976,,,,,,Y,,,,,,,,0,2,2,17,1,,,,,,,,,,
,,,,,,,,,,space,,2025,2020-05-17_15h17.41.968,ANTCPTp,2020.1.2,Win32,60,,,,,,,,,,,,,,,,,,,,space,1,0.3467,,,,,,N,,,,,,,,0,3,3,9,1,,,,,,,,,,
,,,,,,,,,,space,,2025,2020-05-17_15h17.41.968,ANTCPTp,2020.1.2,Win32,60,,,,,,,,,,,,,,,,,,,,space,1,0.360595,,,,,,W,,,,,,,,0,4,4,16,1,,,,,,,,,,
,,,,,,,,,,space,,2025,2020-05-17_15h17.41.968,ANTCPTp,2020.1.2,Win32,60,,,,,,,,,,,,,,,,,,,,space,1,0.36851,,,,,,F,,,,,,,,0,5,5,3,1,,,,,,,,,,
,,,,,,,,,,space,,2025,2020-05-17_15h17.41.968,ANTCPTp,2020.1.2,Win32,60,,,,,,,,,,,,,,,,,,,,space,1,0.39269,,,,,,K,,,,,,,,0,6,6,6,1,,,,,,,,,,
,,,,,,,,,,space,,2025,2020-05-17_15h17.41.968,ANTCPTp,2020.1.2,Win32,60,,,,,,,,,,,,,,,,,,,,space,1,0.58611,,,,,,T,,,,,,,,0,7,7,14,1,,,,,,,,,,
,,,,,,,,,,space,,2025,2020-05-17_15h17.41.968,ANTCPTp,2020.1.2,Win32,60,,,,,,,,,,,,,,,,,,,,space,1,0.34525,,,,,,G,,,,,,,,0,8,8,4,1,,,,,,,,,,
,,,,,,,,,,space,,2025,2020-05-17_15h17.41.968,ANTCPTp,2020.1.2,Win32,60,,,,,,,,,,,,,,,,,,,,space,1,0.255345,,,,,,S,,,,,,,,0,9,9,13,1,,,,,,,,,,
,,,,,,,,,,space,,2025,2020-05-17_15h17.41.968,ANTCPTp,2020.1.2,Win32,60,,,,,,,,,,,,,,,,,,,,space,1,0.32871,,,,,,D,,,,,,,,0,10,10,1,1,,,,,,,,,,
,,,,,,,,,,space,,2025,2020-05-17_15h17.41.968,ANTCPTp,2020.1.2,Win32,60,,,,,,,,,,,,,,,,,,,,space,1,0.32866,,,,,,U,,,,,,,,0,11,11,15,1,,,,,,,,,,
,,,,,,,,,,,,2025,2020-05-17_15h17.41.968,ANTCPTp,2020.1.2,Win32,60,,,,,,,,,,,,,,,,,,,,,1,,,,,,,X,,,,,,,,0,12,12,21,1,,,,,,,,,,
,,,,,,,,,,space,,2025,2020-05-17_15h17.41.968,ANTCPTp,2020.1.2,Win32,60,,,,,,,,,,,,,,,,,,,,space,1,0.39165,,,,,,R,,,,,,,,0,13,13,12,1,,,,,,,,,,
,,,,,,,,,,space,,2025,2020-05-17_15h17.41.968,ANTCPTp,2020.1.2,Win32,60,,,,,,,,,,,,,,,,,,,,space,1,0.336845,,,,,,B,,,,,,,,0,14,14,0,1,,,,,,,,,,
,,,,,,,,,,space,,2025,2020-05-17_15h17.41.968,ANTCPTp,2020.1.2,Win32,60,,,,,,,,,,,,,,,,,,,,space,1,0.318885,,,,,,M,,,,,,,,0,15,15,8,1,,,,,,,,,,
,,,,,,,,,,,,2025,2020-05-17_15h17.41.968,ANTCPTp,2020.1.2,Win32,60,,,,,,,,,,,,,,,,,,,,space,0,0.353625,,,,,,X,,,,,,,,0,16,16,20,1,,,,,,,,,,
,,,,,,,,,,space,,2025,2020-05-17_15h17.41.968,ANTCPTp,2020.1.2,Win32,60,,,,,,,,,,,,,,,,,,,,space,1,0.385345,,,,,,E,,,,,,,,0,17,17,2,1,,,,,,,,,,
,,,,,,,,,,space,,2025,2020-05-17_15h17.41.968,ANTCPTp,2020.1.2,Win32,60,,,,,,,,,,,,,,,,,,,,space,1,0.36685,,,,,,L,,,,,,,,0,18,18,7,1,,,,,,,,,,
,,,,,,,,,,space,,2025,2020-05-17_15h17.41.968,ANTCPTp,2020.1.2,Win32,60,,,,,,,,,,,,,,,,,,,,space,1,0.385365,,,,,,Z,,,,,,,,0,19,19,18,1,,,,,,,,,,
,,,,,,,,,,space,,2025,2020-05-17_15h17.41.968,ANTCPTp,2020.1.2,Win32,60,,,,,,,,,,,,,,,,,,,,space,1,0.433005,,,,,,A,,,,,,,,0,20,20,19,1,,,,,,,,,,
,,,,,,,,,,space,,2025,2020-05-17_15h17.41.968,ANTCPTp,2020.1.2,Win32,60,,,,,,,,,,,,,,,,,,,,space,1,0.419055,,,,,,H,,,,,,,,0,21,21,5,1,,,,,,,,,,
,,,,,,,,,,space,,2025,2020-05-17_15h17.41.968,ANTCPTp,2020.1.2,Win32,60,,,,,,,,,,,,,,,,,,,,space,1,0.45186,,,,,,H,1,1.585055,,,,,,,,,,,0,0,0,7,1,,,,,
,,,,,,,,,,space,,2025,2020-05-17_15h17.41.968,ANTCPTp,2020.1.2,Win32,60,,,,,,,,,,,,,,,,,,,,space,1,0.285935,,,,,,Z,,,,,,,,,,,,,0,1,1,23,1,,,,,
,,,,,,,,,,space,,2025,2020-05-17_15h17.41.968,ANTCPTp,2020.1.2,Win32,60,,,,,,,,,,,,,,,,,,,,space,1,0.372805,,,,,,R,,,,,,,,,,,,,0,2,2,17,1,,,,,
,,,,,,,,,,space,,2025,2020-05-17_15h17.41.968,ANTCPTp,2020.1.2,Win32,60,,,,,,,,,,,,,,,,,,,,space,1,0.33535,,,,,,N,,,,,,,,,,,,,0,3,3,13,1,,,,,
,,,,,,,,,,space,,2025,2020-05-17_15h17.41.968,ANTCPTp,2020.1.2,Win32,60,,,,,,,,,,,,,,,,,,,,space,1,0.335615,,,,,,O,,,,,,,,,,,,,0,4,4,14,1,,,,,
,,,,,,,,,,,,2025,2020-05-17_15h17.41.968,ANTCPTp,2020.1.2,Win32,60,,,,,,,,,,,,,,,,,,,,space,0,0.258985,,,,,,X,,,,,,,,,,,,,0,5,5,25,1,,,,,
,,,,,,,,,,,,2025,2020-05-17_15h17.41.968,ANTCPTp,2020.1.2,Win32,60,,,,,,,,,,,,,,,,,,,,,1,,,,,,,X,,,,,,,,,,,,,0,6,6,24,1,,,,,
,,,,,,,,,,space,,2025,2020-05-17_15h17.41.968,ANTCPTp,2020.1.2,Win32,60,,,,,,,,,,,,,,,,,,,,space,1,0.338475,,,,,,D,,,,,,,,,,,,,0,7,7,3,1,,,,,
,,,,,,,,,,space,,2025,2020-05-17_15h17.41.968,ANTCPTp,2020.1.2,Win32,60,,,,,,,,,,,,,,,,,,,,space,1,0.29186,,,,,,F,,,,,,,,,,,,,0,8,8,5,1,,,,,
,,,,,,,,,,space,,2025,2020-05-17_15h17.41.968,ANTCPTp,2020.1.2,Win32,60,,,,,,,,,,,,,,,,,,,,space,1,0.365065,,,,,,E,,,,,,,,,,,,,0,9,9,4,1,,,,,
,,,,,,,,,,space,,2025,2020-05-17_15h17.41.968,ANTCPTp,2020.1.2,Win32,60,,,,,,,,,,,,,,,,,,,,space,1,0.32137,,,,,,L,,,,,,,,,,,,,0,10,10,11,1,,,,,
,,,,,,,,,,,,2025,2020-05-17_15h17.41.968,ANTCPTp,2020.1.2,Win32,60,,,,,,,,,,,,,,,,,,,,,1,,,,,,,X,,,,,,,,,,,,,0,11,11,26,1,,,,,
,,,,,,,,,,space,,2025,2020-05-17_15h17.41.968,ANTCPTp,2020.1.2,Win32,60,,,,,,,,,,,,,,,,,,,,space,1,0.3348,,,,,,A,,,,,,,,,,,,,0,12,12,0,1,,,,,
,,,,,,,,,,space,,2025,2020-05-17_15h17.41.968,ANTCPTp,2020.1.2,Win32,60,,,,,,,,,,,,,,,,,,,,space,1,0.302585,,,,,,C,,,,,,,,,,,,,0,13,13,2,1,,,,,
,,,,,,,,,,space,,2025,2020-05-17_15h17.41.968,ANTCPTp,2020.1.2,Win32,60,,,,,,,,,,,,,,,,,,,,space,1,0.48476,,,,,,Y,,,,,,,,,,,,,0,14,14,22,1,,,,,
,,,,,,,,,,space,,2025,2020-05-17_15h17.41.968,ANTCPTp,2020.1.2,Win32,60,,,,,,,,,,,,,,,,,,,,space,1,0.392665,,,,,,V,,,,,,,,,,,,,0,15,15,20,1,,,,,
,,,,,,,,,,space,,2025,2020-05-17_15h17.41.968,ANTCPTp,2020.1.2,Win32,60,,,,,,,,,,,,,,,,,,,,space,1,0.362245,,,,,,Q,,,,,,,,,,,,,0,16,16,16,1,,,,,
,,,,,,,,,,space,,2025,2020-05-17_15h17.41.968,ANTCPTp,2020.1.2,Win32,60,,,,,,,,,,,,,,,,,,,,space,1,0.376055,,,,,,M,,,,,,,,,,,,,0,17,17,12,1,,,,,
,,,,,,,,,,space,,2025,2020-05-17_15h17.41.968,ANTCPTp,2020.1.2,Win32,60,,,,,,,,,,,,,,,,,,,,space,1,0.393245,,,,,,U,,,,,,,,,,,,,0,18,18,19,1,,,,,
,,,,,,,,,,space,,2025,2020-05-17_15h17.41.968,ANTCPTp,2020.1.2,Win32,60,,,,,,,,,,,,,,,,,,,,space,1,0.3853,,,,,,G,,,,,,,,,,,,,0,19,19,6,1,,,,,
,,,,,,,,,,space,,2025,2020-05-17_15h17.41.968,ANTCPTp,2020.1.2,Win32,60,,,,,,,,,,,,,,,,,,,,space,1,0.36854,,,,,,W,,,,,,,,,,,,,0,20,20,21,1,,,,,
,,,,,,,,,,space,,2025,2020-05-17_15h17.41.968,ANTCPTp,2020.1.2,Win32,60,,,,,,,,,,,,,,,,,,,,space,1,0.536415,,,,,,P,,,,,,,,,,,,,0,21,21,15,1,,,,,
,,,,,,,,,,space,,2025,2020-05-17_15h17.41.968,ANTCPTp,2020.1.2,Win32,60,,,,,,,,,,,,,,,,,,,,space,1,0.41493,,,,,,K,,,,,,,,,,,,,0,22,22,10,1,,,,,
,,,,,,,,,,space,,2025,2020-05-17_15h17.41.968,ANTCPTp,2020.1.2,Win32,60,,,,,,,,,,,,,,,,,,,,space,1,0.390115,,,,,,B,,,,,,,,,,,,,0,23,23,1,1,,,,,
,,,,,,,,,,space,,2025,2020-05-17_15h17.41.968,ANTCPTp,2020.1.2,Win32,60,,,,,,,,,,,,,,,,,,,,space,1,0.385235,,,,,,S,,,,,,,,,,,,,0,24,24,18,1,,,,,
,,,,,,,,,,space,,2025,2020-05-17_15h17.41.968,ANTCPTp,2020.1.2,Win32,60,,,,,,,,,,,,,,,,,,,,space,1,0.35002,,,,,,I,,,,,,,,,,,,,0,25,25,8,1,,,,,
,,,,,,,,,,space,,2025,2020-05-17_15h17.41.968,ANTCPTp,2020.1.2,Win32,60,,,,,,,,,,,,,,,,,,,,space,1,0.36935,,,,,,J,,,,,,,,,,,,,0,26,26,9,1,,,,,
,,,,,,,,,,,,2025,2020-05-17_15h17.41.968,ANTCPTp,2020.1.2,Win32,60,,,,,,,,,,,,,,,,,,,,,,,,,,,,,1,1.408345,,,,,,,,,,,,,,,,0,0,0,0,1
,,,,,,,,,,space,,2025,2020-05-17_15h17.41.968,ANTCPTp,2020.1.2,Win32,60,,,,,,,,,,,,,,,,,,,,space,1,0.373,0,0,0,13,1,W,,,,,,,,,,,,,,,,,,,,,,
,,,,,,,,,,space,,2025,2020-05-17_15h17.41.968,ANTCPTp,2020.1.2,Win32,60,,,,,,,,,,,,,,,,,,,,space,1,0.34913,0,1,1,11,1,U,,,,,,,,,,,,,,,,,,,,,,
,,,,,,,,,,space,,2025,2020-05-17_15h17.41.968,ANTCPTp,2020.1.2,Win32,60,,,,,,,,,,,,,,,,,,,,space,1,0.372355,0,2,2,5,1,F,,,,,,,,,,,,,,,,,,,,,,
,,,,,,,,,,space,,2025,2020-05-17_15h17.41.968,ANTCPTp,2020.1.2,Win32,60,,,,,,,,,,,,,,,,,,,,space,1,0.36812,0,3,3,8,1,O,,,,,,,,,,,,,,,,,,,,,,
,,,,,,,,,,,,2025,2020-05-17_15h17.41.968,ANTCPTp,2020.1.2,Win32,60,,,,,,,,,,,,,,,,,,,,,1,,0,4,4,15,1,X,,,,,,,,,,,,,,,,,,,,,,
,,,,,,,,,,space,,2025,2020-05-17_15h17.41.968,ANTCPTp,2020.1.2,Win32,60,,,,,,,,,,,,,,,,,,,,space,1,0.349915,0,5,5,3,1,D,,,,,,,,,,,,,,,,,,,,,,
,,,,,,,,,,space,,2025,2020-05-17_15h17.41.968,ANTCPTp,2020.1.2,Win32,60,,,,,,,,,,,,,,,,,,,,space,1,0.37102,0,6,6,0,1,A,,,,,,,,,,,,,,,,,,,,,,
,,,,,,,,,,,,2025,2020-05-17_15h17.41.968,ANTCPTp,2020.1.2,Win32,60,,,,,,,,,,,,,,,,,,,,,1,,0,7,7,16,1,X,,,,,,,,,,,,,,,,,,,,,,
,,,,,,,,,,space,,2025,2020-05-17_15h17.41.968,ANTCPTp,2020.1.2,Win32,60,,,,,,,,,,,,,,,,,,,,space,1,0.322765,0,8,8,1,1,B,,,,,,,,,,,,,,,,,,,,,,
,,,,,,,,,,space,,2025,2020-05-17_15h17.41.968,ANTCPTp,2020.1.2,Win32,60,,,,,,,,,,,,,,,,,,,,space,1,0.352175,0,9,9,2,1,C,,,,,,,,,,,,,,,,,,,,,,
,,,,,,,,,,space,,2025,2020-05-17_15h17.41.968,ANTCPTp,2020.1.2,Win32,60,,,,,,,,,,,,,,,,,,,,space,1,0.45253,0,10,10,4,1,E,,,,,,,,,,,,,,,,,,,,,,
,,,,,,,,,,space,,2025,2020-05-17_15h17.41.968,ANTCPTp,2020.1.2,Win32,60,,,,,,,,,,,,,,,,,,,,space,1,0.320825,0,11,11,6,1,J,,,,,,,,,,,,,,,,,,,,,,
,,,,,,,,,,space,,2025,2020-05-17_15h17.41.968,ANTCPTp,2020.1.2,Win32,60,,,,,,,,,,,,,,,,,,,,space,1,0.378965,0,12,12,10,1,Q,,,,,,,,,,,,,,,,,,,,,,
,,,,,,,,,,space,,2025,2020-05-17_15h17.41.968,ANTCPTp,2020.1.2,Win32,60,,,,,,,,,,,,,,,,,,,,space,1,0.338125,0,13,13,9,1,P,,,,,,,,,,,,,,,,,,,,,,
,,,,,,,,,,space,,2025,2020-05-17_15h17.41.968,ANTCPTp,2020.1.2,Win32,60,,,,,,,,,,,,,,,,,,,,space,1,0.362165,0,14,14,7,1,N,,,,,,,,,,,,,,,,,,,,,,
,,,,,,,,,,space,,2025,2020-05-17_15h17.41.968,ANTCPTp,2020.1.2,Win32,60,,,,,,,,,,,,,,,,,,,,space,1,0.36112,0,15,15,12,1,V,,,,,,,,,,,,,,,,,,,,,,
,,,,,,,,,,space,,2025,2020-05-17_15h17.41.968,ANTCPTp,2020.1.2,Win32,60,,,,,,,,,,,,,,,,,,,,space,1,0.385525,0,16,16,14,1,Y,,,,,,,,,,,,,,,,,,,,,,
,,,,,,,,,,space,,2025,2020-05-17_15h17.41.968,ANTCPTp,2020.1.2,Win32,60,,,,,,,,,,,,,,,,,,,,space,1,0.350975,,,,,,Y,1,1.4215,0,0,0,23,1,,,,,,,,,,,,,,,
,,,,,,,,,,space,,2025,2020-05-17_15h17.41.968,ANTCPTp,2020.1.2,Win32,60,,,,,,,,,,,,,,,,,,,,space,1,0.357725,,,,,,V,,,0,1,1,21,1,,,,,,,,,,,,,,,
,,,,,,,,,,space,,2025,2020-05-17_15h17.41.968,ANTCPTp,2020.1.2,Win32,60,,,,,,,,,,,,,,,,,,,,space,1,0.403375,,,,,,W,,,0,2,2,22,1,,,,,,,,,,,,,,,
,,,,,,,,,,,,2025,2020-05-17_15h17.41.968,ANTCPTp,2020.1.2,Win32,60,,,,,,,,,,,,,,,,,,,,space,0,0.310655,,,,,,X,,,0,3,3,26,1,,,,,,,,,,,,,,,
,,,,,,,,,,space,,2025,2020-05-17_15h17.41.968,ANTCPTp,2020.1.2,Win32,60,,,,,,,,,,,,,,,,,,,,space,1,0.399565,,,,,,N,,,0,4,4,13,1,,,,,,,,,,,,,,,
,,,,,,,,,,space,,2025,2020-05-17_15h17.41.968,ANTCPTp,2020.1.2,Win32,60,,,,,,,,,,,,,,,,,,,,space,1,0.38697,,,,,,P,,,0,5,5,15,1,,,,,,,,,,,,,,,
,,,,,,,,,,space,,2025,2020-05-17_15h17.41.968,ANTCPTp,2020.1.2,Win32,60,,,,,,,,,,,,,,,,,,,,space,1,0.42252,,,,,,A,,,0,6,6,0,1,,,,,,,,,,,,,,,
,,,,,,,,,,space,,2025,2020-05-17_15h17.41.968,ANTCPTp,2020.1.2,Win32,60,,,,,,,,,,,,,,,,,,,,space,1,0.402825,,,,,,D,,,0,7,7,3,1,,,,,,,,,,,,,,,
,,,,,,,,,,space,,2025,2020-05-17_15h17.41.968,ANTCPTp,2020.1.2,Win32,60,,,,,,,,,,,,,,,,,,,,space,1,0.36874,,,,,,Q,,,0,8,8,16,1,,,,,,,,,,,,,,,
,,,,,,,,,,space,,2025,2020-05-17_15h17.41.968,ANTCPTp,2020.1.2,Win32,60,,,,,,,,,,,,,,,,,,,,space,1,0.35113,,,,,,R,,,0,9,9,17,1,,,,,,,,,,,,,,,
,,,,,,,,,,,,2025,2020-05-17_15h17.41.968,ANTCPTp,2020.1.2,Win32,60,,,,,,,,,,,,,,,,,,,,,1,,,,,,,X,,,0,10,10,28,1,,,,,,,,,,,,,,,
,,,,,,,,,,space,,2025,2020-05-17_15h17.41.968,ANTCPTp,2020.1.2,Win32,60,,,,,,,,,,,,,,,,,,,,space,1,0.383765,,,,,,O,,,0,11,11,14,1,,,,,,,,,,,,,,,
,,,,,,,,,,space,,2025,2020-05-17_15h17.41.968,ANTCPTp,2020.1.2,Win32,60,,,,,,,,,,,,,,,,,,,,space,1,0.31977,,,,,,U,,,0,12,12,20,1,,,,,,,,,,,,,,,
,,,,,,,,,,,,2025,2020-05-17_15h17.41.968,ANTCPTp,2020.1.2,Win32,60,,,,,,,,,,,,,,,,,,,,,1,,,,,,,X,,,0,13,13,27,1,,,,,,,,,,,,,,,
,,,,,,,,,,space,,2025,2020-05-17_15h17.41.968,ANTCPTp,2020.1.2,Win32,60,,,,,,,,,,,,,,,,,,,,space,1,0.355235,,,,,,T,,,0,14,14,19,1,,,,,,,,,,,,,,,
,,,,,,,,,,space,,2025,2020-05-17_15h17.41.968,ANTCPTp,2020.1.2,Win32,60,,,,,,,,,,,,,,,,,,,,space,1,0.396215,,,,,,L,,,0,15,15,11,1,,,,,,,,,,,,,,,
,,,,,,,,,,space,,2025,2020-05-17_15h17.41.968,ANTCPTp,2020.1.2,Win32,60,,,,,,,,,,,,,,,,,,,,space,1,0.3683,,,,,,G,,,0,16,16,6,1,,,,,,,,,,,,,,,
,,,,,,,,,,space,,2025,2020-05-17_15h17.41.968,ANTCPTp,2020.1.2,Win32,60,,,,,,,,,,,,,,,,,,,,space,1,0.395615,,,,,,K,,,0,17,17,10,1,,,,,,,,,,,,,,,
,,,,,,,,,,space,,2025,2020-05-17_15h17.41.968,ANTCPTp,2020.1.2,Win32,60,,,,,,,,,,,,,,,,,,,,space,1,0.3938,,,,,,H,,,0,18,18,7,1,,,,,,,,,,,,,,,
,,,,,,,,,,space,,2025,2020-05-17_15h17.41.968,ANTCPTp,2020.1.2,Win32,60,,,,,,,,,,,,,,,,,,,,space,1,0.32171,,,,,,J,,,0,19,19,9,1,,,,,,,,,,,,,,,
,,,,,,,,,,space,,2025,2020-05-17_15h17.41.968,ANTCPTp,2020.1.2,Win32,60,,,,,,,,,,,,,,,,,,,,space,1,0.33442,,,,,,F,,,0,20,20,5,1,,,,,,,,,,,,,,,
,,,,,,,,,,space,,2025,2020-05-17_15h17.41.968,ANTCPTp,2020.1.2,Win32,60,,,,,,,,,,,,,,,,,,,,space,1,0.32058,,,,,,A,,,0,21,21,25,1,,,,,,,,,,,,,,,
,,,,,,,,,,space,,2025,2020-05-17_15h17.41.968,ANTCPTp,2020.1.2,Win32,60,,,,,,,,,,,,,,,,,,,,space,1,0.329435,,,,,,B,,,0,22,22,1,1,,,,,,,,,,,,,,,
,,,,,,,,,,space,,2025,2020-05-17_15h17.41.968,ANTCPTp,2020.1.2,Win32,60,,,,,,,,,,,,,,,,,,,,space,1,0.3017,,,,,,Z,,,0,23,23,24,1,,,,,,,,,,,,,,,
,,,,,,,,,,space,,2025,2020-05-17_15h17.41.968,ANTCPTp,2020.1.2,Win32,60,,,,,,,,,,,,,,,,,,,,space,1,0.37681,,,,,,E,,,0,24,24,4,1,,,,,,,,,,,,,,,
,,,,,,,,,,space,,2025,2020-05-17_15h17.41.968,ANTCPTp,2020.1.2,Win32,60,,,,,,,,,,,,,,,,,,,,space,1,0.40903,,,,,,I,,,0,25,25,8,1,,,,,,,,,,,,,,,
,,,,,,,,,,space,,2025,2020-05-17_15h17.41.968,ANTCPTp,2020.1.2,Win32,60,,,,,,,,,,,,,,,,,,,,space,1,0.35773,,,,,,M,,,0,26,26,12,1,,,,,,,,,,,,,,,
,,,,,,,,,,space,,2025,2020-05-17_15h17.41.968,ANTCPTp,2020.1.2,Win32,60,,,,,,,,,,,,,,,,,,,,space,1,0.32888,,,,,,C,,,0,27,27,2,1,,,,,,,,,,,,,,,
,,,,,,,,,,,,2025,2020-05-17_15h17.41.968,ANTCPTp,2020.1.2,Win32,60,,,,,,,,,,,,,,,,,,,,,1,,,,,,,X,,,0,28,28,29,1,,,,,,,,,,,,,,,
,,,,,,,,,,space,,2025,2020-05-17_15h17.41.968,ANTCPTp,2020.1.2,Win32,60,,,,,,,,,,,,,,,,,,,,space,1,0.388275,,,,,,S,,,0,29,29,18,1,,,,,,,,,,,,,,,
,,,,,,,,,,space,,2025,2020-05-17_15h17.41.968,ANTCPTp,2020.1.2,Win32,60,,,,,,,,,,,,,,,,,,,,space,1,0.38447,,,,,,E,1,3.53782,,,,,,0,0,0,2,1,,,,,,,,,,
,,,,,,,,,,space,,2025,2020-05-17_15h17.41.968,ANTCPTp,2020.1.2,Win32,60,,,,,,,,,,,,,,,,,,,,space,1,0.28589,,,,,,G,,,,,,,,0,1,1,4,1,,,,,,,,,,
,,,,,,,,,,,,2025,2020-05-17_15h17.41.968,ANTCPTp,2020.1.2,Win32,60,,,,,,,,,,,,,,,,,,,,,1,,,,,,,X,,,,,,,,0,2,2,21,1,,,,,,,,,,
,,,,,,,,,,space,,2025,2020-05-17_15h17.41.968,ANTCPTp,2020.1.2,Win32,60,,,,,,,,,,,,,,,,,,,,space,1,0.391975,,,,,,K,,,,,,,,0,3,3,6,1,,,,,,,,,,
,,,,,,,,,,space,,2025,2020-05-17_15h17.41.968,ANTCPTp,2020.1.2,Win32,60,,,,,,,,,,,,,,,,,,,,space,1,0.43923,,,,,,T,,,,,,,,0,4,4,14,1,,,,,,,,,,
,,,,,,,,,,space,,2025,2020-05-17_15h17.41.968,ANTCPTp,2020.1.2,Win32,60,,,,,,,,,,,,,,,,,,,,space,1,0.328565,,,,,,L,,,,,,,,0,5,5,7,1,,,,,,,,,,
,,,,,,,,,,space,,2025,2020-05-17_15h17.41.968,ANTCPTp,2020.1.2,Win32,60,,,,,,,,,,,,,,,,,,,,space,1,0.328485,,,,,,A,,,,,,,,0,6,6,19,1,,,,,,,,,,
,,,,,,,,,,space,,2025,2020-05-17_15h17.41.968,ANTCPTp,2020.1.2,Win32,60,,,,,,,,,,,,,,,,,,,,space,1,0.336295,,,,,,N,,,,,,,,0,7,7,9,1,,,,,,,,,,
,,,,,,,,,,space,,2025,2020-05-17_15h17.41.968,ANTCPTp,2020.1.2,Win32,60,,,,,,,,,,,,,,,,,,,,space,1,0.315965,,,,,,H,,,,,,,,0,8,8,5,1,,,,,,,,,,
,,,,,,,,,,space,,2025,2020-05-17_15h17.41.968,ANTCPTp,2020.1.2,Win32,60,,,,,,,,,,,,,,,,,,,,space,1,0.418495,,,,,,Y,,,,,,,,0,9,9,17,1,,,,,,,,,,
,,,,,,,,,,,,2025,2020-05-17_15h17.41.968,ANTCPTp,2020.1.2,Win32,60,,,,,,,,,,,,,,,,,,,,,1,,,,,,,X,,,,,,,,0,10,10,20,1,,,,,,,,,,
,,,,,,,,,,space,,2025,2020-05-17_15h17.41.968,ANTCPTp,2020.1.2,Win32,60,,,,,,,,,,,,,,,,,,,,space,1,0.294385,,,,,,D,,,,,,,,0,11,11,1,1,,,,,,,,,,
,,,,,,,,,,space,,2025,2020-05-17_15h17.41.968,ANTCPTp,2020.1.2,Win32,60,,,,,,,,,,,,,,,,,,,,space,1,0.352255,,,,,,U,,,,,,,,0,12,12,15,1,,,,,,,,,,
,,,,,,,,,,space,,2025,2020-05-17_15h17.41.968,ANTCPTp,2020.1.2,Win32,60,,,,,,,,,,,,,,,,,,,,space,1,0.357245,,,,,,R,,,,,,,,0,13,13,12,1,,,,,,,,,,
,,,,,,,,,,space,,2025,2020-05-17_15h17.41.968,ANTCPTp,2020.1.2,Win32,60,,,,,,,,,,,,,,,,,,,,space,1,0.325085,,,,,,F,,,,,,,,0,14,14,3,1,,,,,,,,,,
,,,,,,,,,,space,,2025,2020-05-17_15h17.41.968,ANTCPTp,2020.1.2,Win32,60,,,,,,,,,,,,,,,,,,,,space,1,0.3396,,,,,,S,,,,,,,,0,15,15,13,1,,,,,,,,,,
,,,,,,,,,,space,,2025,2020-05-17_15h17.41.968,ANTCPTp,2020.1.2,Win32,60,,,,,,,,,,,,,,,,,,,,space,1,0.429375,,,,,,O,,,,,,,,0,16,16,10,1,,,,,,,,,,
,,,,,,,,,,space,,2025,2020-05-17_15h17.41.968,ANTCPTp,2020.1.2,Win32,60,,,,,,,,,,,,,,,,,,,,space,1,0.389095,,,,,,B,,,,,,,,0,17,17,0,1,,,,,,,,,,
,,,,,,,,,,space,,2025,2020-05-17_15h17.41.968,ANTCPTp,2020.1.2,Win32,60,,,,,,,,,,,,,,,,,,,,space,1,0.368475,,,,,,W,,,,,,,,0,18,18,16,1,,,,,,,,,,
,,,,,,,,,,space,,2025,2020-05-17_15h17.41.968,ANTCPTp,2020.1.2,Win32,60,,,,,,,,,,,,,,,,,,,,space,1,0.38011,,,,,,M,,,,,,,,0,19,19,8,1,,,,,,,,,,
,,,,,,,,,,space,,2025,2020-05-17_15h17.41.968,ANTCPTp,2020.1.2,Win32,60,,,,,,,,,,,,,,,,,,,,space,1,0.44453,,,,,,Z,,,,,,,,0,20,20,18,1,,,,,,,,,,
,,,,,,,,,,space,,2025,2020-05-17_15h17.41.968,ANTCPTp,2020.1.2,Win32,60,,,,,,,,,,,,,,,,,,,,space,1,0.39552,,,,,,Q,,,,,,,,0,21,21,11,1,,,,,,,,,,
,,,,,,,,,,space,,2025,2020-05-17_15h17.41.968,ANTCPTp,2020.1.2,Win32,60,,,,,,,,,,,,,,,,,,,,space,1,0.388115,,,,,,P,1,3.155285,,,,,,,,,,,0,0,0,15,1,,,,,
,,,,,,,,,,space,,2025,2020-05-17_15h17.41.968,ANTCPTp,2020.1.2,Win32,60,,,,,,,,,,,,,,,,,,,,space,1,0.33598,,,,,,S,,,,,,,,,,,,,0,1,1,18,1,,,,,
,,,,,,,,,,space,,2025,2020-05-17_15h17.41.968,ANTCPTp,2020.1.2,Win32,60,,,,,,,,,,,,,,,,,,,,space,1,0.382895,,,,,,W,,,,,,,,,,,,,0,2,2,21,1,,,,,
,,,,,,,,,,space,,2025,2020-05-17_15h17.41.968,ANTCPTp,2020.1.2,Win32,60,,,,,,,,,,,,,,,,,,,,space,1,0.34739,,,,,,Z,,,,,,,,,,,,,0,3,3,23,1,,,,,
,,,,,,,,,,,,2025,2020-05-17_15h17.41.968,ANTCPTp,2020.1.2,Win32,60,,,,,,,,,,,,,,,,,,,,,1,,,,,,,X,,,,,,,,,,,,,0,4,4,26,1,,,,,
,,,,,,,,,,space,,2025,2020-05-17_15h17.41.968,ANTCPTp,2020.1.2,Win32,60,,,,,,,,,,,,,,,,,,,,space,1,0.40859,,,,,,O,,,,,,,,,,,,,0,5,5,14,1,,,,,
,,,,,,,,,,,,2025,2020-05-17_15h17.41.968,ANTCPTp,2020.1.2,Win32,60,,,,,,,,,,,,,,,,,,,,,1,,,,,,,X,,,,,,,,,,,,,0,6,6,25,1,,,,,
,,,,,,,,,,space,,2025,2020-05-17_15h17.41.968,ANTCPTp,2020.1.2,Win32,60,,,,,,,,,,,,,,,,,,,,space,1,0.375495,,,,,,Y,,,,,,,,,,,,,0,7,7,22,1,,,,,
,,,,,,,,,,space,,2025,2020-05-17_15h17.41.968,ANTCPTp,2020.1.2,Win32,60,,,,,,,,,,,,,,,,,,,,space,1,0.350555,,,,,,R,,,,,,,,,,,,,0,8,8,17,1,,,,,
,,,,,,,,,,space,,2025,2020-05-17_15h17.41.968,ANTCPTp,2020.1.2,Win32,60,,,,,,,,,,,,,,,,,,,,space,1,0.36154,,,,,,M,,,,,,,,,,,,,0,9,9,12,1,,,,,
,,,,,,,,,,space,,2025,2020-05-17_15h17.41.968,ANTCPTp,2020.1.2,Win32,60,,,,,,,,,,,,,,,,,,,,space,1,0.362125,,,,,,J,,,,,,,,,,,,,0,10,10,9,1,,,,,
,,,,,,,,,,space,,2025,2020-05-17_15h17.41.968,ANTCPTp,2020.1.2,Win32,60,,,,,,,,,,,,,,,,,,,,space,1,0.42916,,,,,,E,,,,,,,,,,,,,0,11,11,4,1,,,,,
,,,,,,,,,,space,,2025,2020-05-17_15h17.41.968,ANTCPTp,2020.1.2,Win32,60,,,,,,,,,,,,,,,,,,,,space,1,0.295995,,,,,,U,,,,,,,,,,,,,0,12,12,19,1,,,,,
,,,,,,,,,,space,,2025,2020-05-17_15h17.41.968,ANTCPTp,2020.1.2,Win32,60,,,,,,,,,,,,,,,,,,,,space,1,0.23427,,,,,,I,,,,,,,,,,,,,0,13,13,8,1,,,,,
,,,,,,,,,,space,,2025,2020-05-17_15h17.41.968,ANTCPTp,2020.1.2,Win32,60,,,,,,,,,,,,,,,,,,,,space,1,0.360145,,,,,,Q,,,,,,,,,,,,,0,14,14,16,1,,,,,
,,,,,,,,,,space,,2025,2020-05-17_15h17.41.968,ANTCPTp,2020.1.2,Win32,60,,,,,,,,,,,,,,,,,,,,space,1,0.359985,,,,,,H,,,,,,,,,,,,,0,15,15,7,1,,,,,
,,,,,,,,,,space,,2025,2020-05-17_15h17.41.968,ANTCPTp,2020.1.2,Win32,60,,,,,,,,,,,,,,,,,,,,space,1,0.31919,,,,,,D,,,,,,,,,,,,,0,16,16,3,1,,,,,
,,,,,,,,,,space,,2025,2020-05-17_15h17.41.968,ANTCPTp,2020.1.2,Win32,60,,,,,,,,,,,,,,,,,,,,space,1,0.268735,,,,,,G,,,,,,,,,,,,,0,17,17,6,1,,,,,
,,,,,,,,,,space,,2025,2020-05-17_15h17.41.968,ANTCPTp,2020.1.2,Win32,60,,,,,,,,,,,,,,,,,,,,space,1,0.28369,,,,,,C,,,,,,,,,,,,,0,18,18,2,1,,,,,
,,,,,,,,,,space,,2025,2020-05-17_15h17.41.968,ANTCPTp,2020.1.2,Win32,60,,,,,,,,,,,,,,,,,,,,space,1,0.356625,,,,,,F,,,,,,,,,,,,,0,19,19,5,1,,,,,
,,,,,,,,,,space,,2025,2020-05-17_15h17.41.968,ANTCPTp,2020.1.2,Win32,60,,,,,,,,,,,,,,,,,,,,space,1,0.401835,,,,,,K,,,,,,,,,,,,,0,20,20,10,1,,,,,
,,,,,,,,,,space,,2025,2020-05-17_15h17.41.968,ANTCPTp,2020.1.2,Win32,60,,,,,,,,,,,,,,,,,,,,space,1,0.40475,,,,,,V,,,,,,,,,,,,,0,21,21,20,1,,,,,
,,,,,,,,,,,,2025,2020-05-17_15h17.41.968,ANTCPTp,2020.1.2,Win32,60,,,,,,,,,,,,,,,,,,,,,1,,,,,,,X,,,,,,,,,,,,,0,22,22,24,1,,,,,
,,,,,,,,,,space,,2025,2020-05-17_15h17.41.968,ANTCPTp,2020.1.2,Win32,60,,,,,,,,,,,,,,,,,,,,space,1,0.291595,,,,,,B,,,,,,,,,,,,,0,23,23,1,1,,,,,
,,,,,,,,,,space,,2025,2020-05-17_15h17.41.968,ANTCPTp,2020.1.2,Win32,60,,,,,,,,,,,,,,,,,,,,space,1,0.47748,,,,,,N,,,,,,,,,,,,,0,24,24,13,1,,,,,
,,,,,,,,,,space,,2025,2020-05-17_15h17.41.968,ANTCPTp,2020.1.2,Win32,60,,,,,,,,,,,,,,,,,,,,space,1,0.43366,,,,,,A,,,,,,,,,,,,,0,25,25,0,1,,,,,
,,,,,,,,,,space,,2025,2020-05-17_15h17.41.968,ANTCPTp,2020.1.2,Win32,60,,,,,,,,,,,,,,,,,,,,space,1,0.404635,,,,,,L,,,,,,,,,,,,,0,26,26,11,1,,,,,
,,,,,,,,,,,,2025,2020-05-17_15h17.41.968,ANTCPTp,2020.1.2,Win32,60,,,,,,,,,,,,,,,,,,,,,,,,,,,,,1,1.58645,,,,,,,,,,,,,,,,1,0,1,0,1
,,,,,,,,,,space,,2025,2020-05-17_15h17.41.968,ANTCPTp,2020.1.2,Win32,60,,,,,,,,,,,,,,,,,,,,space,1,0.38611,0,0,0,5,1,F,,,,,,,,,,,,,,,,,,,,,,
,,,,,,,,,,space,,2025,2020-05-17_15h17.41.968,ANTCPTp,2020.1.2,Win32,60,,,,,,,,,,,,,,,,,,,,space,1,0.33646,0,1,1,8,1,O,,,,,,,,,,,,,,,,,,,,,,
,,,,,,,,,,space,,2025,2020-05-17_15h17.41.968,ANTCPTp,2020.1.2,Win32,60,,,,,,,,,,,,,,,,,,,,space,1,0.29177,0,2,2,10,1,Q,,,,,,,,,,,,,,,,,,,,,,
,,,,,,,,,,space,,2025,2020-05-17_15h17.41.968,ANTCPTp,2020.1.2,Win32,60,,,,,,,,,,,,,,,,,,,,space,1,0.33781,0,3,3,1,1,B,,,,,,,,,,,,,,,,,,,,,,
,,,,,,,,,,space,,2025,2020-05-17_15h17.41.968,ANTCPTp,2020.1.2,Win32,60,,,,,,,,,,,,,,,,,,,,space,1,0.355035,0,4,4,7,1,N,,,,,,,,,,,,,,,,,,,,,,
,,,,,,,,,,space,,2025,2020-05-17_15h17.41.968,ANTCPTp,2020.1.2,Win32,60,,,,,,,,,,,,,,,,,,,,space,1,0.351335,0,5,5,0,1,A,,,,,,,,,,,,,,,,,,,,,,
,,,,,,,,,,space,,2025,2020-05-17_15h17.41.968,ANTCPTp,2020.1.2,Win32,60,,,,,,,,,,,,,,,,,,,,space,1,0.30697,0,6,6,4,1,E,,,,,,,,,,,,,,,,,,,,,,
,,,,,,,,,,space,,2025,2020-05-17_15h17.41.968,ANTCPTp,2020.1.2,Win32,60,,,,,,,,,,,,,,,,,,,,space,1,0.372365,0,7,7,14,1,Y,,,,,,,,,,,,,,,,,,,,,,
,,,,,,,,,,space,,2025,2020-05-17_15h17.41.968,ANTCPTp,2020.1.2,Win32,60,,,,,,,,,,,,,,,,,,,,space,1,0.377215,0,8,8,13,1,W,,,,,,,,,,,,,,,,,,,,,,
,,,,,,,,,,space,,2025,2020-05-17_15h17.41.968,ANTCPTp,2020.1.2,Win32,60,,,,,,,,,,,,,,,,,,,,space,1,0.40945,0,9,9,9,1,P,,,,,,,,,,,,,,,,,,,,,,
,,,,,,,,,,,,2025,2020-05-17_15h17.41.968,ANTCPTp,2020.1.2,Win32,60,,,,,,,,,,,,,,,,,,,,,1,,0,10,10,16,1,X,,,,,,,,,,,,,,,,,,,,,,
,,,,,,,,,,,,2025,2020-05-17_15h17.41.968,ANTCPTp,2020.1.2,Win32,60,,,,,,,,,,,,,,,,,,,,space,0,0.3048,0,11,11,15,1,X,,,,,,,,,,,,,,,,,,,,,,
,,,,,,,,,,space,,2025,2020-05-17_15h17.41.968,ANTCPTp,2020.1.2,Win32,60,,,,,,,,,,,,,,,,,,,,space,1,0.503185,0,12,12,3,1,D,,,,,,,,,,,,,,,,,,,,,,
,,,,,,,,,,space,,2025,2020-05-17_15h17.41.968,ANTCPTp,2020.1.2,Win32,60,,,,,,,,,,,,,,,,,,,,space,1,0.37312,0,13,13,2,1,C,,,,,,,,,,,,,,,,,,,,,,
,,,,,,,,,,space,,2025,2020-05-17_15h17.41.968,ANTCPTp,2020.1.2,Win32,60,,,,,,,,,,,,,,,,,,,,space,1,0.368935,0,14,14,6,1,J,,,,,,,,,,,,,,,,,,,,,,
,,,,,,,,,,space,,2025,2020-05-17_15h17.41.968,ANTCPTp,2020.1.2,Win32,60,,,,,,,,,,,,,,,,,,,,space,1,0.36065,0,15,15,12,1,V,,,,,,,,,,,,,,,,,,,,,,
,,,,,,,,,,space,,2025,2020-05-17_15h17.41.968,ANTCPTp,2020.1.2,Win32,60,,,,,,,,,,,,,,,,,,,,space,1,0.36054,0,16,16,11,1,U,,,,,,,,,,,,,,,,,,,,,,
,,,,,,,,,,space,,2025,2020-05-17_15h17.41.968,ANTCPTp,2020.1.2,Win32,60,,,,,,,,,,,,,,,,,,,,space,1,0.4339,,,,,,U,1,1.338995,0,0,0,20,1,,,,,,,,,,,,,,,
,,,,,,,,,,space,,2025,2020-05-17_15h17.41.968,ANTCPTp,2020.1.2,Win32,60,,,,,,,,,,,,,,,,,,,,space,1,0.384175,,,,,,N,,,0,1,1,13,1,,,,,,,,,,,,,,,
,,,,,,,,,,,,2025,2020-05-17_15h17.41.968,ANTCPTp,2020.1.2,Win32,60,,,,,,,,,,,,,,,,,,,,space,0,0.31314,,,,,,X,,,0,2,2,29,1,,,,,,,,,,,,,,,
,,,,,,,,,,space,,2025,2020-05-17_15h17.41.968,ANTCPTp,2020.1.2,Win32,60,,,,,,,,,,,,,,,,,,,,space,1,0.360705,,,,,,Z,,,0,3,3,24,1,,,,,,,,,,,,,,,
,,,,,,,,,,space,,2025,2020-05-17_15h17.41.968,ANTCPTp,2020.1.2,Win32,60,,,,,,,,,,,,,,,,,,,,space,1,0.329405,,,,,,K,,,0,4,4,10,1,,,,,,,,,,,,,,,
,,,,,,,,,,space,,2025,2020-05-17_15h17.41.968,ANTCPTp,2020.1.2,Win32,60,,,,,,,,,,,,,,,,,,,,space,1,0.318435,,,,,,E,,,0,5,5,4,1,,,,,,,,,,,,,,,
,,,,,,,,,,space,,2025,2020-05-17_15h17.41.968,ANTCPTp,2020.1.2,Win32,60,,,,,,,,,,,,,,,,,,,,space,1,0.4078,,,,,,A,,,0,6,6,25,1,,,,,,,,,,,,,,,
,,,,,,,,,,space,,2025,2020-05-17_15h17.41.968,ANTCPTp,2020.1.2,Win32,60,,,,,,,,,,,,,,,,,,,,space,1,0.37991,,,,,,T,,,0,7,7,19,1,,,,,,,,,,,,,,,
,,,,,,,,,,space,,2025,2020-05-17_15h17.41.968,ANTCPTp,2020.1.2,Win32,60,,,,,,,,,,,,,,,,,,,,space,1,0.336475,,,,,,J,,,0,8,8,9,1,,,,,,,,,,,,,,,
,,,,,,,,,,space,,2025,2020-05-17_15h17.41.968,ANTCPTp,2020.1.2,Win32,60,,,,,,,,,,,,,,,,,,,,space,1,0.369975,,,,,,O,,,0,9,9,14,1,,,,,,,,,,,,,,,
,,,,,,,,,,space,,2025,2020-05-17_15h17.41.968,ANTCPTp,2020.1.2,Win32,60,,,,,,,,,,,,,,,,,,,,space,1,0.33906,,,,,,L,,,0,10,10,11,1,,,,,,,,,,,,,,,
,,,,,,,,,,space,,2025,2020-05-17_15h17.41.968,ANTCPTp,2020.1.2,Win32,60,,,,,,,,,,,,,,,,,,,,space,1,0.35244,,,,,,F,,,0,11,11,5,1,,,,,,,,,,,,,,,
,,,,,,,,,,,,2025,2020-05-17_15h17.41.968,ANTCPTp,2020.1.2,Win32,60,,,,,,,,,,,,,,,,,,,,,1,,,,,,,X,,,0,12,12,28,1,,,,,,,,,,,,,,,
,,,,,,,,,,space,,2025,2020-05-17_15h17.41.968,ANTCPTp,2020.1.2,Win32,60,,,,,,,,,,,,,,,,,,,,space,1,0.40257,,,,,,R,,,0,13,13,17,1,,,,,,,,,,,,,,,
,,,,,,,,,,space,,2025,2020-05-17_15h17.41.968,ANTCPTp,2020.1.2,Win32,60,,,,,,,,,,,,,,,,,,,,space,1,0.353095,,,,,,A,,,0,14,14,0,1,,,,,,,,,,,,,,,
,,,,,,,,,,space,,2025,2020-05-17_15h17.41.968,ANTCPTp,2020.1.2,Win32,60,,,,,,,,,,,,,,,,,,,,space,1,0.30929,,,,,,Q,,,0,15,15,16,1,,,,,,,,,,,,,,,
,,,,,,,,,,,,2025,2020-05-17_15h17.41.968,ANTCPTp,2020.1.2,Win32,60,,,,,,,,,,,,,,,,,,,,space,0,0.38869,,,,,,X,,,0,16,16,26,1,,,,,,,,,,,,,,,
,,,,,,,,,,space,,2025,2020-05-17_15h17.41.968,ANTCPTp,2020.1.2,Win32,60,,,,,,,,,,,,,,,,,,,,space,1,0.384865,,,,,,B,,,0,17,17,1,1,,,,,,,,,,,,,,,
,,,,,,,,,,space,,2025,2020-05-17_15h17.41.968,ANTCPTp,2020.1.2,Win32,60,,,,,,,,,,,,,,,,,,,,space,1,0.42092,,,,,,V,,,0,18,18,21,1,,,,,,,,,,,,,,,
,,,,,,,,,,space,,2025,2020-05-17_15h17.41.968,ANTCPTp,2020.1.2,Win32,60,,,,,,,,,,,,,,,,,,,,space,1,0.300635,,,,,,W,,,0,19,19,22,1,,,,,,,,,,,,,,,
,,,,,,,,,,space,,2025,2020-05-17_15h17.41.968,ANTCPTp,2020.1.2,Win32,60,,,,,,,,,,,,,,,,,,,,space,1,0.30326,,,,,,G,,,0,20,20,6,1,,,,,,,,,,,,,,,
,,,,,,,,,,space,,2025,2020-05-17_15h17.41.968,ANTCPTp,2020.1.2,Win32,60,,,,,,,,,,,,,,,,,,,,space,1,0.35449,,,,,,P,,,0,21,21,15,1,,,,,,,,,,,,,,,
,,,,,,,,,,space,,2025,2020-05-17_15h17.41.968,ANTCPTp,2020.1.2,Win32,60,,,,,,,,,,,,,,,,,,,,space,1,0.386005,,,,,,H,,,0,22,22,7,1,,,,,,,,,,,,,,,
,,,,,,,,,,space,,2025,2020-05-17_15h17.41.968,ANTCPTp,2020.1.2,Win32,60,,,,,,,,,,,,,,,,,,,,space,1,0.454105,,,,,,S,,,0,23,23,18,1,,,,,,,,,,,,,,,
,,,,,,,,,,space,,2025,2020-05-17_15h17.41.968,ANTCPTp,2020.1.2,Win32,60,,,,,,,,,,,,,,,,,,,,space,1,0.386895,,,,,,D,,,0,24,24,3,1,,,,,,,,,,,,,,,
,,,,,,,,,,space,,2025,2020-05-17_15h17.41.968,ANTCPTp,2020.1.2,Win32,60,,,,,,,,,,,,,,,,,,,,space,1,0.41024,,,,,,M,,,0,25,25,12,1,,,,,,,,,,,,,,,
,,,,,,,,,,,,2025,2020-05-17_15h17.41.968,ANTCPTp,2020.1.2,Win32,60,,,,,,,,,,,,,,,,,,,,,1,,,,,,,X,,,0,26,26,27,1,,,,,,,,,,,,,,,
,,,,,,,,,,space,,2025,2020-05-17_15h17.41.968,ANTCPTp,2020.1.2,Win32,60,,,,,,,,,,,,,,,,,,,,space,1,0.50517,,,,,,Y,,,0,27,27,23,1,,,,,,,,,,,,,,,
,,,,,,,,,,space,,2025,2020-05-17_15h17.41.968,ANTCPTp,2020.1.2,Win32,60,,,,,,,,,,,,,,,,,,,,space,1,0.43126,,,,,,C,,,0,28,28,2,1,,,,,,,,,,,,,,,
,,,,,,,,,,space,,2025,2020-05-17_15h17.41.968,ANTCPTp,2020.1.2,Win32,60,,,,,,,,,,,,,,,,,,,,space,1,0.42585,,,,,,I,,,0,29,29,8,1,,,,,,,,,,,,,,,
,,,,,,,,,,space,,2025,2020-05-17_15h17.41.968,ANTCPTp,2020.1.2,Win32,60,,,,,,,,,,,,,,,,,,,,space,1,0.520105,,,,,,H,1,2.91976,,,,,,0,0,0,5,1,,,,,,,,,,
,,,,,,,,,,,,2025,2020-05-17_15h17.41.968,ANTCPTp,2020.1.2,Win32,60,,,,,,,,,,,,,,,,,,,,,1,,,,,,,X,,,,,,,,0,1,1,20,1,,,,,,,,,,
,,,,,,,,,,space,,2025,2020-05-17_15h17.41.968,ANTCPTp,2020.1.2,Win32,60,,,,,,,,,,,,,,,,,,,,space,1,0.45956,,,,,,W,,,,,,,,0,2,2,16,1,,,,,,,,,,
,,,,,,,,,,space,,2025,2020-05-17_15h17.41.968,ANTCPTp,2020.1.2,Win32,60,,,,,,,,,,,,,,,,,,,,space,1,0.4116,,,,,,R,,,,,,,,0,3,3,12,1,,,,,,,,,,
,,,,,,,,,,space,,2025,2020-05-17_15h17.41.968,ANTCPTp,2020.1.2,Win32,60,,,,,,,,,,,,,,,,,,,,space,1,0.409395,,,,,,B,,,,,,,,0,4,4,0,1,,,,,,,,,,
,,,,,,,,,,space,,2025,2020-05-17_15h17.41.968,ANTCPTp,2020.1.2,Win32,60,,,,,,,,,,,,,,,,,,,,space,1,0.41128,,,,,,N,,,,,,,,0,5,5,9,1,,,,,,,,,,
,,,,,,,,,,space,,2025,2020-05-17_15h17.41.968,ANTCPTp,2020.1.2,Win32,60,,,,,,,,,,,,,,,,,,,,space,1,0.38583,,,,,,O,,,,,,,,0,6,6,10,1,,,,,,,,,,
,,,,,,,,,,,,2025,2020-05-17_15h17.41.968,ANTCPTp,2020.1.2,Win32,60,,,,,,,,,,,,,,,,,,,,space,0,0.353005,,,,,,X,,,,,,,,0,7,7,21,1,,,,,,,,,,
,,,,,,,,,,space,,2025,2020-05-17_15h17.41.968,ANTCPTp,2020.1.2,Win32,60,,,,,,,,,,,,,,,,,,,,space,1,0.409025,,,,,,G,,,,,,,,0,8,8,4,1,,,,,,,,,,
,,,,,,,,,,space,,2025,2020-05-17_15h17.41.968,ANTCPTp,2020.1.2,Win32,60,,,,,,,,,,,,,,,,,,,,space,1,0.57878,,,,,,Y,,,,,,,,0,9,9,17,1,,,,,,,,,,
,,,,,,,,,,space,,2025,2020-05-17_15h17.41.968,ANTCPTp,2020.1.2,Win32,60,,,,,,,,,,,,,,,,,,,,space,1,0.408015,,,,,,K,,,,,,,,0,10,10,6,1,,,,,,,,,,
,,,,,,,,,,space,,2025,2020-05-17_15h17.41.968,ANTCPTp,2020.1.2,Win32,60,,,,,,,,,,,,,,,,,,,,space,1,0.33639,,,,,,Q,,,,,,,,0,11,11,11,1,,,,,,,,,,
,,,,,,,,,,space,,2025,2020-05-17_15h17.41.968,ANTCPTp,2020.1.2,Win32,60,,,,,,,,,,,,,,,,,,,,space,1,0.33392,,,,,,U,,,,,,,,0,12,12,15,1,,,,,,,,,,
,,,,,,,,,,space,,2025,2020-05-17_15h17.41.968,ANTCPTp,2020.1.2,Win32,60,,,,,,,,,,,,,,,,,,,,space,1,0.391515,,,,,,T,,,,,,,,0,13,13,14,1,,,,,,,,,,
,,,,,,,,,,space,,2025,2020-05-17_15h17.41.968,ANTCPTp,2020.1.2,Win32,60,,,,,,,,,,,,,,,,,,,,space,1,0.39165,,,,,,L,,,,,,,,0,14,14,7,1,,,,,,,,,,
,,,,,,,,,,space,,2025,2020-05-17_15h17.41.968,ANTCPTp,2020.1.2,Win32,60,,,,,,,,,,,,,,,,,,,,space,1,0.41728,,,,,,A,,,,,,,,0,15,15,19,1,,,,,,,,,,
,,,,,,,,,,space,,2025,2020-05-17_15h17.41.968,ANTCPTp,2020.1.2,Win32,60,,,,,,,,,,,,,,,,,,,,space,1,0.54339,,,,,,E,,,,,,,,0,16,16,2,1,,,,,,,,,,
,,,,,,,,,,space,,2025,2020-05-17_15h17.41.968,ANTCPTp,2020.1.2,Win32,60,,,,,,,,,,,,,,,,,,,,space,1,0.318165,,,,,,Z,,,,,,,,0,17,17,18,1,,,,,,,,,,
,,,,,,,,,,space,,2025,2020-05-17_15h17.41.968,ANTCPTp,2020.1.2,Win32,60,,,,,,,,,,,,,,,,,,,,space,1,0.36669,,,,,,S,,,,,,,,0,18,18,13,1,,,,,,,,,,
,,,,,,,,,,space,,2025,2020-05-17_15h17.41.968,ANTCPTp,2020.1.2,Win32,60,,,,,,,,,,,,,,,,,,,,space,1,0.401475,,,,,,M,,,,,,,,0,19,19,8,1,,,,,,,,,,
,,,,,,,,,,space,,2025,2020-05-17_15h17.41.968,ANTCPTp,2020.1.2,Win32,60,,,,,,,,,,,,,,,,,,,,space,1,0.384215,,,,,,D,,,,,,,,0,20,20,1,1,,,,,,,,,,
,,,,,,,,,,space,,2025,2020-05-17_15h17.41.968,ANTCPTp,2020.1.2,Win32,60,,,,,,,,,,,,,,,,,,,,space,1,0.46126,,,,,,F,,,,,,,,0,21,21,3,1,,,,,,,,,,
,,,,,,,,,,space,,2025,2020-05-17_15h17.41.968,ANTCPTp,2020.1.2,Win32,60,,,,,,,,,,,,,,,,,,,,space,1,0.37026,,,,,,D,1,10.12273,,,,,,,,,,,0,0,0,3,1,,,,,
,,,,,,,,,,space,,2025,2020-05-17_15h17.41.968,ANTCPTp,2020.1.2,Win32,60,,,,,,,,,,,,,,,,,,,,space,1,0.282385,,,,,,Z,,,,,,,,,,,,,0,1,1,23,1,,,,,
,,,,,,,,,,space,,2025,2020-05-17_15h17.41.968,ANTCPTp,2020.1.2,Win32,60,,,,,,,,,,,,,,,,,,,,space,1,0.336425,,,,,,J,,,,,,,,,,,,,0,2,2,9,1,,,,,
,,,,,,,,,,space,,2025,2020-05-17_15h17.41.968,ANTCPTp,2020.1.2,Win32,60,,,,,,,,,,,,,,,,,,,,space,1,0.343085,,,,,,R,,,,,,,,,,,,,0,3,3,17,1,,,,,
,,,,,,,,,,,,2025,2020-05-17_15h17.41.968,ANTCPTp,2020.1.2,Win32,60,,,,,,,,,,,,,,,,,,,,,1,,,,,,,X,,,,,,,,,,,,,0,4,4,26,1,,,,,
,,,,,,,,,,space,,2025,2020-05-17_15h17.41.968,ANTCPTp,2020.1.2,Win32,60,,,,,,,,,,,,,,,,,,,,space,1,0.369765,,,,,,L,,,,,,,,,,,,,0,5,5,11,1,,,,,
,,,,,,,,,,space,,2025,2020-05-17_15h17.41.968,ANTCPTp,2020.1.2,Win32,60,,,,,,,,,,,,,,,,,,,,space,1,0.36661,,,,,,U,,,,,,,,,,,,,0,6,6,19,1,,,,,
,,,,,,,,,,space,,2025,2020-05-17_15h17.41.968,ANTCPTp,2020.1.2,Win32,60,,,,,,,,,,,,,,,,,,,,space,1,0.309435,,,,,,V,,,,,,,,,,,,,0,7,7,20,1,,,,,
,,,,,,,,,,space,,2025,2020-05-17_15h17.41.968,ANTCPTp,2020.1.2,Win32,60,,,,,,,,,,,,,,,,,,,,space,1,0.30278,,,,,,F,,,,,,,,,,,,,0,8,8,5,1,,,,,
,,,,,,,,,,space,,2025,2020-05-17_15h17.41.968,ANTCPTp,2020.1.2,Win32,60,,,,,,,,,,,,,,,,,,,,space,1,0.38266,,,,,,O,,,,,,,,,,,,,0,9,9,14,1,,,,,
,,,,,,,,,,space,,2025,2020-05-17_15h17.41.968,ANTCPTp,2020.1.2,Win32,60,,,,,,,,,,,,,,,,,,,,space,1,0.403655,,,,,,M,,,,,,,,,,,,,0,10,10,12,1,,,,,
,,,,,,,,,,space,,2025,2020-05-17_15h17.41.968,ANTCPTp,2020.1.2,Win32,60,,,,,,,,,,,,,,,,,,,,space,1,0.403155,,,,,,I,,,,,,,,,,,,,0,11,11,8,1,,,,,
,,,,,,,,,,space,,2025,2020-05-17_15h17.41.968,ANTCPTp,2020.1.2,Win32,60,,,,,,,,,,,,,,,,,,,,space,1,0.389155,,,,,,Q,,,,,,,,,,,,,0,12,12,16,1,,,,,
,,,,,,,,,,space,,2025,2020-05-17_15h17.41.968,ANTCPTp,2020.1.2,Win32,60,,,,,,,,,,,,,,,,,,,,space,1,0.3537,,,,,,Y,,,,,,,,,,,,,0,13,13,22,1,,,,,
,,,,,,,,,,space,,2025,2020-05-17_15h17.41.968,ANTCPTp,2020.1.2,Win32,60,,,,,,,,,,,,,,,,,,,,space,1,0.40519,,,,,,K,,,,,,,,,,,,,0,14,14,10,1,,,,,
,,,,,,,,,,space,,2025,2020-05-17_15h17.41.968,ANTCPTp,2020.1.2,Win32,60,,,,,,,,,,,,,,,,,,,,space,1,0.33426,,,,,,H,,,,,,,,,,,,,0,15,15,7,1,,,,,
,,,,,,,,,,space,,2025,2020-05-17_15h17.41.968,ANTCPTp,2020.1.2,Win32,60,,,,,,,,,,,,,,,,,,,,space,1,0.36315,,,,,,N,,,,,,,,,,,,,0,16,16,13,1,,,,,
,,,,,,,,,,space,,2025,2020-05-17_15h17.41.968,ANTCPTp,2020.1.2,Win32,60,,,,,,,,,,,,,,,,,,,,space,1,0.42057,,,,,,P,,,,,,,,,,,,,0,17,17,15,1,,,,,
,,,,,,,,,,,,2025,2020-05-17_15h17.41.968,ANTCPTp,2020.1.2,Win32,60,,,,,,,,,,,,,,,,,,,,,1,,,,,,,X,,,,,,,,,,,,,0,18,18,25,1,,,,,
,,,,,,,,,,space,,2025,2020-05-17_15h17.41.968,ANTCPTp,2020.1.2,Win32,60,,,,,,,,,,,,,,,,,,,,space,1,0.369745,,,,,,G,,,,,,,,,,,,,0,19,19,6,1,,,,,
,,,,,,,,,,space,,2025,2020-05-17_15h17.41.968,ANTCPTp,2020.1.2,Win32,60,,,,,,,,,,,,,,,,,,,,space,1,0.35443,,,,,,E,,,,,,,,,,,,,0,20,20,4,1,,,,,
,,,,,,,,,,space,,2025,2020-05-17_15h17.41.968,ANTCPTp,2020.1.2,Win32,60,,,,,,,,,,,,,,,,,,,,space,1,0.39441,,,,,,A,,,,,,,,,,,,,0,21,21,0,1,,,,,
,,,,,,,,,,space,,2025,2020-05-17_15h17.41.968,ANTCPTp,2020.1.2,Win32,60,,,,,,,,,,,,,,,,,,,,space,1,0.315945,,,,,,B,,,,,,,,,,,,,0,22,22,1,1,,,,,
,,,,,,,,,,,,2025,2020-05-17_15h17.41.968,ANTCPTp,2020.1.2,Win32,60,,,,,,,,,,,,,,,,,,,,,1,,,,,,,X,,,,,,,,,,,,,0,23,23,24,1,,,,,
,,,,,,,,,,space,,2025,2020-05-17_15h17.41.968,ANTCPTp,2020.1.2,Win32,60,,,,,,,,,,,,,,,,,,,,space,1,0.452105,,,,,,W,,,,,,,,,,,,,0,24,24,21,1,,,,,
,,,,,,,,,,space,,2025,2020-05-17_15h17.41.968,ANTCPTp,2020.1.2,Win32,60,,,,,,,,,,,,,,,,,,,,space,1,0.34624,,,,,,C,,,,,,,,,,,,,0,25,25,2,1,,,,,
,,,,,,,,,,space,,2025,2020-05-17_15h17.41.968,ANTCPTp,2020.1.2,Win32,60,,,,,,,,,,,,,,,,,,,,space,1,0.303435,,,,,,S,,,,,,,,,,,,,0,26,26,18,1,,,,,
,,,,,,,,,,,,2025,2020-05-17_15h17.41.968,ANTCPTp,2020.1.2,Win32,60,,,,,,,,,,,,,,,,,,,,,,,,,,,,,1,6.18537,,,,,,,,,,,,,,,,2,0,2,0,1
